*                 NAME                    S             BETPROPY          ERRBETPROPY              BETYMDL              MODEL_S
$                   %s                  %le                  %le                  %le                  %le                  %le
          BPMSY.4L5.B1                    0       6970.228604994       21.27464412764          6871.394671          10131.46115
              MQXA.3L5              11.3495        5543.19605011       89.79948422344           5481.23445          10142.81065
              MQSX.3L5               11.818       5260.129631605       17.43389329553          5203.713458          10143.27915
              TASB.3L5              13.5725         4271.8347992       42.28671930779          4228.469837          10145.03365
             MQXB.B2L5              19.7645       2284.804454382       296.0042266935             2247.646          10151.22565
             MQXB.A2L5              26.2645       1937.027051812       100.6883127739          1924.259079          10157.72565
           BPMS.2L5.B1              26.7855       1956.274775474       52.47796119287          1955.303854          10158.24665
              MQXA.1L5              35.3495       1783.056484175       199.8305364975          1758.258035          10166.81065
         BPMWF.A1L5.B1              36.5905       1562.968432419       74.95143738779           1573.39592          10168.05165
             BPMWK.1L5              36.6945       1547.898891822       74.66545263448          1558.370112          10168.15565
          BPMSW.1L5.B1              36.7505        1539.81481249       74.51117596002          1550.309159          10168.21165
    BPMSW.1L5.B1_DOROS              36.7505        1539.81481249       74.51117596002          1550.309159          10168.21165
               TAS.1L5              39.2645       1224.253297842       153.0274931067          1209.966375          10170.72565
                   IP5              58.3145      0.2930210584854       0.116262187373         0.3000023199          10189.77565
               TAS.1R5              79.1645       1334.267945035        160.841594154          1449.363002          10210.62565
          BPMSW.1R5.B1              79.8785       1628.232616788       47.13518475352          1550.307514          10211.33965
    BPMSW.1R5.B1_DOROS              79.8785       1628.232616788       47.13518475352          1550.307514          10211.33965
             BPMWK.1R5              79.9345       1636.698529213       47.09883204428          1558.368463          10211.39565
         BPMWF.A1R5.B1              80.0385        1652.48014316       47.02827973661          1573.394263          10211.49965
              MQXA.1R5              87.6495       2208.959906922       1132.007526711          3828.888685          10219.11065
           BPMS.2R5.B1              89.8435       5452.580867976         49.922874481          5186.115841          10221.30465
             MQXB.A2R5              95.8645       5878.640152301       502.7753069785          7924.225259          10227.32565
             MQXB.B2R5             102.3645        8424.16528033       245.8295218156          6545.252533          10233.82565
              TASB.3R5             104.2565       6457.404167187       80.97653629095           5473.67928          10235.71765
              MQSX.3R5              105.034       5446.106593885       23.93166378762          5061.078918          10236.49515
              MQXA.3R5             111.6495       5177.546358023       209.6044691771          3411.237311          10243.11065
          BPMSY.4R5.B1              116.629       3486.469913796       11.52366313889          3313.357748          10248.09015
            X5FCA.B4R5             117.5545       3467.597719695       11.46377931801          3295.324292          10249.01565
             MBXW.A4R5             121.3365       3459.611388381       15.57666007598          3222.148347          10252.79765
             MBXW.B4R5             125.6025       3373.466303469       14.51325910114          3140.604074          10257.06365
             MBXW.C4R5             129.8685       3288.420603258       13.29512498204          3060.116073          10261.32965
             MBXW.D4R5             134.1345       3204.460696661       12.08191934681          2980.684357          10265.59565
             MBXW.E4R5             138.4005       3121.583215358       10.95551467146           2902.30894          10269.86165
             MBXW.F4R5             142.6665        3039.78979453        9.94260608793          2824.989836          10274.12765
            X5FCA.A4R5             143.2545        2964.33704092       7.805779782784          2814.415463          10274.71565
            X5FCB.A4R5             172.4645       2440.591908521       4.640539625653          2314.380442          10303.92565
            X5ZDC.B4R5             199.4495       2004.400324321       3.293761540424          1896.454379          10330.91065
             BRANA.4R5             199.4995       2001.701260744       3.283630987594          1895.719251          10330.96065
            X5ZDC.A4R5             200.3245       2000.930116107        3.32218323835          1883.610601          10331.78565
              TANC.4R5             201.0645       1977.645660404       3.252520145419          1872.783128          10332.52565
            TCL.4R5.B1             208.8445       1875.137881781       3.218915725345          1760.872533          10340.30565
          BPMWB.4R5.B1              209.409       1851.878465074       3.168993718902          1752.889281          10340.87015