*                 NAME                    S         F1001ABSPROP      ERRF1001ABSPROP          F1001REPROP       ERRF1001REPROP          F1001IMPROP       ERRF1001IMPROP         F1010ABSPROP      ERRF1010ABSPROP          F1010REPROP       ERRF1010REPROP          F1010IMPROP       ERRF1010IMPROP        MODEL_F1001RE        MODEL_F1001IM        MODEL_F1010RE        MODEL_F1010IM              MODEL_S
$                   %s                  %le                  %le                  %le                  %le                  %le                  %le                  %le                  %le                  %le                  %le                  %le                  %le                  %le                  %le                  %le                  %le                  %le                  %le
          BPMSY.4L1.B1                    0                  nan                  nan     0.02863790374906     0.06198824620596    0.006168023287835     0.09529017552056                  nan                  nan    -0.01362096168589     0.06217357174398     0.02641598270632      0.1053256473229                    0                    0                    0                    0          23461.05512
              MQXA.3L1              11.3495                  nan                  nan     0.02863499806783      0.0620250398673    0.006186037890335     0.09523351824445                  nan                  nan    -0.01372478249025     0.06213416297437     0.02696652501831       0.102583077467                    0                    0                    0                    0          23472.40462
              MQSX.3L1               11.818                  nan                  nan     0.02863489685402     0.06203444425806    0.006189122659599     0.09522673205408                  nan                  nan    -0.01384378502291     0.06206325581889      0.0267661581778      0.1033574053252                    0                    0                    0                    0          23472.87312
              TASB.3L1              13.5725                  nan                  nan     0.02863540706492      0.0620252246325    0.006185955774882     0.09523410391275                  nan                  nan    -0.01385966239911     0.06205703347114     0.02683959128559      0.1029856378645                    0                    0                    0                    0          23474.62762
             MQXB.B2L1              19.7645                  nan                  nan     0.02863833472549      0.0619886806664    0.006169442445725     0.09528338494098                  nan                  nan    -0.01390272903536     0.06204499026023     0.02718606605152       0.101258862715                    0                    0                    0                    0          23480.81962
             MQXB.A2L1              26.2645                  nan                  nan     0.02866065718115     0.06168816941191    0.006063087066191     0.09553876413709                  nan                  nan    -0.01409267913073     0.06194975340027     0.02741860196467     0.09983118057902                    0                    0                    0                    0          23487.31962
           BPMS.2L1.B1              26.7855                  nan                  nan     0.02869461098617     0.06122867614347    0.005913745490329     0.09586056426534                  nan                  nan    -0.01433974297779     0.06179774465398     0.02702411626405       0.101362645188                    0                    0                    0                    0          23487.84062
              MQXA.1L1              35.3495                  nan                  nan     0.02870621834618     0.06106945474319    0.005858629712829     0.09598853885912                  nan                  nan    -0.01445193095704     0.06176436158338     0.02777243707042     0.09749115802263                    0                    0                    0                    0          23496.40462
         BPMWF.A1L1.B1              36.5755                  nan                  nan     0.02874230765153      0.0605634488635    0.005695583662141     0.09633310365239                  nan                  nan    -0.01488415693301      0.0614927267864     0.02721849951257     0.09952641293287                    0                    0                    0                    0          23497.63062
             BPMWK.1L1              36.6795                  nan                  nan     0.02874294264932     0.06055437447631    0.005692676697812     0.09633917375049                  nan                  nan    -0.01489247062461      0.0614879649736     0.02722091512791     0.09950053675873                    0                    0                    0                    0          23497.73462
          BPMSW.1L1.B1              36.7355                  nan                  nan     0.02874329231432     0.06054943387505    0.005691094925542     0.09634247820182                  nan                  nan    -0.01489698193295     0.06148537663163     0.02722221048454     0.09948655699611                    0                    0                    0                    0          23497.79062
    BPMSW.1L1.B1_DOROS              36.7355                  nan                  nan     0.02874329231432     0.06054943387505    0.005691094925542     0.09634247820182                  nan                  nan    -0.01489698193295     0.06148537663163     0.02722221048454     0.09948655699611                    0                    0                    0                    0          23497.79062
               TAS.1L1              39.2355                  nan                  nan     0.02874785128617     0.06048427664816    0.005670613308638     0.09638412812578                  nan                  nan    -0.01496118001937     0.06146270539097     0.02755808015639     0.09770759417464                    0                    0                    0                    0          23500.29062
                   IP1              58.3145                  nan                  nan    -0.02603891432509     0.09076848498891    -0.01549011085398     0.06787358059141                  nan                  nan     0.02343245885447     0.08780846158892    -0.03486513510482     0.03165346470244                    0                    0                    0                    0          23519.36962
                IP1.L1              58.3145                  nan                  nan    -0.02603891432509     0.09076848498891    -0.01549011085398     0.06787358059141                  nan                  nan     0.02343245885447     0.08780846158892    -0.03486513510482     0.03165346470244                    0                    0                    0                    0          23519.36962
               TAS.1R1              79.1645                  nan                  nan      0.0286550024059      0.0617651485018      0.0060810476572     0.09552034530289                  nan                  nan      -0.011969967679     0.06294581233346     0.02283288439118      0.1226321608485                    0                    0                    0                    0          23540.21962
          BPMSW.1R1.B1              79.8785                  nan                  nan     0.02865189644895     0.06180605578649     0.00609428961261     0.09549186712621                  nan                  nan    -0.01212116291654     0.06287156240414     0.02267867444305      0.1230749332028                    0                    0                    0                    0          23540.93362
    BPMSW.1R1.B1_DOROS              79.8785                  nan                  nan     0.02865189644895     0.06180605578649     0.00609428961261     0.09549186712621                  nan                  nan    -0.01212116291654     0.06287156240414     0.02267867444305      0.1230749332028                    0                    0                    0                    0          23540.93362
             BPMWK.1R1              79.9345                  nan                  nan     0.02865187050405     0.06180674474889    0.006094511574358     0.09549139330957                  nan                  nan    -0.01212422169471     0.06287021343902     0.02269086756833      0.1230238590331                    0                    0                    0                    0          23540.98962
         BPMWF.A1R1.B1              80.0385                  nan                  nan     0.02865175878056     0.06180800316103    0.006094916834183     0.09549052797642                  nan                  nan    -0.01212992591107     0.06286772449696     0.02271328015163      0.1229298953107                    0                    0                    0                    0          23541.09362
              MQXA.1R1              87.6495                  nan                  nan     0.02865077351787     0.06182111876761    0.006101146082089     0.09547137558453                  nan                  nan    -0.01220499939057     0.06285404062207     0.02442661433098      0.1159086864276                    0                    0                    0                    0          23548.70462
           BPMS.2R1.B1              89.8435                  nan                  nan     0.02863928088322     0.06197206305234    0.006152415125375      0.0953539712454                  nan                  nan    -0.01251287874057     0.06269733689888     0.02402536384608      0.1172189512804                    0                    0                    0                    0          23550.89862
             MQXB.A2R1              95.8645                  nan                  nan     0.02863777933853     0.06199036585486    0.006166966409458     0.09529753014706                  nan                  nan    -0.01253601566544     0.06269996510808     0.02490302332837       0.113499653758                    0                    0                    0                    0          23556.91962
             MQXB.B2R1             102.3645                  nan                  nan       0.028618925289     0.06223531902153    0.006252464846655     0.09509472602409                  nan                  nan    -0.01271851376146     0.06261390065393     0.02517782934488      0.1120899244363                    0                    0                    0                    0          23563.41962
              TASB.3R1             104.2565                  nan                  nan      0.0286095232441     0.06235932978313    0.006293225996303     0.09500465258801                  nan                  nan     -0.0128412246071     0.06254944892787       0.025050509422      0.1124872378674                    0                    0                    0                    0          23565.31162
              MQSX.3R1              105.034                  nan                  nan     0.02860920420393     0.06236320449116    0.006294514310821     0.09500176812615                  nan                  nan    -0.01287022237191      0.0625346220714     0.02504638961472      0.1124685037889                    0                    0                    0                    0          23566.08912
              MQXA.3R1             111.6495                  nan                  nan     0.02860991965197       0.062361918282    0.006291546064673     0.09501563314902                  nan                  nan    -0.01288241255562     0.06253834119949     0.02556386048803      0.1101896132744                    0                    0                    0                    0          23572.70462
          BPMSY.4R1.B1              116.629                  nan                  nan      0.0286237456415     0.06217383958902    0.006227578636716     0.09516308533088                  nan                  nan    -0.01309451210805     0.06242904522565      0.0255194066078      0.1101108294281                    0                    0                    0                    0          23577.68412