*                 NAME                    S         F1001ABSPROP      ERRF1001ABSPROP          F1001REPROP       ERRF1001REPROP          F1001IMPROP       ERRF1001IMPROP         F1010ABSPROP      ERRF1010ABSPROP          F1010REPROP       ERRF1010REPROP          F1010IMPROP       ERRF1010IMPROP        MODEL_F1001RE        MODEL_F1001IM        MODEL_F1010RE        MODEL_F1010IM              MODEL_S
$                   %s                  %le                  %le                  %le                  %le                  %le                  %le                  %le                  %le                  %le                  %le                  %le                  %le                  %le                  %le                  %le                  %le                  %le                  %le
          BPMSW.1L2.B1                    0                  nan                  nan    -0.03465542651338      0.0109170233239    0.006330425362433      0.1267259409986                  nan                  nan     0.01258024426843     0.01805102069584     0.01241483396822      0.0129088111541                    0                    0                    0                    0              171.328
    BPMSW.1L2.B1_DOROS                    0                  nan                  nan    -0.03465542651338      0.0109170233239    0.006330425362433      0.1267259409986                  nan                  nan     0.01258024426843     0.01805102069584     0.01241483396822      0.0129088111541                    0                    0                    0                    0              171.328
                   IP2               21.595                  nan                  nan    -0.03615402814629     0.02315665055908   -0.006782742339134     0.05915698178561                  nan                  nan     0.02062774293981    0.006975532766366      0.0161538840695      0.0119769452453                    0                    0                    0                    0              192.923
          BPMSW.1R2.B1                43.19                  nan                  nan     0.01705191175367      0.1277602992569     0.03390787344006     0.01154586134211                  nan                  nan    -0.00644229628198     0.01759385988659     -0.0201935643977    0.006361982329713                    0                    0                    0                    0              214.518