*                 NAME                    S              PROPC11           ERRPROPC11              PROPC12           ERRPROPC12              PROPC21           ERRPROPC21              PROPC22           ERRPROPC22              MODEL_S
$                   %s                  %le                  %le                  %le                  %le                  %le                  %le                  %le                  %le                  %le                  %le
          BPMSY.4L1.B1                    0     -0.8763727402346       1.364320425798      0.1122869101092     0.03951214424241     -0.0450817448584     0.02188115027051     -0.0450817448584     0.02188115027051          23461.05512
              MQXA.3L1              11.3495     -0.8760489538199       1.363797328373      0.1139463646431     0.04159720720082    -0.04539476566463      0.0213079683204    -0.04539476566463      0.0213079683204          23472.40462
              MQSX.3L1               11.818     -0.8760766473563       1.363720034624        0.11415071456     0.04154736050163    -0.04536123535469     0.02122221413759    -0.04536123535469     0.02122221413759          23472.87312
              TASB.3L1              13.5725     -0.8760333790012       1.363635561508      0.1145278194664     0.04203769662494    -0.04541002523996     0.02114632630025    -0.04541002523996     0.02114632630025          23474.62762
             MQXB.B2L1              19.7645     -0.8758315155796       1.363278216719      0.1166345692541     0.04490243296946    -0.04562555441915     0.02083455781713    -0.04562555441915     0.02083455781713          23480.81962
             MQXB.A2L1              26.2645     -0.8756571546315       1.362571693026      0.1200730883401     0.04918292051217    -0.04596661584981     0.02042626250925    -0.04596661584981     0.02042626250925          23487.31962
           BPMS.2L1.B1              26.7855     -0.8758660068997       1.362192372755      0.1206179999954     0.04915293196615    -0.04604415949309     0.02045720651342    -0.04604415949309     0.02045720651342          23487.84062
              MQXA.1L1              35.3495     -0.8753531233644       1.361218537987      0.1248098903694     0.05476879382052    -0.04664611956321     0.01963946545606    -0.04664611956321     0.01963946545606          23496.40462
         BPMWF.A1L1.B1              36.5755     -0.8755578194416       1.360578087028      0.1259889430025     0.05510582743875      -0.046758483891     0.01944575801007      -0.046758483891     0.01944575801007          23497.63062
             BPMWK.1L1              36.6795     -0.8755526926258       1.360553614679      0.1260615268861     0.05518364141894    -0.04676936114024     0.01942919311683    -0.04676936114024     0.01942919311683          23497.73462
          BPMSW.1L1.B1              36.7355     -0.8755499052815       1.360540307446       0.126100905671     0.05522584010848    -0.04677526535636     0.01942020558168    -0.04677526535636     0.01942020558168          23497.79062
    BPMSW.1L1.B1_DOROS              36.7355     -0.8755499052815       1.360540307446       0.126100905671     0.05522584010848    -0.04677526535636     0.01942020558168    -0.04677526535636     0.01942020558168          23497.79062
               TAS.1L1              39.2355      -0.875280398327       1.360036246181      0.1279144299985     0.05761454803799    -0.04708696747195     0.01897158099789    -0.04708696747195     0.01897158099789          23500.29062
                   IP1              58.3145     -0.1293790499324     0.03947305804833     -0.8021631125759       1.012294042319     -0.5021726987475      0.7660461792886     -0.5021726987475      0.7660461792886          23519.36962
                IP1.L1              58.3145     -0.1293790499324     0.03947305804833     -0.8021631125759       1.012294042319     -0.5021726987475      0.7660461792886     -0.5021726987475      0.7660461792886          23519.36962
               TAS.1R1              79.1645     -0.8780160044726       1.367972826372     0.09582388270729     0.02070596942487    -0.04353834763147     0.02578864385649    -0.04353834763147     0.02578864385649          23540.21962
          BPMSW.1R1.B1              79.8785     -0.8780007041273       1.367852833245     0.09643365201413     0.02115085043806    -0.04352786363584     0.02563241966206    -0.04352786363584     0.02563241966206          23540.93362
    BPMSW.1R1.B1_DOROS              79.8785     -0.8780007041273       1.367852833245     0.09643365201413     0.02115085043806    -0.04352786363584     0.02563241966206    -0.04352786363584     0.02563241966206          23540.93362
             BPMWK.1R1              79.9345     -0.8779976372294       1.367846432275     0.09647152896692     0.02119615689866     -0.0435305007334     0.02562540167622     -0.0435305007334     0.02562540167622          23540.98962
         BPMWF.A1R1.B1              80.0385     -0.8779919567309       1.367834582945     0.09654135485846     0.02127967104496    -0.04353537793581     0.02561245121231    -0.04353537793581     0.02561245121231          23541.09362
              MQXA.1R1              87.6495     -0.8776141628524       1.367256172131     0.09984195953557     0.02577565615927     -0.0439112056758     0.02501355126026     -0.0439112056758     0.02501355126026          23548.70462
           BPMS.2R1.B1              89.8435     -0.8775796255324       1.367058856734      0.1006070513237     0.02601989754521     -0.0438578438077     0.02467220857337     -0.0438578438077     0.02467220857337          23550.89862
             MQXB.A2R1              95.8645     -0.8773535750124       1.366740896375      0.1014525915789     0.02717567513415    -0.04409548323268      0.0243054813758    -0.04409548323268      0.0243054813758          23556.91962
             MQXB.B2R1             102.3645     -0.8771422600837       1.366492800513      0.1024128329795     0.02808381591887    -0.04416563101268     0.02382116595367    -0.04416563101268     0.02382116595367          23563.41962
              TASB.3R1             104.2565      -0.877098327443       1.366424308467       0.102830074397     0.02835426541429    -0.04413259793161      0.0236406013198    -0.04413259793161      0.0236406013198          23565.31162
              MQSX.3R1              105.034     -0.8770879151954        1.36638553492      0.1030013562695      0.0285162460631    -0.04414045371138     0.02359853139349    -0.04414045371138     0.02359853139349          23566.08912
              MQXA.3R1             111.6495      -0.876918398924       1.366137366471      0.1046604388532     0.03084079173563    -0.04430568983174     0.02335867154852    -0.04430568983174     0.02335867154852          23572.70462
          BPMSY.4R1.B1              116.629     -0.8769052977445       1.365748505395      0.1063289882854      0.0325677580698    -0.04443084126958     0.02314628216326    -0.04443084126958     0.02314628216326          23577.68412