@ NAME             %05s "TWISS"
@ TYPE             %05s "TWISS"
@ SEQUENCE         %11s "FRONT_LHCB1"
@ PARTICLE         %06s "PROTON"
@ MASS             %le        0.9382720814
@ CHARGE           %le                   1
@ ENERGY           %le                 450
@ PC               %le         449.9990218
@ GAMMA            %le         479.6050196
@ KBUNCH           %le                   1
@ BCURRENT         %le                   0
@ SIGE             %le               0.001
@ SIGT             %le                   1
@ NPART            %le                   0
@ EX               %le                   1
@ EY               %le                   1
@ ET               %le               0.001
@ LENGTH           %le             116.629
@ ALFA             %le                   0
@ ORBIT5           %le                  -0
@ GAMMATR          %le                   0
@ Q1               %le        0.4990147925
@ Q2               %le        0.4990454567
@ DQ1              %le     -0.007479255326
@ DQ2              %le     -0.004863760839
@ DXMAX            %le                   0
@ DYMAX            %le                   0
@ XCOMAX           %le                   0
@ YCOMAX           %le                   0
@ BETXMAX          %le         7143.895811
@ BETYMAX          %le          7526.21396
@ XCORMS           %le                   0
@ YCORMS           %le                   0
@ DXRMS            %le                   0
@ DYRMS            %le                   0
@ DELTAP           %le                   0
@ SYNCH_1          %le                   0
@ SYNCH_2          %le                   0
@ SYNCH_3          %le                   0
@ SYNCH_4          %le                   0
@ SYNCH_5          %le                   0
@ TITLE            %08s "no-title"
@ ORIGIN           %16s "5.03.07 Linux 64"
@ DATE             %08s "04/09/18"
@ TIME             %08s "15.37.41"
* NAME                                S               BETX               ALFX               BETY               ALFY                MUX                MUY                 DX                 DY                DPX                DPY                  X                  Y                K1L               K1SL                K2L                K3L                K4L                 WX                 WY               PHIX               PHIY               DMUX               DMUY KEYWORD                           DBX                DBY                R11                R12                R21                R22 
$ %s                                %le                %le                %le                %le                %le                %le                %le                %le                %le                %le                %le                %le                %le                %le                %le                %le                %le                %le                %le                %le                %le                %le                %le                %le %s                                %le                %le                %le                %le                %le                %le 
 "FRONT_LHCB1$START"                   0        2985.792678       -7.523941775         6440.76567       -41.78148085                  0                  0                  0                  0                  0                  0                  0                  0                  0                  0                  0                  0                  0                  0                  0                  0                  0                  0                  0 "MARKER"                             0                  0         1.53483164       -626.6679275      0.01314673572       -5.342675153
 "BPMSY.4L1.B1"                       0        2985.792678       -7.523941775         6440.76567       -41.78148085                  0                  0                  0                  0                  0                  0                  0                  0                  0                  0                  0                  0                  0                  0                  0                  0                  0                  0                  0 "MONITOR"                            0                  0         1.53483164       -626.6679275      0.01314673572       -5.342675153
 "DRIFT_0"                       0.3425        2990.948841       -7.530550178        6469.417798       -41.87436454    1.824090543e-05    8.444605364e-06                  0                  0                  0                  0                  0                  0                  0                  0                  0                  0                  0     0.006608417668      0.09288388829      -0.2920232813      -0.2576001009   -1.822521527e-05   -8.425902949e-06 "DRIFT"                              0                  0        1.539334397       -629.0250158      0.01314673572        -5.34717791
 "DRIFT_1"                       4.0175        3046.558971       -7.601457863        6780.857011       -42.87099971    0.0002120027658    9.675312503e-05                  0                  0                  0                  0                  0                  0                  0                  0                  0                  0                  0      0.07751625688         1.08952123      -0.2916357576      -0.2574234839     -0.00020987822   -9.429580549e-05 "DRIFT"                              0                  0        1.587648651       -654.5105034      0.01314673572       -5.395492164
 "MCOX.3L1"                      4.0175        3046.558971       -7.601457863        6780.857011       -42.87099971    0.0002120027658    9.675312503e-05                  0                  0                  0                  0                  0                  0                  0                  0                  0                  0                  0      0.07751625688         1.08952123      -0.2916357576      -0.2574234839     -0.00020987822   -9.429580549e-05 "MULTIPOLE"                          0                  0        1.587648651       -654.5105034      0.01314673572       -5.395492164
 "MCSSX.3L1"                     4.0175        3046.558971       -7.601457863        6780.857011       -42.87099971    0.0002120027658    9.675312503e-05                  0                  0                  0                  0                  0                  0                  0                  0                  0                  0                  0      0.07751625688         1.08952123      -0.2916357576      -0.2574234839     -0.00020987822   -9.429580549e-05 "MULTIPOLE"                          0                  0        1.587648651       -654.5105034      0.01314673572       -5.395492164
 "DRIFT_2"                       4.5005         3053.90648       -7.610777159        6822.333663       -43.00198605    0.0002372047423     0.000108055208                  0                  0                  0                  0                  0                  0                  0                  0                  0                  0                  0      0.08683557289        1.220507852      -0.2915853537      -0.2574008797   -0.0002345449617   -0.0001049902297 "DRIFT"                              0                  0        1.593998524       -657.8864274      0.01314673572       -5.401842038
 "MCSX.3L1"                      4.5005         3053.90648       -7.610777159        6822.333663       -43.00198605    0.0002372047423     0.000108055208                  0                  0                  0                  0                  0                  0                  0                  0                  0                  0                  0      0.08683557289        1.220507852      -0.2915853537      -0.2574008797   -0.0002345449617   -0.0001049902297 "MULTIPOLE"                          0                  0        1.593998524       -657.8864274      0.01314673572       -5.401842038
 "MCTX.3L1"                      4.5005         3053.90648       -7.610777159        6822.333663       -43.00198605    0.0002372047423     0.000108055208                  0                  0                  0                  0                  0                  0                  0                  0                  0                  0                  0      0.08683557289        1.220507852      -0.2915853537      -0.2574008797   -0.0002345449617   -0.0001049902297 "MULTIPOLE"                          0                  0        1.593998524       -657.8864274      0.01314673572       -5.401842038
 "DRIFT_3"                       4.9795        3061.202032       -7.620019276        6863.591789       -43.13188761    0.0002621381583    0.0001191959328                  0                  0                  0                  0                  0                  0                  0                  0                  0                  0                  0       0.0960777103        1.350409698      -0.2915354868      -0.2573785983   -0.0002588897282   -0.0001154663311 "DRIFT"                              0                  0        1.600295811       -661.2404514      0.01314673572       -5.408139324
 "MQXA.3L1"                     11.3495        4407.332491       -228.1709292        5137.365976        281.2248482    0.0005547954588    0.0002799899936                  0                  0                  0                  0                  0                  0     -0.05580787536                  0                  0                  0                  0        25.00973945        31.55451518      -0.2523434881      -0.2487629133   -0.0005109780109   -0.0002811871957 "QUADRUPOLE"                         0                  0        35.95651948       -695.1779604       -1.878391861        36.31761841
 "DRIFT_4"                       11.595        4520.076378       -231.0709735         5000.21242        277.4454395    0.0005635495453    0.0002876991552                  0                  0                  0                  0                  0                  0                  0                  0                  0                  0                  0          27.909744        35.33393142      -0.2522274291      -0.2487587498   -0.0005164106487   -0.0002909039654 "DRIFT"                              0                  0        35.49537427       -694.9760995       -1.878391861        36.77876361
 "MQSX.3L1"                      11.818        4623.721471       -233.7052297        4877.237319        274.0124124    0.0005713130224     0.000294886092                  0                  0                  0                  0                  0                  0                  0                  0                  0                  0                  0        30.54397161        38.76696543      -0.2521386033      -0.2487526972   -0.0005210648382   -0.0003001729075 "QUADRUPOLE"                         0                  0        35.07649289       -694.5964931       -1.878391861          37.197645
 "DRIFT_5"                      12.3725        4886.532658       -240.2554318        4578.090978        265.4760288     0.000589879326    0.0003135624646                  0                  0                  0                  0                  0                  0                  0                  0                  0                  0                  0        37.09412372        47.30336649      -0.2519643368      -0.2487308001   -0.0005315712783   -0.0003252089731 "DRIFT"                              0                  0         34.0349246       -692.8427646       -1.878391861        38.23921328
 "TASB.3L1"                     13.5725        5480.156138       -254.4308015        3963.116935        247.0023404    0.0006267859663    0.0003583998965                  0                  0                  0                  0                  0                  0                  0                  0                  0                  0                  0        51.26944146        65.77709377      -0.2517137198      -0.2486608384   -0.0005498428391   -0.0003909110966 "RCOLLIMATOR"                        0                  0        31.78085437        -685.092734       -1.878391861        40.49328352
 "DRIFT_6"                      14.2645        5837.945096       -262.6052647        3628.637683        236.3491801     0.000646257482    0.0003874425292                  0                  0                  0                  0                  0                  0                  0                  0                  0                  0                  0        59.44389264        76.43027679      -0.2516111538      -0.2486097888   -0.0005580813771   -0.0004376852152 "DRIFT"                              0                  0         30.4810072       -678.1642387       -1.878391861        41.79313068
 "MQXB.B2L1"                    19.7645        7143.895811        46.64264866        2106.410358        64.58550371    0.0007758608435    0.0007183189981                  0                  0                  0                  0                  0                  0       0.0484664193                  0                  0                  0                  0        78.77675277        116.7137354      -0.2513796567      -0.2477562389   -0.0005985759114      -0.0011656638 "QUADRUPOLE"                         0                  0       -3.846999863       -586.5970228      0.09537564041         14.5330226
 "DRIFT_7"                      20.2955        7094.447223        46.48086845        2038.379049        63.53372168    0.0007877318575    0.0007591040194                  0                  0                  0                  0                  0                  0                  0                  0                  0                  0                  0        78.93831894        117.7653714      -0.2513391104      -0.2476506956   -0.0006024515367    -0.001275450173 "DRIFT"                              0                  0       -3.796355398       -576.8641231      0.09537564041        14.48237814
 "DRIFT_8"                      20.7645        7050.915184        46.33797783        1979.220108         62.6047466    0.0007982857083     0.000796266394                  0                  0                  0                  0                  0                  0                  0                  0                  0                  0                  0        79.08102123        118.6942197      -0.2513032175        -0.24755555   -0.0006060836357    -0.001378784511 "DRIFT"                              0                  0       -3.751624222        -568.312376      0.09537564041        14.43764696
 "MQXB.A2L1"                    26.2645         4917.14938        306.5188643        1803.098449       -27.78661215     0.000940431625     0.001280497592                  0                  0                  0                  0                  0                  0       0.0484664193                  0                  0                  0                  0        120.6912115        121.3691205      -0.2501609381      -0.2465236674   -0.0006871032055    -0.002967322364 "QUADRUPOLE"                         0                  0       -29.31037006       -469.8823806      -0.6446699643       -10.33619117
 "DRIFT_9"                      26.7855        4602.943303        296.5638163        1832.168482       -28.00999591    0.0009578610613     0.001326118659                  0                  0                  0                  0                  0                  0                  0                  0                  0                  0                  0        130.6460201        121.5915248      -0.2500346871      -0.2464598083   -0.0007032209656    -0.003135098666 "DRIFT"                              0                  0       -29.64624312       -459.8218435      -0.6446699643       -10.00031812
 "BPMS.2L1.B1"                  26.7855        4602.943303        296.5638163        1832.168482       -28.00999591    0.0009578610613     0.001326118659                  0                  0                  0                  0                  0                  0                  0                  0                  0                  0                  0        130.6460201        121.5915248      -0.2500346871      -0.2464598083   -0.0007032209656    -0.003135098666 "MONITOR"                            0                  0       -29.64624312       -459.8218435      -0.6446699643       -10.00031812
 "DRIFT_10"                     28.4725        3656.716561        264.3293326        1927.894445        -28.7333134     0.001023305352     0.001468978756                  0                  0                  0                  0                  0                  0                  0                  0                  0                  0                  0        162.8799473        122.3116952      -0.2496845209      -0.2462620713   -0.0007782984399    -0.003676308917 "DRIFT"                              0                  0       -30.73380135       -424.8444573      -0.6446699643        -8.91275989
 "DRIFT_11"                     28.9795        3393.598201        254.6417907        1957.140237       -28.95069453     0.001046211509     0.001510519618                  0                  0                  0                  0                  0                  0                  0                  0                  0                  0                  0        172.5673677        122.5281378      -0.2495888173      -0.2462052294    -0.000810008586    -0.003838184449 "DRIFT"                              0                  0       -31.06064902       -413.6154775      -0.6446699643       -8.585912219
 "MQXA.1L1"                     35.3495        1546.901099        68.59807642        1647.253402         71.7350939     0.001515192095     0.002042519351                  0                  0                  0                  0                  0                  0     -0.05541434913                  0                  0                  0                  0        232.4178957        127.7738664      -0.2482910026       -0.245115682    -0.001995704126     -0.00615806136 "QUADRUPOLE"                         0                  0       -11.83187755       -266.0344826       0.4346807274        9.770345502
 "DRIFT_12"                     36.5755        1383.271966        64.86777368        1476.055386        67.90439703     0.001648582808     0.002167654442                  0                  0                  0                  0                  0                  0                  0                  0                  0                  0                  0        236.1475841        131.6045569      -0.2479779259       -0.244878432    -0.002495641802     -0.00679343009 "DRIFT"                              0                  0       -11.29895898       -240.2035153       0.4346807274         9.23742693
 "BPMWF.A1L1.B1"                36.5755        1383.271966        64.86777368        1476.055386        67.90439703     0.001648582808     0.002167654442                  0                  0                  0                  0                  0                  0                  0                  0                  0                  0                  0        236.1475841        131.6045569      -0.2479779259       -0.244878432    -0.002495641802     -0.00679343009 "MONITOR"                            0                  0       -11.29895898       -240.2035153       0.4346807274         9.23742693
 "DRIFT_13"                     36.6795        1369.812379        64.55133691        1461.965066        67.57944395     0.001660607366       0.0021789221                  0                  0                  0                  0                  0                  0                  0                  0                  0                  0                  0        236.4639696        131.9295095      -0.2479500168      -0.2448569664    -0.002544015798      -0.0068525672 "DRIFT"                              0                  0       -11.25375219       -238.0724327       0.4346807274        9.192220135
 "BPMWK.1L1"                    36.6795        1369.812379        64.55133691        1461.965066        67.57944395     0.001660607366       0.0021789221                  0                  0                  0                  0                  0                  0                  0                  0                  0                  0                  0        236.4639696        131.9295095      -0.2479500168      -0.2448569664    -0.002544015798      -0.0068525672 "MONITOR"                            0                  0       -11.25375219       -238.0724327       0.4346807274        9.192220135
 "DRIFT_14"                     36.7355        1362.592171        64.38094788        1454.405967        67.40446921     0.001667131076      0.00218503429                  0                  0                  0                  0                  0                  0                  0                  0                  0                  0                  0        236.6343311         132.104484      -0.2479348952      -0.2448453158    -0.002570489093      -0.0068847795 "DRIFT"                              0                  0       -11.22941007       -236.9288214       0.4346807274        9.167878014
 "BPMSW.1L1.B1"                 36.7355        1362.592171        64.38094788        1454.405967        67.40446921     0.001667131076      0.00218503429                  0                  0                  0                  0                  0                  0                  0                  0                  0                  0                  0        236.6343311         132.104484      -0.2479348952      -0.2448453158    -0.002570489093      -0.0068847795 "MONITOR"                            0                  0       -11.22941007       -236.9288214       0.4346807274        9.167878014
 "BPMSW.1L1.B1_DOROS"             36.7355        1362.592171        64.38094788        1454.405967        67.40446921     0.001667131076      0.00218503429                  0                  0                  0                  0                  0                  0                  0                  0                  0                  0                  0        236.6343311         132.104484      -0.2479348952      -0.2448453158    -0.002570489093      -0.0068847795 "MONITOR"                            0                  0       -11.22941007       -236.9288214       0.4346807274        9.167878014
 "DRIFT_15"                     37.4355        1273.949748        62.25108498        1361.570739        65.21728503     0.001751689932     0.002264203308                  0                  0                  0                  0                  0                  0                  0                  0                  0                  0                  0        238.7638534         134.291665      -0.2477401001      -0.2446940242    -0.002928195672    -0.007310474461 "DRIFT"                              0                  0       -10.92513356       -222.8637133       0.4346807274        8.863601505
 "TAS.1L1"                      39.2355        1059.704064        56.77429466        1136.912051        59.59309713     0.001998250921     0.002494458403                  0                  0                  0                  0                  0                  0                  0                  0                  0                  0                  0        244.2397954        139.9158458      -0.2471830066      -0.2442506218    -0.004125611438    -0.008637841466 "RCOLLIMATOR"                        0                  0       -10.14270825       -188.6523557       0.4346807274        8.081176195
 "DRIFT_16"                     55.3145        20.58842363        7.851343806        28.32009539        9.353476415      0.01935773389      0.01677521773                  0                  0                  0                  0                  0                  0                  0                  0                  0                  0                  0        293.1565945         190.155454      -0.2119986233      -0.2157970277      -0.6634206528      -0.3494676125 "DRIFT"                              0                  0       -3.153476832       -8.010369684       0.4346807274        1.091944779
 "IP1.L1"                       58.3145       0.8643123862       -1.276640058       0.3201764112     -0.02017008938       0.3934402029        0.253033749                  0                  0                  0                  0                  0                  0                  0                  0                  0                  0                  0        302.2836548        199.5291049      -0.4637635225       0.2567059145       -18.62697186       -31.74333587 "MARKER"                             0                  0       -1.849434649        0.813768602       0.4346807274       -0.212097403
 "IP1"                          58.3145       0.8643123862       -1.276640058       0.3201764112     -0.02017008938       0.3934402029        0.253033749                  0                  0                  0                  0                  0                  0                  0                  0                  0                  0                  0        302.2836548        199.5291049      -0.4637635225       0.2567059145       -18.62697186       -31.74333587 "MARKER"                             0                  0       -1.849434649        0.813768602       0.4346807274       -0.212097403
 "DRIFT_17"                     77.3645        1153.693687        -59.2393376         1134.99524       -59.54282539       0.4965088608       0.4971513169                  0                  0                  0                  0                  0                  0                  0                  0                  0                  0                  0        360.2416033        259.0518153      -0.2572636419       0.7448752332     -0.03189246943     -0.01207666596 "DRIFT"                              0                  0        6.431233208       -125.7416795       0.4346807274        -8.49276526
 "TAS.1R1"                      79.1645        1376.813525       -64.71612792         1359.47295       -65.16701329       0.4967361663       0.4973819441                  0                  0                  0                  0                  0                  0                  0                  0                  0                  0                  0        365.7180248        264.6760102      -0.2567807149       0.7453317993     -0.02848154311     -0.01045049757 "RCOLLIMATOR"                        0                  0        7.213658517       -154.0132423       0.4346807274        -9.27519057
 "DRIFT_18"                     79.8785        1470.779292       -66.88858808        1454.124327       -67.39794116       0.4968160222       0.4974627666                  0                  0                  0                  0                  0                  0                  0                  0                  0                  0                  0        367.8903417        266.9069409      -0.2566100046       0.7454916394     -0.02732956971    -0.009912148294 "DRIFT"                              0                  0        7.524020557       -166.0078791       0.4346807274       -9.585552609
 "BPMSW.1R1.B1"                 79.8785        1470.779292       -66.88858808        1454.124327       -67.39794116       0.4968160222       0.4974627666                  0                  0                  0                  0                  0                  0                  0                  0                  0                  0                  0        367.8903417        266.9069409      -0.2566100046       0.7454916394     -0.02732956971    -0.009912148294 "MONITOR"                            0                  0        7.524020557       -166.0078791       0.4346807274       -9.585552609
 "BPMSW.1R1.B1_DOROS"             79.8785        1470.779292       -66.88858808        1454.124327       -67.39794116       0.4968160222       0.4974627666                  0                  0                  0                  0                  0                  0                  0                  0                  0                  0                  0        367.8903417        266.9069409      -0.2566100046       0.7454916394     -0.02732956971    -0.009912148294 "MONITOR"                            0                  0        7.524020557       -166.0078791       0.4346807274       -9.585552609
 "DRIFT_19"                     79.9345        1478.280356       -67.05897711        1461.682695       -67.57291589       0.4968220666         0.49746888                  0                  0                  0                  0                  0                  0                  0                  0                  0                  0                  0        368.0607196        267.0819158      -0.2565970586       0.7455037258     -0.02724335567    -0.009872093698 "DRIFT"                              0                  0        7.548362677       -166.9673783       0.4346807274        -9.60989473
 "BPMWK.1R1"                    79.9345        1478.280356       -67.05897711        1461.682695       -67.57291589       0.4968220666         0.49746888                  0                  0                  0                  0                  0                  0                  0                  0                  0                  0                  0        368.0607196        267.0819158      -0.2565970586       0.7455037258     -0.02724335567    -0.009872093698 "MONITOR"                            0                  0        7.548362677       -166.9673783       0.4346807274        -9.60989473
 "DRIFT_20"                     80.0385        1492.261532       -67.37541388        1475.771657       -67.89786897       0.4968332109       0.4974801498                  0                  0                  0                  0                  0                  0                  0                  0                  0                  0                  0        368.3771357        267.4068693      -0.2565731803       0.7455260054     -0.02708476242    -0.009798499625 "DRIFT"                              0                  0        7.593569473       -168.7565386       0.4346807274       -9.655101525
 "BPMWF.A1R1.B1"                80.0385        1492.261532       -67.37541388        1475.771657       -67.89786897       0.4968332109       0.4974801498                  0                  0                  0                  0                  0                  0                  0                  0                  0                  0                  0        368.3771357        267.4068693      -0.2565731803       0.7455260054     -0.02708476242    -0.009798499625 "MONITOR"                            0                  0        7.593569473       -168.7565386       0.4346807274       -9.655101525
 "DRIFT_21"                     81.2795        1664.173254       -71.15135654        1649.106226       -71.77543408       0.4969585453       0.4976067569                  0                  0                  0                  0                  0                  0                  0                  0                  0                  0                  0        372.1528343        271.2844394      -0.2563037505       0.7457761646     -0.02533346017    -0.008993602799 "DRIFT"                              0                  0        8.133008256       -190.8315828       0.4346807274       -10.19454031
 "MQXA.1R1"                     87.6495        1960.002116        30.30786556        3590.764115       -268.0860608       0.4974874471       0.4980483258                  0                  0                  0                  0                  0                  0      0.05541434913                  0                  0                  0                  0        377.2196583        333.6965246      -0.2552336962       0.7469623274       -0.018653637    -0.006465072308 "QUADRUPOLE"                         0                  0       -4.972031391       -319.2007946      -0.3927213844       -25.22017639
 "DRIFT_22"                     88.1565        1929.390539         30.0699983        3867.748359       -278.2339471       0.4975289415       0.4980699782                  0                  0                  0                  0                  0                  0                  0                  0                  0                  0                  0        377.4563657        343.8437674      -0.2551408091       0.7470602401     -0.01818490919    -0.006349021812 "DRIFT"                              0                  0       -5.171141133       -329.3656554      -0.3927213844       -25.02106665
 "DRIFT_23"                     89.8435        1829.269597        29.27851495        4863.473345       -312.0001881       0.4976718593       0.4981318842                  0                  0                  0                  0                  0                  0                  0                  0                  0                  0                  0        378.2439999        377.6081247      -0.2548221272       0.7473446256     -0.01663794014    -0.006019353916 "DRIFT"                              0                  0       -5.833662108       -361.7348069      -0.3927213844       -24.35854568
 "BPMS.2R1.B1"                  89.8435        1829.269597        29.27851495        4863.473345       -312.0001881       0.4976718593       0.4981318842                  0                  0                  0                  0                  0                  0                  0                  0                  0                  0                  0        378.2439999        377.6081247      -0.2548221272       0.7473446256     -0.01663794014    -0.006019353916 "MONITOR"                            0                  0       -5.833662108       -361.7348069      -0.3927213844       -24.35854568
 "DRIFT_24"                     90.3645        1798.888735        29.03407937        5194.010584       -322.4282922       0.4977175699       0.4981483823                  0                  0                  0                  0                  0                  0                  0                  0                  0                  0                  0          378.48725        388.0357159      -0.2547205896       0.7474215643     -0.01616522829    -0.005932029574 "DRIFT"                              0                  0        -6.03826995       -371.2796705      -0.3927213844       -24.15393783
 "MQXB.A2R1"                    95.8645        1958.825688       -60.65260009        7430.934972       -47.48769104       0.4982048846        0.498283105                  0                  0                  0                  0                  0                  0      -0.0484664193                  0                  0                  0                  0        381.0230271        431.4744956       -0.253755041       0.7478098319      -0.0117486882      -0.0052372569 "QUADRUPOLE"                         0                  0        14.47364374       -469.1631967        0.122337714       -3.962915158
 "DRIFT_25"                     96.3335        2016.131033       -61.53363666        7475.545207       -47.63008253       0.4982424455       0.4982931199                  0                  0                  0                  0                  0                  0                  0                  0                  0                  0                  0        381.9040269        431.6168302      -0.2536833625       0.7478283736     -0.01145145801    -0.005188050621 "DRIFT"                              0                  0        14.53102013       -477.8368523        0.122337714       -4.020291546
 "DRIFT_26"                     96.8645        2082.009431       -62.53114289         7526.21396       -47.79129763       0.4982836945       0.4983043869                  0                  0                  0                  0                  0                  0                  0                  0                  0                  0                  0        382.9014918         431.777981      -0.2536047437       0.7478492236     -0.01113158389    -0.005133271675 "DRIFT"                              0                  0        14.59598146       -487.7220933        0.122337714       -4.085252872
 "MQXB.B2R1"                   102.3645        3566.923276       -231.0269028        6137.567192        277.4292046        0.498619371       0.4984275349                  0                  0                  0                  0                  0                  0      -0.0484664193                  0                  0                  0                  0        421.8607472        452.3815966      -0.2528466433       0.7482567223    -0.008760131075    -0.004586481313 "QUADRUPOLE"                         0                  0        37.72481137       -583.0134097       -1.612496774         24.9211524
 "DRIFT_27"                    103.0565        3893.830095       -241.3817948        5759.610352        268.7512009       0.4986489233       0.4984460587                  0                  0                  0                  0                  0                  0                  0                  0                  0                  0                  0        432.2152313        461.0582148      -0.2527523489       0.7483481743    -0.008567758523    -0.004514793076 "DRIFT"                              0                  0         36.6089636       -591.1013751       -1.612496774        26.03700016
 "TASB.3R1"                    104.2565        4494.694154        -259.338255        5132.665743        253.7026396       0.4986945756       0.4984811851                  0                  0                  0                  0                  0                  0                  0                  0                  0                  0                  0        450.1710311        476.1044949      -0.2526038591        0.748508069    -0.008274696836    -0.004387493634 "RCOLLIMATOR"                        0                  0        34.67396747       -601.4657359       -1.612496774        27.97199629
 "DRIFT_28"                     104.811        4786.901177       -267.6356359        4855.165337        246.7489502       0.4987136015       0.4984988637                  0                  0                  0                  0                  0                  0                  0                  0                  0                  0                  0        458.4681254        483.0571789      -0.2525408961       0.7485829618    -0.008154036712    -0.004327706151 "DRIFT"                              0                  0        33.77983801       -604.6861841       -1.612496774        28.86612575
 "MQSX.3R1"                     105.034        4907.010801       -270.9725448         4745.73893        243.9524259       0.4987209245       0.4985062576                  0                  0                  0                  0                  0                  0                  0                  0                  0                  0                  0         461.804922        485.8533071      -0.2525164841       0.7486133303     -0.00810782624    -0.004303550839 "QUADRUPOLE"                         0                  0        33.42025123       -605.7017541       -1.612496774        29.22571254
 "DRIFT_29"                    105.2795        5040.960188       -274.6461373        4626.714106         240.873741       0.4987287806        0.498514596                  0                  0                  0                  0                  0                  0                  0                  0                  0                  0                  0         465.478393        488.9315612      -0.2524901825       0.7486469539     -0.00805839476     -0.00427691124 "DRIFT"                              0                  0        33.02438327       -606.6343277       -1.612496774        29.62158049
 "MQXA.3R1"                    111.6495        6716.756762        43.50872478         3198.44991        9.303919825       0.4988928696       0.4987940351                  0                  0                  0                  0                  0                  0      0.05580787536                  0                  0                  0                  0        494.7220273        515.5476732      -0.2521120255       0.7493831127    -0.007076403637    -0.003712576193 "QUADRUPOLE"                         0                  0       -3.889063204       -597.3660131    -0.006341350221      -0.9839484876
 "DRIFT_30"                    112.1285        6675.140102        43.37365507        3189.543036        9.290806397       0.4989042549       0.4988179034                  0                  0                  0                  0                  0                  0                  0                  0                  0                  0                  0        494.8568605        515.5604763      -0.2520866834       0.7494317249     -0.00701348387    -0.003690628003 "DRIFT"                              0                  0       -3.892100711       -595.9730082    -0.006341350221      -0.9809109808
 "MCSX.3R1"                    112.1285        6675.140102        43.37365507        3189.543036        9.290806397       0.4989042549       0.4988179034                  0                  0                  0                  0                  0                  0                  0                  0                  0                  0                  0        494.8568605        515.5604763      -0.2520866834       0.7494317249     -0.00701348387    -0.003690628003 "MULTIPOLE"                          0                  0       -3.892100711       -595.9730082    -0.006341350221      -0.9809109808
 "MCTX.3R1"                    112.1285        6675.140102        43.37365507        3189.543036        9.290806397       0.4989042549       0.4988179034                  0                  0                  0                  0                  0                  0                  0                  0                  0                  0                  0        494.8568605        515.5604763      -0.2520866834       0.7494317249     -0.00701348387    -0.003690628003 "MULTIPOLE"                          0                  0       -3.892100711       -595.9730082    -0.006341350221      -0.9809109808
 "DRIFT_31"                    112.6115        6633.306935        43.23745743        3180.574503        9.277583463       0.4989158073       0.4988420385                  0                  0                  0                  0                  0                  0                  0                  0                  0                  0                  0        494.9928198        515.5733862       -0.252060987       0.7494808781    -0.006950536898    -0.003672255068 "DRIFT"                              0                  0       -3.895163583       -594.5654242    -0.006341350221      -0.9778481086
 "MCOSX.3R1"                   112.6115        6633.306935        43.23745743        3180.574503        9.277583463       0.4989158073       0.4988420385                  0                  0                  0                  0                  0                  0                  0                  0                  0                  0                  0        494.9928198        515.5733862       -0.252060987       0.7494808781    -0.006950536898    -0.003672255068 "MULTIPOLE"                          0                  0       -3.895163583       -594.5654242    -0.006341350221      -0.9778481086
 "MCOX.3R1"                    112.6115        6633.306935        43.23745743        3180.574503        9.277583463       0.4989158073       0.4988420385                  0                  0                  0                  0                  0                  0                  0                  0                  0                  0                  0        494.9928198        515.5733862       -0.252060987       0.7494808781    -0.006950536898    -0.003672255068 "MULTIPOLE"                          0                  0       -3.895163583       -594.5654242    -0.006341350221      -0.9778481086
 "MCSSX.3R1"                   112.6115        6633.306935        43.23745743        3180.574503        9.277583463       0.4989158073       0.4988420385                  0                  0                  0                  0                  0                  0                  0                  0                  0                  0                  0        494.9928198        515.5733862       -0.252060987       0.7494808781    -0.006950536898    -0.003672255068 "MULTIPOLE"                          0                  0       -3.895163583       -594.5654242    -0.006341350221      -0.9778481086
 "DRIFT_32"                    113.1965        6582.815611        43.07249756          3169.7291        9.261568108       0.4989298971       0.4988713618                  0                  0                  0                  0                  0                  0                  0                  0                  0                  0                  0        495.1574912        515.5890226      -0.2520296705       0.7495405938    -0.006874985732     -0.00365510211 "DRIFT"                              0                  0       -3.898873273       -592.8566244    -0.006341350221      -0.9741384188
 "DRIFT_33"                     116.629        6290.445252        42.10459198        3106.470988        9.167597671       0.4990147925       0.4990454567                  0                  0                  0                  0                  0                  0                  0                  0                  0                  0                  0        496.1237078        515.6807695      -0.2518415156       0.7498950561    -0.006448183423    -0.003670049086 "DRIFT"                              0                  0       -3.920639957       -582.7427579    -0.006341350221      -0.9523717341
 "BPMSY.4R1.B1"                 116.629        6290.445252        42.10459198        3106.470988        9.167597671       0.4990147925       0.4990454567                  0                  0                  0                  0                  0                  0                  0                  0                  0                  0                  0        496.1237078        515.6807695      -0.2518415156       0.7498950561    -0.006448183423    -0.003670049086 "MONITOR"                            0                  0       -3.920639957       -582.7427579    -0.006341350221      -0.9523717341
 "FRONT_LHCB1$END"              116.629        6290.445252        42.10459198        3106.470988        9.167597671       0.4990147925       0.4990454567                  0                  0                  0                  0                  0                  0                  0                  0                  0                  0                  0        496.1237078        515.6807695      -0.2518415156       0.7498950561    -0.006448183423    -0.003670049086 "MARKER"                             0                  0       -3.920639957       -582.7427579    -0.006341350221      -0.9523717341
