*                 NAME                    S             ALFPROPY          ERRALFPROPY              ALFYMDL              MODEL_S
$                   %s                  %le                  %le                  %le                  %le                  %le
          BPMSY.4L5.B1                    0      -42.75525796526     0.09917881228165          -44.5963809          10131.46115
              MQXA.3L5              11.3495        283.947533619      0.7938750509004          300.0274054          10142.81065
              MQSX.3L5               11.818       276.6792610237       1.176403447085          292.3333043          10143.27915
              TASB.3L5              13.5725       249.4623174385        1.04500104108           263.519429          10145.03365
             MQXB.B2L5              19.7645       64.97427240709      0.2998730358298          68.89517656          10151.22565
             MQXB.A2L5              26.2645      -28.88156614245      0.1683135548458         -29.67410825          10157.72565
           BPMS.2L5.B1              26.7855      -29.11838276116      0.1735248933013         -29.91279178          10158.24665
              MQXA.1L5              35.3495       72.90908840195      0.1264785610738          76.54942714          10166.81065
         BPMWF.A1L5.B1              36.5905       68.99875300755      0.1363462613673          72.41279247          10168.05165
             BPMWK.1L5              36.6945       68.67105473226      0.1357241044122          72.06612848          10168.15565
          BPMSW.1L5.B1              36.7505       68.49460180519        0.13539095479          71.87946326          10168.21165
    BPMSW.1L5.B1_DOROS              36.7505       68.49460180519        0.13539095479          71.87946326          10168.21165
               TAS.1L5              39.2645       60.57312880537      0.1194923822667          63.49952806          10170.72565
                   IP5              58.3145       0.459883009862      0.2844020486213      1.907599678e-05          10189.77565
               TAS.1R5              79.1645      -65.14706755217      0.8569390535461         -69.49944351          10210.62565
          BPMSW.1R5.B1              79.8785      -67.39596397757       1.016050272399          -71.8794251          10211.33965
    BPMSW.1R5.B1_DOROS              79.8785      -67.39596397757       1.016050272399          -71.8794251          10211.33965
             BPMWK.1R5              79.9345      -67.57237918823       1.022497687044         -72.06609033          10211.39565
         BPMWF.A1R5.B1              80.0385       -67.9000058031       1.034655457293         -72.41275431          10211.49965
              MQXA.1R5              87.6495      -267.3374898032       11.50497294263         -285.8873861          10219.11065
           BPMS.2R5.B1              89.8435      -310.4887037686       34.88640018473         -332.7211631          10221.30465