@ GetLLMVersion %s "V3.0.0 Dev"
@ Command %s "/afs/cern.ch/work/o/omc/anaconda/bin/python '/afs/cern.ch/eng/sl/lintrack/Beta-Beat.src/GetLLM/GetLLM.py' '--accel=LHCB1' '--model=/afs/cern.ch/user/t/thpugnat/public/Outputs/2018-09-04/models/LHCB1/b1_squeeze_collQ/twiss.dat' '--files=/afs/cern.ch/user/t/thpugnat/public/Outputs/2018-09-04/LHCB1/Measurements/Beam1@Turn@2018_06_16@17_48_24_925/Beam1@Turn@2018_06_16@17_48_24_925.sdds.clean' '--output=/afs/cern.ch/user/t/thpugnat/public/Outputs/2018-09-04/LHCB1/Results/15-57-07_NORMALANALYSIS_SUSSIX_31' '--tbtana=SUSSIX' '--bpmu=mm' '--lhcphase=1' '--errordefs=/afs/cern.ch/user/t/thpugnat/public/Outputs/2018-09-04/models/LHCB1/b1_squeeze_collQ/error_deff.txt' '--calibration=/afs/cern.ch/eng/sl/lintrack/LHC_commissioning2017/Calibration_factors_2017/Calibration_factors_2017_beam1'"
@ CWD %s "/afs/cern.ch/user/t/thpugnat"
@ Date %s "04. September 2018, 15:57:16"
@ Q1 %le 0.3024322516634051
@ Q2 %le 0.32982108979999997
@ RMSbetabeat %le 0.0576391359168
@ RescalingFactor %le 0.9999860723873575
@ FILES %s "/afs/cern.ch/user/t/thpugnat/public/Outputs/2018-09-04/LHCB1/Measurements/Beam1@Turn@2018_06_16@17_48_24_925/Beam1@Turn@2018_06_16@17_48_24_925.sdds.clean_liny"
*                 NAME                    S                COUNT                 BETY              BETYSTD              BETYMDL               MUYMDL              BETYRES           BETYSTDRES
$                   %s                  %le                  %le                  %le                  %le                  %le                  %le                  %le                  %le
        "BPMYB.5L2.B1"               28.288                    1        36.7145447369   1.483239697419e-08          38.49995025         0.1254438987       36.71403339094   1.483219039431e-08
        "BPMYB.4L2.B1"               48.858                    1        94.6663016772   1.483239697419e-08          106.4941291         0.1774951698       94.66498320162   1.483219039431e-08
        "BPMWI.4L2.B1"              73.3255                    1       104.3808506306   1.483239697419e-08          112.2035298         0.2103744959       104.3793968545   1.483219039431e-08
        "BPMSX.4L2.B1"             123.4825                    1       95.84120783652   1.483239697419e-08          105.8037567         0.2865105605        95.8398729973   1.483219039431e-08
         "BPMS.2L2.B1"              161.394                    1       173.5816064801   1.483239697419e-08          177.5650569         0.3283383142       173.5791889028   1.483219039431e-08
        "BPMSW.1L2.B1"              171.328                    1       55.30358949023   1.483239697419e-08          57.10364998         0.3459996459       55.30281924326   1.483219039431e-08
        "BPMSW.1R2.B1"              214.518                    1       58.90410693683   1.483239697419e-08          60.65083823         0.7148502686       58.90328654325   1.483219039431e-08
         "BPMS.2R2.B1"              224.452                    1       64.92622832516   1.483239697419e-08          68.02979116         0.7366927775       64.92532405781   1.483219039431e-08
        "BPMSX.4R2.B1"             262.3635                    1        169.141987421   1.483239697419e-08          180.3076402         0.7839186338        169.139631677   1.483219039431e-08
        "BPMWB.4R2.B1"             312.5965                    1       77.05597486401   1.483239697419e-08          83.69367028         0.8509654526       77.05490165824   1.483219039431e-08
        "BPMYB.4R2.B1"              336.988                    1       77.97624772021   1.483239697419e-08          81.41848376         0.9030203038       77.97516169724   1.483219039431e-08
         "BPMR.5R2.B1"              366.522                    1       165.9412917578   1.483239697419e-08          172.1674942          0.939156351       165.9389805917   1.483219039431e-08
          "BPM.6R2.B1"              439.818                    1       43.20438834651   1.483239697419e-08          43.37838553          1.167806985       43.20378661253   1.483219039431e-08
        "BPM_A.7R2.B1"              452.693                    1       95.00857573262   1.483239697419e-08           100.361345          1.199063662       95.00725248998   1.483219039431e-08
          "BPM.8R2.B1"               494.13                    1       30.71191800909   1.483239697419e-08          28.31690936          1.312061048        30.7114902654   1.483219039431e-08
          "BPM.9R2.B1"              533.195                    1        128.316748496   1.483239697419e-08          121.2124857          1.441839972         128.31496135   1.483219039431e-08
         "BPM.10R2.B1"              573.658                    1       34.53121154855   1.483239697419e-08           34.6012891          1.535152294       34.53073061121   1.483219039431e-08
         "BPM.11R2.B1"             625.4967                    1       193.1846303204   1.483239697419e-08          187.8900437           1.66065442       193.1819397197   1.483219039431e-08
         "BPM.12R2.B1"             680.2203                    1       34.31395822219   1.483239697419e-08          33.03200958          1.772880123       34.31348031067   1.483219039431e-08
         "BPM.13R2.B1"             733.6688                    1       167.2141523582   1.483239697419e-08          161.9050388          1.915970731       167.2118234643   1.483219039431e-08
         "BPM.14R2.B1"             787.1173                    1       34.56549154576   1.483239697419e-08          32.98252064          2.035208003       34.56501013098   1.483219039431e-08
         "BPM.15R2.B1"             840.5658                    1       175.0505035475   1.483239697419e-08          181.5792193          2.167734185       175.0480655119   1.483219039431e-08
         "BPM.16R2.B1"             894.0143                    1       41.49536295608   1.483239697419e-08           39.1685366          2.268281562       41.49478502473   1.483219039431e-08
         "BPM.17R2.B1"             947.4628                    1       170.2142792443   1.483239697419e-08           165.774525          2.394033645       170.2119085657   1.483219039431e-08
         "BPM.18R2.B1"             1000.911                    1       34.31821437953   1.483239697419e-08          32.65584195          2.512373863       34.31773640874   1.483219039431e-08
         "BPM.19R2.B1"              1054.36                    1       170.3721450675   1.483239697419e-08          177.6776048          2.647720795       170.3697721903   1.483219039431e-08
         "BPM.20R2.B1"             1107.808                    1       42.44081770699   1.483239697419e-08          39.38294809          2.749221166       42.44022660772   1.483219039431e-08
         "BPM.21R2.B1"             1161.257                    1       172.1329853238   1.483239697419e-08          169.8813273          2.872604433       172.1305879222   1.483219039431e-08
         "BPM.22R2.B1"             1214.705                    1       31.88805965807   1.483239697419e-08          32.55739373          2.989390087       31.88761553352   1.483219039431e-08
         "BPM.23R2.B1"             1268.154                    1       180.3753085978   1.483239697419e-08          174.7906266          3.126549157       180.3727964003   1.483219039431e-08
         "BPM.24R2.B1"             1321.602                    1       39.00373041386   1.483239697419e-08          37.48010033          3.232010574       39.00318718502   1.483219039431e-08
         "BPM.25R2.B1"             1375.051                    1       173.7971701573   1.483239697419e-08          171.9255074          3.358407119       173.7947495777   1.483219039431e-08
         "BPM.26R2.B1"             1428.499                    1       34.68224873564   1.483239697419e-08          32.56395429          3.474293248       34.68176569471   1.483219039431e-08
         "BPM.27R2.B1"             1481.948                    1       168.1986203643   1.483239697419e-08          172.6482644          3.612585846       168.1962777591   1.483219039431e-08
         "BPM.28R2.B1"             1535.397                    1       37.26753834597   1.483239697419e-08          37.43514041          3.718892209       37.26701929813   1.483219039431e-08
         "BPM.29R2.B1"             1588.845                    1       187.9605296358   1.483239697419e-08          174.0735149          3.844385545       187.9579117944   1.483219039431e-08
         "BPM.30R2.B1"             1642.294                    1       33.07036829702   1.483239697419e-08           32.6469624          3.959217195       33.06990770574   1.483219039431e-08
         "BPM.31R2.B1"             1695.742                    1       162.6513271503   1.483239697419e-08          170.5113893          4.098447948       162.6490618056   1.483219039431e-08
         "BPM.32R2.B1"             1749.191                    1        36.0325099141   1.483239697419e-08          37.31473248          4.205744742       36.03200806725   1.483219039431e-08
         "BPM.33R2.B1"             1802.639                    1       182.6740152638   1.483239697419e-08          176.1825667          4.330534842       182.6714710509   1.483219039431e-08
         "BPM.34R2.B1"             1856.088                    1       34.38024163026   1.483239697419e-08          32.80382966          4.444196529       34.37976279557   1.483219039431e-08
         "BPM.33L3.B1"             1909.536                    1       165.0602411644   1.483239697419e-08          168.4466343          4.584134342       165.0579422693   1.483219039431e-08
         "BPM.32L3.B1"             1962.985                    1       36.92596746489   1.483239697419e-08          37.12263115          4.692541925       36.92545317431   1.483219039431e-08
         "BPM.31L3.B1"             2016.433                    1       176.9105017621   1.483239697419e-08          178.1868974          4.816845341       176.9080378211   1.483219039431e-08
         "BPM.30L3.B1"             2069.882                    1       34.30139047064   1.483239697419e-08          33.02966457          4.929263394       34.30091273416   1.483219039431e-08
         "BPM.29L3.B1"              2123.33                    1       170.8192831918   1.483239697419e-08          166.5183835          5.069649668        170.816904087   1.483219039431e-08
         "BPM.27L3.B1"             2230.227                    1       194.8030128192   1.483239697419e-08           180.024007          5.303303042       194.8002996782   1.483219039431e-08
         "BPM.26L3.B1"             2283.676                    1       36.62079918769   1.483239697419e-08          33.31742504          5.414446141       36.62028914738   1.483219039431e-08
         "BPM.25L3.B1"             2337.124                    1       171.2438226725   1.483239697419e-08          164.7867646          5.555004576       171.2414376549   1.483219039431e-08
         "BPM.24L3.B1"             2390.573                    1       34.72075811919   1.483239697419e-08          36.54935787          5.665871263       34.72027454192   1.483219039431e-08
         "BPM.23L3.B1"             2444.021                    1       177.0469154313   1.483239697419e-08          181.6366098          5.789890268       177.0444495904   1.483219039431e-08
         "BPM.22L3.B1"              2497.47                    1       33.44639812041   1.483239697419e-08          33.65813798          5.899768273       33.44593229193   1.483219039431e-08
         "BPM.21L3.B1"             2550.918                    1       163.8652535683   1.483239697419e-08          163.3057736          6.040215722       163.8629713165   1.483219039431e-08
         "BPM.20L3.B1"             2604.367                    1       39.65581778887   1.483239697419e-08          37.96417211          6.149207468         39.655265478   1.483219039431e-08
         "BPM.19L3.B1"             2657.815                    1       179.7550370333   1.483239697419e-08          183.3356368          6.269566663       179.7525334748   1.483219039431e-08
         "BPM.18L3.B1"             2711.264                    1       34.73699897323   1.483239697419e-08          34.26722798          6.377702642       34.73651516977   1.483219039431e-08
         "BPM.17L3.B1"             2764.712                    1       167.6184356451   1.483239697419e-08          160.5877222          6.518004182       167.6161011205   1.483219039431e-08
         "BPM.16L3.B1"             2818.161                    1       37.09319934642   1.483239697419e-08          37.27903831          6.629303972        37.0926827267   1.483219039431e-08
         "BPM.14L3.B1"             2925.058                    1       36.71515196472   1.483239697419e-08             35.00428           6.85607278       36.71464061031   1.483219039431e-08
         "BPM.13L3.B1"             2978.506                    1       160.8462758008   1.483239697419e-08          158.6940322           6.99547007       160.8440355961   1.483219039431e-08
         "BPM.12L3.B1"             3031.955                    1       36.21132972094   1.483239697419e-08          33.70273297           7.11464477       36.21082538356   1.483219039431e-08
         "BPM.11L3.B1"             3085.403                    1       193.0535715799   1.483239697419e-08          192.6082277          7.240553802       193.0508828045   1.483219039431e-08
         "BPM.10L3.B1"             3138.184                    1       36.97415714644   1.483239697419e-08          34.87350057          7.343374374        36.9736421847   1.483219039431e-08
          "BPM.8L3.B1"             3217.712                    1       14.86458286069   1.483239697419e-08          15.55480343          7.638330739       14.86437583254   1.483219039431e-08
          "BPM.7L3.B1"             3256.776                    1        146.427841798   1.483239697419e-08          151.9393682           7.80186729       146.4258024077   1.483219039431e-08
          "BPM.6L3.B1"             3329.415                    1       69.44869052213   1.483239697419e-08          76.16433508          7.921777176       69.44772326767   1.483219039431e-08
       "BPMWG.A5L3.B1"              3371.12                    1       219.8434545505   1.483239697419e-08          240.9774917          7.971579497        219.840392656   1.483219039431e-08
         "BPMW.5L3.B1"              3400.09                    1       242.7486246066   1.483239697419e-08          273.4609139          7.988316136       242.7452436978   1.483219039431e-08
        "BPMWE.4L3.B1"             3475.218                    1        85.7857852542   1.483239697419e-08           93.5225902          8.066149791       85.78459046302   1.483219039431e-08
         "BPMW.4L3.B1"             3502.763                    1       104.7902473725   1.483239697419e-08          118.5266245           8.11262504       104.7887878945   1.483219039431e-08
         "BPMW.4R3.B1"             3547.728                    1       334.3420307437   1.483239697419e-08          367.4551859          8.147187406       334.3373741574   1.483219039431e-08
        "BPMWE.4R3.B1"             3575.273                    1       342.3079443216   1.483239697419e-08          382.3742589          8.158081727       342.3031767892   1.483219039431e-08
         "BPMW.5R3.B1"             3650.401                    1       79.26176842139   1.483239697419e-08          83.24281125          8.227259468       79.26066449419   1.483219039431e-08
       "BPMWJ.A5R3.B1"             3679.119                    1       97.23605929346   1.483239697419e-08          92.37161917          8.286601092       97.23470502729   1.483219039431e-08
        "BPMWC.6R3.B1"             3718.937                    1       229.4508597608   1.483239697419e-08           238.487681          8.329827562       229.4476640581   1.483219039431e-08
         "BPMR.6R3.B1"             3731.015                    1       261.8186672529   1.483239697419e-08          248.8867754          8.337357315       261.8150207439   1.483219039431e-08
        "BPM_A.7R3.B1"             3786.839                    1       103.1569228475   1.483239697419e-08          64.50138049          8.409972842       103.1554861179   1.483219039431e-08
          "BPM.8R3.B1"             3825.903                    1       170.3569624818   1.483239697419e-08          167.3211759          8.475862446        170.354589816   1.483219039431e-08
         "BPM.10R3.B1"             3905.431                    1       158.9529109454   1.483239697419e-08           168.425398          8.597872211       158.9506971108   1.483219039431e-08
         "BPM.11R3.B1"             3958.212                    1       43.42367544228   1.483239697419e-08          44.43720673          8.696599762       43.42307065415   1.483219039431e-08
         "BPM.12R3.B1"             4012.935                    1       175.4800285178   1.483239697419e-08          168.6746733          8.811344174          175.4775845   1.483219039431e-08
         "BPM.13R3.B1"             4066.384                    1       36.64120472613   1.483239697419e-08          33.11530297          8.927566141       36.64069440162   1.483219039431e-08
         "BPM.14R3.B1"             4119.833                    1       161.8796880283   1.483239697419e-08           168.187446          9.066544434       161.8774334307   1.483219039431e-08
         "BPM.15R3.B1"             4173.281                    1       38.11751701148   1.483239697419e-08          38.53820274          9.172699094       38.11698612547   1.483219039431e-08
         "BPM.17R3.B1"             4280.178                    1       36.43999769972   1.483239697419e-08          33.55236047          9.405110563       36.43949017755   1.483219039431e-08
         "BPM.19R3.B1"             4387.075                    1       36.68463414137   1.483239697419e-08          38.07520731          9.653153837       36.68412321199   1.483219039431e-08
         "BPM.20R3.B1"             4440.524                    1       180.1785214595   1.483239697419e-08          181.7699681          9.773938757       180.1760120029   1.483219039431e-08
         "BPM.21R3.B1"             4493.972                    1       34.71309249007   1.483239697419e-08          34.09332168          9.882958046       34.71260901956   1.483219039431e-08
         "BPM.22R3.B1"             4547.421                    1       154.1408734989   1.483239697419e-08          161.9618496          10.02292882       154.1387266845   1.483219039431e-08
         "BPM.23R3.B1"             4600.869                    1       35.78343460773   1.483239697419e-08          35.71953964          10.13652207       35.78293622992   1.483219039431e-08
         "BPM.24R3.B1"             4654.318                    1       183.7376080144   1.483239697419e-08          184.1278255          10.26127892       183.7350489881   1.483219039431e-08
         "BPM.25R3.B1"             4707.766                    1       34.18008714498   1.483239697419e-08          34.52291756           10.3686353       34.17961109797   1.483219039431e-08
         "BPM.26R3.B1"             4761.215                    1       167.3618235612   1.483239697419e-08          161.1677085          10.50791226       167.3594926105   1.483219039431e-08
         "BPM.27R3.B1"             4814.663                    1       39.73945737319   1.483239697419e-08          35.29307433          10.62268074       39.73890389742   1.483219039431e-08
         "BPM.28R3.B1"             4868.112                    1       196.4439473191   1.483239697419e-08          184.7426283          10.74812902       196.4412113239   1.483219039431e-08
         "BPM.29R3.B1"              4921.56                    1        34.5142619113   1.483239697419e-08          34.95539846          10.85448749       34.51378121003   1.483219039431e-08
         "BPM.30R3.B1"             4975.009                    1       157.1580128299   1.483239697419e-08          160.7370464          10.99283843       157.1558239939   1.483219039431e-08
         "BPM.31R3.B1"             5028.457                    1       34.43639127843   1.483239697419e-08          34.85795588          11.10866896       34.43591166171   1.483219039431e-08
         "BPM.32R3.B1"             5081.906                    1       180.0423471275   1.483239697419e-08           184.985786          11.23500973       180.0398395674   1.483219039431e-08
         "BPM.33R3.B1"             5135.354                    1       36.66662211549   1.483239697419e-08          35.38975579          11.34051447       36.66611143698   1.483219039431e-08
         "BPM.34R3.B1"             5188.803                    1       162.4416519571   1.483239697419e-08          160.6832923          11.47774182       162.4393895326   1.483219039431e-08
         "BPM.33L4.B1"             5242.251                    1        35.1810876113   1.483239697419e-08          34.42775237          11.59448172       35.18059762274   1.483219039431e-08
         "BPM.32L4.B1"               5295.7                    1       191.0828845306   1.483239697419e-08          184.8497165          11.72189424       191.0802232022   1.483219039431e-08
         "BPM.31L4.B1"             5349.148                    1       34.51712160791   1.483239697419e-08          35.81244523           11.8267101       34.51664086681   1.483219039431e-08
         "BPM.30L4.B1"             5402.597                    1       171.8295390462   1.483239697419e-08          161.0081225          11.96265796       171.8271458709   1.483219039431e-08
         "BPM.29L4.B1"             5456.045                    1       36.41419464135   1.483239697419e-08          34.01587858          12.08011947       36.41368747855   1.483219039431e-08
         "BPM.27L4.B1"             5562.942                    1       34.01150639189   1.483239697419e-08          36.21028627          12.31306341        34.0110326928   1.483219039431e-08
         "BPM.26L4.B1"             5616.391                    1       172.8350096606   1.483239697419e-08           161.701408          12.44762181       172.8326024815   1.483219039431e-08
         "BPM.25L4.B1"             5669.839                    1       35.18867735062   1.483239697419e-08          33.63517777          12.56558853       35.18818725635   1.483219039431e-08
         "BPM.24L4.B1"             5723.288                    1       185.4992491581   1.483239697419e-08          183.4685607          12.69556769       185.4966655964   1.483219039431e-08
         "BPM.23L4.B1"             5776.736                    1         35.816338414   1.483239697419e-08          36.57087325          12.79955931       35.81583957791   1.483219039431e-08
         "BPM.22L4.B1"             5830.185                    1       161.8177629863   1.483239697419e-08          162.7415304          12.93266618       161.8155092512   1.483219039431e-08
         "BPM.21L4.B1"             5883.634                    1       35.05566252866   1.483239697419e-08          33.29752111          13.05090124       35.05517428697   1.483219039431e-08
         "BPM.20L4.B1"             5937.082                    1       174.4746826364   1.483239697419e-08          180.8117622          13.18296775       174.4722526206   1.483219039431e-08
         "BPM.19L4.B1"             5990.531                    1       39.12991149944   1.483239697419e-08           38.7787518          13.28434878       39.12936651319   1.483219039431e-08
         "BPM.18L4.B1"             6043.979                    1       169.0195890509   1.483239697419e-08          166.0163812          13.41079016       169.0172350116   1.483219039431e-08
         "BPM.17L4.B1"             6097.428                    1       30.57094615017   1.483239697419e-08          32.98642115          13.52829104       30.57052036988   1.483219039431e-08
         "BPM.15L4.B1"             6204.325                    1       40.24681212361   1.483239697419e-08          38.99000234           13.7650956        40.2462515816   1.483219039431e-08
         "BPM.14L4.B1"             6257.773                    1       170.3814885335   1.483239697419e-08          169.6690688          13.88936318       170.3791155261   1.483219039431e-08
         "BPM.13L4.B1"             6311.222                    1       32.78245550385   1.483239697419e-08          32.87866161           14.0055363        32.7819989225   1.483219039431e-08
         "BPM.12L4.B1"              6364.67                    1       174.4794102494   1.483239697419e-08          174.0267666          14.14217033       174.4769801677   1.483219039431e-08
         "BPM.11L4.B1"             6418.119                    1       44.02848175528   1.483239697419e-08          41.33755642          14.24208575       44.02786854364   1.483219039431e-08
         "BPM.10L4.B1"             6469.957                    1       171.5322198546   1.483239697419e-08          175.3732067          14.35476643       171.5298308203   1.483219039431e-08
          "BPM.9L4.B1"             6509.022                    1       50.50239688971   1.483239697419e-08          51.35549397          14.41683614       50.50169351188   1.483219039431e-08
          "BPM.8L4.B1"             6549.485                    1       143.8259833299   1.483239697419e-08          140.0695011          14.50738011       143.8239801773   1.483219039431e-08
          "BPM.7L4.B1"             6588.549                    1       81.42640995243   1.483239697419e-08          81.18791603          14.56312449       81.42527587694   1.483219039431e-08
        "BPMYB.6L4.B1"             6685.153                    1       527.2895785641   1.483239697419e-08          583.4974334          14.64096836       527.2822346791   1.483219039431e-08
        "BPMYA.5L4.B1"             6722.153                    1       237.2781556554   1.483239697419e-08          253.2610322          14.65560215       237.2748509372   1.483219039431e-08
       "BPMWI.A5L4.B1"             6798.756                    1       185.1732781025   1.483239697419e-08          210.1960037          14.71170274       185.1706990808   1.483219039431e-08
       "BPMWA.B5L4.B1"              6824.62                    1       194.7338326202   1.483239697419e-08          214.9262064          14.73111768       194.7311204428   1.483219039431e-08
       "BPMWA.A5L4.B1"             6833.505                    1        192.969538338   1.483239697419e-08          218.0210454          14.73765208        192.966850733   1.483219039431e-08
       "BPMWA.A5R4.B1"             6881.554                    1       220.1144481608   1.483239697419e-08           247.783731          14.77079279       220.1113824921   1.483219039431e-08
       "BPMWA.B5R4.B1"             6890.439                    1       224.2661081216   1.483239697419e-08          255.6960498          14.77641193       224.2629846301   1.483219039431e-08
        "BPMYB.5R4.B1"             6992.829                    1       331.8519682018   1.483239697419e-08          366.5728818          14.82826176       331.8473462961   1.483219039431e-08
        "BPMYA.6R4.B1"             7024.393                    1       110.5048935892   1.483239697419e-08          111.5334933          14.85320824       110.5033545199   1.483219039431e-08
          "BPM.7R4.B1"             7120.909                    1       103.9793717906   1.483239697419e-08          106.4373428          15.04454446       103.9779236062   1.483219039431e-08
          "BPM.8R4.B1"             7158.698                    1       33.57204443039   1.483239697419e-08          31.10641486           15.1510623       33.57157685196   1.483219039431e-08
          "BPM.9R4.B1"             7197.763                    1       170.3130535803   1.483239697419e-08          170.9331183          15.25321848       170.3106815261   1.483219039431e-08
         "BPM.10R4.B1"             7238.226                    1       40.25545217791   1.483239697419e-08          44.02724682          15.32111001       40.25489151557   1.483219039431e-08
         "BPM.11R4.B1"             7290.065                    1       137.6150833127   1.483239697419e-08          141.6684749          15.44967944       137.6131666632   1.483219039431e-08
         "BPM.12R4.B1"             7344.789                    1       32.29432244148   1.483239697419e-08          29.79620587          15.59450742       32.29387265867   1.483219039431e-08
         "BPM.13R4.B1"             7398.237                    1       215.8235556022   1.483239697419e-08          221.7257118          15.71886707       215.8205496954   1.483219039431e-08
         "BPM.14R4.B1"             7451.686                    1        31.1365596081   1.483239697419e-08          32.63659824          15.81815807       31.13612595016   1.483219039431e-08
         "BPM.15R4.B1"             7505.134                    1       141.5347167546   1.483239697419e-08          134.0652624          15.98461511       141.5327455139   1.483219039431e-08
         "BPM.16R4.B1"             7558.583                    1       37.50750128167   1.483239697419e-08          36.82826145          16.10975461       37.50697889172   1.483219039431e-08
         "BPM.17R4.B1"             7612.031                    1       212.3030639422   1.483239697419e-08          222.0520543          16.21883958       212.3001070674   1.483219039431e-08
         "BPM.18R4.B1"              7665.48                    1        32.3101076612   1.483239697419e-08          32.64065921          16.31812107       32.30965765854   1.483219039431e-08
         "BPM.19R4.B1"             7718.928                    1       136.2574680577   1.483239697419e-08          134.0575374          16.48456893       136.2555703165   1.483219039431e-08
         "BPM.20R4.B1"             7772.377                    1       39.22480712938   1.483239697419e-08          36.82420027          16.60972182       39.22426082146   1.483219039431e-08
         "BPM.21R4.B1"             7825.825                    1       223.3395409392   1.483239697419e-08          222.0597748           16.7188117       223.3364303526   1.483219039431e-08
         "BPM.22R4.B1"             7879.274                    1       31.45612860759   1.483239697419e-08           32.6447206          16.81808407       31.45569049882   1.483219039431e-08
         "BPM.23R4.B1"             7932.722                    1       141.0779909878   1.483239697419e-08          134.0498214          16.98452275       141.0760261082   1.483219039431e-08
         "BPM.24R4.B1"             7986.171                    1        37.5189660874   1.483239697419e-08          36.82013866          17.10968902       37.51844353777   1.483219039431e-08
         "BPM.26R4.B1"             8093.068                    1       33.99749158989   1.483239697419e-08          32.64878243          17.31804708         33.997018086   1.483219039431e-08
         "BPM.27R4.B1"             8146.516                    1       135.8141414996   1.483239697419e-08          134.0421144          17.48447656       135.8122499329   1.483219039431e-08
         "BPM.28R4.B1"             8199.965                    1       36.64617700017   1.483239697419e-08          36.81607662          17.60965622       36.64566660641   1.483219039431e-08
         "BPM.29R4.B1"             8253.413                    1       209.0854636395   1.483239697419e-08          222.0751888          17.71875595       209.0825515782   1.483219039431e-08
         "BPM.30R4.B1"             8306.862                    1       31.93976000538   1.483239697419e-08          32.65284469          17.81801009       31.93931516078   1.483219039431e-08
         "BPM.32R4.B1"             8413.759                    1        37.5066245044   1.483239697419e-08          36.81201415          18.10962342       37.50610212666   1.483219039431e-08
         "BPM.33R4.B1"             8467.208                    1       221.3701978415   1.483239697419e-08          222.0828822          18.21872807       221.3671146831   1.483219039431e-08
         "BPM.34R4.B1"             8520.656                    1       31.32121834903   1.483239697419e-08          32.65690737          18.31797311       31.32078211924   1.483219039431e-08
         "BPM.33L5.B1"             8574.105                    1       136.2771046636   1.483239697419e-08          134.0267276          18.48438419       136.2752066488   1.483219039431e-08
         "BPM.32L5.B1"             8627.553                    1       39.57302056498   1.483239697419e-08          36.80795125          18.60959061       39.57246940728   1.483219039431e-08
         "BPM.31L5.B1"             8681.002                    1       218.1461915406   1.483239697419e-08          222.0905666           18.7187002        218.143153285   1.483219039431e-08
         "BPM.30L5.B1"              8734.45                    1       31.00460899349   1.483239697419e-08          32.66097048          18.81793614       31.00417717331   1.483219039431e-08
         "BPM.29L5.B1"             8787.899                    1       138.7438763063   1.483239697419e-08          134.0190477            18.984338       138.7419439353   1.483219039431e-08
         "BPM.28L5.B1"             8841.347                    1       38.44450087659   1.483239697419e-08          36.80388793           19.1095578       38.44396543648   1.483219039431e-08
         "BPM.27L5.B1"             8894.796                    1       219.6269920101   1.483239697419e-08          222.0982419          19.21867232       219.6239331304   1.483219039431e-08
         "BPM.26L5.B1"             8948.244                    1       30.75823963282   1.483239697419e-08          32.66503401          19.31789916       30.75781124397   1.483219039431e-08
         "BPM.25L5.B1"             9001.693                    1       132.0764714055   1.483239697419e-08          134.0113769           19.4842918       132.0746318956   1.483219039431e-08
         "BPM.24L5.B1"             9055.141                    1       36.16435017497   1.483239697419e-08          36.79982419          19.60952499       36.16384649191   1.483219039431e-08
         "BPM.22L5.B1"             9162.038                    1       30.80966185217   1.483239697419e-08          32.66909797           19.8178622       30.80923274714   1.483219039431e-08
         "BPM.21L5.B1"             9215.487                    1        137.197219212   1.483239697419e-08          134.0037151          19.98424561       137.1953083823   1.483219039431e-08
         "BPM.20L5.B1"             9268.935                    1       38.25651264813   1.483239697419e-08          36.79576002          20.10949217       38.25597982624   1.483219039431e-08
         "BPM.19L5.B1"             9322.384                    1       230.0535811247   1.483239697419e-08          222.1135654          20.21861658       230.0503770275   1.483219039431e-08
         "BPM.18L5.B1"             9375.832                    1       32.73263685077   1.483239697419e-08          32.67316235          20.31782523       32.73218096328   1.483219039431e-08
         "BPM.17L5.B1"             9429.281                    1       135.1426006303   1.483239697419e-08          133.9960624          20.48419941       135.1407184165   1.483219039431e-08
         "BPM.16L5.B1"             9482.729                    1       37.47748845088   1.483239697419e-08          36.79169542          20.60945935       37.47696647894   1.483219039431e-08
         "BPM.15L5.B1"             9536.178                    1       214.9455724049   1.483239697419e-08          222.1212136           20.7185887       214.9425787263   1.483219039431e-08
         "BPM.14L5.B1"             9589.626                    1        33.1048628018   1.483239697419e-08          32.67722715          20.81778827       33.10440173009   1.483219039431e-08
         "BPM.13L5.B1"             9643.075                    1        132.863889968   1.483239697419e-08          133.9884187           20.9841532       132.8620394912   1.483219039431e-08
         "BPM.12L5.B1"             9696.523                    1       38.60708209794   1.483239697419e-08          40.14177169          21.10281853       38.60654439346   1.483219039431e-08
         "BPM.11L5.B1"             9749.972                    1         223.22348727   1.483239697419e-08          222.0631327          21.20642828       223.2203782998   1.483219039431e-08
         "BPM.10L5.B1"             9802.753                    1       65.50264171197   1.483239697419e-08          66.90384916          21.27419416       65.50172941655   1.483219039431e-08
          "BPM.9L5.B1"             9841.818                    1       203.2443454849   1.483239697419e-08          203.2477193          21.33402049       203.2415147764   1.483219039431e-08
          "BPM.8L5.B1"             9882.281                    1       8.485792777497   1.483239697419e-08          8.726605762           21.4916793       8.485674590663   1.483219039431e-08
         "BPMR.7L5.B1"             9921.347                    1       207.7090391749   1.483239697419e-08          216.1692297          21.73503692       207.7061462838   1.483219039431e-08
         "BPMR.5L5.B1"             9990.141                    1       149.0722509269   1.483239697419e-08          154.5659719           22.1853188       149.0701747063   1.483219039431e-08
        "BPMWB.4L5.B1"             10038.68                    1       1045.303531086   1.483239697419e-08          1069.525585           22.2057352       1045.288972503   1.483219039431e-08
        "BPMSY.4L5.B1"             10131.46                    1       6737.772113046   1.483239697419e-08          6718.383354          22.21124496       6737.678271966   1.483219039431e-08
         "BPMS.2L5.B1"             10158.25                    1       1941.280223368   1.483239697419e-08           1909.75128          22.21251674       1941.253185969   1.483219039431e-08
        "BPMSW.1L5.B1"             10168.21                    1        1509.37641516   1.483239697419e-08          1513.161903          22.21334254        1509.35539315   1.483219039431e-08
         "BPMS.2R5.B1"              10221.3                    1       4896.811525477   1.483239697419e-08          5078.206026          22.70945494       4896.743324583   1.483219039431e-08
        "BPMSY.4R5.B1"             10248.09                    1       2908.540046704   1.483239697419e-08          3242.043737           22.7103301       2908.499537684   1.483219039431e-08
        "BPMWB.4R5.B1"             10340.87                    1       1685.828932933   1.483239697419e-08          1706.336343          22.71660989        1685.80545336   1.483219039431e-08
        "BPMYA.4R5.B1"                10362                    1       1335.432091033   1.483239697419e-08          1363.372143          22.71877376       1335.413491652   1.483219039431e-08
          "BPM.5R5.B1"             10383.12                    1       697.9539705098   1.483239697419e-08          718.1543596          22.72217071       697.9442496773   1.483219039431e-08
         "BPMR.6R5.B1"             10415.02                    1       249.2069039636   1.483239697419e-08          252.0213641          22.73431219       249.2034331064   1.483219039431e-08
          "BPM.8R5.B1"             10490.47                    1       120.8853878458   1.483239697419e-08          115.1238467          23.06256576       120.8837042009   1.483219039431e-08
          "BPM.9R5.B1"             10529.54                    1       52.67028505442   1.483239697419e-08          51.57037114          23.13780206       52.66955148309   1.483219039431e-08
         "BPM.10R5.B1"             10570.01                    1       214.2783703224   1.483239697419e-08          217.1941179          23.20904809       214.2753859363   1.483219039431e-08
         "BPM.11R5.B1"             10622.79                    1       30.76098887487   1.483239697419e-08          31.55846446          23.30812335       30.76056044773   1.483219039431e-08
         "BPM.12R5.B1"             10677.51                    1       140.8765603016   1.483239697419e-08          133.1728114          23.48505178       140.8745982274   1.483219039431e-08
         "BPM.14R5.B1"             10784.42                    1       218.7444745229   1.483239697419e-08          221.8794122          23.71951656       218.7414279346   1.483219039431e-08
         "BPM.17R5.B1"             10944.77                    1       37.08306389279   1.483239697419e-08          36.92258691          24.11054008       37.08254741424   1.483219039431e-08
         "BPM.18R5.B1"             10998.22                    1       225.0254399541   1.483239697419e-08          221.8794122          24.21951656       225.0223058869   1.483219039431e-08
         "BPM.19R5.B1"             11051.68                    1       35.08187012063   1.483239697419e-08          32.53874536          24.31902836       35.08138151394   1.483219039431e-08
         "BPM.20R5.B1"             11105.13                    1       139.5007982255   1.483239697419e-08          134.2621539          24.48571205       139.4988553124   1.483219039431e-08
         "BPM.23R5.B1"             11265.48                    1       32.55876390494   1.483239697419e-08          32.53874536          24.81902836       32.55831043908   1.483219039431e-08
         "BPM.24R5.B1"             11318.93                    1       137.6768098347   1.483239697419e-08          134.2621539          24.98571205       137.6748923254   1.483219039431e-08
         "BPM.25R5.B1"             11372.38                    1       37.96901481451   1.483239697419e-08          36.92258691          25.11054008       37.96848599678   1.483219039431e-08
         "BPM.26R5.B1"             11425.84                    1       224.5529530461   1.483239697419e-08          221.8794122          25.21951656       224.5498255596   1.483219039431e-08
         "BPM.27R5.B1"             11479.29                    1       31.30051022192   1.483239697419e-08          32.53874536          25.31902836       31.30007428054   1.483219039431e-08
         "BPM.28R5.B1"             11532.74                    1       140.3117089149   1.483239697419e-08          134.2621539          25.48571205       140.3097547078   1.483219039431e-08
         "BPM.29R5.B1"             11586.19                    1        37.1823310217   1.483239697419e-08          36.92258691          25.61054008        37.1818131606   1.483219039431e-08
         "BPM.30R5.B1"             11639.64                    1        213.925396202   1.483239697419e-08          221.8794122          25.71951656       213.9224167319   1.483219039431e-08
         "BPM.31R5.B1"             11693.09                    1       32.46086116319   1.483239697419e-08          32.53874536          25.81902836       32.46040906089   1.483219039431e-08
         "BPM.32R5.B1"             11746.54                    1       137.9316305785   1.483239697419e-08          134.2621539          25.98571205       137.9297095202   1.483219039431e-08
         "BPM.33R5.B1"                11800                    1       35.25743625226   1.483239697419e-08          36.92258691          26.11054008       35.25694520035   1.483219039431e-08
         "BPM.34R5.B1"             11853.45                    1       198.0308163306   1.483239697419e-08          221.8794122          26.21951656       198.0280582341   1.483219039431e-08
         "BPM.33L6.B1"              11906.9                    1        34.7140519654   1.483239697419e-08          32.53874536          26.31902836       34.71356848153   1.483219039431e-08
         "BPM.32L6.B1"             11960.35                    1       139.4401433391   1.483239697419e-08          134.2621539          26.48571205       139.4382012708   1.483219039431e-08
         "BPM.30L6.B1"             12067.25                    1       215.6151254804   1.483239697419e-08          221.8794122          26.71951656       215.6121224765   1.483219039431e-08
         "BPM.29L6.B1"              12120.7                    1       32.23009241414   1.483239697419e-08          32.53874537          26.81902836        32.2296435259   1.483219039431e-08
         "BPM.28L6.B1"             12174.16                    1       148.0468760376   1.483239697419e-08          134.2621539          26.98571205        148.044814098   1.483219039431e-08
         "BPM.27L6.B1"             12227.61                    1       36.80405652935   1.483239697419e-08          36.92258691          27.11054008       36.80354393671   1.483219039431e-08
         "BPM.26L6.B1"             12281.06                    1       211.5582399794   1.483239697419e-08          221.8794122          27.21951656       211.5552934781   1.483219039431e-08
         "BPM.25L6.B1"             12334.51                    1       35.34484636977   1.483239697419e-08          32.53874537          27.31902836       35.34435410044   1.483219039431e-08
         "BPM.24L6.B1"             12387.96                    1        145.133375063   1.483239697419e-08          134.2621539          27.48571205       145.1313537016   1.483219039431e-08
         "BPM.22L6.B1"             12494.87                    1       220.5102231974   1.483239697419e-08          221.8794122          27.71951656       220.5071520165   1.483219039431e-08
         "BPM.21L6.B1"             12548.32                    1       32.71655425703   1.483239697419e-08          32.53874537          27.81902836       32.71609859353   1.483219039431e-08
         "BPM.20L6.B1"             12601.77                    1       142.5042115892   1.483239697419e-08          134.2621539          27.98571205       142.5022268458   1.483219039431e-08
         "BPM.19L6.B1"             12655.22                    1       33.95691400837   1.483239697419e-08          36.92258691          28.11054008       33.95644106963   1.483219039431e-08
         "BPM.18L6.B1"             12708.67                    1       208.3946165184   1.483239697419e-08          221.8794122          28.21951656       208.3917140789   1.483219039431e-08
         "BPM.17L6.B1"             12762.12                    1       34.36084291963   1.483239697419e-08          32.53874537          28.31902836       34.36036435512   1.483219039431e-08
         "BPM.16L6.B1"             12815.57                    1       143.3027977353   1.483239697419e-08          134.2621539          28.48571205       143.3008018694   1.483219039431e-08
         "BPM.15L6.B1"             12869.03                    1       41.54685008411   1.483239697419e-08          36.92258691          28.61054008       41.54627143568   1.483219039431e-08
         "BPM.14L6.B1"             12922.48                    1       221.3837771976   1.483239697419e-08          221.8794122          28.71951656       221.3806938501   1.483219039431e-08
         "BPM.13L6.B1"             12975.93                    1       31.00865471604   1.483239697419e-08          32.53874537          28.81902836        31.0082228395   1.483219039431e-08
         "BPM.12L6.B1"             13029.38                    1       138.3701870878   1.483239697419e-08          134.2947993           28.9856803       138.3682599215   1.483219039431e-08
         "BPM.11L6.B1"             13082.83                    1       33.36342632131   1.483239697419e-08          32.01597285          29.12255496       33.36296164843   1.483219039431e-08
         "BPM.10L6.B1"             13134.67                    1       212.5015394949   1.483239697419e-08          216.1741275          29.23869486       212.4985798558   1.483219039431e-08
          "BPM.9L6.B1"             13173.74                    1       15.36886628801   1.483239697419e-08          14.52071708          29.34615847       15.36865223639   1.483219039431e-08
          "BPM.8L6.B1"              13214.2                    1       141.1243318972   1.483239697419e-08          147.0165951          29.61214559       141.1223663722   1.483219039431e-08
        "BPMYA.5L6.B1"             13311.29                    1       163.0342929991   1.483239697419e-08          170.8769797          29.70761382       163.0320223207   1.483219039431e-08
        "BPMYB.4L6.B1"             13347.69                    1       529.9582356035   1.483239697419e-08          581.3489789          29.72707803       529.9508545505   1.483219039431e-08
       "BPMSX.B4L6.B1"             13383.23                    1       420.5202648381   1.483239697419e-08          498.5774075          29.73716106       420.5144079947   1.483219039431e-08
       "BPMSX.A4L6.B1"             13383.82                    1        451.837264016   1.483239697419e-08          496.4842521          29.73734819       451.8309710016   1.483219039431e-08
        "BPMSA.4R6.B1"             13568.51                    1       119.8585398967   1.483239697419e-08          124.5561266          29.87057837       119.8568705534   1.483219039431e-08
       "BPMSI.A4R6.B1"             13661.77                    1       151.3385063052   1.483239697419e-08          155.6121691          29.98740365       151.3363985211   1.483219039431e-08
       "BPMSI.B4R6.B1"             13662.41                    1       142.1043686488   1.483239697419e-08          156.3270212          29.98805162       142.1023894742   1.483219039431e-08
        "BPMYA.4R6.B1"             13691.29                    1       181.2516994175   1.483239697419e-08           196.042679          30.01443213        181.249175014   1.483219039431e-08
        "BPMYB.5R6.B1"             13727.69                    1       617.0626074649   1.483239697419e-08          657.0735012          30.03139334        617.054013256   1.483219039431e-08
          "BPM.9R6.B1"             13862.49                    1       118.1114751666   1.483239697419e-08          108.9468703          30.32959756       118.1098301557   1.483219039431e-08
         "BPM.10R6.B1"             13902.95                    1       26.30567317281   1.483239697419e-08          29.75705645          30.43629833       26.30530679758   1.483219039431e-08
         "BPM.11R6.B1"             13954.79                    1       197.7045778544   1.483239697419e-08          192.0685537          30.57246176       197.7018243016   1.483219039431e-08
         "BPM.12R6.B1"             14009.52                    1       40.25138749021   1.483239697419e-08          36.24426759          30.67738712       40.25082688448   1.483219039431e-08
         "BPM.13R6.B1"             14062.97                    1       162.4129148662   1.483239697419e-08          158.6743884           30.8135595        162.410652842   1.483219039431e-08
         "BPM.14R6.B1"             14116.42                    1       32.62761353121   1.483239697419e-08          31.77730727          30.93691782       32.62715910645   1.483219039431e-08
         "BPM.15R6.B1"             14169.87                    1       196.3554178502   1.483239697419e-08          188.4941717          31.06954662        196.352683088   1.483219039431e-08
         "BPM.16R6.B1"             14223.33                    1       30.46478062653   1.483239697419e-08          30.69610811          31.18274838       30.46435632487   1.483219039431e-08
         "BPM.17R6.B1"             14276.78                    1       168.0937326326   1.483239697419e-08          159.7694364          31.33520716       168.0913914882   1.483219039431e-08
         "BPM.18R6.B1"             14330.23                    1       31.18111171091   1.483239697419e-08           32.4608085          31.45629423       31.18067743246   1.483219039431e-08
         "BPM.20R6.B1"             14437.13                    1        26.7951930389   1.483239697419e-08          30.04014949          31.70324806       26.79481984583   1.483219039431e-08
         "BPM.21R6.B1"             14490.58                    1       159.0422688997   1.483239697419e-08           161.956284          31.85661842       159.0400538206   1.483219039431e-08
         "BPM.22R6.B1"             14544.04                    1       31.15042128819   1.483239697419e-08          33.07898663          31.97528373       31.14998743719   1.483219039431e-08
         "BPM.23R6.B1"             14597.49                    1       189.3975489909   1.483239697419e-08          182.7015947           32.1071029       189.3949111352   1.483219039431e-08
         "BPM.24R6.B1"             14650.94                    1       31.28842697016   1.483239697419e-08          31.13264758          32.22151708       31.28799119707   1.483219039431e-08
         "BPM.25R6.B1"             14704.39                    1       159.6512924718   1.483239697419e-08          163.1131138          32.37009525       159.6490689105   1.483219039431e-08
         "BPM.26R6.B1"             14757.84                    1       34.97562739999   1.483239697419e-08          33.39917783          32.48757194         34.975140273   1.483219039431e-08
         "BPM.27R6.B1"             14811.29                    1        182.910156186   1.483239697419e-08          181.4934268          32.61913157       182.9076086842   1.483219039431e-08
         "BPM.28R6.B1"             14864.74                    1       32.39986777105   1.483239697419e-08          30.82693071          32.73470344       32.39941651825   1.483219039431e-08
         "BPM.29R6.B1"              14918.2                    1       167.6283983798   1.483239697419e-08          164.4386605          32.88347262       167.6260637164   1.483219039431e-08
         "BPM.30R6.B1"             14971.65                    1       33.25534138893   1.483239697419e-08          33.68846803          32.99974827       33.25487822142   1.483219039431e-08
         "BPM.31R6.B1"              15025.1                    1       178.4894859525   1.483239697419e-08          180.0589664          33.13124835       178.4870000201   1.483219039431e-08
         "BPM.32R6.B1"             15078.55                    1       30.69894746727   1.483239697419e-08          30.55591463          33.24801395       30.69851990422   1.483219039431e-08
         "BPM.33R6.B1"                15132                    1       174.4319006521   1.483239697419e-08           165.972874          33.39673397       174.4294712322   1.483219039431e-08
         "BPM.34R6.B1"             15185.45                    1        36.4067006145   1.483239697419e-08          33.93947925           33.5118271       36.40619355608   1.483219039431e-08
         "BPM.32L7.B1"             15292.36                    1       30.71386184311   1.483239697419e-08          30.32651124          33.76143408       30.71343407234   1.483219039431e-08
         "BPM.31L7.B1"             15345.81                    1       175.1236727468   1.483239697419e-08          167.6766263          33.90986635       175.1212336922   1.483219039431e-08
         "BPM.30L7.B1"             15399.26                    1       32.90331835398   1.483239697419e-08           34.1458098          34.02382461        32.9028600893   1.483219039431e-08
         "BPM.29L7.B1"             15452.71                    1       171.3923251178   1.483239697419e-08          176.6623422          34.15580629       171.3899380319   1.483219039431e-08
         "BPM.28L7.B1"             15506.16                    1       30.43518530771   1.483239697419e-08          30.14457118          34.27494569       30.43476141824   1.483219039431e-08
         "BPM.27L7.B1"             15559.61                    1       175.1490132178   1.483239697419e-08          169.5064654          34.42286083       175.1465738102   1.483219039431e-08
         "BPM.26L7.B1"             15613.06                    1        35.0691307149   1.483239697419e-08          34.30219748           34.5357584       35.06864228563   1.483219039431e-08
         "BPM.25L7.B1"             15666.52                    1       187.0227693134   1.483239697419e-08          174.7868048          34.66827218       187.0201645327   1.483219039431e-08
         "BPM.24L7.B1"             15719.97                    1       26.49397361161   1.483239697419e-08           30.0147346          34.78852747       26.49360461381   1.483219039431e-08
         "BPM.23L7.B1"             15773.42                    1       176.0449200958   1.483239697419e-08          171.4157236          34.93571248       176.0424682103   1.483219039431e-08
         "BPM.22L7.B1"             15826.87                    1       36.97117565398   1.483239697419e-08          34.40465382          35.04764713       36.97066073377   1.483219039431e-08
         "BPM.21L7.B1"             15880.32                    1       170.9011544163   1.483239697419e-08          172.8560185          35.18087486       170.8987741712   1.483219039431e-08
         "BPM.20L7.B1"             15933.77                    1       29.58205804015   1.483239697419e-08          28.40455429          35.30622227       29.58164603271   1.483219039431e-08
         "BPM.19L7.B1"             15987.23                    1       185.9140701741   1.483239697419e-08          176.9074139          35.45597932       185.9114808349   1.483219039431e-08
         "BPM.18L7.B1"             16040.68                    1       37.06884389784   1.483239697419e-08          34.43983731          35.56571758       37.06832761734   1.483219039431e-08
         "BPM.17L7.B1"             16094.13                    1       167.3125154261   1.483239697419e-08          168.7536841          35.70103391       167.3101851622   1.483219039431e-08
         "BPM.16L7.B1"             16147.58                    1       28.05619368828   1.483239697419e-08           28.4761101          35.82811878       28.05580293249   1.483219039431e-08
         "BPM.15L7.B1"             16201.03                    1       179.0402797747   1.483239697419e-08          180.8824888          35.97522195       179.0377861711   1.483219039431e-08
         "BPM.14L7.B1"             16254.48                    1       35.72877472161   1.483239697419e-08           34.2752025          36.08382494       35.72827710508   1.483219039431e-08
         "BPM.13L7.B1"             16307.93                    1       167.8761717703   1.483239697419e-08          164.9679097          36.22167195        167.873833656   1.483219039431e-08
         "BPM.12L7.B1"             16361.39                    1       32.94518241966   1.483239697419e-08          33.88059839           36.3373888       32.94472357192   1.483219039431e-08
         "BPM.10L7.B1"             16467.62                    1       50.56269541332   1.483239697419e-08          50.82300856          36.55503997       50.56199119568   1.483219039431e-08
          "BPM.9L7.B1"             16506.69                    1       183.0788870679   1.483239697419e-08          174.1254473          36.62984833       183.0763372161   1.483219039431e-08
          "BPM.8L7.B1"             16547.15                    1       61.38229146543   1.483239697419e-08          60.39806507          36.69025745       61.38143655665   1.483219039431e-08
          "BPM.7L7.B1"             16586.22                    1       124.8741443786   1.483239697419e-08          126.8540198          36.76878644       124.8724051799   1.483219039431e-08
          "BPM.6L7.B1"             16621.04                    1       48.05179127487   1.483239697419e-08          46.58783478          36.83917325       48.05112202813   1.483219039431e-08
        "BPMWC.6L7.B1"             16633.14                    1       42.73194462147   1.483239697419e-08          47.44706555          36.88327252        42.7313494675   1.483219039431e-08
        "BPMWE.5L7.B1"             16710.19                    1       313.1513387041   1.483239697419e-08          327.2039188          36.98938526       313.1469772536   1.483219039431e-08
         "BPMW.5L7.B1"              16733.4                    1       269.8807075283   1.483239697419e-08          299.7740494          37.00031456       269.8769487344   1.483219039431e-08
        "BPMWE.4L7.B1"             16768.48                    1       87.56159803738   1.483239697419e-08          99.49460192          37.03287411       87.56037851336   1.483219039431e-08
         "BPMW.4L7.B1"             16796.59                    1       53.68912520553   1.483239697419e-08          57.96080567          37.09903301       53.68837744419   1.483219039431e-08
         "BPMW.4R7.B1"             16912.63                    1       330.3296772516   1.483239697419e-08          357.5284686          37.24825707       330.3250765479   1.483219039431e-08
        "BPMWE.4R7.B1"             16940.74                    1       273.0272592018   1.483239697419e-08          300.2812777          37.26091663       273.0234565839   1.483219039431e-08
         "BPMW.5R7.B1"             16975.82                    1       83.72021245221   1.483239697419e-08          86.83567815          37.29577493       83.71904642952   1.483219039431e-08
        "BPMWE.5R7.B1"             16999.03                    1       38.89587609829   1.483239697419e-08          44.86342862          37.36129226       38.89533437159   1.483219039431e-08
         "BPMR.6R7.B1"             17078.24                    1       175.7653264699   1.483239697419e-08          180.3248922          37.53276127       175.7628784785   1.483219039431e-08
        "BPM_A.7R7.B1"             17116.28                    1       57.89211818818   1.483239697419e-08          61.25421933          37.58556192       57.89131188918   1.483219039431e-08
          "BPM.8R7.B1"             17155.35                    1       148.7990391882   1.483239697419e-08          136.1253134          37.66304706       148.7969667728   1.483219039431e-08
          "BPM.9R7.B1"             17194.41                    1       43.03822396809   1.483239697419e-08          42.55643018          37.74327375       43.03762454838   1.483219039431e-08
         "BPM.10R7.B1"             17234.88                    1       165.3376329905   1.483239697419e-08          163.1615331          37.83428425        165.335330232   1.483219039431e-08
         "BPM.11R7.B1"             17287.66                    1       35.77413262932   1.483239697419e-08           34.6405383          37.94746465       35.77363438106   1.483219039431e-08
         "BPM.12R7.B1"             17342.39                    1       196.4359211625   1.483239697419e-08          184.3818777           38.0776461        196.433185279   1.483219039431e-08
         "BPM.13R7.B1"             17395.84                    1       33.28398514363   1.483239697419e-08          31.88640395          38.18985352       33.28352157718   1.483219039431e-08
         "BPM.14R7.B1"             17449.29                    1       169.0335486037   1.483239697419e-08          163.0213528          38.33601522       169.0311943699   1.483219039431e-08
         "BPM.15R7.B1"             17502.74                    1       32.01873581133   1.483239697419e-08          31.02342401          38.45903013       32.01828986678   1.483219039431e-08
         "BPM.16R7.B1"             17556.19                    1       180.5089640039   1.483239697419e-08          183.6946154          38.59614646        180.506449945   1.483219039431e-08
         "BPM.17R7.B1"             17609.65                    1       33.93020236759   1.483239697419e-08          31.42075784          38.70951706       33.92972980087   1.483219039431e-08
         "BPM.18R7.B1"              17663.1                    1       167.0540560244   1.483239697419e-08          163.1378398          38.85713321       167.0517293602   1.483219039431e-08
         "BPM.19R7.B1"             17716.55                    1       30.76314269904   1.483239697419e-08          31.48995718          38.97894333       30.76271424191   1.483219039431e-08
         "BPM.20R7.B1"                17770                    1       175.9777308902   1.483239697419e-08          183.2572881          39.11490522       175.9752799406   1.483219039431e-08
         "BPM.21R7.B1"             17823.45                    1        31.8495391149   1.483239697419e-08           30.9553047          39.22947433       31.84909552686   1.483219039431e-08
         "BPM.22R7.B1"              17876.9                    1       177.3449227259   1.483239697419e-08          163.8891819          39.37819488       177.3424527345   1.483219039431e-08
         "BPM.24R7.B1"             17983.81                    1       180.7805137092   1.483239697419e-08          180.6492182          39.62644473       180.7779958682   1.483219039431e-08
         "BPM.25R7.B1"             18037.26                    1       31.88087506874   1.483239697419e-08          30.65847761          39.74273655       31.88043104426   1.483219039431e-08
         "BPM.26R7.B1"             18090.71                    1       162.9506734858   1.483239697419e-08          165.3452336          39.89150374       162.9484039719   1.483219039431e-08
         "BPM.28R7.B1"             18197.61                    1       200.0209751193   1.483239697419e-08          179.0954335          40.13862254       200.0181893047   1.483219039431e-08
         "BPM.29R7.B1"             18251.06                    1        30.3217762071   1.483239697419e-08          30.41190848           40.2561153       30.32135389715   1.483219039431e-08
         "BPM.30R7.B1"             18304.51                    1       171.5092516443   1.483239697419e-08          166.9868287          40.40468829       171.5068629298   1.483219039431e-08
         "BPM.31R7.B1"             18357.97                    1         34.980972225   1.483239697419e-08          34.06980608          40.51908748       34.98048502357   1.483219039431e-08
         "BPM.32R7.B1"             18411.42                    1       179.1617024265   1.483239697419e-08          177.3765115           40.6509124       179.1592071317   1.483219039431e-08
         "BPM.33R7.B1"             18464.87                    1       31.57854592379   1.483239697419e-08          30.21062428          40.76959309       31.57810611003   1.483219039431e-08
         "BPM.34R7.B1"             18518.32                    1       171.5666750535   1.483239697419e-08          168.7721005            40.917738       171.5642855393   1.483219039431e-08
         "BPM.33L8.B1"             18571.77                    1        34.7311665932   1.483239697419e-08           34.2464451          41.03104434       34.73068287097   1.483219039431e-08
         "BPM.32L8.B1"             18625.22                    1       165.3369426721   1.483239697419e-08          175.5362909          41.16332647       165.3346399232   1.483219039431e-08
         "BPM.31L8.B1"             18678.68                    1       29.12779422276   1.483239697419e-08          30.05975849          41.28314979       29.12738854212   1.483219039431e-08
         "BPM.30L8.B1"             18732.13                    1       169.8497863163   1.483239697419e-08           170.655518          41.43064637       169.8474207143   1.483219039431e-08
         "BPM.29L8.B1"             18785.58                    1       35.22251737564   1.483239697419e-08          34.37057421          41.54294867       35.22202681006   1.483219039431e-08
         "BPM.28L8.B1"             18839.03                    1       165.0154111247   1.483239697419e-08          173.6217042          41.67587435       165.0131128539   1.483219039431e-08
         "BPM.27L8.B1"             18892.48                    1       29.23197371968   1.483239697419e-08          29.96315875          41.79676248       29.23156658808   1.483219039431e-08
         "BPM.26L8.B1"             18945.93                    1       176.5757613955   1.483239697419e-08          172.5890471          41.94341089       176.5733021167   1.483219039431e-08
         "BPM.25L8.B1"             18999.38                    1       34.63966347363   1.483239697419e-08          34.43902768          42.05481961       34.63918102581   1.483219039431e-08
         "BPM.24L8.B1"             19052.84                    1       174.1389496772   1.483239697419e-08          171.6815804           42.1885626       174.1365243374   1.483219039431e-08
         "BPM.23L8.B1"             19106.29                    1       28.31751604015   1.483239697419e-08          29.92328871          42.31040626       28.31712164475   1.483219039431e-08
         "BPM.22L8.B1"             19159.74                    1       184.8434575585   1.483239697419e-08          174.5233757          42.45603286       184.8408831304   1.483219039431e-08
         "BPM.21L8.B1"             19213.19                    1         37.929647602   1.483239697419e-08          34.45005968          42.56667681       37.92911933256   1.483219039431e-08
         "BPM.20L8.B1"             19266.64                    1       177.0297715587   1.483239697419e-08          171.1643305          42.70069161       177.0273059566   1.483219039431e-08
         "BPM.19L8.B1"             19320.09                    1       27.63501867788   1.483239697419e-08          28.41024697          42.82681281       27.63463378805   1.483219039431e-08
         "BPM.18L8.B1"             19373.54                    1       192.6934514504   1.483239697419e-08          178.5640127          42.97553743       192.6907676907   1.483219039431e-08
         "BPM.17L8.B1"                19427                    1       36.51716972555   1.483239697419e-08          34.39598576          43.08474952       36.51666112855   1.483219039431e-08
         "BPM.16L8.B1"             19480.45                    1       172.5295346057   1.483239697419e-08          167.1597298          43.22104746       172.5271316812   1.483219039431e-08
         "BPM.15L8.B1"              19533.9                    1       27.63089836147   1.483239697419e-08          28.55774343           43.3486756       27.63051352902   1.483219039431e-08
         "BPM.14L8.B1"             19587.35                    1        186.457377867   1.483239697419e-08          182.3906208          43.49461042       186.4547809609   1.483219039431e-08
         "BPM.13L8.B1"              19640.8                    1       34.97926818694   1.483239697419e-08          34.15736881          43.60289982       34.97878100925   1.483219039431e-08
         "BPM.12L8.B1"             19694.25                    1       160.5475090713   1.483239697419e-08          161.9900504          43.74275925       160.5452730278   1.483219039431e-08
         "BPM.11L8.B1"              19747.7                    1        30.5280879822   1.483239697419e-08           32.9285301          43.86183247       30.52766279881   1.483219039431e-08
         "BPM.10L8.B1"             19799.55                    1       182.2744236993   1.483239697419e-08          175.2907345          43.99151785       182.2718850517   1.483219039431e-08
          "BPM.9L8.B1"             19838.61                    1       48.12778965862   1.483239697419e-08          45.96341599          44.05690732        48.1271193534   1.483219039431e-08
          "BPM.8L8.B1"             19879.08                    1       124.8915429427   1.483239697419e-08           126.956318          44.15953752       124.8898035017   1.483219039431e-08
          "BPM.7L8.B1"             19918.15                    1       27.97899397472   1.483239697419e-08          29.88869511          44.25747915       27.97860429413   1.483219039431e-08
         "BPMR.6L8.B1"             19950.61                    1       90.97994148734   1.483239697419e-08          93.03710312          44.36060978       90.97867435396   1.483219039431e-08
        "BPMYB.4L8.B1"              20031.8                    1       204.5511455392   1.483239697419e-08          216.4111559           44.7047916       204.5482966301   1.483219039431e-08
        "BPMWB.4L8.B1"             20056.19                    1       241.6385272085   1.483239697419e-08          277.6697556          44.71946685       241.6351617607   1.483219039431e-08
        "BPMSX.4L8.B1"             20106.42                    1        285.626138262   1.483239697419e-08           317.564358          44.74652029       285.6221601718   1.483219039431e-08
         "BPMS.2L8.B1"             20144.34                    1       454.9221824338   1.483239697419e-08          496.7388463          44.76080878       454.9158464538   1.483219039431e-08
        "BPMSW.1L8.B1"             20154.27                    1       141.1245444877   1.483239697419e-08          149.2354108          44.76732903       141.1225789597   1.483219039431e-08
         "BPMS.2R8.B1"             20207.39                    1       173.0312769464   1.483239697419e-08          188.8796261          45.22951093       173.0288670338   1.483219039431e-08
        "BPMSX.4R8.B1"             20245.31                    1       493.9141199252   1.483239697419e-08          541.3359638          45.24565689       493.9072408807   1.483219039431e-08
        "BPMWB.4R8.B1"             20295.46                    1       177.8834471465   1.483239697419e-08          214.0285621          45.26919473       177.8809696548   1.483219039431e-08
        "BPMYB.4R8.B1"             20319.93                    1       110.6885743616   1.483239697419e-08          139.0984814          45.29355192        110.687032734   1.483219039431e-08
        "BPMYB.5R8.B1"             20340.51                    1       178.0283535721   1.483239697419e-08          188.8586737          45.31381223       178.0258740622   1.483219039431e-08
          "BPM.6R8.B1"             20424.62                    1       49.17809153485   1.483239697419e-08          46.67608528          45.52501849       49.17740660144   1.483219039431e-08
        "BPM_A.7R8.B1"             20446.86                    1       156.5783992315   1.483239697419e-08          160.5193853          45.56637486       156.5762184682   1.483219039431e-08
          "BPM.8R8.B1"             20488.29                    1       14.54893299507   1.483239697419e-08          13.25827847           45.7020593       14.54873036317   1.483219039431e-08
          "BPM.9R8.B1"             20527.36                    1        142.984422228   1.483239697419e-08          145.7652599           45.9252294       142.9824307964   1.483219039431e-08
         "BPM.10R8.B1"             20567.82                    1       30.56961039695   1.483239697419e-08          28.45700027          46.01584262       30.56918463526   1.483219039431e-08
         "BPM.11R8.B1"             20619.66                    1       139.8884975191   1.483239697419e-08           144.474791          46.19170239       139.8865492063   1.483219039431e-08
         "BPM.12R8.B1"             20674.38                    1       44.14233522656   1.483239697419e-08          44.24734707          46.30225866       44.14172042922   1.483219039431e-08
         "BPM.13R8.B1"             20727.83                    1       218.3156483124   1.483239697419e-08          221.3359225          46.40034757       218.3126076967   1.483219039431e-08
         "BPM.14R8.B1"             20781.28                    1       35.81187254608   1.483239697419e-08          36.58585782          46.49364695       35.81137377219   1.483219039431e-08
         "BPM.16R8.B1"             20888.18                    1        35.6759095615   1.483239697419e-08          32.54750983          46.78236136       35.67541268125   1.483219039431e-08
         "BPM.17R8.B1"             20941.63                    1        219.318134062   1.483239697419e-08          220.8615945          46.90031896       219.3150794839   1.483219039431e-08
         "BPM.18R8.B1"             20995.07                    1         35.555900239   1.483239697419e-08          36.58962548          46.99361395       35.55540503019   1.483219039431e-08
         "BPM.19R8.B1"             21048.52                    1       131.2274251317   1.483239697419e-08          133.5527301          47.14630833       131.2255974469   1.483219039431e-08
         "BPM.20R8.B1"             21101.97                    1       33.49136090059   1.483239697419e-08          32.54374238          47.28232425       33.49089444589   1.483219039431e-08
         "BPM.21R8.B1"             21155.42                    1       208.1368762895   1.483239697419e-08          220.8596405          47.40029093       208.1339774398   1.483219039431e-08
         "BPM.23R8.B1"             21262.32                    1       132.3019738763   1.483239697419e-08          133.5546886          47.64626197       132.3001312257   1.483219039431e-08
         "BPM.24R8.B1"             21315.76                    1       31.62153117208   1.483239697419e-08          32.53997534          47.78228714       31.62109075964   1.483219039431e-08
         "BPM.25R8.B1"             21369.21                    1       224.3422247906   1.483239697419e-08          220.8576776           47.9002629        224.339100239   1.483219039431e-08
         "BPM.26R8.B1"             21422.66                    1       36.57085994028   1.483239697419e-08          36.59715956          47.99354794       36.57035059551   1.483219039431e-08
         "BPM.27R8.B1"             21476.11                    1       130.9825637803   1.483239697419e-08           133.556656          48.14621562       130.9807395059   1.483219039431e-08
         "BPM.28R8.B1"             21529.56                    1       33.15334605833   1.483239697419e-08          32.53620871          48.28225003       33.15288431137   1.483219039431e-08
         "BPM.29R8.B1"             21583.01                    1       217.6149842525   1.483239697419e-08          220.8557057          48.40023487       217.6119533953   1.483219039431e-08
         "BPM.30R8.B1"             21636.46                    1       36.74826432368   1.483239697419e-08          36.60092598          48.49351495       36.74775250809   1.483219039431e-08
         "BPM.31R8.B1"              21689.9                    1       131.4544588748   1.483239697419e-08          133.5586323          48.64616927        131.452628028   1.483219039431e-08
         "BPM.32R8.B1"             21743.35                    1       32.55201465251   1.483239697419e-08          32.53244251          48.78221291       32.55156128066   1.483219039431e-08
         "BPM.33R8.B1"              21796.8                    1       222.5809254494   1.483239697419e-08          220.8537249          48.90020684       222.5778254285   1.483219039431e-08
         "BPM.34R8.B1"             21850.25                    1       36.76581894862   1.483239697419e-08          36.60469198          48.99348196       36.76530688854   1.483219039431e-08
         "BPM.33L1.B1"              21903.7                    1       127.8578089343   1.483239697419e-08          133.5606176          49.14612292       127.8560281803   1.483219039431e-08
         "BPM.32L1.B1"             21957.15                    1       32.87985654999   1.483239697419e-08          32.52867672          49.28217579       32.87939861209   1.483219039431e-08
         "BPM.31L1.B1"              22010.6                    1       226.9572864818   1.483239697419e-08          220.8517351          49.40017881       226.9541255087   1.483219039431e-08
         "BPM.30L1.B1"             22064.04                    1        37.0551930895   1.483239697419e-08          36.60845756          49.49344897       37.05467699912   1.483219039431e-08
         "BPM.29L1.B1"             22117.49                    1       134.4785347362   1.483239697419e-08          133.5626119          49.64607656       134.4766617712   1.483219039431e-08
         "BPM.28L1.B1"             22170.94                    1       34.93783368327   1.483239697419e-08          32.52491135          49.78213866       34.93734708265   1.483219039431e-08
         "BPM.27L1.B1"             22224.39                    1       235.5045865591   1.483239697419e-08          220.8497363          49.90015078       235.5013065425   1.483219039431e-08
         "BPM.26L1.B1"             22277.84                    1        38.3863585242   1.483239697419e-08          36.61222272          49.99341598       38.38582389387   1.483219039431e-08
         "BPM.25L1.B1"             22331.29                    1       138.1166438719   1.483239697419e-08          133.5646152          50.14603021       138.1147202368   1.483219039431e-08
         "BPM.24L1.B1"             22384.74                    1       33.42108814569   1.483239697419e-08           32.5211464          50.28210153       33.42062266972   1.483219039431e-08
         "BPM.23L1.B1"             22438.18                    1        217.148764234   1.483239697419e-08          220.8477286          50.40012274       217.1457398702   1.483219039431e-08
         "BPM.22L1.B1"             22491.63                    1       35.69977102536   1.483239697419e-08          36.61598746            50.493383       35.69927381278   1.483219039431e-08
         "BPM.21L1.B1"             22545.08                    1       136.9918766847   1.483239697419e-08          133.5666274          50.64598386       136.9899687149   1.483219039431e-08
         "BPM.20L1.B1"             22598.53                    1       32.69196198355   1.483239697419e-08          32.51738187          50.78206439       32.69150666257   1.483219039431e-08
         "BPM.19L1.B1"             22651.98                    1       224.6167808595   1.483239697419e-08          220.8457119          50.90009471       224.6136524839   1.483219039431e-08
         "BPM.18L1.B1"             22705.43                    1       36.09103524826   1.483239697419e-08          36.61975178          50.99335002        36.0905325863   1.483219039431e-08
         "BPM.17L1.B1"             22758.87                    1       132.6177119546   1.483239697419e-08          133.5686485          51.14593752       132.6158649065   1.483219039431e-08
         "BPM.16L1.B1"             22812.32                    1       35.01506170239   1.483239697419e-08          32.51361776          51.28202725       35.01457402617   1.483219039431e-08
         "BPM.15L1.B1"             22865.77                    1       230.0598240487   1.483239697419e-08          220.8436862          51.40006668       230.0566198645   1.483219039431e-08
         "BPM.14L1.B1"             22919.22                    1       37.83481370352   1.483239697419e-08          36.62351568          51.49331704       37.83428675489   1.483219039431e-08
         "BPM.13L1.B1"             22972.67                    1       132.2974454752   1.483239697419e-08          133.5706787          51.64589117       132.2956028876   1.483219039431e-08
         "BPM.12L1.B1"             23026.12                    1       33.52847818971   1.483239697419e-08          35.45360779          51.77450987       33.52801121806   1.483219039431e-08
         "BPM.11L1.B1"             23079.57                    1       213.5392389667   1.483239697419e-08          216.6366194          51.88771897       213.5362648749   1.483219039431e-08
         "BPM.10L1.B1"             23132.35                    1       74.24046479253   1.483239697419e-08          72.05765637          51.95372571        74.2394308001   1.483219039431e-08
          "BPM.9L1.B1"             23171.41                    1       230.2667027253   1.483239697419e-08          229.4661306          52.00774203       230.2634956598   1.483219039431e-08
          "BPM.8L1.B1"             23211.87                    1       7.664752961022   1.483239697419e-08          8.597597774          52.15348542       7.664646209311   1.483219039431e-08
         "BPMR.7L1.B1"             23250.94                    1       236.9480314827   1.483239697419e-08           220.479463          52.41639997       236.9447313623   1.483219039431e-08
          "BPM.6L1.B1"             23294.12                    1        5.31196510255   1.483239697419e-08          5.681521679          52.69145312       5.311891119558   1.483219039431e-08
        "BPMYA.4L1.B1"             23347.14                    1       443.5797573163   1.483239697419e-08          468.7647893          52.88210491       443.5735793093   1.483219039431e-08
        "BPMWB.4L1.B1"             23368.28                    1       1029.442532262   1.483239697419e-08          1042.270592          52.88700814       1029.428194585   1.483219039431e-08
        "BPMSY.4L1.B1"             23461.06                    1       6600.487062359   1.483239697419e-08          6603.490041          52.89263787       6600.395133332   1.483219039431e-08
         "BPMS.2L1.B1"             23487.84                    1       1933.399544299   1.483239697419e-08          1880.821953           52.8939305       1933.372616659   1.483219039431e-08
        "BPMSW.1L1.B1"             23497.79                    1       1505.263270512   1.483239697419e-08          1494.238456          52.89476686       1505.242305788   1.483219039431e-08
        "BPMSW.1R1.B1"             23540.93                    1       1472.169813418   1.483239697419e-08          1487.248086          53.39016016       1472.149309607   1.483219039431e-08
         "BPMS.2R1.B1"              23550.9                    1       5022.583517065   1.483239697419e-08          4977.457135          53.39081417       5022.513564467   1.483219039431e-08
        "BPMSY.4R1.B1"             23577.68                    1        3162.80873566   1.483239697419e-08          3182.058065          53.39170643       3162.764685285   1.483219039431e-08
        "BPMWB.4R1.B1"             23670.46                    1       1708.657756012   1.483239697419e-08          1691.277749          53.39807334       1708.633958489   1.483219039431e-08
        "BPMYA.4R1.B1"              23691.6                    1       1369.582332316   1.483239697419e-08          1355.923228          53.40025278       1369.563257304   1.483219039431e-08
          "BPM.5R1.B1"                23719                    1       597.3251189133   1.483239697419e-08           589.971406          53.40520897       597.3167996005   1.483219039431e-08
         "BPMR.6R1.B1"              23750.9                    1       178.5483052681   1.483239697419e-08          194.2717011          53.42016311       178.5458185165   1.483219039431e-08
        "BPMSX.7R1.B1"             23757.12                    1       135.0496244483   1.483239697419e-08          139.7282316          53.42616865       135.0477435294   1.483219039431e-08
        "BPM_A.7R1.B1"             23778.63                    1       22.85551499416   1.483239697419e-08          23.80984144          53.48698654        22.8551966714   1.483219039431e-08
          "BPM.8R1.B1"             23820.07                    1       111.3541850594   1.483239697419e-08          103.4210414          53.72919015       111.3526341615   1.483219039431e-08
          "BPM.9R1.B1"             23859.13                    1       48.10005892747   1.483239697419e-08          46.17868438          53.81393367       48.09938900848   1.483219039431e-08
         "BPM.10R1.B1"              23899.6                    1       213.9308928259   1.483239697419e-08          212.7503441          53.89039895       213.9279132793   1.483219039431e-08
         "BPM.11R1.B1"             23952.38                    1       36.70381064554   1.483239697419e-08          35.14375964          53.98466693       36.70329944909   1.483219039431e-08
         "BPM.12R1.B1"             24007.11                    1       131.6611541335   1.483239697419e-08          132.5711779          54.14679319        131.659320408   1.483219039431e-08
         "BPM.13R1.B1"             24060.56                    1       29.64249329702   1.483239697419e-08          32.62471968          54.28324946       29.64208044785   1.483219039431e-08
         "BPM.14R1.B1"             24114.01                    1       225.6053902452   1.483239697419e-08          220.9237099          54.40099922       225.6022481007   1.483219039431e-08
         "BPM.15R1.B1"             24167.46                    1       38.10091285778   1.483239697419e-08          36.49433388          54.49442311       38.10038220303   1.483219039431e-08
         "BPM.16R1.B1"             24220.91                    1       133.8283184389   1.483239697419e-08          133.5176177           54.6474568       133.8264545299   1.483219039431e-08
         "BPM.17R1.B1"             24274.37                    1       31.89618497901   1.483239697419e-08          32.63538634          54.78325008        31.8957407413   1.483219039431e-08
         "BPM.18R1.B1"             24327.82                    1       220.3954384062   1.483239697419e-08          220.9237099          54.90099922       220.3923688239   1.483219039431e-08
         "BPM.19R1.B1"             24381.27                    1       35.36918223076   1.483239697419e-08          36.49433388          54.99442311       35.36868962249   1.483219039431e-08
         "BPM.20R1.B1"             24434.72                    1       133.6166185852   1.483239697419e-08          133.5176177           55.1474568       133.6147576247   1.483219039431e-08
         "BPM.21R1.B1"             24488.17                    1       34.17293127044   1.483239697419e-08          32.63538634          55.28325008       34.17245532309   1.483219039431e-08
         "BPM.22R1.B1"             24541.62                    1       228.3448591281   1.483239697419e-08          220.9237099          55.40099922       228.3416788293   1.483219039431e-08
         "BPM.23R1.B1"             24595.08                    1       35.70657172005   1.483239697419e-08          36.49433388          55.49442311       35.70607441275   1.483219039431e-08
         "BPM.24R1.B1"             24648.53                    1       133.8196236506   1.483239697419e-08          133.5176177           55.6474568       133.8177598627   1.483219039431e-08
         "BPM.25R1.B1"             24701.98                    1       32.32706682934   1.483239697419e-08          32.63538634          55.78325008       32.32661659047   1.483219039431e-08
         "BPM.26R1.B1"             24755.43                    1       224.8174416064   1.483239697419e-08          220.9237099          55.90099922       224.8143104361   1.483219039431e-08
         "BPM.27R1.B1"             24808.88                    1       36.52632986243   1.483239697419e-08          36.49433388          55.99442311       36.52582113786   1.483219039431e-08
         "BPM.28R1.B1"             24862.33                    1       128.4473297256   1.483239697419e-08          133.5176177           56.1474568       128.4455407609   1.483219039431e-08
         "BPM.29R1.B1"             24915.78                    1       31.73097195622   1.483239697419e-08          32.63538634          56.28325008       31.73053001953   1.483219039431e-08
         "BPM.30R1.B1"             24969.24                    1       224.5285506909   1.483239697419e-08          220.9237099          56.40099922       224.5254235443   1.483219039431e-08
         "BPM.31R1.B1"             25022.69                    1       38.20407619953   1.483239697419e-08          36.49433388          56.49442311       38.20354410796   1.483219039431e-08
         "BPM.32R1.B1"             25076.14                    1       133.9498680171   1.483239697419e-08          133.5176177           56.6474568       133.9480024152   1.483219039431e-08
         "BPM.33R1.B1"             25129.59                    1       35.66000635064   1.483239697419e-08          32.63538634          56.78325008       35.65950969189   1.483219039431e-08
         "BPM.34R1.B1"             25183.04                    1       232.5654244602   1.483239697419e-08          220.9237099          56.90099922       232.5621853791   1.483219039431e-08
         "BPM.33L2.B1"             25236.49                    1       37.70895975304   1.483239697419e-08          36.49433388          56.99442311       37.70843455726   1.483219039431e-08
         "BPM.32L2.B1"             25289.94                    1       131.4692320934   1.483239697419e-08          133.5176177           57.1474568       131.4674010409   1.483219039431e-08
         "BPM.31L2.B1"              25343.4                    1       32.29647844251   1.483239697419e-08          32.63538634          57.28325008       32.29602862967   1.483219039431e-08
         "BPM.30L2.B1"             25396.85                    1       219.6261963886   1.483239697419e-08          220.9237099          57.40099922       219.6231375201   1.483219039431e-08
         "BPM.29L2.B1"              25450.3                    1       38.86118497216   1.483239697419e-08          36.49433389          57.49442311       38.86064372863   1.483219039431e-08
         "BPM.28L2.B1"             25503.75                    1       134.0277549986   1.483239697419e-08          133.5176177           57.6474568        134.025888312   1.483219039431e-08
         "BPM.27L2.B1"              25557.2                    1       32.37437660003   1.483239697419e-08          32.63538634          57.78325008       32.37392570225   1.483219039431e-08
         "BPM.26L2.B1"             25610.65                    1       229.8600924949   1.483239697419e-08          220.9237099          57.90099922       229.8568910926   1.483219039431e-08
         "BPM.25L2.B1"              25664.1                    1       35.66446273967   1.483239697419e-08          36.49433389          57.99442311       35.66396601885   1.483219039431e-08
         "BPM.24L2.B1"             25717.56                    1       137.0471783135   1.483239697419e-08          133.5176177           58.1474568       137.0452695735   1.483219039431e-08
         "BPM.23L2.B1"             25771.01                    1       33.04861646538   1.483239697419e-08          32.63538634          58.28325008       33.04815617705   1.483219039431e-08
         "BPM.22L2.B1"             25824.46                    1       220.4594697548   1.483239697419e-08          220.9237099          58.40099922       220.4563992808   1.483219039431e-08
         "BPM.21L2.B1"             25877.91                    1       39.43518001298   1.483239697419e-08          36.49433389          58.49442311       39.43463077506   1.483219039431e-08
         "BPM.20L2.B1"             25931.36                    1       134.6662022575   1.483239697419e-08          133.5176177           58.6474568       134.6643266788   1.483219039431e-08
         "BPM.19L2.B1"             25984.81                    1        32.3903545108   1.483239697419e-08          32.63538634          58.78325008       32.38990339049   1.483219039431e-08
         "BPM.18L2.B1"             26038.27                    1       234.9638830555   1.483239697419e-08          220.9237099          58.90099922       234.9606105695   1.483219039431e-08
         "BPM.16L2.B1"             26145.17                    1        138.220137166   1.483239697419e-08          133.5176177           59.1474568       138.2182120895   1.483219039431e-08
         "BPM.15L2.B1"             26198.62                    1       34.36960261134   1.483239697419e-08          32.63538634          59.28325008       34.36912392483   1.483219039431e-08
         "BPM.14L2.B1"             26252.07                    1       232.3384209095   1.483239697419e-08          220.9237099          59.40099922       232.3351849899   1.483219039431e-08
         "BPM.13L2.B1"             26305.52                    1       38.83320010569   1.483239697419e-08          36.49433389          59.49442311       38.83265925192   1.483219039431e-08
         "BPM.12L2.B1"             26358.97                    1       134.1864990448   1.483239697419e-08          135.9910765          59.64548043       134.1846301472   1.483219039431e-08
         "BPM.11L2.B1"             26412.43                    1       27.76885100045   1.483239697419e-08          29.30609236          59.78975231       27.76846424665   1.483219039431e-08
         "BPM.10L2.B1"             26464.27                    1       228.5579995942   1.483239697419e-08          216.0857532          59.91249462       228.5548163269   1.483219039431e-08
          "BPM.9L2.B1"             26503.33                    1       42.52093623668   1.483239697419e-08          43.34693163          59.97248606       42.52034402155   1.483219039431e-08
          "BPM.8L2.B1"              26543.8                    1       80.52750937602   1.483239697419e-08          89.40334096          60.10486212       80.52638782007   1.483219039431e-08
          "BPM.7L2.B1"             26582.87                    1       47.99455914773   1.483239697419e-08          46.86100754          60.19915553        47.9938906981   1.483219039431e-08
         "BPMR.6L2.B1"             26614.97                    1       192.3346602464   1.483239697419e-08          187.8207666          60.25539204       192.3319814837   1.483219039431e-08