@ GetLLMVersion %s "V3.0.0 Dev"
@ Command %s "/afs/cern.ch/work/o/omc/anaconda/bin/python '/afs/cern.ch/eng/sl/lintrack/Beta-Beat.src/GetLLM/GetLLM.py' '--accel=LHCB1' '--model=/afs/cern.ch/user/t/thpugnat/public/Outputs/2018-09-04/models/LHCB1/b1_squeeze_collQ/twiss.dat' '--files=/afs/cern.ch/user/t/thpugnat/public/Outputs/2018-09-04/LHCB1/Measurements/Beam1@Turn@2018_06_16@17_48_24_925/Beam1@Turn@2018_06_16@17_48_24_925.sdds.clean' '--output=/afs/cern.ch/user/t/thpugnat/public/Outputs/2018-09-04/LHCB1/Results/15-57-07_NORMALANALYSIS_SUSSIX_31' '--tbtana=SUSSIX' '--bpmu=mm' '--lhcphase=1' '--errordefs=/afs/cern.ch/user/t/thpugnat/public/Outputs/2018-09-04/models/LHCB1/b1_squeeze_collQ/error_deff.txt' '--calibration=/afs/cern.ch/eng/sl/lintrack/LHC_commissioning2017/Calibration_factors_2017/Calibration_factors_2017_beam1'"
@ CWD %s "/afs/cern.ch/user/t/thpugnat"
@ Date %s "04. September 2018, 15:57:16"
# Calculates the kick from the model beta function
@ FILES %s ""
*                 TIME                  DPP                   QX                QXRMS                   QY                QYRMS                NATQX             NATQXRMS                NATQY             NATQYRMS              sqrt2JX           sqrt2JXSTD              sqrt2JY           sqrt2JYSTD                  2JX               2JXSTD                  2JY               2JYSTD
$                  %le                  %le                  %le                  %le                  %le                  %le                  %le                  %le                  %le                  %le                  %le                  %le                  %le                  %le                  %le                  %le                  %le                  %le
            1529171304                    0       0.302432251367    1.13872212584e-07        0.32982109002    1.53665134801e-07       0.309826720898    0.000340078244806       0.320026611178    0.000297625480464      0.1061438798219    0.004833885557292     0.03208816356442    0.006294739733723     0.01126652322364    0.001026174735332    0.001029650240937   0.0004039732763423