@ GetLLMVersion %s "V3.0.0 Dev"
@ Command %s "/afs/cern.ch/work/o/omc/anaconda/bin/python '/afs/cern.ch/eng/sl/lintrack/Beta-Beat.src/GetLLM/GetLLM.py' '--accel=LHCB1' '--model=/afs/cern.ch/user/t/thpugnat/public/Outputs/2018-09-04/models/LHCB1/b1_squeeze_collQ/twiss.dat' '--files=/afs/cern.ch/user/t/thpugnat/public/Outputs/2018-09-04/LHCB1/Measurements/Beam1@Turn@2018_06_16@17_48_24_925/Beam1@Turn@2018_06_16@17_48_24_925.sdds.clean' '--output=/afs/cern.ch/user/t/thpugnat/public/Outputs/2018-09-04/LHCB1/Results/15-57-07_NORMALANALYSIS_SUSSIX_31' '--tbtana=SUSSIX' '--bpmu=mm' '--lhcphase=1' '--errordefs=/afs/cern.ch/user/t/thpugnat/public/Outputs/2018-09-04/models/LHCB1/b1_squeeze_collQ/error_deff.txt' '--calibration=/afs/cern.ch/eng/sl/lintrack/LHC_commissioning2017/Calibration_factors_2017/Calibration_factors_2017_beam1'"
@ CWD %s "/afs/cern.ch/user/t/thpugnat"
@ Date %s "04. September 2018, 15:57:16"
@ Q1 %le 0.31043225166340066
@ MUX %le 63.31043225166339
@ Q2 %le 0.31982108979999485
@ MUY %le 63.31982108979998
@ FILES %s "/afs/cern.ch/user/t/thpugnat/public/Outputs/2018-09-04/LHCB1/Measurements/Beam1@Turn@2018_06_16@17_48_24_925/Beam1@Turn@2018_06_16@17_48_24_925.sdds.clean_liny"
*                 NAME                NAME2                    S                   S1                COUNT               PHASEY               STDPHY               PHYMDL               MUYMDL
$                   %s                   %s                  %le                  %le                  %le                  %le                  %le                  %le                  %le
        "BPMYB.5L2.B1"       "BPMYB.5L2.B1"               28.288               28.288                    1                    0                    0                    0         0.1210674621
        "BPMYB.4L2.B1"       "BPMYB.5L2.B1"               48.858               28.288                    1         0.0548634048                    0         0.0538582759          0.174925738
        "BPMWI.4L2.B1"       "BPMYB.5L2.B1"              73.3255               28.288                    1         0.0898766265                    0         0.0888090237         0.2098764858
        "BPMSX.4L2.B1"       "BPMYB.5L2.B1"             123.4825               28.288                    1         0.1664475511                    0         0.1701676129          0.291235075
         "BPMS.2L2.B1"       "BPMYB.5L2.B1"              161.394               28.288                    1         0.2179352712                    0         0.2136973867         0.3347648488
        "BPMSW.1L2.B1"       "BPMYB.5L2.B1"              171.328               28.288                    1         0.2372629235                    0         0.2316436707         0.3527111328
        "BPMSW.1R2.B1"       "BPMYB.5L2.B1"              214.518               28.288                    1         0.9238328593                    0         0.5935997394         0.7146672015
         "BPMS.2R2.B1"       "BPMYB.5L2.B1"              224.452               28.288                    1         0.9488527066                    0         0.6170248956         0.7380923577
        "BPMSX.4R2.B1"       "BPMYB.5L2.B1"             262.3635               28.288                    1         1.0022743243                    0         0.6674291696         0.7884966317
        "BPMWB.4R2.B1"       "BPMYB.5L2.B1"             312.5965               28.288                    1         0.0677400746                    0         0.7366397387         0.8577072008
        "BPMYB.4R2.B1"       "BPMYB.5L2.B1"              336.988               28.288                    1         0.1218190972                    0         0.7877443125         0.9088117746
         "BPMR.5R2.B1"       "BPMYB.5L2.B1"              366.522               28.288                    1         0.1546046223                    0         0.8220876848         0.9431551469
          "BPM.6R2.B1"       "BPMYB.5L2.B1"              439.818               28.288                    1         0.3753869694                    0         0.0436748659          1.164742328
        "BPM_A.7R2.B1"       "BPMYB.5L2.B1"              452.693               28.288                    1         0.4111098924                    0         0.0767302659          1.197797728
          "BPM.8R2.B1"       "BPMYB.5L2.B1"               494.13               28.288                    1         0.5311845124                    0         0.1969191719          1.317986634
          "BPM.9R2.B1"       "BPMYB.5L2.B1"              533.195               28.288                    1         0.6561455064                    0         0.3246118699          1.445679332
         "BPM.10R2.B1"       "BPMYB.5L2.B1"              573.658               28.288                    1         0.7446975494                    0         0.4119077949          1.532975257
         "BPM.11R2.B1"       "BPMYB.5L2.B1"             625.4967               28.288                    1         0.8708513374                    0         0.5361991689          1.657266631
         "BPM.12R2.B1"       "BPMYB.5L2.B1"             680.2203               28.288                    1         0.9912355684                    0         0.6557243029          1.776791765
         "BPM.13R2.B1"       "BPMYB.5L2.B1"             733.6688               28.288                    1         0.1361342414                    0         0.8001384839          1.921205946
         "BPM.14R2.B1"       "BPMYB.5L2.B1"             787.1173               28.288                    1         0.2451312104                    0         0.9119604249          2.033027887
         "BPM.15R2.B1"       "BPMYB.5L2.B1"             840.5658               28.288                    1         0.3792054914                    0         0.0435985879           2.16466605
         "BPM.16R2.B1"       "BPMYB.5L2.B1"             894.0143               28.288                    1         0.4850821204                    0         0.1508300939          2.271897556
         "BPM.17R2.B1"       "BPMYB.5L2.B1"             947.4628               28.288                    1         0.6128378184                    0         0.2790763149          2.400143777
         "BPM.18R2.B1"       "BPMYB.5L2.B1"             1000.911               28.288                    1         0.7232314044                    0         0.3904963489          2.511563811
         "BPM.19R2.B1"       "BPMYB.5L2.B1"              1054.36               28.288                    1         0.8551099204                    0         0.5227815269          2.643848989
         "BPM.20R2.B1"       "BPMYB.5L2.B1"             1107.808               28.288                    1         0.9618680394                    0         0.6304598169          2.751527279
         "BPM.21R2.B1"       "BPMYB.5L2.B1"             1161.257               28.288                    1         0.0893365094                    0         0.7581565539          2.879224016
         "BPM.22R2.B1"       "BPMYB.5L2.B1"             1214.705               28.288                    1         0.1983382684                    0         0.8690376669          2.990105129
         "BPM.23R2.B1"       "BPMYB.5L2.B1"             1268.154               28.288                    1         0.3300266914                    0         0.0011200599          3.122187522
         "BPM.24R2.B1"       "BPMYB.5L2.B1"             1321.602               28.288                    1         0.4427090314                    0         0.1120007169          3.233068179
         "BPM.25R2.B1"       "BPMYB.5L2.B1"             1375.051               28.288                    1         0.5762548764                    0         0.2440857069          3.365153169
         "BPM.26R2.B1"       "BPMYB.5L2.B1"             1428.499               28.288                    1         0.6832207294                    0         0.3549671749          3.476034637
         "BPM.27R2.B1"       "BPMYB.5L2.B1"             1481.948               28.288                    1         0.8179044934                    0         0.4870496509          3.608117113
         "BPM.28R2.B1"       "BPMYB.5L2.B1"             1535.397               28.288                    1         0.9330473934                    0         0.5979301139          3.718997576
         "BPM.29R2.B1"       "BPMYB.5L2.B1"             1588.845               28.288                    1         0.0639243454                    0         0.7300150019          3.851082464
         "BPM.30R2.B1"       "BPMYB.5L2.B1"             1642.294               28.288                    1         0.1696713494                    0         0.8408966559          3.961964118
         "BPM.31R2.B1"       "BPMYB.5L2.B1"             1695.742               28.288                    1         0.3024756934                    0         0.9729792529          4.094046715
         "BPM.32R2.B1"       "BPMYB.5L2.B1"             1749.191               28.288                    1         0.4124689864                    0         0.0838595399          4.204927002
         "BPM.33R2.B1"       "BPMYB.5L2.B1"             1802.639               28.288                    1         0.5484696344                    0         0.2159442879           4.33701175
         "BPM.34R2.B1"       "BPMYB.5L2.B1"             1856.088               28.288                    1         0.6553373374                    0         0.3268261079           4.44789357
         "BPM.33L3.B1"       "BPMYB.5L2.B1"             1909.536               28.288                    1         0.7858652074                    0         0.4589088609          4.579976323
         "BPM.32L3.B1"       "BPMYB.5L2.B1"             1962.985               28.288                    1         0.9024905574                    0         0.5697889939          4.690856456
         "BPM.31L3.B1"       "BPMYB.5L2.B1"             2016.433               28.288                    1         0.0361513194                    0         0.7018735719          4.822941034
         "BPM.30L3.B1"       "BPMYB.5L2.B1"             2069.882               28.288                    1         0.1442511254                    0         0.8127555309          4.933822993
         "BPM.29L3.B1"       "BPMYB.5L2.B1"              2123.33               28.288                    1         0.2734796894                    0         0.9448384689          5.065905931
         "BPM.27L3.B1"       "BPMYB.5L2.B1"             2230.227               28.288                    1         0.5243872024                    0         0.1878028559          5.308870318
         "BPM.26L3.B1"       "BPMYB.5L2.B1"             2283.676               28.288                    1         0.6312918134                    0         0.2986849259          5.419752388
         "BPM.25L3.B1"       "BPMYB.5L2.B1"             2337.124               28.288                    1         0.7598026064                    0         0.4307680739          5.551835536
         "BPM.24L3.B1"       "BPMYB.5L2.B1"             2390.573               28.288                    1         0.8768279124                    0         0.5416479869          5.662715449
         "BPM.23L3.B1"       "BPMYB.5L2.B1"             2444.021               28.288                    1         0.0116815674                    0         0.6737321469          5.794799609
         "BPM.22L3.B1"       "BPMYB.5L2.B1"              2497.47               28.288                    1         0.1206768104                    0         0.7846142949          5.905681757
         "BPM.21L3.B1"       "BPMYB.5L2.B1"             2550.918               28.288                    1         0.2487581364                    0         0.9166976699          6.037765132
         "BPM.20L3.B1"       "BPMYB.5L2.B1"             2604.367               28.288                    1         0.3602085894                    0         0.0243169689          6.145384431
         "BPM.19L3.B1"       "BPMYB.5L2.B1"             2657.815               28.288                    1         0.4908082034                    0         0.1521987779           6.27326624
         "BPM.18L3.B1"       "BPMYB.5L2.B1"             2711.264               28.288                    1         0.6015798434                    0         0.2631672969          6.384234759
         "BPM.17L3.B1"       "BPMYB.5L2.B1"             2764.712               28.288                    1         0.7296460314                    0         0.3957711549          6.516838617
         "BPM.16L3.B1"       "BPMYB.5L2.B1"             2818.161               28.288                    1         0.8353855004                    0         0.5039164839          6.624983946
         "BPM.14L3.B1"       "BPMYB.5L2.B1"             2925.058               28.288                    1         0.0785216114                    0         0.7417553029          6.862822765
         "BPM.13L3.B1"       "BPMYB.5L2.B1"             2978.506               28.288                    1         0.2056253454                    0         0.8747063269          6.995773789
         "BPM.12L3.B1"       "BPMYB.5L2.B1"             3031.955               28.288                    1         0.3239004744                    0         0.9891134559          7.110180918
         "BPM.11L3.B1"       "BPMYB.5L2.B1"             3085.403               28.288                    1         0.4567038114                    0         0.1211672249          7.242234687
         "BPM.10L3.B1"       "BPMYB.5L2.B1"             3138.184               28.288                    1         0.5518643364                    0         0.2289935219          7.350060984
          "BPM.8L3.B1"       "BPMYB.5L2.B1"             3217.712               28.288                    1         0.8407532274                    0         0.5131263779           7.63419384
          "BPM.7L3.B1"       "BPMYB.5L2.B1"             3256.776               28.288                    1         0.0215170874                    0         0.6863027889          7.807370251
          "BPM.6L3.B1"       "BPMYB.5L2.B1"             3329.415               28.288                    1         0.1416010334                    0         0.8056618209          7.926729283
       "BPMWG.A5L3.B1"       "BPMYB.5L2.B1"              3371.12               28.288                    1         0.1824764054                    0         0.8524368139          7.973504276
         "BPMW.5L3.B1"       "BPMYB.5L2.B1"              3400.09               28.288                    1         0.1989702184                    0         0.8680366659          7.989104128
        "BPMWE.4L3.B1"       "BPMYB.5L2.B1"             3475.218               28.288                    1         0.2730305864                    0         0.9414623889          8.062529851
         "BPMW.4L3.B1"       "BPMYB.5L2.B1"             3502.763               28.288                    1         0.3171322514                    0         0.9870889029          8.108156365
         "BPMW.4R3.B1"       "BPMYB.5L2.B1"             3547.728               28.288                    1         0.3535668694                    0         0.0222310869          8.143298549
        "BPMWE.4R3.B1"       "BPMYB.5L2.B1"             3575.273               28.288                    1         0.3648322104                    0         0.0335196489          8.154587111
         "BPMW.5R3.B1"       "BPMYB.5L2.B1"             3650.401               28.288                    1         0.4376884544                    0         0.1069029339          8.227970396
       "BPMWJ.A5R3.B1"       "BPMYB.5L2.B1"             3679.119               28.288                    1         0.5013919844                    0         0.1702631879           8.29133065
        "BPMWC.6R3.B1"       "BPMYB.5L2.B1"             3718.937               28.288                    1         0.5466319714                    0         0.2152212449          8.336288707
         "BPMR.6R3.B1"       "BPMYB.5L2.B1"             3731.015               28.288                    1         0.5534900964                    0         0.2228963229          8.343963785
        "BPM_A.7R3.B1"       "BPMYB.5L2.B1"             3786.839               28.288                    1         0.6227806374                    0         0.2944117209          8.415479183
          "BPM.8R3.B1"       "BPMYB.5L2.B1"             3825.903               28.288                    1         0.6829388124                    0         0.3564300309          8.477497493
         "BPM.10R3.B1"       "BPMYB.5L2.B1"             3905.431               28.288                    1         0.8000259334                    0         0.4724099559          8.593477418
         "BPM.11R3.B1"       "BPMYB.5L2.B1"             3958.212               28.288                    1         0.9043921374                    0         0.5741056109          8.695173073
         "BPM.12R3.B1"       "BPMYB.5L2.B1"             4012.935               28.288                    1         0.0252231334                    0         0.6961752189          8.817242681
         "BPM.13R3.B1"       "BPMYB.5L2.B1"             4066.384               28.288                    1         0.1363281774                    0         0.8111498299          8.932217292
         "BPM.14R3.B1"       "BPMYB.5L2.B1"             4119.833               28.288                    1         0.2699708864                    0         0.9418426319          9.062910094
         "BPM.15R3.B1"       "BPMYB.5L2.B1"             4173.281               28.288                    1         0.3773733204                    0         0.0488091259          9.169876588
         "BPM.17R3.B1"       "BPMYB.5L2.B1"             4280.178               28.288                    1         0.6251844324                    0         0.2897522669          9.410819729
         "BPM.19R3.B1"       "BPMYB.5L2.B1"             4387.075               28.288                    1         0.8610196334                    0         0.5284015819          9.649469044
         "BPM.20R3.B1"       "BPMYB.5L2.B1"             4440.524               28.288                    1         0.9921176314                    0         0.6568495999          9.777917062
         "BPM.21R3.B1"       "BPMYB.5L2.B1"             4493.972               28.288                    1         0.1033146834                    0         0.7683100409          9.889377503
         "BPM.22R3.B1"       "BPMYB.5L2.B1"             4547.421               28.288                    1         0.2332641564                    0         0.9003933879          10.02146085
         "BPM.23R3.B1"       "BPMYB.5L2.B1"             4600.869               28.288                    1         0.3430236364                    0         0.0112753179          10.13234278
         "BPM.24R3.B1"       "BPMYB.5L2.B1"             4654.318               28.288                    1         0.4791181064                    0         0.1433601379           10.2644276
         "BPM.25R3.B1"       "BPMYB.5L2.B1"             4707.766               28.288                    1         0.5898642264                    0         0.2542403079          10.37530777
         "BPM.26R3.B1"       "BPMYB.5L2.B1"             4761.215               28.288                    1         0.7190372664                    0         0.3863228279          10.50739029
         "BPM.27R3.B1"       "BPMYB.5L2.B1"             4814.663               28.288                    1         0.8303288364                    0         0.4972045879          10.61827205
         "BPM.28R3.B1"       "BPMYB.5L2.B1"             4868.112               28.288                    1         0.9646190364                    0         0.6292895679          10.75035703
         "BPM.29R3.B1"       "BPMYB.5L2.B1"              4921.56               28.288                    1         0.0743625264                    0         0.7401699279          10.86123739
         "BPM.30R3.B1"       "BPMYB.5L2.B1"             4975.009               28.288                    1         0.2089525664                    0         0.8722523079          10.99331977
         "BPM.31R3.B1"       "BPMYB.5L2.B1"             5028.457               28.288                    1         0.3182663964                    0         0.9831338679          11.10420133
         "BPM.32R3.B1"       "BPMYB.5L2.B1"             5081.906               28.288                    1         0.4522122264                    0         0.1152189679          11.23628643
         "BPM.33R3.B1"       "BPMYB.5L2.B1"             5135.354               28.288                    1         0.5667801564                    0         0.2260995379            11.347167
         "BPM.34R3.B1"       "BPMYB.5L2.B1"             5188.803               28.288                    1         0.6944016964                    0         0.3581818179          11.47924928
         "BPM.33L4.B1"       "BPMYB.5L2.B1"             5242.251               28.288                    1         0.8020791264                    0         0.4690631579          11.59013062
         "BPM.32L4.B1"       "BPMYB.5L2.B1"               5295.7               28.288                    1         0.9358242864                    0         0.6011483379           11.7222158
         "BPM.31L4.B1"       "BPMYB.5L2.B1"             5349.148               28.288                    1         0.0468364164                    0         0.7120291279          11.83309659
         "BPM.30L4.B1"       "BPMYB.5L2.B1"             5402.597               28.288                    1         0.1794301764                    0         0.8441113479          11.96517881
         "BPM.29L4.B1"       "BPMYB.5L2.B1"             5456.045               28.288                    1         0.2864887864                    0         0.9549924679          12.07605993
         "BPM.27L4.B1"       "BPMYB.5L2.B1"             5562.942               28.288                    1         0.5343079864                    0         0.1979587079          12.31902617
         "BPM.26L4.B1"       "BPMYB.5L2.B1"             5616.391               28.288                    1         0.6653777264                    0         0.3300409179          12.45110838
         "BPM.25L4.B1"       "BPMYB.5L2.B1"             5669.839               28.288                    1         0.7771459564                    0         0.4409217979          12.56198926
         "BPM.24L4.B1"       "BPMYB.5L2.B1"             5723.288               28.288                    1         0.9078038964                    0         0.5730069979          12.69407446
         "BPM.23L4.B1"       "BPMYB.5L2.B1"             5776.736               28.288                    1         0.0171991264                    0         0.6838882479          12.80495571
         "BPM.22L4.B1"       "BPMYB.5L2.B1"             5830.185               28.288                    1         0.1509350064                    0         0.8159704979          12.93703796
         "BPM.21L4.B1"       "BPMYB.5L2.B1"             5883.634               28.288                    1         0.2632644064                    0         0.9268511579          13.04791862
         "BPM.20L4.B1"       "BPMYB.5L2.B1"             5937.082               28.288                    1         0.3935096264                    0         0.0596373879          13.18070485
         "BPM.19L4.B1"       "BPMYB.5L2.B1"             5990.531               28.288                    1         0.5018131164                    0         0.1678839079          13.28895137
         "BPM.18L4.B1"       "BPMYB.5L2.B1"             6043.979               28.288                    1         0.6336344764                    0         0.2951934179          13.41626088
         "BPM.17L4.B1"       "BPMYB.5L2.B1"             6097.428               28.288                    1         0.7453990964                    0         0.4054366979          13.52650416
         "BPM.15L4.B1"       "BPMYB.5L2.B1"             6204.325               28.288                    1         0.9850612964                    0         0.6474339079          13.76850137
         "BPM.14L4.B1"       "BPMYB.5L2.B1"             6257.773               28.288                    1         0.1151450064                    0         0.7745478979          13.89561536
         "BPM.13L4.B1"       "BPMYB.5L2.B1"             6311.222               28.288                    1         0.2232345464                    0         0.8841022579          14.00516972
         "BPM.12L4.B1"       "BPMYB.5L2.B1"              6364.67               28.288                    1         0.3576050664                    0         0.0170653079          14.13813277
         "BPM.11L4.B1"       "BPMYB.5L2.B1"             6418.119               28.288                    1         0.4651352764                    0         0.1228104379           14.2438779
         "BPM.10L4.B1"       "BPMYB.5L2.B1"             6469.957               28.288                    1         0.5808918064                    0         0.2404490479          14.36151651
          "BPM.9L4.B1"       "BPMYB.5L2.B1"             6509.022               28.288                    1         0.6415954464                    0         0.3009629479          14.42203041
          "BPM.8L4.B1"       "BPMYB.5L2.B1"             6549.485               28.288                    1         0.7228428964                    0         0.3858253679          14.50689283
          "BPM.7L4.B1"       "BPMYB.5L2.B1"             6588.549               28.288                    1         0.7728246164                    0         0.4385511179          14.55961858
        "BPMYB.6L4.B1"       "BPMYB.5L2.B1"             6685.153               28.288                    1         0.8507802164                    0         0.5158308879          14.63689835
        "BPMYA.5L4.B1"       "BPMYB.5L2.B1"             6722.153               28.288                    1         0.8657680964                    0         0.5308952579          14.65196272
       "BPMWI.A5L4.B1"       "BPMYB.5L2.B1"             6798.756               28.288                    1         0.9241165764                    0         0.5870814279          14.70814889
       "BPMWA.B5L4.B1"       "BPMYB.5L2.B1"              6824.62               28.288                    1         0.9438256464                    0         0.6059102379           14.7269777
       "BPMWA.A5L4.B1"       "BPMYB.5L2.B1"             6833.505               28.288                    1         0.9506913364                    0         0.6121855279          14.73325299
       "BPMWA.A5R4.B1"       "BPMYB.5L2.B1"             6881.554               28.288                    1         0.9849860864                    0         0.6436212879          14.76468875
       "BPMWA.B5R4.B1"       "BPMYB.5L2.B1"             6890.439               28.288                    1         0.9901831364                    0         0.6488996779          14.76996714
        "BPMYB.5R4.B1"       "BPMYB.5L2.B1"             6992.829               28.288                    1         0.0401538364                    0         0.6973038079          14.81837127
        "BPMYA.6R4.B1"       "BPMYB.5L2.B1"             7024.393               28.288                    1         0.0642098064                    0         0.7206498579          14.84171732
          "BPM.7R4.B1"       "BPMYB.5L2.B1"             7120.909               28.288                    1         0.2508072664                    0         0.9132793379           15.0343468
          "BPM.8R4.B1"       "BPMYB.5L2.B1"             7158.698               28.288                    1         0.3646562664                    0         0.0262278779          15.14729534
          "BPM.9R4.B1"       "BPMYB.5L2.B1"             7197.763               28.288                    1         0.4629317664                    0         0.1270247579          15.24809222
         "BPM.10R4.B1"       "BPMYB.5L2.B1"             7238.226               28.288                    1         0.5296657164                    0         0.1906341379           15.3117016
         "BPM.11R4.B1"       "BPMYB.5L2.B1"             7290.065               28.288                    1         0.6552102914                    0         0.3141767279          15.43524419
         "BPM.12R4.B1"       "BPMYB.5L2.B1"             7344.789               28.288                    1         0.8038658064                    0         0.4668131379           15.5878806
         "BPM.13R4.B1"       "BPMYB.5L2.B1"             7398.237               28.288                    1         0.9288664864                    0         0.5940630679          15.71513053
         "BPM.14R4.B1"       "BPMYB.5L2.B1"             7451.686               28.288                    1         0.0269569564                    0         0.6878825379             15.80895
         "BPM.15R4.B1"       "BPMYB.5L2.B1"             7505.134               28.288                    1         0.1914477964                    0         0.8499210179          15.97098848
         "BPM.16R4.B1"       "BPMYB.5L2.B1"             7558.583               28.288                    1         0.3181900664                    0         0.9830274879          16.10409495
         "BPM.17R4.B1"       "BPMYB.5L2.B1"             7612.031               28.288                    1         0.4254192664                    0         0.0940363579          16.21510382
         "BPM.18R4.B1"       "BPMYB.5L2.B1"              7665.48               28.288                    1         0.5236115764                    0         0.1878480579          16.30891552
         "BPM.19R4.B1"       "BPMYB.5L2.B1"             7718.928               28.288                    1         0.6861779364                    0         0.3498730979          16.47094056
         "BPM.20R4.B1"       "BPMYB.5L2.B1"             7772.377               28.288                    1         0.8127308064                    0         0.4829927379           16.6040602
         "BPM.21R4.B1"       "BPMYB.5L2.B1"             7825.825               28.288                    1         0.9236483564                    0         0.5940092679          16.71507673
         "BPM.22R4.B1"       "BPMYB.5L2.B1"             7879.274               28.288                    1         0.0187777964                    0         0.6878135779          16.80888104
         "BPM.23R4.B1"       "BPMYB.5L2.B1"             7932.722               28.288                    1         0.1835657064                    0         0.8498251679          16.97089263
         "BPM.24R4.B1"       "BPMYB.5L2.B1"             7986.171               28.288                    1         0.3122575564                    0         0.9829579879          17.10402545
         "BPM.26R4.B1"       "BPMYB.5L2.B1"             8093.068               28.288                    1         0.5192180064                    0         0.1877790979          17.30884656
         "BPM.27R4.B1"       "BPMYB.5L2.B1"             8146.516               28.288                    1         0.6830478864                    0         0.3497772379           17.4708447
         "BPM.28R4.B1"       "BPMYB.5L2.B1"             8199.965               28.288                    1         0.8161375964                    0         0.4829232279          17.60399069
         "BPM.29R4.B1"       "BPMYB.5L2.B1"             8253.413               28.288                    1         0.9258982264                    0         0.5939550879          17.71502255
         "BPM.30R4.B1"       "BPMYB.5L2.B1"             8306.862               28.288                    1         0.0191706264                    0         0.6877446279          17.80881209
         "BPM.32R4.B1"       "BPMYB.5L2.B1"             8413.759               28.288                    1         0.3182041364                    0         0.9828884679          18.10395593
         "BPM.33R4.B1"       "BPMYB.5L2.B1"             8467.208               28.288                    1         0.4281600164                    0         0.0939279979          18.21499546
         "BPM.34R4.B1"       "BPMYB.5L2.B1"             8520.656               28.288                    1         0.5239187364                    0         0.1877101579          18.30877762
         "BPM.33L5.B1"       "BPMYB.5L2.B1"             8574.105               28.288                    1         0.6866471064                    0         0.3496813779          18.47074884
         "BPM.32L5.B1"       "BPMYB.5L2.B1"             8627.553               28.288                    1         0.8182841864                    0         0.4828537079          18.60392117
         "BPM.31L5.B1"       "BPMYB.5L2.B1"             8681.002               28.288                    1         0.9303527964                    0         0.5939009079          18.71496837
         "BPM.30L5.B1"       "BPMYB.5L2.B1"              8734.45               28.288                    1         0.0279526464                    0         0.6876756979          18.80874316
         "BPM.29L5.B1"       "BPMYB.5L2.B1"             8787.899               28.288                    1         0.1886335364                    0         0.8496334479          18.97070091
         "BPM.28L5.B1"       "BPMYB.5L2.B1"             8841.347               28.288                    1         0.3172466264                    0         0.9828189379           19.1038864
         "BPM.27L5.B1"       "BPMYB.5L2.B1"             8894.796               28.288                    1         0.4299794864                    0         0.0938738179          19.21494128
         "BPM.26L5.B1"       "BPMYB.5L2.B1"             8948.244               28.288                    1         0.5242600664                    0         0.1876412379           19.3087087
         "BPM.25L5.B1"       "BPMYB.5L2.B1"             9001.693               28.288                    1         0.6957989864                    0         0.3495855079          19.47065297
         "BPM.24L5.B1"       "BPMYB.5L2.B1"             9055.141               28.288                    1         0.8227571564                    0         0.4827841579          19.60385162
         "BPM.22L5.B1"       "BPMYB.5L2.B1"             9162.038               28.288                    1         0.0312792664                    0         0.6876067779          19.80867424
         "BPM.21L5.B1"       "BPMYB.5L2.B1"             9215.487               28.288                    1         0.1919591564                    0         0.8495375779          19.97060504
         "BPM.20L5.B1"       "BPMYB.5L2.B1"             9268.935               28.288                    1         0.3185714964                    0         0.9827493779          20.10381684
         "BPM.19L5.B1"       "BPMYB.5L2.B1"             9322.384               28.288                    1         0.4264023464                    0         0.0938196379           20.2148871
         "BPM.18L5.B1"       "BPMYB.5L2.B1"             9375.832               28.288                    1         0.5224150864                    0         0.1875723279          20.30863979
         "BPM.17L5.B1"       "BPMYB.5L2.B1"             9429.281               28.288                    1         0.6849956864                    0         0.3494896379           20.4705571
         "BPM.16L5.B1"       "BPMYB.5L2.B1"             9482.729               28.288                    1         0.8150316364                    0         0.4827145979          20.60378206
         "BPM.15L5.B1"       "BPMYB.5L2.B1"             9536.178               28.288                    1         0.9235304364                    0         0.5937925479          20.71486001
         "BPM.14L5.B1"       "BPMYB.5L2.B1"             9589.626               28.288                    1         0.0193582064                    0         0.6875378879          20.80860535
         "BPM.13L5.B1"       "BPMYB.5L2.B1"             9643.075               28.288                    1         0.1810087964                    0         0.8494417079          20.97050917
         "BPM.12L5.B1"       "BPMYB.5L2.B1"             9696.523               28.288                    1         0.3066638964                    0         0.9756651379           21.0967326
         "BPM.11L5.B1"       "BPMYB.5L2.B1"             9749.972               28.288                    1         0.4112815164                    0         0.0819150079          21.20298247
         "BPM.10L5.B1"       "BPMYB.5L2.B1"             9802.753               28.288                    1         0.4780205264                    0         0.1468177979          21.26788526
          "BPM.9L5.B1"       "BPMYB.5L2.B1"             9841.818               28.288                    1         0.5325478364                    0         0.2026796379           21.3237471
          "BPM.8L5.B1"       "BPMYB.5L2.B1"             9882.281               28.288                    1         0.6875352464                    0         0.3572723579          21.47833982
         "BPMR.7L5.B1"       "BPMYB.5L2.B1"             9921.347               28.288                    1         0.9405917364                    0         0.6096775679          21.73074503
         "BPMR.5L5.B1"       "BPMYB.5L2.B1"             9990.141               28.288                    1         0.3910556564                    0         0.0610015679          22.18206903
        "BPMWB.4L5.B1"       "BPMYB.5L2.B1"             10038.68               28.288                    1         0.4114598064                    0         0.0812344179          22.20230188
        "BPMSY.4L5.B1"       "BPMYB.5L2.B1"             10131.46               28.288                    1         0.4171238564                    0         0.0866339279          22.20770139
         "BPMS.2L5.B1"       "BPMYB.5L2.B1"             10158.25               28.288                    1         0.4190376864                    0         0.0878767379           22.2089442
        "BPMSW.1L5.B1"       "BPMYB.5L2.B1"             10168.21               28.288                    1         0.4197919664                    0         0.0886830179          22.20975048
         "BPMS.2R5.B1"       "BPMYB.5L2.B1"              10221.3               28.288                    1         0.9154923164                    0         0.5848824679          22.70594993
        "BPMSY.4R5.B1"       "BPMYB.5L2.B1"             10248.09               28.288                    1         0.9170639864                    0         0.5857390979          22.70680656
        "BPMWB.4R5.B1"       "BPMYB.5L2.B1"             10340.87               28.288                    1         0.9230199264                    0         0.5918678279          22.71293529
        "BPMYA.4R5.B1"       "BPMYB.5L2.B1"                10362               28.288                    1         0.9248358164                    0         0.5939723879          22.71503985
          "BPM.5R5.B1"       "BPMYB.5L2.B1"             10383.12               28.288                    1         0.9281829264                    0         0.5972689479          22.71833641
         "BPMR.6R5.B1"       "BPMYB.5L2.B1"             10415.02               28.288                    1         0.9398961264                    0         0.6089817279          22.73004919
          "BPM.8R5.B1"       "BPMYB.5L2.B1"             10490.47               28.288                    1         0.2643602864                    0         0.9326037579          23.05367122
          "BPM.9R5.B1"       "BPMYB.5L2.B1"             10529.54               28.288                    1         0.3410916564                    0         0.0124974279          23.13356489
         "BPM.10R5.B1"       "BPMYB.5L2.B1"             10570.01               28.288                    1         0.4145594064                    0         0.0844840079          23.20555147
         "BPM.11R5.B1"       "BPMYB.5L2.B1"             10622.79               28.288                    1         0.5121527664                    0         0.1785306279          23.29959809
         "BPM.12R5.B1"       "BPMYB.5L2.B1"             10677.51               28.288                    1         0.6777183064                    0         0.3503743179          23.47144178
         "BPM.14R5.B1"       "BPMYB.5L2.B1"             10784.42               28.288                    1         0.9262255264                    0         0.5946939979          23.71576146
         "BPM.17R5.B1"       "BPMYB.5L2.B1"             10944.77               28.288                    1         0.3174816364                    0         0.9838596279          24.10492709
         "BPM.18R5.B1"       "BPMYB.5L2.B1"             10998.22               28.288                    1         0.4288982264                    0         0.0946939979          24.21576146
         "BPM.19R5.B1"       "BPMYB.5L2.B1"             11051.68               28.288                    1         0.5245718364                    0         0.1886937079          24.30976117
         "BPM.20R5.B1"       "BPMYB.5L2.B1"             11105.13               28.288                    1         0.6890839864                    0         0.3510599979          24.47212746
         "BPM.23R5.B1"       "BPMYB.5L2.B1"             11265.48               28.288                    1         0.0285905364                    0         0.6886937079          24.80976117
         "BPM.24R5.B1"       "BPMYB.5L2.B1"             11318.93               28.288                    1         0.1907817364                    0         0.8510599979          24.97212746
         "BPM.25R5.B1"       "BPMYB.5L2.B1"             11372.38               28.288                    1         0.3201776364                    0         0.9838596279          25.10492709
         "BPM.26R5.B1"       "BPMYB.5L2.B1"             11425.84               28.288                    1         0.4327126264                    0         0.0946939979          25.21576146
         "BPM.27R5.B1"       "BPMYB.5L2.B1"             11479.29               28.288                    1         0.5309352364                    0         0.1886937079          25.30976117
         "BPM.28R5.B1"       "BPMYB.5L2.B1"             11532.74               28.288                    1         0.6875041264                    0         0.3510599979          25.47212746
         "BPM.29R5.B1"       "BPMYB.5L2.B1"             11586.19               28.288                    1         0.8184682364                    0         0.4838596279          25.60492709
         "BPM.30R5.B1"       "BPMYB.5L2.B1"             11639.64               28.288                    1         0.9317384264                    0         0.5946939979          25.71576146
         "BPM.31R5.B1"       "BPMYB.5L2.B1"             11693.09               28.288                    1         0.0275522364                    0         0.6886937079          25.80976117
         "BPM.32R5.B1"       "BPMYB.5L2.B1"             11746.54               28.288                    1         0.1836555364                    0         0.8510599979          25.97212746
         "BPM.33R5.B1"       "BPMYB.5L2.B1"                11800               28.288                    1         0.3145773364                    0         0.9838596279          26.10492709
         "BPM.34R5.B1"       "BPMYB.5L2.B1"             11853.45               28.288                    1         0.4314949264                    0         0.0946939979          26.21576146
         "BPM.33L6.B1"       "BPMYB.5L2.B1"              11906.9               28.288                    1         0.5309035364                    0         0.1886937079          26.30976117
         "BPM.32L6.B1"       "BPMYB.5L2.B1"             11960.35               28.288                    1         0.6826450264                    0         0.3510599979          26.47212746
         "BPM.30L6.B1"       "BPMYB.5L2.B1"             12067.25               28.288                    1         0.9285258264                    0         0.5946939979          26.71576146
         "BPM.29L6.B1"       "BPMYB.5L2.B1"              12120.7               28.288                    1         0.0233949364                    0         0.6886937079          26.80976117
         "BPM.28L6.B1"       "BPMYB.5L2.B1"             12174.16               28.288                    1         0.1776704364                    0         0.8510599979          26.97212746
         "BPM.27L6.B1"       "BPMYB.5L2.B1"             12227.61               28.288                    1         0.3118543364                    0         0.9838596279          27.10492709
         "BPM.26L6.B1"       "BPMYB.5L2.B1"             12281.06               28.288                    1         0.4296166264                    0         0.0946939979          27.21576146
         "BPM.25L6.B1"       "BPMYB.5L2.B1"             12334.51               28.288                    1         0.5261413364                    0         0.1886937079          27.30976117
         "BPM.24L6.B1"       "BPMYB.5L2.B1"             12387.96               28.288                    1         0.6804580064                    0         0.3510599979          27.47212746
         "BPM.22L6.B1"       "BPMYB.5L2.B1"             12494.87               28.288                    1         0.9259730264                    0         0.5946939979          27.71576146
         "BPM.21L6.B1"       "BPMYB.5L2.B1"             12548.32               28.288                    1         0.0199989364                    0         0.6886937079          27.80976117
         "BPM.20L6.B1"       "BPMYB.5L2.B1"             12601.77               28.288                    1         0.1796629364                    0         0.8510599979          27.97212746
         "BPM.19L6.B1"       "BPMYB.5L2.B1"             12655.22               28.288                    1         0.3132671364                    0         0.9838596279          28.10492709
         "BPM.18L6.B1"       "BPMYB.5L2.B1"             12708.67               28.288                    1         0.4308437264                    0         0.0946939979          28.21576146
         "BPM.17L6.B1"       "BPMYB.5L2.B1"             12762.12               28.288                    1         0.5272149364                    0         0.1886937079          28.30976117
         "BPM.16L6.B1"       "BPMYB.5L2.B1"             12815.57               28.288                    1         0.6873297164                    0         0.3510599979          28.47212746
         "BPM.15L6.B1"       "BPMYB.5L2.B1"             12869.03               28.288                    1         0.8179045364                    0         0.4838596279          28.60492709
         "BPM.14L6.B1"       "BPMYB.5L2.B1"             12922.48               28.288                    1         0.9342587264                    0         0.5946939979          28.71576146
         "BPM.13L6.B1"       "BPMYB.5L2.B1"             12975.93               28.288                    1         0.0333550364                    0         0.6886937079          28.80976117
         "BPM.12L6.B1"       "BPMYB.5L2.B1"             13029.38               28.288                    1         0.1893817064                    0         0.8510270179          28.97209448
         "BPM.11L6.B1"       "BPMYB.5L2.B1"             13082.83               28.288                    1         0.3311289064                    0         0.9965425779          29.11761004
         "BPM.10L6.B1"       "BPMYB.5L2.B1"             13134.67               28.288                    1         0.4512663364                    0         0.1131843079          29.23425177
          "BPM.9L6.B1"       "BPMYB.5L2.B1"             13173.74               28.288                    1         0.5558814464                    0         0.2140346279          29.33510209
          "BPM.8L6.B1"       "BPMYB.5L2.B1"              13214.2               28.288                    1         0.8189766264                    0         0.4855594279          29.60662689
        "BPMYA.5L6.B1"       "BPMYB.5L2.B1"             13311.29               28.288                    1         0.9184578264                    0         0.5830782579          29.70414572
        "BPMYB.4L6.B1"       "BPMYB.5L2.B1"             13347.69               28.288                    1         0.9371561064                    0         0.6020158479          29.72308331
       "BPMSX.B4L6.B1"       "BPMYB.5L2.B1"             13383.23               28.288                    1         0.9473739164                    0         0.6117149879          29.73278245
       "BPMSX.A4L6.B1"       "BPMYB.5L2.B1"             13383.82               28.288                    1         0.9469612364                    0         0.6118943379           29.7329618
        "BPMSA.4R6.B1"       "BPMYB.5L2.B1"             13568.51               28.288                    1         0.0717668964                    0         0.7370359779          29.85810344
       "BPMSI.A4R6.B1"       "BPMYB.5L2.B1"             13661.77               28.288                    1         0.1850838064                    0         0.8528182679          29.97388573
       "BPMSI.B4R6.B1"       "BPMYB.5L2.B1"             13662.41               28.288                    1         0.1866484464                    0         0.8534923779          29.97455984
        "BPMYA.4R6.B1"       "BPMYB.5L2.B1"             13691.29               28.288                    1         0.2146770364                    0         0.8811926779          30.00226014
        "BPMYB.5R6.B1"       "BPMYB.5L2.B1"             13727.69               28.288                    1         0.2310053064                    0         0.8992209579          30.02028842
          "BPM.9R6.B1"       "BPMYB.5L2.B1"             13862.49               28.288                    1         0.5305314164                    0         0.1985502879          30.31961775
         "BPM.10R6.B1"       "BPMYB.5L2.B1"             13902.95               28.288                    1         0.6857296864                    0         0.3007700779          30.42183754
         "BPM.11R6.B1"       "BPMYB.5L2.B1"             13954.79               28.288                    1         0.7713794964                    0         0.4432209679          30.56428843
         "BPM.12R6.B1"       "BPMYB.5L2.B1"             14009.52               28.288                    1         0.8805629764                    0         0.5530425079          30.67410997
         "BPM.13R6.B1"       "BPMYB.5L2.B1"             14062.97               28.288                    1         0.0118348364                    0         0.6835968479          30.80466431
         "BPM.14R6.B1"       "BPMYB.5L2.B1"             14116.42               28.288                    1         0.1302991164                    0         0.8013872479          30.92245471
         "BPM.15R6.B1"       "BPMYB.5L2.B1"             14169.87               28.288                    1         0.2690026164                    0         0.9400940479          31.06116151
         "BPM.16R6.B1"       "BPMYB.5L2.B1"             14223.33               28.288                    1         0.3862065164                    0         0.0584284079          31.17949587
         "BPM.17R6.B1"       "BPMYB.5L2.B1"             14276.78               28.288                    1         0.5363523064                    0         0.2037881779          31.32485564
         "BPM.18R6.B1"       "BPMYB.5L2.B1"             14330.23               28.288                    1         0.6520159284                    0         0.3208629979          31.44193046
         "BPM.20R6.B1"       "BPMYB.5L2.B1"             14437.13               28.288                    1         0.9104134164                    0         0.5787887879          31.69985625
         "BPM.21R6.B1"       "BPMYB.5L2.B1"             14490.58               28.288                    1         0.0617639664                    0         0.7238563979          31.84492386
         "BPM.22R6.B1"       "BPMYB.5L2.B1"             14544.04               28.288                    1         0.1780163664                    0         0.8402715079          31.96133897
         "BPM.23R6.B1"       "BPMYB.5L2.B1"             14597.49               28.288                    1         0.3191767564                    0         0.9802157679          32.10128323
         "BPM.24R6.B1"       "BPMYB.5L2.B1"             14650.94               28.288                    1         0.4328587264                    0         0.0966353179          32.21770278
         "BPM.25R6.B1"       "BPMYB.5L2.B1"             14704.39               28.288                    1         0.5723768464                    0         0.2365782779          32.35764574
         "BPM.26R6.B1"       "BPMYB.5L2.B1"             14757.84               28.288                    1         0.6886082464                    0         0.3529933179          32.47406078
         "BPM.27R6.B1"       "BPMYB.5L2.B1"             14811.29               28.288                    1         0.8295999064                    0         0.4929379879          32.61400545
         "BPM.28R6.B1"       "BPMYB.5L2.B1"             14864.74               28.288                    1         0.9467621664                    0         0.6093574179          32.73042488
         "BPM.29R6.B1"       "BPMYB.5L2.B1"              14918.2               28.288                    1         0.0849476464                    0         0.7492999779          32.87036744
         "BPM.30R6.B1"       "BPMYB.5L2.B1"             14971.65               28.288                    1         0.2040763864                    0         0.8657151679          32.98678263
         "BPM.31R6.B1"       "BPMYB.5L2.B1"              15025.1               28.288                    1         0.3396760664                    0    0.005660227900002          33.12672769
         "BPM.32R6.B1"       "BPMYB.5L2.B1"             15078.55               28.288                    1         0.4568809264                    0         0.1220794879          33.24314695
         "BPM.33R6.B1"       "BPMYB.5L2.B1"                15132               28.288                    1         0.5964764764                    0         0.2620216679          33.38308913
         "BPM.34R6.B1"       "BPMYB.5L2.B1"             15185.45               28.288                    1         0.7101165764                    0         0.3784370479          33.49950451
         "BPM.32L7.B1"       "BPMYB.5L2.B1"             15292.36               28.288                    1         0.9665071164                    0         0.6348015079          33.75586897
         "BPM.31L7.B1"       "BPMYB.5L2.B1"             15345.81               28.288                    1         0.1067387964                    0         0.7747433579          33.89581082
         "BPM.30L7.B1"       "BPMYB.5L2.B1"             15399.26               28.288                    1         0.2239793664                    0         0.8911589879          34.01222645
         "BPM.29L7.B1"       "BPMYB.5L2.B1"             15452.71               28.288                    1         0.3615694164                    0         0.0311047179          34.15217218
         "BPM.28L7.B1"       "BPMYB.5L2.B1"             15506.16               28.288                    1         0.4774577764                    0         0.1475234779          34.26859094
         "BPM.27L7.B1"       "BPMYB.5L2.B1"             15559.61               28.288                    1         0.6172491564                    0         0.2874650379           34.4085325
         "BPM.26L7.B1"       "BPMYB.5L2.B1"             15613.06               28.288                    1         0.7334143564                    0         0.4038809579          34.52494842
         "BPM.25L7.B1"       "BPMYB.5L2.B1"             15666.52               28.288                    1         0.8740291664                    0         0.5438269579          34.66489442
         "BPM.24L7.B1"       "BPMYB.5L2.B1"             15719.97               28.288                    1         0.9943378364                    0         0.6602454179          34.78131288
         "BPM.23L7.B1"       "BPMYB.5L2.B1"             15773.42               28.288                    1         0.1293405464                    0         0.8001867379           34.9212542
         "BPM.22L7.B1"       "BPMYB.5L2.B1"             15826.87               28.288                    1         0.2446572464                    0         0.9166029879          35.03767045
         "BPM.21L7.B1"       "BPMYB.5L2.B1"             15880.32               28.288                    1         0.3858414064                    0         0.0565491779          35.17761664
         "BPM.20L7.B1"       "BPMYB.5L2.B1"             15933.77               28.288                    1         0.5079467764                    0         0.1767586579          35.29782612
         "BPM.19L7.B1"       "BPMYB.5L2.B1"             15987.23               28.288                    1         0.6551029934                    0         0.3205437979          35.44161126
         "BPM.18L7.B1"       "BPMYB.5L2.B1"             16040.68               28.288                    1         0.7704940264                    0         0.4359858179          35.55705328
         "BPM.17L7.B1"       "BPMYB.5L2.B1"             16094.13               28.288                    1         0.9073317764                    0         0.5766071979          35.69767466
         "BPM.16L7.B1"       "BPMYB.5L2.B1"             16147.58               28.288                    1         0.0318096064                    0         0.6971703979          35.81823786
         "BPM.15L7.B1"       "BPMYB.5L2.B1"             16201.03               28.288                    1         0.1764939064                    0         0.8402078679          35.96127533
         "BPM.14L7.B1"       "BPMYB.5L2.B1"             16254.48               28.288                    1         0.2905293464                    0         0.9553969979          36.07646446
         "BPM.13L7.B1"       "BPMYB.5L2.B1"             16307.93               28.288                    1         0.4318006164                    0         0.0967854779          36.21785294
         "BPM.12L7.B1"       "BPMYB.5L2.B1"             16361.39               28.288                    1         0.5422099564                    0         0.2058269679          36.32689443
         "BPM.10L7.B1"       "BPMYB.5L2.B1"             16467.62               28.288                    1         0.7583032664                    0         0.4245292479          36.54559671
          "BPM.9L7.B1"       "BPMYB.5L2.B1"             16506.69               28.288                    1         0.8375395564                    0         0.5041954979          36.62526296
          "BPM.8L7.B1"       "BPMYB.5L2.B1"             16547.15               28.288                    1         0.9007122964                    0         0.5659290579          36.68699652
          "BPM.7L7.B1"       "BPMYB.5L2.B1"             16586.22               28.288                    1         0.9765282964                    0         0.6417336479          36.76280111
          "BPM.6L7.B1"       "BPMYB.5L2.B1"             16621.04               28.288                    1     0.03984363639999                    0         0.7074953979          36.82856286
        "BPMWC.6L7.B1"       "BPMYB.5L2.B1"             16633.14               28.288                    1         0.0839652764                    0         0.7491089079          36.87017637
        "BPMWE.5L7.B1"       "BPMYB.5L2.B1"             16710.19               28.288                    1         0.1898604564                    0         0.8548808279          36.97594829
         "BPMW.5L7.B1"       "BPMYB.5L2.B1"              16733.4               28.288                    1         0.1990137664                    0         0.8663094379           36.9873769
        "BPMWE.4L7.B1"       "BPMYB.5L2.B1"             16768.48               28.288                    1         0.2316958664                    0         0.9008009879          37.02186845
         "BPMW.4L7.B1"       "BPMYB.5L2.B1"             16796.59               28.288                    1         0.3047408764                    0         0.9716369979          37.09270446
         "BPMW.4R7.B1"       "BPMYB.5L2.B1"             16912.63               28.288                    1         0.4537815564                    0         0.1223108379           37.2433783
        "BPMWE.4R7.B1"       "BPMYB.5L2.B1"             16940.74               28.288                    1         0.4651888564                    0         0.1343126979          37.25538016
         "BPMW.5R7.B1"       "BPMYB.5L2.B1"             16975.82               28.288                    1         0.4980002964                    0         0.1670148379           37.2880823
        "BPMWE.5R7.B1"       "BPMYB.5L2.B1"             16999.03               28.288                    1         0.5620931664                    0         0.2282589379           37.3493264
         "BPMR.6R7.B1"       "BPMYB.5L2.B1"             17078.24               28.288                    1         0.7298514364                    0         0.4006805579          37.52174802
        "BPM_A.7R7.B1"       "BPMYB.5L2.B1"             17116.28               28.288                    1         0.7868140664                    0         0.4572556979          37.57832316
          "BPM.8R7.B1"       "BPMYB.5L2.B1"             17155.35               28.288                    1         0.8662374664                    0         0.5385109379           37.6595784
          "BPM.9R7.B1"       "BPMYB.5L2.B1"             17194.41               28.288                    1         0.9488465864                    0         0.6175616479          37.73862911
         "BPM.10R7.B1"       "BPMYB.5L2.B1"             17234.88               28.288                    1     0.03374853639999                    0         0.7029259979          37.82399346
         "BPM.11R7.B1"       "BPMYB.5L2.B1"             17287.66               28.288                    1         0.1416299664                    0         0.8119467279          37.93301419
         "BPM.12R7.B1"       "BPMYB.5L2.B1"             17342.39               28.288                    1         0.2775586964                    0         0.9487792079          38.06984667
         "BPM.13R7.B1"       "BPMYB.5L2.B1"             17395.84               28.288                    1         0.3908910264                    0         0.0655268579          38.18659432
         "BPM.14R7.B1"       "BPMYB.5L2.B1"             17449.29               28.288                    1         0.5347005664                    0         0.2045431979          38.32561066
         "BPM.15R7.B1"       "BPMYB.5L2.B1"             17502.74               28.288                    1         0.6500052264                    0         0.3236398179          38.44470728
         "BPM.16R7.B1"       "BPMYB.5L2.B1"             17556.19               28.288                    1         0.7981562064                    0         0.4685611779          38.58962864
         "BPM.17R7.B1"       "BPMYB.5L2.B1"             17609.65               28.288                    1         0.9160051164                    0         0.5849432879          38.70601075
         "BPM.18R7.B1"       "BPMYB.5L2.B1"              17663.1               28.288                    1     0.05570203639999                    0         0.7243408579          38.84540832
         "BPM.19R7.B1"       "BPMYB.5L2.B1"             17716.55               28.288                    1         0.1764898164                    0         0.8440473579          38.96511482
         "BPM.20R7.B1"       "BPMYB.5L2.B1"                17770               28.288                    1         0.3216238364                    0         0.9884776679          39.10954513
         "BPM.21R7.B1"       "BPMYB.5L2.B1"             17823.45               28.288                    1         0.4399153564                    0         0.1043273979          39.22539486
         "BPM.22R7.B1"       "BPMYB.5L2.B1"              17876.9               28.288                    1         0.5750984564                    0         0.2442685379            39.365336
         "BPM.24R7.B1"       "BPMYB.5L2.B1"             17983.81               28.288                    1         0.8312111764                    0         0.5006287179          39.62169618
         "BPM.25R7.B1"       "BPMYB.5L2.B1"             18037.26               28.288                    1         0.9480825264                    0         0.6170487879          39.73811625
         "BPM.26R7.B1"       "BPMYB.5L2.B1"             18090.71               28.288                    1         0.0886376464                    0         0.7569900979          39.87805756
         "BPM.28R7.B1"       "BPMYB.5L2.B1"             18197.61               28.288                    1         0.3440368464                    0         0.0133510979          40.13441856
         "BPM.29R7.B1"       "BPMYB.5L2.B1"             18251.06               28.288                    1         0.4628415964                    0         0.1297708079          40.25083827
         "BPM.30R7.B1"       "BPMYB.5L2.B1"             18304.51               28.288                    1         0.6017770164                    0         0.2697116579          40.39077912
         "BPM.31R7.B1"       "BPMYB.5L2.B1"             18357.97               28.288                    1         0.7141001864                    0         0.3861266779          40.50719414
         "BPM.32R7.B1"       "BPMYB.5L2.B1"             18411.42               28.288                    1         0.8548187564                    0         0.5260734679          40.64714093
         "BPM.33R7.B1"       "BPMYB.5L2.B1"             18464.87               28.288                    1         0.9717276664                    0         0.6424927679          40.76356023
         "BPM.34R7.B1"       "BPMYB.5L2.B1"             18518.32               28.288                    1         0.1118018164                    0         0.7824332279          40.90350069
         "BPM.33L8.B1"       "BPMYB.5L2.B1"             18571.77               28.288                    1         0.2263659264                    0         0.8988486779          41.01991614
         "BPM.32L8.B1"       "BPMYB.5L2.B1"             18625.22               28.288                    1         0.3666156464                    0         0.0387958279          41.15986329
         "BPM.31L8.B1"       "BPMYB.5L2.B1"             18678.68               28.288                    1         0.4838069664                    0         0.1552146679          41.27628213
         "BPM.30L8.B1"       "BPMYB.5L2.B1"             18732.13               28.288                    1         0.6238798764                    0         0.2951548079          41.41622227
         "BPM.29L8.B1"       "BPMYB.5L2.B1"             18785.58               28.288                    1         0.7394235064                    0         0.4115707479          41.53263821
         "BPM.28L8.B1"       "BPMYB.5L2.B1"             18839.03               28.288                    1         0.8778836964                    0         0.5515181579          41.67258562
         "BPM.27L8.B1"       "BPMYB.5L2.B1"             18892.48               28.288                    1         0.9938790064                    0         0.6679364979          41.78900396
         "BPM.26L8.B1"       "BPMYB.5L2.B1"             18945.93               28.288                    1         0.1373609164                    0         0.8078764179          41.92894388
         "BPM.25L8.B1"       "BPMYB.5L2.B1"             18999.38               28.288                    1         0.2502826564                    0         0.9242928779          42.04536034
         "BPM.24L8.B1"       "BPMYB.5L2.B1"             19052.84               28.288                    1         0.3924990464                    0         0.0642404579          42.18530792
         "BPM.23L8.B1"       "BPMYB.5L2.B1"             19106.29               28.288                    1         0.5100303964                    0         0.1806582679          42.30172573
         "BPM.22L8.B1"       "BPMYB.5L2.B1"             19159.74               28.288                    1         0.6518111534                    0         0.3205980679          42.44166553
         "BPM.21L8.B1"       "BPMYB.5L2.B1"             19213.19               28.288                    1         0.7662806564                    0         0.4370150679          42.55808253
         "BPM.20L8.B1"       "BPMYB.5L2.B1"             19266.64               28.288                    1         0.9036822264                    0         0.5762695479          42.69733701
         "BPM.19L8.B1"       "BPMYB.5L2.B1"             19320.09               28.288                    1         0.0268510064                    0         0.6959520279          42.81701949
         "BPM.18L8.B1"       "BPMYB.5L2.B1"             19373.54               28.288                    1         0.1741935664                    0         0.8405329079          42.96160037
         "BPM.17L8.B1"       "BPMYB.5L2.B1"                19427               28.288                    1         0.2893103364                    0         0.9563864679          43.07745393
         "BPM.16L8.B1"       "BPMYB.5L2.B1"             19480.45               28.288                    1         0.4243276964                    0         0.0961798679          43.21724733
         "BPM.15L8.B1"       "BPMYB.5L2.B1"              19533.9               28.288                    1         0.5491500264                    0         0.2163946379           43.3374621
         "BPM.14L8.B1"       "BPMYB.5L2.B1"             19587.35               28.288                    1         0.6947351964                    0         0.3603337879          43.48140125
         "BPM.13L8.B1"       "BPMYB.5L2.B1"              19640.8               28.288                    1         0.8069089364                    0         0.4757515679          43.59681903
         "BPM.12L8.B1"       "BPMYB.5L2.B1"             19694.25               28.288                    1         0.9469665964                    0         0.6170704579          43.73813792
         "BPM.11L8.B1"       "BPMYB.5L2.B1"              19747.7               28.288                    1     0.06122182639999                    0         0.7287684079          43.84983587
         "BPM.10L8.B1"       "BPMYB.5L2.B1"             19799.55               28.288                    1         0.1900009464                    0         0.8571039079          43.97817137
          "BPM.9L8.B1"       "BPMYB.5L2.B1"             19838.61               28.288                    1         0.2586120864                    0         0.9265324179          44.04759988
          "BPM.8L8.B1"       "BPMYB.5L2.B1"             19879.08               28.288                    1         0.3655516664                    0         0.0349268979          44.15599436
          "BPM.7L8.B1"       "BPMYB.5L2.B1"             19918.15               28.288                    1         0.4617505864                    0         0.1310621479          44.25212961
         "BPMR.6L8.B1"       "BPMYB.5L2.B1"             19950.61               28.288                    1         0.5600790964                    0         0.2276154879          44.34868295
        "BPMYB.4L8.B1"       "BPMYB.5L2.B1"              20031.8               28.288                    1         0.9091408664                    0         0.5803071779          44.70137464
        "BPMWB.4L8.B1"       "BPMYB.5L2.B1"             20056.19               28.288                    1         0.9238629564                    0         0.5946457179          44.71571318
        "BPMSX.4L8.B1"       "BPMYB.5L2.B1"             20106.42               28.288                    1         0.9507787464                    0         0.6206573479          44.74172481
         "BPMS.2L8.B1"       "BPMYB.5L2.B1"             20144.34               28.288                    1         0.9644042064                    0         0.6342107979          44.75527826
        "BPMSW.1L8.B1"       "BPMYB.5L2.B1"             20154.27               28.288                    1         0.9705481864                    0         0.6403614279          44.76142889
         "BPMS.2R8.B1"       "BPMYB.5L2.B1"             20207.39               28.288                    1         0.4334979264                    0         0.1043626679          45.22543013
        "BPMSX.4R8.B1"       "BPMYB.5L2.B1"             20245.31               28.288                    1         0.4487900864                    0         0.1198346879          45.24090215
        "BPMWB.4R8.B1"       "BPMYB.5L2.B1"             20295.46               28.288                    1         0.4742875764                    0         0.1421179179          45.26318538
        "BPMYB.4R8.B1"       "BPMYB.5L2.B1"             20319.93               28.288                    1         0.5538877264                    0         0.1649395579          45.28600702
        "BPMYB.5R8.B1"       "BPMYB.5L2.B1"             20340.51               28.288                    1         0.5154878364                    0         0.1838323779          45.30489984
          "BPM.6R8.B1"       "BPMYB.5L2.B1"             20424.62               28.288                    1         0.7181057364                    0         0.3924289879          45.51349645
        "BPM_A.7R8.B1"       "BPMYB.5L2.B1"             20446.86               28.288                    1         0.7649944864                    0         0.4366910779          45.55775854
          "BPM.8R8.B1"       "BPMYB.5L2.B1"             20488.29               28.288                    1         0.9090472064                    0         0.5776180179          45.69868548
          "BPM.9R8.B1"       "BPMYB.5L2.B1"             20527.36               28.288                    1         0.1224636764                    0         0.7897989879          45.91086645
         "BPM.10R8.B1"       "BPMYB.5L2.B1"             20567.82               28.288                    1         0.2124003064                    0         0.8826863379           46.0037538
         "BPM.11R8.B1"       "BPMYB.5L2.B1"             20619.66               28.288                    1         0.4005842764                    0         0.0673666779          46.18843414
         "BPM.12R8.B1"       "BPMYB.5L2.B1"             20674.38               28.288                    1         0.5044544264                    0         0.1730633979          46.29413086
         "BPM.13R8.B1"       "BPMYB.5L2.B1"             20727.83               28.288                    1         0.5959092564                    0         0.2655093979          46.38657686
         "BPM.14R8.B1"       "BPMYB.5L2.B1"             20781.28               28.288                    1         0.6960978864                    0         0.3593267779          46.48039424
         "BPM.16R8.B1"       "BPMYB.5L2.B1"             20888.18               28.288                    1         0.9877357764                    0         0.6544764479          46.77554391
         "BPM.17R8.B1"       "BPMYB.5L2.B1"             20941.63               28.288                    1         0.0918369764                    0         0.7654817479          46.88654921
         "BPM.18R8.B1"       "BPMYB.5L2.B1"             20995.07               28.288                    1         0.1842478264                    0         0.8592922879          46.98035975
         "BPM.19R8.B1"       "BPMYB.5L2.B1"             21048.52               28.288                    1         0.3501831464                    0         0.0213217879          47.14238925
         "BPM.20R8.B1"       "BPMYB.5L2.B1"             21101.97               28.288                    1         0.4791165364                    0         0.1544416979          47.27550916
         "BPM.21R8.B1"       "BPMYB.5L2.B1"             21155.42               28.288                    1         0.5868180664                    0         0.2654546579          47.38652212
         "BPM.23R8.B1"       "BPMYB.5L2.B1"             21262.32               28.288                    1         0.8434925864                    0         0.5212738679          47.64234133
         "BPM.24R8.B1"       "BPMYB.5L2.B1"             21315.76               28.288                    1         0.9783644964                    0         0.6544069479          47.77547441
         "BPM.25R8.B1"       "BPMYB.5L2.B1"             21369.21               28.288                    1         0.0889747564                    0         0.7654275679          47.88649503
         "BPM.26R8.B1"       "BPMYB.5L2.B1"             21422.66               28.288                    1         0.1820297764                    0         0.8592233279          47.98029079
         "BPM.27R8.B1"       "BPMYB.5L2.B1"             21476.11               28.288                    1         0.3432738064                    0         0.0212259379           48.1422934
         "BPM.28R8.B1"       "BPMYB.5L2.B1"             21529.56               28.288                    1         0.4788394464                    0         0.1543721879          48.27543965
         "BPM.29R8.B1"       "BPMYB.5L2.B1"             21583.01               28.288                    1         0.5888965264                    0         0.2654004779          48.38646794
         "BPM.30R8.B1"       "BPMYB.5L2.B1"             21636.46               28.288                    1         0.6857156864                    0         0.3591888579          48.48025632
         "BPM.31R8.B1"       "BPMYB.5L2.B1"              21689.9               28.288                    1         0.8480386164                    0         0.5211779979          48.64224546
         "BPM.32R8.B1"       "BPMYB.5L2.B1"             21743.35               28.288                    1         0.9815540064                    0         0.6543374279          48.77540489
         "BPM.33R8.B1"       "BPMYB.5L2.B1"              21796.8               28.288                    1     0.09036683639999                    0         0.7653733879          48.88644085
         "BPM.34R8.B1"       "BPMYB.5L2.B1"             21850.25               28.288                    1         0.1858744164                    0         0.8591543879          48.98022185
         "BPM.33L1.B1"       "BPMYB.5L2.B1"              21903.7               28.288                    1         0.3505719364                    0         0.0211300679          49.14219753
         "BPM.32L1.B1"       "BPMYB.5L2.B1"             21957.15               28.288                    1         0.4814196664                    0         0.1543026679          49.27537013
         "BPM.31L1.B1"       "BPMYB.5L2.B1"              22010.6               28.288                    1         0.5919218864                    0         0.2653462979          49.38641376
         "BPM.30L1.B1"       "BPMYB.5L2.B1"             22064.04               28.288                    1         0.6892702664                    0         0.3591199279          49.48018739
         "BPM.29L1.B1"       "BPMYB.5L2.B1"             22117.49               28.288                    1         0.8515388664                    0         0.5210821379           49.6421496
         "BPM.28L1.B1"       "BPMYB.5L2.B1"             22170.94               28.288                    1         0.9804930264                    0         0.6542678979          49.77533536
         "BPM.27L1.B1"       "BPMYB.5L2.B1"             22224.39               28.288                    1         0.0920272164                    0         0.7653192079          49.88638667
         "BPM.26L1.B1"       "BPMYB.5L2.B1"             22277.84               28.288                    1         0.1896074764                    0         0.8590854679          49.98015293
         "BPM.25L1.B1"       "BPMYB.5L2.B1"             22331.29               28.288                    1         0.3481189764                    0         0.0210341979          50.14210166
         "BPM.24L1.B1"       "BPMYB.5L2.B1"             22384.74               28.288                    1         0.4842554764                    0         0.1542331179          50.27530058
         "BPM.23L1.B1"       "BPMYB.5L2.B1"             22438.18               28.288                    1         0.5924605864                    0         0.2652921279          50.38635959
         "BPM.22L1.B1"       "BPMYB.5L2.B1"             22491.63               28.288                    1         0.6874963064                    0         0.3590510079          50.48011847
         "BPM.21L1.B1"       "BPMYB.5L2.B1"             22545.08               28.288                    1         0.8487409964                    0         0.5209862679          50.64205373
         "BPM.20L1.B1"       "BPMYB.5L2.B1"             22598.53               28.288                    1         0.9825118364                    0         0.6541983379           50.7752658
         "BPM.19L1.B1"       "BPMYB.5L2.B1"             22651.98               28.288                    1         0.0896136164                    0         0.7652650379           50.8863325
         "BPM.18L1.B1"       "BPMYB.5L2.B1"             22705.43               28.288                    1         0.1847568264                    0         0.8590165579          50.98008402
         "BPM.17L1.B1"       "BPMYB.5L2.B1"             22758.87               28.288                    1         0.3474583964                    0         0.0209383279          51.14200579
         "BPM.16L1.B1"       "BPMYB.5L2.B1"             22812.32               28.288                    1         0.4771654964                    0         0.1541635579          51.27523102
         "BPM.15L1.B1"       "BPMYB.5L2.B1"             22865.77               28.288                    1         0.5865287364                    0         0.2652379479          51.38630541
         "BPM.14L1.B1"       "BPMYB.5L2.B1"             22919.22               28.288                    1         0.6809738364                    0         0.3589821179          51.48004958
         "BPM.13L1.B1"       "BPMYB.5L2.B1"             22972.67               28.288                    1         0.8414380164                    0         0.5208903979          51.64195786
         "BPM.12L1.B1"       "BPMYB.5L2.B1"             23026.12               28.288                    1         0.9664587864                    0         0.6471142679          51.76818173
         "BPM.11L1.B1"       "BPMYB.5L2.B1"             23079.57               28.288                    1         0.0763615864                    0         0.7533607679          51.87442823
         "BPM.10L1.B1"       "BPMYB.5L2.B1"             23132.35               28.288                    1         0.1418913764                    0         0.8182620979          51.93932956
          "BPM.9L1.B1"       "BPMYB.5L2.B1"             23171.41               28.288                    1         0.1961990764                    0         0.8741240179          51.99519148
          "BPM.8L1.B1"       "BPMYB.5L2.B1"             23211.87               28.288                    1         0.3623129164                    0         0.0287212479          52.14978871
         "BPMR.7L1.B1"       "BPMYB.5L2.B1"             23250.94               28.288                    1         0.6074896664                    0         0.2811225379             52.40219
          "BPM.6L1.B1"       "BPMYB.5L2.B1"             23294.12               28.288                    1         0.8602035764                    0         0.5671188079          52.68818627
        "BPMYA.4L1.B1"       "BPMYB.5L2.B1"             23347.14               28.288                    1         0.0745001464                    0         0.7479944679          52.86906193
        "BPMWB.4L1.B1"       "BPMYB.5L2.B1"             23368.28               28.288                    1         0.0794746464                    0         0.7526801979          52.87374766
        "BPMSY.4L1.B1"       "BPMYB.5L2.B1"             23461.06               28.288                    1         0.0851607564                    0         0.7580795379            52.879147
         "BPMS.2L1.B1"       "BPMYB.5L2.B1"             23487.84               28.288                    1         0.0869766964                    0         0.7593223079          52.88038977
        "BPMSW.1L1.B1"       "BPMYB.5L2.B1"             23497.79               28.288                    1         0.0872840564                    0         0.7601270279          52.88119449
        "BPMSW.1R1.B1"       "BPMYB.5L2.B1"             23540.93               28.288                    1         0.5829085964                    0         0.2557006079          53.37676807
         "BPMS.2R1.B1"       "BPMYB.5L2.B1"              23550.9               28.288                    1         0.5837946164                    0         0.2563281279          53.37739559
        "BPMSY.4R1.B1"       "BPMYB.5L2.B1"             23577.68               28.288                    1         0.5845720364                    0         0.2571847379           53.3782522
        "BPMWB.4R1.B1"       "BPMYB.5L2.B1"             23670.46               28.288                    1         0.5909588764                    0         0.2633132779          53.38438074
        "BPMYA.4R1.B1"       "BPMYB.5L2.B1"              23691.6               28.288                    1         0.5926934264                    0         0.2654177779          53.38648524
          "BPM.5R1.B1"       "BPMYB.5L2.B1"                23719               28.288                    1         0.5975198064                    0         0.2702166879          53.39128415
         "BPMR.6R1.B1"       "BPMYB.5L2.B1"              23750.9               28.288                    1         0.6121372864                    0         0.2848125179          53.40587998
        "BPMSX.7R1.B1"       "BPMYB.5L2.B1"             23757.12               28.288                    1         0.6193278964                    0         0.2907258379           53.4117933
        "BPM_A.7R1.B1"       "BPMYB.5L2.B1"             23778.63               28.288                    1         0.6882363564                    0         0.3523845179          53.47345198
          "BPM.8R1.B1"       "BPMYB.5L2.B1"             23820.07               28.288                    1         0.9405106264                    0         0.6040534879          53.72512095
          "BPM.9R1.B1"       "BPMYB.5L2.B1"             23859.13               28.288                    1         0.0154475664                    0         0.6839455479          53.80501301
         "BPM.10R1.B1"       "BPMYB.5L2.B1"              23899.6               28.288                    1         0.0848067264                    0         0.7559296879          53.87699715
         "BPM.11R1.B1"       "BPMYB.5L2.B1"             23952.38               28.288                    1         0.1781619664                    0         0.8499748079          53.97104227
         "BPM.12R1.B1"       "BPMYB.5L2.B1"             24007.11               28.288                    1         0.3455436264                    0         0.0218230279          54.14289049
         "BPM.13R1.B1"       "BPMYB.5L2.B1"             24060.56               28.288                    1         0.4859098064                    0         0.1553079779          54.27637544
         "BPM.14R1.B1"       "BPMYB.5L2.B1"             24114.01               28.288                    1         0.5947738064                    0         0.2661393679          54.38720683
         "BPM.15R1.B1"       "BPMYB.5L2.B1"             24167.46               28.288                    1         0.6872934764                    0         0.3601379479          54.48120541
         "BPM.16R1.B1"       "BPMYB.5L2.B1"             24220.91               28.288                    1         0.8504177164                    0         0.5225087279          54.64357619
         "BPM.17R1.B1"       "BPMYB.5L2.B1"             24274.37               28.288                    1         0.9836316664                    0         0.6553085579          54.77637602
         "BPM.18R1.B1"       "BPMYB.5L2.B1"             24327.82               28.288                    1     0.09664353639999                    0         0.7661393679          54.88720683
         "BPM.19R1.B1"       "BPMYB.5L2.B1"             24381.27               28.288                    1         0.1891254264                    0         0.8601379479          54.98120541
         "BPM.20R1.B1"       "BPMYB.5L2.B1"             24434.72               28.288                    1         0.3535879164                    0         0.0225087279          55.14357619
         "BPM.21R1.B1"       "BPMYB.5L2.B1"             24488.17               28.288                    1         0.4863036664                    0         0.1553085579          55.27637602
         "BPM.22R1.B1"       "BPMYB.5L2.B1"             24541.62               28.288                    1         0.5980380664                    0         0.2661393679          55.38720683
         "BPM.23R1.B1"       "BPMYB.5L2.B1"             24595.08               28.288                    1         0.6911917364                    0         0.3601379479          55.48120541
         "BPM.24R1.B1"       "BPMYB.5L2.B1"             24648.53               28.288                    1         0.8529451164                    0         0.5225087279          55.64357619
         "BPM.25R1.B1"       "BPMYB.5L2.B1"             24701.98               28.288                    1         0.9855925664                    0         0.6553085579          55.77637602
         "BPM.26R1.B1"       "BPMYB.5L2.B1"             24755.43               28.288                    1     0.09625913639999                    0         0.7661393679          55.88720683
         "BPM.27R1.B1"       "BPMYB.5L2.B1"             24808.88               28.288                    1         0.1887335264                    0         0.8601379479          55.98120541
         "BPM.28R1.B1"       "BPMYB.5L2.B1"             24862.33               28.288                    1         0.3537772164                    0         0.0225087279          56.14357619
         "BPM.29R1.B1"       "BPMYB.5L2.B1"             24915.78               28.288                    1         0.4898749664                    0         0.1553085579          56.27637602
         "BPM.30R1.B1"       "BPMYB.5L2.B1"             24969.24               28.288                    1         0.5971897764                    0         0.2661393679          56.38720683
         "BPM.31R1.B1"       "BPMYB.5L2.B1"             25022.69               28.288                    1         0.6917743764                    0         0.3601379479          56.48120541
         "BPM.32R1.B1"       "BPMYB.5L2.B1"             25076.14               28.288                    1         0.8519797164                    0         0.5225087279          56.64357619
         "BPM.33R1.B1"       "BPMYB.5L2.B1"             25129.59               28.288                    1         0.9875096664                    0         0.6553085579          56.77637602
         "BPM.34R1.B1"       "BPMYB.5L2.B1"             25183.04               28.288                    1     0.09733583639999                    0         0.7661393679          56.88720683
         "BPM.33L2.B1"       "BPMYB.5L2.B1"             25236.49               28.288                    1         0.1915158264                    0         0.8601379479          56.98120541
         "BPM.32L2.B1"       "BPMYB.5L2.B1"             25289.94               28.288                    1         0.3502459164                    0         0.0225087279          57.14357619
         "BPM.31L2.B1"       "BPMYB.5L2.B1"              25343.4               28.288                    1         0.4855373664                    0         0.1553085579          57.27637602
         "BPM.30L2.B1"       "BPMYB.5L2.B1"             25396.85               28.288                    1         0.5978542364                    0         0.2661393679          57.38720683
         "BPM.29L2.B1"       "BPMYB.5L2.B1"              25450.3               28.288                    1         0.6896209764                    0         0.3601379479          57.48120541
         "BPM.28L2.B1"       "BPMYB.5L2.B1"             25503.75               28.288                    1         0.8517451164                    0         0.5225087279          57.64357619
         "BPM.27L2.B1"       "BPMYB.5L2.B1"              25557.2               28.288                    1         0.9847757664                    0         0.6553085579          57.77637602
         "BPM.26L2.B1"       "BPMYB.5L2.B1"             25610.65               28.288                    1     0.09819243639999                    0         0.7661393679          57.88720683
         "BPM.25L2.B1"       "BPMYB.5L2.B1"              25664.1               28.288                    1         0.1917901264                    0         0.8601379479          57.98120541
         "BPM.24L2.B1"       "BPMYB.5L2.B1"             25717.56               28.288                    1         0.3527509164                    0         0.0225087279          58.14357619
         "BPM.23L2.B1"       "BPMYB.5L2.B1"             25771.01               28.288                    1         0.4857066664                    0         0.1553085579          58.27637602
         "BPM.22L2.B1"       "BPMYB.5L2.B1"             25824.46               28.288                    1         0.5973170964                    0         0.2661393679          58.38720683
         "BPM.21L2.B1"       "BPMYB.5L2.B1"             25877.91               28.288                    1         0.6895625264                    0         0.3601379479          58.48120541
         "BPM.20L2.B1"       "BPMYB.5L2.B1"             25931.36               28.288                    1         0.8513979164                    0         0.5225087279          58.64357619
         "BPM.19L2.B1"       "BPMYB.5L2.B1"             25984.81               28.288                    1         0.9870928664                    0         0.6553085579          58.77637602
         "BPM.18L2.B1"       "BPMYB.5L2.B1"             26038.27               28.288                    1     0.09857433639999                    0         0.7661393679          58.88720683
         "BPM.16L2.B1"       "BPMYB.5L2.B1"             26145.17               28.288                    1         0.3518348164                    0         0.0225087279          59.14357619
         "BPM.15L2.B1"       "BPMYB.5L2.B1"             26198.62               28.288                    1         0.4868367664                    0         0.1553085579          59.27637602
         "BPM.14L2.B1"       "BPMYB.5L2.B1"             26252.07               28.288                    1         0.5977392864                    0         0.2661393679          59.38720683
         "BPM.13L2.B1"       "BPMYB.5L2.B1"             26305.52               28.288                    1         0.6938106764                    0         0.3601379479          59.48120541
         "BPM.12L2.B1"       "BPMYB.5L2.B1"             26358.97               28.288                    1         0.8513717564                    0         0.5204654979          59.64153296
         "BPM.11L2.B1"       "BPMYB.5L2.B1"             26412.43               28.288                    1         0.9917422164                    0         0.6613902379           59.7824577
         "BPM.10L2.B1"       "BPMYB.5L2.B1"             26464.27               28.288                    1         0.1091739464                    0         0.7773053779          59.89837284
          "BPM.9L2.B1"       "BPMYB.5L2.B1"             26503.33               28.288                    1         0.1705642864                    0         0.8373925579          59.95846002
          "BPM.8L2.B1"       "BPMYB.5L2.B1"              26543.8               28.288                    1         0.3127722564                    0         0.9778368879          60.09890435
          "BPM.7L2.B1"       "BPMYB.5L2.B1"             26582.87               28.288                    1         0.4082303264                    0         0.0747531679          60.19582063
         "BPMR.6L2.B1"       "BPMYB.5L2.B1"             26614.97               28.288                    1         0.4631812564                    0         0.1290856079          60.25015307