@ GetLLMVersion %s "V3.0.0 Dev"
@ Command %s "/afs/cern.ch/work/o/omc/anaconda/bin/python '/afs/cern.ch/eng/sl/lintrack/Beta-Beat.src/GetLLM/GetLLM.py' '--accel=LHCB1' '--model=/afs/cern.ch/user/t/thpugnat/public/Outputs/2018-09-04/models/LHCB1/b1_squeeze_collQ/twiss.dat' '--files=/afs/cern.ch/user/t/thpugnat/public/Outputs/2018-09-04/LHCB1/Measurements/Beam1@Turn@2018_06_16@17_48_24_925/Beam1@Turn@2018_06_16@17_48_24_925.sdds.clean' '--output=/afs/cern.ch/user/t/thpugnat/public/Outputs/2018-09-04/LHCB1/Results/15-57-07_NORMALANALYSIS_SUSSIX_31' '--tbtana=SUSSIX' '--bpmu=mm' '--lhcphase=1' '--errordefs=/afs/cern.ch/user/t/thpugnat/public/Outputs/2018-09-04/models/LHCB1/b1_squeeze_collQ/error_deff.txt' '--calibration=/afs/cern.ch/eng/sl/lintrack/LHC_commissioning2017/Calibration_factors_2017/Calibration_factors_2017_beam1'"
@ CWD %s "/afs/cern.ch/user/t/thpugnat"
@ Date %s "04. September 2018, 15:57:16"
@ Q1 %le 0.31043225166340066
@ MUX %le 63.31043225166339
@ Q2 %le 0.31982108979999485
@ MUY %le 63.31982108979998
@ FILES %s "/afs/cern.ch/user/t/thpugnat/public/Outputs/2018-09-04/LHCB1/Measurements/Beam1@Turn@2018_06_16@17_48_24_925/Beam1@Turn@2018_06_16@17_48_24_925.sdds.clean_liny"
*                 NAME                NAME2                    S                   S1                COUNT               PHASEY               STDPHY               PHYMDL               MUYMDL
$                   %s                   %s                  %le                  %le                  %le                  %le                  %le                  %le                  %le
        "BPMYB.5L2.B1"       "BPMYB.4L2.B1"               28.288               48.858                    1         0.0548634048                    0         0.0538582759         0.1210674621
        "BPMYB.4L2.B1"       "BPMWI.4L2.B1"               48.858              73.3255                    1         0.0350132217                    0         0.0349507478          0.174925738
        "BPMWI.4L2.B1"       "BPMSX.4L2.B1"              73.3255             123.4825                    1         0.0765709246                    0         0.0813585892         0.2098764858
        "BPMSX.4L2.B1"        "BPMS.2L2.B1"             123.4825              161.394                    1         0.0514877201                    0         0.0435297738          0.291235075
         "BPMS.2L2.B1"       "BPMSW.1L2.B1"              161.394              171.328                    1         0.0193276523                    0          0.017946284         0.3347648488
        "BPMSW.1L2.B1"       "BPMSW.1R2.B1"              171.328              214.518                    1         0.6865699358                    0         0.3619560687         0.3527111328
        "BPMSW.1R2.B1"        "BPMS.2R2.B1"              214.518              224.452                    1         0.0250198473                    0         0.0234251562         0.7146672015
         "BPMS.2R2.B1"       "BPMSX.4R2.B1"              224.452             262.3635                    1         0.0534216177                    0          0.050404274         0.7380923577
        "BPMSX.4R2.B1"       "BPMWB.4R2.B1"             262.3635             312.5965                    1         0.0654657503                    0         0.0692105691         0.7884966317
        "BPMWB.4R2.B1"       "BPMYB.4R2.B1"             312.5965              336.988                    1         0.0540790226                    0         0.0511045738         0.8577072008
        "BPMYB.4R2.B1"        "BPMR.5R2.B1"              336.988              366.522                    1         0.0327855251                    0         0.0343433723         0.9088117746
         "BPMR.5R2.B1"         "BPM.6R2.B1"              366.522              439.818                    1         0.2207823471                    0         0.2215871811         0.9431551469
          "BPM.6R2.B1"       "BPM_A.7R2.B1"              439.818              452.693                    1          0.035722923                    0            0.0330554          1.164742328
        "BPM_A.7R2.B1"         "BPM.8R2.B1"              452.693          494.1300106                    1           0.12007462                    0          0.120188906          1.197797728
          "BPM.8R2.B1"         "BPM.9R2.B1"               494.13          533.1950212                    1          0.124960994                    0          0.127692698          1.317986634
          "BPM.9R2.B1"        "BPM.10R2.B1"              533.195          573.6580318                    1          0.088552043                    0          0.087295925          1.445679332
         "BPM.10R2.B1"        "BPM.11R2.B1"              573.658          625.4967424                    1          0.126153788                    0          0.124291374          1.532975257
         "BPM.11R2.B1"        "BPM.12R2.B1"             625.4967          680.2202583                    1          0.120384231                    0          0.119525134          1.657266631
         "BPM.12R2.B1"        "BPM.13R2.B1"             680.2203          733.6687742                    1          0.144898673                    0          0.144414181          1.776791765
         "BPM.13R2.B1"        "BPM.14R2.B1"             733.6688          787.1172901                    1          0.108996969                    0          0.111821941          1.921205946
         "BPM.14R2.B1"        "BPM.15R2.B1"             787.1173           840.565806                    1          0.134074281                    0          0.131638163          2.033027887
         "BPM.15R2.B1"        "BPM.16R2.B1"             840.5658          894.0143219                    1          0.105876629                    0          0.107231506           2.16466605
         "BPM.16R2.B1"        "BPM.17R2.B1"             894.0143          947.4628378                    1          0.127755698                    0          0.128246221          2.271897556
         "BPM.17R2.B1"        "BPM.18R2.B1"             947.4628          1000.911354                    1          0.110393586                    0          0.111420034          2.400143777
         "BPM.18R2.B1"        "BPM.19R2.B1"             1000.911           1054.35987                    1          0.131878516                    0          0.132285178          2.511563811
         "BPM.19R2.B1"        "BPM.20R2.B1"              1054.36          1107.808386                    1          0.106758119                    0           0.10767829          2.643848989
         "BPM.20R2.B1"        "BPM.21R2.B1"             1107.808          1161.256901                    1           0.12746847                    0          0.127696737          2.751527279
         "BPM.21R2.B1"        "BPM.22R2.B1"             1161.257          1214.705417                    1          0.109001759                    0          0.110881113          2.879224016
         "BPM.22R2.B1"        "BPM.23R2.B1"             1214.705          1268.153933                    1          0.131688423                    0          0.132082393          2.990105129
         "BPM.23R2.B1"        "BPM.24R2.B1"             1268.154          1321.602449                    1           0.11268234                    0          0.110880657          3.122187522
         "BPM.24R2.B1"        "BPM.25R2.B1"             1321.602          1375.050965                    1          0.133545845                    0           0.13208499          3.233068179
         "BPM.25R2.B1"        "BPM.26R2.B1"             1375.051          1428.499481                    1          0.106965853                    0          0.110881468          3.365153169
         "BPM.26R2.B1"        "BPM.27R2.B1"             1428.499          1481.947997                    1          0.134683764                    0          0.132082476          3.476034637
         "BPM.27R2.B1"        "BPM.28R2.B1"             1481.948          1535.396513                    1            0.1151429                    0          0.110880463          3.608117113
         "BPM.28R2.B1"        "BPM.29R2.B1"             1535.397          1588.845029                    1          0.130876952                    0          0.132084888          3.718997576
         "BPM.29R2.B1"        "BPM.30R2.B1"             1588.845          1642.293545                    1          0.105747004                    0          0.110881654          3.851082464
         "BPM.30R2.B1"        "BPM.31R2.B1"             1642.294           1695.74206                    1          0.132804344                    0          0.132082597          3.961964118
         "BPM.31R2.B1"        "BPM.32R2.B1"             1695.742          1749.190576                    1          0.109993293                    0          0.110880287          4.094046715
         "BPM.32R2.B1"        "BPM.33R2.B1"             1749.191          1802.639092                    1          0.136000648                    0          0.132084748          4.204927002
         "BPM.33R2.B1"        "BPM.34R2.B1"             1802.639          1856.087608                    1          0.106867703                    0           0.11088182           4.33701175
         "BPM.34R2.B1"        "BPM.33L3.B1"             1856.088          1909.536124                    1           0.13052787                    0          0.132082753           4.44789357
         "BPM.33L3.B1"        "BPM.32L3.B1"             1909.536           1962.98464                    1           0.11662535                    0          0.110880133          4.579976323
         "BPM.32L3.B1"        "BPM.31L3.B1"             1962.985          2016.433156                    1          0.133660762                    0          0.132084578          4.690856456
         "BPM.31L3.B1"        "BPM.30L3.B1"             2016.433          2069.881672                    1          0.108099806                    0          0.110881959          4.822941034
         "BPM.30L3.B1"        "BPM.29L3.B1"             2069.882          2123.330188                    1          0.129228564                    0          0.132082938          4.933822993
         "BPM.29L3.B1"        "BPM.27L3.B1"              2123.33           2230.22722                    1          0.250907513                    0          0.242964387          5.065905931
         "BPM.27L3.B1"        "BPM.26L3.B1"             2230.227          2283.675735                    1          0.106904611                    0           0.11088207          5.308870318
         "BPM.26L3.B1"        "BPM.25L3.B1"             2283.676          2337.124251                    1          0.128510793                    0          0.132083148          5.419752388
         "BPM.25L3.B1"        "BPM.24L3.B1"             2337.124          2390.572767                    1          0.117025306                    0          0.110879913          5.551835536
         "BPM.24L3.B1"        "BPM.23L3.B1"             2390.573          2444.021283                    1          0.134853655                    0           0.13208416          5.662715449
         "BPM.23L3.B1"        "BPM.22L3.B1"             2444.021          2497.469799                    1          0.108995243                    0          0.110882148          5.794799609
         "BPM.22L3.B1"        "BPM.21L3.B1"              2497.47          2550.918315                    1          0.128081326                    0          0.132083375          5.905681757
         "BPM.21L3.B1"        "BPM.20L3.B1"             2550.918          2604.366831                    1          0.111450453                    0          0.107619299          6.037765132
         "BPM.20L3.B1"        "BPM.19L3.B1"             2604.367          2657.815347                    1          0.130599614                    0          0.127881809          6.145384431
         "BPM.19L3.B1"        "BPM.18L3.B1"             2657.815          2711.263863                    1           0.11077164                    0          0.110968519           6.27326624
         "BPM.18L3.B1"        "BPM.17L3.B1"             2711.264          2764.712379                    1          0.128066188                    0          0.132603858          6.384234759
         "BPM.17L3.B1"        "BPM.16L3.B1"             2764.712          2818.160894                    1          0.105739469                    0          0.108145329          6.516838617
         "BPM.16L3.B1"        "BPM.14L3.B1"             2818.161          2925.057926                    1          0.243136111                    0          0.237838819          6.624983946
         "BPM.14L3.B1"        "BPM.13L3.B1"             2925.058          2978.506442                    1          0.127103734                    0          0.132951024          6.862822765
         "BPM.13L3.B1"        "BPM.12L3.B1"             2978.506          3031.954958                    1          0.118275129                    0          0.114407129          6.995773789
         "BPM.12L3.B1"        "BPM.11L3.B1"             3031.955          3085.403474                    1          0.132803337                    0          0.132053769          7.110180918
         "BPM.11L3.B1"        "BPM.10L3.B1"             3085.403          3138.184185                    1          0.095160525                    0          0.107826297          7.242234687
         "BPM.10L3.B1"         "BPM.8L3.B1"             3138.184          3217.712206                    1          0.288888891                    0          0.284132856          7.350060984
          "BPM.8L3.B1"         "BPM.7L3.B1"             3217.712          3256.776216                    1           0.18076386                    0          0.173176411           7.63419384
          "BPM.7L3.B1"         "BPM.6L3.B1"             3256.776          3329.415216                    1          0.120083946                    0          0.119359032          7.807370251
          "BPM.6L3.B1"      "BPMWG.A5L3.B1"             3329.415          3371.119716                    1          0.040875372                    0          0.046774993          7.926729283
       "BPMWG.A5L3.B1"        "BPMW.5L3.B1"              3371.12          3400.089716                    1          0.016493813                    0          0.015599852          7.973504276
         "BPMW.5L3.B1"       "BPMWE.4L3.B1"              3400.09          3475.217716                    1          0.074060368                    0          0.073425723          7.989104128
        "BPMWE.4L3.B1"        "BPMW.4L3.B1"             3475.218          3502.762716                    1          0.044101665                    0          0.045626514          8.062529851
         "BPMW.4L3.B1"        "BPMW.4R3.B1"             3502.763          3547.727716                    1          0.036434618                    0          0.035142184          8.108156365
         "BPMW.4R3.B1"       "BPMWE.4R3.B1"             3547.728          3575.272716                    1          0.011265341                    0          0.011288562          8.143298549
        "BPMWE.4R3.B1"        "BPMW.5R3.B1"             3575.273          3650.400716                    1          0.072856244                    0          0.073383285          8.154587111
         "BPMW.5R3.B1"      "BPMWJ.A5R3.B1"             3650.401          3679.118716                    1           0.06370353                    0          0.063360254          8.227970396
       "BPMWJ.A5R3.B1"       "BPMWC.6R3.B1"             3679.119          3718.936716                    1          0.045239987                    0          0.044958057           8.29133065
        "BPMWC.6R3.B1"        "BPMR.6R3.B1"             3718.937          3731.015216                    1          0.006858125                    0          0.007675078          8.336288707
         "BPMR.6R3.B1"       "BPM_A.7R3.B1"             3731.015          3786.839216                    1          0.069290541                    0          0.071515398          8.343963785
        "BPM_A.7R3.B1"         "BPM.8R3.B1"             3786.839          3825.903227                    1          0.060158175                    0           0.06201831          8.415479183
          "BPM.8R3.B1"        "BPM.10R3.B1"             3825.903          3905.431248                    1          0.117087121                    0          0.115979925          8.477497493
         "BPM.10R3.B1"        "BPM.11R3.B1"             3905.431          3958.211959                    1          0.104366204                    0          0.101695655          8.593477418
         "BPM.11R3.B1"        "BPM.12R3.B1"             3958.212          4012.935475                    1          0.120830996                    0          0.122069608          8.695173073
         "BPM.12R3.B1"        "BPM.13R3.B1"             4012.935          4066.383991                    1          0.111105044                    0          0.114974611          8.817242681
         "BPM.13R3.B1"        "BPM.14R3.B1"             4066.384          4119.832506                    1          0.133642709                    0          0.130692802          8.932217292
         "BPM.14R3.B1"        "BPM.15R3.B1"             4119.833          4173.281022                    1          0.107402434                    0          0.106966494          9.062910094
         "BPM.15R3.B1"        "BPM.17R3.B1"             4173.281          4280.178054                    1          0.247811112                    0          0.240943141          9.169876588
         "BPM.17R3.B1"        "BPM.19R3.B1"             4280.178          4387.075086                    1          0.235835201                    0          0.238649315          9.410819729
         "BPM.19R3.B1"        "BPM.20R3.B1"             4387.075          4440.523602                    1          0.131097998                    0          0.128448018          9.649469044
         "BPM.20R3.B1"        "BPM.21R3.B1"             4440.524          4493.972118                    1          0.111197052                    0          0.111460441          9.777917062
         "BPM.21R3.B1"        "BPM.22R3.B1"             4493.972          4547.420634                    1          0.129949473                    0          0.132083347          9.889377503
         "BPM.22R3.B1"        "BPM.23R3.B1"             4547.421           4600.86915                    1           0.10975948                    0           0.11088193          10.02146085
         "BPM.23R3.B1"        "BPM.24R3.B1"             4600.869          4654.317666                    1           0.13609447                    0           0.13208482          10.13234278
         "BPM.24R3.B1"        "BPM.25R3.B1"             4654.318          4707.766181                    1           0.11074612                    0           0.11088017           10.2644276
         "BPM.25R3.B1"        "BPM.26R3.B1"             4707.766          4761.214697                    1           0.12917304                    0           0.13208252          10.37530777
         "BPM.26R3.B1"        "BPM.27R3.B1"             4761.215          4814.663213                    1           0.11129157                    0           0.11088176          10.50739029
         "BPM.27R3.B1"        "BPM.28R3.B1"             4814.663          4868.111729                    1            0.1342902                    0           0.13208498          10.61827205
         "BPM.28R3.B1"        "BPM.29R3.B1"             4868.112          4921.560245                    1           0.10974349                    0           0.11088036          10.75035703
         "BPM.29R3.B1"        "BPM.30R3.B1"              4921.56          4975.008761                    1           0.13459004                    0           0.13208238          10.86123739
         "BPM.30R3.B1"        "BPM.31R3.B1"             4975.009          5028.457277                    1           0.10931383                    0           0.11088156          10.99331977
         "BPM.31R3.B1"        "BPM.32R3.B1"             5028.457          5081.905793                    1           0.13394583                    0            0.1320851          11.10420133
         "BPM.32R3.B1"        "BPM.33R3.B1"             5081.906          5135.354309                    1           0.11456793                    0           0.11088057          11.23628643
         "BPM.33R3.B1"        "BPM.34R3.B1"             5135.354          5188.802825                    1           0.12762154                    0           0.13208228            11.347167
         "BPM.34R3.B1"        "BPM.33L4.B1"             5188.803           5242.25134                    1           0.10767743                    0           0.11088134          11.47924928
         "BPM.33L4.B1"        "BPM.32L4.B1"             5242.251          5295.699856                    1           0.13374516                    0           0.13208518          11.59013062
         "BPM.32L4.B1"        "BPM.31L4.B1"               5295.7          5349.148372                    1           0.11101213                    0           0.11088079           11.7222158
         "BPM.31L4.B1"        "BPM.30L4.B1"             5349.148          5402.596888                    1           0.13259376                    0           0.13208222          11.83309659
         "BPM.30L4.B1"        "BPM.29L4.B1"             5402.597          5456.045404                    1           0.10705861                    0           0.11088112          11.96517881
         "BPM.29L4.B1"        "BPM.27L4.B1"             5456.045          5562.942436                    1            0.2478192                    0           0.24296624          12.07605993
         "BPM.27L4.B1"        "BPM.26L4.B1"             5562.942          5616.390952                    1           0.13106974                    0           0.13208221          12.31902617
         "BPM.26L4.B1"        "BPM.25L4.B1"             5616.391          5669.839468                    1           0.11176823                    0           0.11088088          12.45110838
         "BPM.25L4.B1"        "BPM.24L4.B1"             5669.839          5723.287984                    1           0.13065794                    0            0.1320852          12.56198926
         "BPM.24L4.B1"        "BPM.23L4.B1"             5723.288            5776.7365                    1           0.10939523                    0           0.11088125          12.69407446
         "BPM.23L4.B1"        "BPM.22L4.B1"             5776.736          5830.185015                    1           0.13373588                    0           0.13208225          12.80495571
         "BPM.22L4.B1"        "BPM.21L4.B1"             5830.185          5883.633531                    1            0.1123294                    0           0.11088066          12.93703796
         "BPM.21L4.B1"        "BPM.20L4.B1"             5883.634          5937.082047                    1           0.13024522                    0           0.13278623          13.04791862
         "BPM.20L4.B1"        "BPM.19L4.B1"             5937.082          5990.530563                    1           0.10830349                    0           0.10824652          13.18070485
         "BPM.19L4.B1"        "BPM.18L4.B1"             5990.531          6043.979079                    1           0.13182136                    0           0.12730951          13.28895137
         "BPM.18L4.B1"        "BPM.17L4.B1"             6043.979          6097.427595                    1           0.11176462                    0           0.11024328          13.41626088
         "BPM.17L4.B1"        "BPM.15L4.B1"             6097.428          6204.324627                    1            0.2396622                    0           0.24199721          13.52650416
         "BPM.15L4.B1"        "BPM.14L4.B1"             6204.325          6257.773143                    1           0.13008371                    0           0.12711399          13.76850137
         "BPM.14L4.B1"        "BPM.13L4.B1"             6257.773          6311.221659                    1           0.10808954                    0           0.10955436          13.89561536
         "BPM.13L4.B1"        "BPM.12L4.B1"             6311.222          6364.670174                    1           0.13437052                    0           0.13296305          14.00516972
         "BPM.12L4.B1"        "BPM.11L4.B1"              6364.67           6418.11869                    1           0.10753021                    0           0.10574513          14.13813277
         "BPM.11L4.B1"        "BPM.10L4.B1"             6418.119          6469.957401                    1           0.11575653                    0           0.11763861           14.2438779
         "BPM.10L4.B1"         "BPM.9L4.B1"             6469.957          6509.022412                    1           0.06070364                    0            0.0605139          14.36151651
          "BPM.9L4.B1"         "BPM.8L4.B1"             6509.022          6549.485422                    1           0.08124745                    0           0.08486242          14.42203041
          "BPM.8L4.B1"         "BPM.7L4.B1"             6549.485          6588.549433                    1           0.04998172                    0           0.05272575          14.50689283
          "BPM.7L4.B1"       "BPMYB.6L4.B1"             6588.549          6685.153433                    1            0.0779556                    0           0.07727977          14.55961858
        "BPMYB.6L4.B1"       "BPMYA.5L4.B1"             6685.153          6722.153433                    1           0.01498788                    0           0.01506437          14.63689835
        "BPMYA.5L4.B1"      "BPMWI.A5L4.B1"             6722.153          6798.755933                    1           0.05834848                    0           0.05618617          14.65196272
       "BPMWI.A5L4.B1"      "BPMWA.B5L4.B1"             6798.756          6824.619933                    1           0.01970907                    0           0.01882881          14.70814889
       "BPMWA.B5L4.B1"      "BPMWA.A5L4.B1"              6824.62          6833.504933                    1           0.00686569                    0           0.00627529           14.7269777
       "BPMWA.A5L4.B1"      "BPMWA.A5R4.B1"             6833.505          6881.553933                    1           0.03429475                    0           0.03143576          14.73325299
       "BPMWA.A5R4.B1"      "BPMWA.B5R4.B1"             6881.554          6890.438933                    1    0.005197050000001                    0    0.005278390000001          14.76468875
       "BPMWA.B5R4.B1"       "BPMYB.5R4.B1"             6890.439          6992.829433                    1            0.0499707                    0           0.04840413          14.76996714
        "BPMYB.5R4.B1"       "BPMYA.6R4.B1"             6992.829          7024.393433                    1           0.02405597                    0           0.02334605          14.81837127
        "BPMYA.6R4.B1"         "BPM.7R4.B1"             7024.393          7120.909433                    1           0.18659746                    0           0.19262948          14.84171732
          "BPM.7R4.B1"         "BPM.8R4.B1"             7120.909          7158.698443                    1             0.113849                    0           0.11294854           15.0343468
          "BPM.8R4.B1"         "BPM.9R4.B1"             7158.698          7197.763454                    1            0.0982755                    0           0.10079688          15.14729534
          "BPM.9R4.B1"        "BPM.10R4.B1"             7197.763          7238.226465                    1           0.06673395                    0           0.06360938          15.24809222
         "BPM.10R4.B1"        "BPM.11R4.B1"             7238.226          7290.065175                    1          0.125544575                    0           0.12354259           15.3117016
         "BPM.11R4.B1"        "BPM.12R4.B1"             7290.065          7344.788691                    1          0.148655515                    0           0.15263641          15.43524419
         "BPM.12R4.B1"        "BPM.13R4.B1"             7344.789          7398.237207                    1           0.12500068                    0           0.12724993           15.5878806
         "BPM.13R4.B1"        "BPM.14R4.B1"             7398.237          7451.685723                    1           0.09809047                    0           0.09381947          15.71513053
         "BPM.14R4.B1"        "BPM.15R4.B1"             7451.686          7505.134239                    1           0.16449084                    0           0.16203848             15.80895
         "BPM.15R4.B1"        "BPM.16R4.B1"             7505.134          7558.582755                    1           0.12674227                    0           0.13310647          15.97098848
         "BPM.16R4.B1"        "BPM.17R4.B1"             7558.583          7612.031271                    1            0.1072292                    0           0.11100887          16.10409495
         "BPM.17R4.B1"        "BPM.18R4.B1"             7612.031          7665.479786                    1           0.09819231                    0            0.0938117          16.21510382
         "BPM.18R4.B1"        "BPM.19R4.B1"              7665.48          7718.928302                    1           0.16256636                    0           0.16202504          16.30891552
         "BPM.19R4.B1"        "BPM.20R4.B1"             7718.928          7772.376818                    1           0.12655287                    0           0.13311964          16.47094056
         "BPM.20R4.B1"        "BPM.21R4.B1"             7772.377          7825.825334                    1           0.11091755                    0           0.11101653           16.6040602
         "BPM.21R4.B1"        "BPM.22R4.B1"             7825.825           7879.27385                    1           0.09512944                    0           0.09380431          16.71507673
         "BPM.22R4.B1"        "BPM.23R4.B1"             7879.274          7932.722366                    1           0.16478791                    0           0.16201159          16.80888104
         "BPM.23R4.B1"        "BPM.24R4.B1"             7932.722          7986.170882                    1           0.12869185                    0           0.13313282          16.97089263
         "BPM.24R4.B1"        "BPM.26R4.B1"             7986.171          8093.067914                    1           0.20696045                    0           0.20482111          17.10402545
         "BPM.26R4.B1"        "BPM.27R4.B1"             8093.068           8146.51643                    1           0.16382988                    0           0.16199814          17.30884656
         "BPM.27R4.B1"        "BPM.28R4.B1"             8146.516          8199.964946                    1           0.13308971                    0           0.13314599           17.4708447
         "BPM.28R4.B1"        "BPM.29R4.B1"             8199.965          8253.413461                    1           0.10976063                    0           0.11103186          17.60399069
         "BPM.29R4.B1"        "BPM.30R4.B1"             8253.413          8306.861977                    1            0.0932724                    0           0.09378954          17.71502255
         "BPM.30R4.B1"        "BPM.32R4.B1"             8306.862          8413.759009                    1           0.29903351                    0           0.29514384          17.80881209
         "BPM.32R4.B1"        "BPM.33R4.B1"             8413.759          8467.207525                    1           0.10995588                    0           0.11103953          18.10395593
         "BPM.33R4.B1"        "BPM.34R4.B1"             8467.208          8520.656041                    1           0.09575872                    0           0.09378216          18.21499546
         "BPM.34R4.B1"        "BPM.33L5.B1"             8520.656          8574.104557                    1           0.16272837                    0           0.16197122          18.30877762
         "BPM.33L5.B1"        "BPM.32L5.B1"             8574.105          8627.553073                    1           0.13163708                    0           0.13317233          18.47074884
         "BPM.32L5.B1"        "BPM.31L5.B1"             8627.553          8681.001589                    1           0.11206861                    0            0.1110472          18.60392117
         "BPM.31L5.B1"        "BPM.30L5.B1"             8681.002          8734.450105                    1           0.09759985                    0           0.09377479          18.71496837
         "BPM.30L5.B1"        "BPM.29L5.B1"              8734.45           8787.89862                    1           0.16068089                    0           0.16195775          18.80874316
         "BPM.29L5.B1"        "BPM.28L5.B1"             8787.899          8841.347136                    1           0.12861309                    0           0.13318549          18.97070091
         "BPM.28L5.B1"        "BPM.27L5.B1"             8841.347          8894.795652                    1           0.11273286                    0           0.11105488           19.1038864
         "BPM.27L5.B1"        "BPM.26L5.B1"             8894.796          8948.244168                    1           0.09428058                    0           0.09376742          19.21494128
         "BPM.26L5.B1"        "BPM.25L5.B1"             8948.244          9001.692684                    1           0.17153892                    0           0.16194427           19.3087087
         "BPM.25L5.B1"        "BPM.24L5.B1"             9001.693            9055.1412                    1           0.12695817                    0           0.13319865          19.47065297
         "BPM.24L5.B1"        "BPM.22L5.B1"             9055.141          9162.038232                    1           0.20852211                    0           0.20482262          19.60385162
         "BPM.22L5.B1"        "BPM.21L5.B1"             9162.038          9215.486748                    1           0.16067989                    0            0.1619308          19.80867424
         "BPM.21L5.B1"        "BPM.20L5.B1"             9215.487          9268.935264                    1           0.12661234                    0            0.1332118          19.97060504
         "BPM.20L5.B1"        "BPM.19L5.B1"             9268.935          9322.383779                    1           0.10783085                    0           0.11107026          20.10381684
         "BPM.19L5.B1"        "BPM.18L5.B1"             9322.384          9375.832295                    1           0.09601274                    0           0.09375269           20.2148871
         "BPM.18L5.B1"        "BPM.17L5.B1"             9375.832          9429.280811                    1            0.1625806                    0           0.16191731          20.30863979
         "BPM.17L5.B1"        "BPM.16L5.B1"             9429.281          9482.729327                    1           0.13003595                    0           0.13322496           20.4705571
         "BPM.16L5.B1"        "BPM.15L5.B1"             9482.729          9536.177843                    1            0.1084988                    0           0.11107795          20.60378206
         "BPM.15L5.B1"        "BPM.14L5.B1"             9536.178          9589.626359                    1           0.09582777                    0           0.09374534          20.71486001
         "BPM.14L5.B1"        "BPM.13L5.B1"             9589.626          9643.074875                    1           0.16165059                    0           0.16190382          20.80860535
         "BPM.13L5.B1"        "BPM.12L5.B1"             9643.075          9696.523391                    1            0.1256551                    0           0.12622343          20.97050917
         "BPM.12L5.B1"        "BPM.11L5.B1"             9696.523          9749.971907                    1           0.10461762                    0           0.10624987           21.0967326
         "BPM.11L5.B1"        "BPM.10L5.B1"             9749.972          9802.752617                    1           0.06673901                    0           0.06490279          21.20298247
         "BPM.10L5.B1"         "BPM.9L5.B1"             9802.753          9841.817628                    1           0.05452731                    0           0.05586184          21.26788526
          "BPM.9L5.B1"         "BPM.8L5.B1"             9841.818          9882.280639                    1           0.15498741                    0           0.15459272           21.3237471
          "BPM.8L5.B1"        "BPMR.7L5.B1"             9882.281          9921.346649                    1           0.25305649                    0           0.25240521          21.47833982
         "BPMR.7L5.B1"        "BPMR.5L5.B1"             9921.347          9990.140649                    1           0.45046392                    0             0.451324          21.73074503
         "BPMR.5L5.B1"       "BPMWB.4L5.B1"             9990.141          10038.68115                    1           0.02040415                    0           0.02023285          22.18206903
        "BPMWB.4L5.B1"       "BPMSY.4L5.B1"             10038.68          10131.46115                    1    0.005664050000001                    0           0.00539951          22.20230188
        "BPMSY.4L5.B1"        "BPMS.2L5.B1"             10131.46          10158.24665                    1    0.001913829999998                    0    0.001242810000001          22.20770139
         "BPMS.2L5.B1"       "BPMSW.1L5.B1"             10158.25          10168.21165                    1   0.0007542800000013                    0    0.000806279999999           22.2089442
        "BPMSW.1L5.B1"        "BPMS.2R5.B1"             10168.21          10221.30465                    1           0.49570035                    0           0.49619945          22.20975048
         "BPMS.2R5.B1"       "BPMSY.4R5.B1"              10221.3          10248.09015                    1    0.001571670000002                    0   0.0008566300000012          22.70594993
        "BPMSY.4R5.B1"       "BPMWB.4R5.B1"             10248.09          10340.87015                    1           0.00595594                    0           0.00612873          22.70680656
        "BPMWB.4R5.B1"       "BPMYA.4R5.B1"             10340.87          10362.00265                    1    0.001815889999999                    0    0.002104559999999          22.71293529
        "BPMYA.4R5.B1"         "BPM.5R5.B1"                10362          10383.12065                    1           0.00334711                    0    0.003296559999999          22.71503985
          "BPM.5R5.B1"        "BPMR.6R5.B1"             10383.12          10415.02065                    1            0.0117132                    0           0.01171278          22.71833641
         "BPMR.6R5.B1"         "BPM.8R5.B1"             10415.02          10490.47364                    1           0.32446416                    0           0.32362203          22.73004919
          "BPM.8R5.B1"         "BPM.9R5.B1"             10490.47          10529.54063                    1           0.07673137                    0           0.07989367          23.05367122
          "BPM.9R5.B1"        "BPM.10R5.B1"             10529.54          10570.00562                    1           0.07346775                    0           0.07198658          23.13356489
         "BPM.10R5.B1"        "BPM.11R5.B1"             10570.01          10622.78831                    1           0.09759336                    0           0.09404662          23.20555147
         "BPM.11R5.B1"        "BPM.12R5.B1"             10622.79          10677.51479                    1           0.16556554                    0           0.17184369          23.29959809
         "BPM.12R5.B1"        "BPM.14R5.B1"             10677.51          10784.41776                    1           0.24850722                    0           0.24431968          23.47144178
         "BPM.14R5.B1"        "BPM.17R5.B1"             10784.42          10944.77221                    1           0.39125611                    0           0.38916563          23.71576146
         "BPM.17R5.B1"        "BPM.18R5.B1"             10944.77           10998.2237                    1           0.11141659                    0           0.11083437          24.10492709
         "BPM.18R5.B1"        "BPM.19R5.B1"             10998.22          11051.67518                    1           0.09567361                    0           0.09399971          24.21576146
         "BPM.19R5.B1"        "BPM.20R5.B1"             11051.68          11105.12666                    1           0.16451215                    0           0.16236629          24.30976117
         "BPM.20R5.B1"        "BPM.23R5.B1"             11105.13          11265.48112                    1           0.33950655                    0           0.33763371          24.47212746
         "BPM.23R5.B1"        "BPM.24R5.B1"             11265.48           11318.9326                    1            0.1621912                    0           0.16236629          24.80976117
         "BPM.24R5.B1"        "BPM.25R5.B1"             11318.93          11372.38408                    1            0.1293959                    0           0.13279963          24.97212746
         "BPM.25R5.B1"        "BPM.26R5.B1"             11372.38          11425.83557                    1           0.11253499                    0           0.11083437          25.10492709
         "BPM.26R5.B1"        "BPM.27R5.B1"             11425.84          11479.28705                    1           0.09822261                    0           0.09399971          25.21576146
         "BPM.27R5.B1"        "BPM.28R5.B1"             11479.29          11532.73854                    1           0.15656889                    0           0.16236629          25.30976117
         "BPM.28R5.B1"        "BPM.29R5.B1"             11532.74          11586.19002                    1           0.13096411                    0           0.13279963          25.47212746
         "BPM.29R5.B1"        "BPM.30R5.B1"             11586.19           11639.6415                    1           0.11327019                    0           0.11083437          25.60492709
         "BPM.30R5.B1"        "BPM.31R5.B1"             11639.64          11693.09299                    1           0.09581381                    0           0.09399971          25.71576146
         "BPM.31R5.B1"        "BPM.32R5.B1"             11693.09          11746.54447                    1            0.1561033                    0           0.16236629          25.80976117
         "BPM.32R5.B1"        "BPM.33R5.B1"             11746.54          11799.99596                    1            0.1309218                    0           0.13279963          25.97212746
         "BPM.33R5.B1"        "BPM.34R5.B1"                11800          11853.44744                    1           0.11691759                    0           0.11083437          26.10492709
         "BPM.34R5.B1"        "BPM.33L6.B1"             11853.45          11906.89893                    1           0.09940861                    0           0.09399971          26.21576146
         "BPM.33L6.B1"        "BPM.32L6.B1"              11906.9          11960.35041                    1           0.15174149                    0           0.16236629          26.30976117
         "BPM.32L6.B1"        "BPM.30L6.B1"             11960.35          12067.25338                    1            0.2458808                    0             0.243634          26.47212746
         "BPM.30L6.B1"        "BPM.29L6.B1"             12067.25          12120.70486                    1           0.09486911                    0           0.09399971          26.71576146
         "BPM.29L6.B1"        "BPM.28L6.B1"              12120.7          12174.15635                    1            0.1542755                    0           0.16236629          26.80976117
         "BPM.28L6.B1"        "BPM.27L6.B1"             12174.16          12227.60783                    1            0.1341839                    0           0.13279963          26.97212746
         "BPM.27L6.B1"        "BPM.26L6.B1"             12227.61          12281.05931                    1           0.11776229                    0           0.11083437          27.10492709
         "BPM.26L6.B1"        "BPM.25L6.B1"             12281.06           12334.5108                    1           0.09652471                    0           0.09399971          27.21576146
         "BPM.25L6.B1"        "BPM.24L6.B1"             12334.51          12387.96228                    1           0.15431667                    0           0.16236629          27.30976117
         "BPM.24L6.B1"        "BPM.22L6.B1"             12387.96          12494.86525                    1           0.24551502                    0             0.243634          27.47212746
         "BPM.22L6.B1"        "BPM.21L6.B1"             12494.87          12548.31673                    1           0.09402591                    0           0.09399971          27.71576146
         "BPM.21L6.B1"        "BPM.20L6.B1"             12548.32          12601.76822                    1             0.159664                    0           0.16236629          27.80976117
         "BPM.20L6.B1"        "BPM.19L6.B1"             12601.77           12655.2197                    1            0.1336042                    0           0.13279963          27.97212746
         "BPM.19L6.B1"        "BPM.18L6.B1"             12655.22          12708.67119                    1           0.11757659                    0           0.11083437          28.10492709
         "BPM.18L6.B1"        "BPM.17L6.B1"             12708.67          12762.12267                    1           0.09637121                    0           0.09399971          28.21576146
         "BPM.17L6.B1"        "BPM.16L6.B1"             12762.12          12815.57415                    1           0.16011478                    0           0.16236629          28.30976117
         "BPM.16L6.B1"        "BPM.15L6.B1"             12815.57          12869.02564                    1           0.13057482                    0           0.13279963          28.47212746
         "BPM.15L6.B1"        "BPM.14L6.B1"             12869.03          12922.47712                    1           0.11635419                    0           0.11083437          28.60492709
         "BPM.14L6.B1"        "BPM.13L6.B1"             12922.48          12975.92861                    1           0.09909631                    0           0.09399971          28.71576146
         "BPM.13L6.B1"        "BPM.12L6.B1"             12975.93          13029.38009                    1           0.15602667                    0           0.16233331          28.80976117
         "BPM.12L6.B1"        "BPM.11L6.B1"             13029.38          13082.83158                    1            0.1417472                    0           0.14551556          28.97209448
         "BPM.11L6.B1"        "BPM.10L6.B1"             13082.83          13134.67226                    1           0.12013743                    0           0.11664173          29.11761004
         "BPM.10L6.B1"         "BPM.9L6.B1"             13134.67          13173.73925                    1           0.10461511                    0           0.10085032          29.23425177
          "BPM.9L6.B1"         "BPM.8L6.B1"             13173.74          13214.20424                    1           0.26309518                    0            0.2715248          29.33510209
          "BPM.8L6.B1"       "BPMYA.5L6.B1"              13214.2          13311.29423                    1            0.0994812                    0           0.09751883          29.60662689
        "BPMYA.5L6.B1"       "BPMYB.4L6.B1"             13311.29          13347.69423                    1           0.01869828                    0           0.01893759          29.70414572
        "BPMYB.4L6.B1"      "BPMSX.B4L6.B1"             13347.69          13383.23473                    1           0.01021781                    0    0.009699139999999          29.72308331
       "BPMSX.B4L6.B1"      "BPMSX.A4L6.B1"             13383.23          13383.81973                    1           0.99958732                    0   0.0001793500000034          29.73278245
       "BPMSX.A4L6.B1"       "BPMSA.4R6.B1"             13383.82          13568.51473                    1           0.12480566                    0           0.12514164           29.7329618
        "BPMSA.4R6.B1"      "BPMSI.A4R6.B1"             13568.51          13661.77473                    1           0.11331691                    0           0.11578229          29.85810344
       "BPMSI.A4R6.B1"      "BPMSI.B4R6.B1"             13661.77          13662.40973                    1    0.001564640000003                    0   0.0006741100000021          29.97388573
       "BPMSI.B4R6.B1"       "BPMYA.4R6.B1"             13662.41          13691.29423                    1           0.02802859                    0            0.0277003          29.97455984
        "BPMYA.4R6.B1"       "BPMYB.5R6.B1"             13691.29          13727.69423                    1           0.01632827                    0           0.01802828          30.00226014
        "BPMYB.5R6.B1"         "BPM.9R6.B1"             13727.69          13862.48821                    1           0.29952611                    0           0.29932933          30.02028842
          "BPM.9R6.B1"        "BPM.10R6.B1"             13862.49           13902.9532                    1           0.15519827                    0           0.10221979          30.31961775
         "BPM.10R6.B1"        "BPM.11R6.B1"             13902.95          13954.79389                    1           0.08564981                    0           0.14245089          30.42183754
         "BPM.11R6.B1"        "BPM.12R6.B1"             13954.79          14009.52037                    1           0.10918348                    0           0.10982154          30.56428843
         "BPM.12R6.B1"        "BPM.13R6.B1"             14009.52          14062.97186                    1           0.13127186                    0           0.13055434          30.67410997
         "BPM.13R6.B1"        "BPM.14R6.B1"             14062.97          14116.42334                    1           0.11846428                    0            0.1177904          30.80466431
         "BPM.14R6.B1"        "BPM.15R6.B1"             14116.42          14169.87483                    1            0.1387035                    0            0.1387068          30.92245471
         "BPM.15R6.B1"        "BPM.16R6.B1"             14169.87          14223.32631                    1            0.1172039                    0           0.11833436          31.06116151
         "BPM.16R6.B1"        "BPM.17R6.B1"             14223.33          14276.77779                    1           0.15014579                    0           0.14535977          31.17949587
         "BPM.17R6.B1"        "BPM.18R6.B1"             14276.78          14330.22928                    1          0.115663622                    0           0.11707482          31.32485564
         "BPM.18R6.B1"        "BPM.20R6.B1"             14330.23          14437.13225                    1          0.258397488                    0           0.25792579          31.44193046
         "BPM.20R6.B1"        "BPM.21R6.B1"             14437.13          14490.58373                    1           0.15135055                    0           0.14506761          31.69985625
         "BPM.21R6.B1"        "BPM.22R6.B1"             14490.58          14544.03522                    1            0.1162524                    0           0.11641511          31.84492386
         "BPM.22R6.B1"        "BPM.23R6.B1"             14544.04           14597.4867                    1           0.14116039                    0           0.13994426          31.96133897
         "BPM.23R6.B1"        "BPM.24R6.B1"             14597.49          14650.93818                    1           0.11368197                    0           0.11641955          32.10128323
         "BPM.24R6.B1"        "BPM.25R6.B1"             14650.94          14704.38967                    1           0.13951812                    0           0.13994296          32.21770278
         "BPM.25R6.B1"        "BPM.26R6.B1"             14704.39          14757.84115                    1            0.1162314                    0           0.11641504          32.35764574
         "BPM.26R6.B1"        "BPM.27R6.B1"             14757.84          14811.29264                    1           0.14099166                    0           0.13994467          32.47406078
         "BPM.27R6.B1"        "BPM.28R6.B1"             14811.29          14864.74412                    1           0.11716226                    0           0.11641943          32.61400545
         "BPM.28R6.B1"        "BPM.29R6.B1"             14864.74           14918.1956                    1           0.13818548                    0           0.13994256          32.73042488
         "BPM.29R6.B1"        "BPM.30R6.B1"              14918.2          14971.64709                    1           0.11912874                    0           0.11641519          32.87036744
         "BPM.30R6.B1"        "BPM.31R6.B1"             14971.65          15025.09857                    1           0.13559968                    0           0.13994506          32.98678263
         "BPM.31R6.B1"        "BPM.32R6.B1"              15025.1          15078.55006                    1           0.11720486                    0           0.11641926          33.12672769
         "BPM.32R6.B1"        "BPM.33R6.B1"             15078.55          15132.00154                    1           0.13959555                    0           0.13994218          33.24314695
         "BPM.33R6.B1"        "BPM.34R6.B1"                15132          15185.45302                    1            0.1136401                    0           0.11641538          33.38308913
         "BPM.34R6.B1"        "BPM.32L7.B1"             15185.45          15292.35599                    1           0.25639054                    0           0.25636446          33.49950451
         "BPM.32L7.B1"        "BPM.31L7.B1"             15292.36          15345.80748                    1           0.14023168                    0           0.13994185          33.75586897
         "BPM.31L7.B1"        "BPM.30L7.B1"             15345.81          15399.25896                    1           0.11724057                    0           0.11641563          33.89581082
         "BPM.30L7.B1"        "BPM.29L7.B1"             15399.26          15452.71045                    1           0.13759005                    0           0.13994573          34.01222645
         "BPM.29L7.B1"        "BPM.28L7.B1"             15452.71          15506.16193                    1           0.11588836                    0           0.11641876          34.15217218
         "BPM.28L7.B1"        "BPM.27L7.B1"             15506.16          15559.61341                    1           0.13979138                    0           0.13994156          34.26859094
         "BPM.27L7.B1"        "BPM.26L7.B1"             15559.61           15613.0649                    1            0.1161652                    0           0.11641592           34.4085325
         "BPM.26L7.B1"        "BPM.25L7.B1"             15613.06          15666.51638                    1           0.14061481                    0             0.139946          34.52494842
         "BPM.25L7.B1"        "BPM.24L7.B1"             15666.52          15719.96787                    1           0.12030867                    0           0.11641846          34.66489442
         "BPM.24L7.B1"        "BPM.23L7.B1"             15719.97          15773.41935                    1           0.13500271                    0           0.13994132          34.78131288
         "BPM.23L7.B1"        "BPM.22L7.B1"             15773.42          15826.87083                    1            0.1153167                    0           0.11641625           34.9212542
         "BPM.22L7.B1"        "BPM.21L7.B1"             15826.87          15880.32232                    1           0.14118416                    0           0.13994619          35.03767045
         "BPM.21L7.B1"        "BPM.20L7.B1"             15880.32           15933.7738                    1           0.12210537                    0           0.12020948          35.17761664
         "BPM.20L7.B1"        "BPM.19L7.B1"             15933.77          15987.22529                    1          0.147156217                    0           0.14378514          35.29782612
         "BPM.19L7.B1"        "BPM.18L7.B1"             15987.23          16040.67677                    1          0.115391033                    0           0.11544202          35.44161126
         "BPM.18L7.B1"        "BPM.17L7.B1"             16040.68          16094.12825                    1           0.13683775                    0           0.14062138          35.55705328
         "BPM.17L7.B1"        "BPM.16L7.B1"             16094.13          16147.57974                    1           0.12447783                    0            0.1205632          35.69767466
         "BPM.16L7.B1"        "BPM.15L7.B1"             16147.58          16201.03122                    1            0.1446843                    0           0.14303747          35.81823786
         "BPM.15L7.B1"        "BPM.14L7.B1"             16201.03          16254.48271                    1           0.11403544                    0           0.11518913          35.96127533
         "BPM.14L7.B1"        "BPM.13L7.B1"             16254.48          16307.93419                    1           0.14127127                    0           0.14138848          36.07646446
         "BPM.13L7.B1"        "BPM.12L7.B1"             16307.93          16361.38567                    1           0.11040934                    0           0.10904149          36.21785294
         "BPM.12L7.B1"        "BPM.10L7.B1"             16361.39          16467.61985                    1           0.21609331                    0           0.21870228          36.32689443
         "BPM.10L7.B1"         "BPM.9L7.B1"             16467.62          16506.68684                    1           0.07923629                    0           0.07966625          36.54559671
          "BPM.9L7.B1"         "BPM.8L7.B1"             16506.69          16547.15183                    1           0.06317274                    0           0.06173356          36.62526296
          "BPM.8L7.B1"         "BPM.7L7.B1"             16547.15          16586.21782                    1     0.07581599999999                    0           0.07580459          36.68699652
          "BPM.7L7.B1"         "BPM.6L7.B1"             16586.22          16621.03582                    1           0.06331534                    0           0.06576175          36.76280111
          "BPM.6L7.B1"       "BPMWC.6L7.B1"             16621.04          16633.13832                    1     0.04412164000001                    0           0.04161351          36.82856286
        "BPMWC.6L7.B1"       "BPMWE.5L7.B1"             16633.14          16710.19232                    1           0.10589518                    0           0.10577192          36.87017637
        "BPMWE.5L7.B1"        "BPMW.5L7.B1"             16710.19          16733.39732                    1    0.009153310000002                    0           0.01142861          36.97594829
         "BPMW.5L7.B1"       "BPMWE.4L7.B1"              16733.4          16768.48232                    1            0.0326821                    0           0.03449155           36.9873769
        "BPMWE.4L7.B1"        "BPMW.4L7.B1"             16768.48          16796.58732                    1           0.07304501                    0           0.07083601          37.02186845
         "BPMW.4L7.B1"        "BPMW.4R7.B1"             16796.59          16912.63432                    1           0.14904068                    0           0.15067384          37.09270446
         "BPMW.4R7.B1"       "BPMWE.4R7.B1"             16912.63          16940.73932                    1            0.0114073                    0           0.01200186           37.2433783
        "BPMWE.4R7.B1"        "BPMW.5R7.B1"             16940.74          16975.82432                    1     0.03281143999999                    0           0.03270214          37.25538016
         "BPMW.5R7.B1"       "BPMWE.5R7.B1"             16975.82          16999.02932                    1           0.06409287                    0            0.0612441           37.2880823
        "BPMWE.5R7.B1"        "BPMR.6R7.B1"             16999.03          17078.24482                    1           0.16775827                    0           0.17242162           37.3493264
         "BPMR.6R7.B1"       "BPM_A.7R7.B1"             17078.24          17116.28082                    1           0.05696263                    0           0.05657514          37.52174802
        "BPM_A.7R7.B1"         "BPM.8R7.B1"             17116.28          17155.34681                    1     0.07942340000001                    0           0.08125524          37.57832316
          "BPM.8R7.B1"         "BPM.9R7.B1"             17155.35           17194.4138                    1     0.08260911999999                    0           0.07905071           37.6595784
          "BPM.9R7.B1"        "BPM.10R7.B1"             17194.41          17234.87878                    1           0.08490195                    0           0.08536435          37.73862911
         "BPM.10R7.B1"        "BPM.11R7.B1"             17234.88          17287.66147                    1           0.10788143                    0           0.10902073          37.82399346
         "BPM.11R7.B1"        "BPM.12R7.B1"             17287.66          17342.38796                    1           0.13592873                    0           0.13683248          37.93301419
         "BPM.12R7.B1"        "BPM.13R7.B1"             17342.39          17395.83944                    1           0.11333233                    0           0.11674765          38.06984667
         "BPM.13R7.B1"        "BPM.14R7.B1"             17395.84          17449.29093                    1           0.14380954                    0           0.13901634          38.18659432
         "BPM.14R7.B1"        "BPM.15R7.B1"             17449.29          17502.74241                    1           0.11530466                    0           0.11909662          38.32561066
         "BPM.15R7.B1"        "BPM.16R7.B1"             17502.74          17556.19389                    1           0.14815098                    0           0.14492136          38.44470728
         "BPM.16R7.B1"        "BPM.17R7.B1"             17556.19          17609.64538                    1           0.11784891                    0           0.11638211          38.58962864
         "BPM.17R7.B1"        "BPM.18R7.B1"             17609.65          17663.09686                    1           0.13969692                    0           0.13939757          38.70601075
         "BPM.18R7.B1"        "BPM.19R7.B1"              17663.1          17716.54835                    1           0.12078778                    0            0.1197065          38.84540832
         "BPM.19R7.B1"        "BPM.20R7.B1"             17716.55          17769.99983                    1           0.14513402                    0           0.14443031          38.96511482
         "BPM.20R7.B1"        "BPM.21R7.B1"                17770          17823.45131                    1           0.11829152                    0           0.11584973          39.10954513
         "BPM.21R7.B1"        "BPM.22R7.B1"             17823.45           17876.9028                    1            0.1351831                    0           0.13994114          39.22539486
         "BPM.22R7.B1"        "BPM.24R7.B1"              17876.9          17983.80577                    1           0.25611272                    0           0.25636018            39.365336
         "BPM.24R7.B1"        "BPM.25R7.B1"             17983.81          18037.25725                    1           0.11687135                    0           0.11642007          39.62169618
         "BPM.25R7.B1"        "BPM.26R7.B1"             18037.26          18090.70874                    1           0.14055512                    0           0.13994131          39.73811625
         "BPM.26R7.B1"        "BPM.28R7.B1"             18090.71           18197.6117                    1            0.2553992                    0             0.256361          39.87805756
         "BPM.28R7.B1"        "BPM.29R7.B1"             18197.61          18251.06319                    1           0.11880475                    0           0.11641971          40.13441856
         "BPM.29R7.B1"        "BPM.30R7.B1"             18251.06          18304.51467                    1           0.13893542                    0           0.13994085          40.25083827
         "BPM.30R7.B1"        "BPM.31R7.B1"             18304.51          18357.96616                    1           0.11232317                    0           0.11641502          40.39077912
         "BPM.31R7.B1"        "BPM.32R7.B1"             18357.97          18411.41764                    1           0.14071857                    0           0.13994679          40.50719414
         "BPM.32R7.B1"        "BPM.33R7.B1"             18411.42          18464.86912                    1           0.11690891                    0            0.1164193          40.64714093
         "BPM.33R7.B1"        "BPM.34R7.B1"             18464.87          18518.32061                    1           0.14007415                    0           0.13994046          40.76356023
         "BPM.34R7.B1"        "BPM.33L8.B1"             18518.32          18571.77209                    1           0.11456411                    0           0.11641545          40.90350069
         "BPM.33L8.B1"        "BPM.32L8.B1"             18571.77          18625.22358                    1           0.14024972                    0           0.13994715          41.01991614
         "BPM.32L8.B1"        "BPM.31L8.B1"             18625.22          18678.67506                    1           0.11719132                    0           0.11641884          41.15986329
         "BPM.31L8.B1"        "BPM.30L8.B1"             18678.68          18732.12654                    1           0.14007291                    0           0.13994014          41.27628213
         "BPM.30L8.B1"        "BPM.29L8.B1"             18732.13          18785.57803                    1           0.11554363                    0           0.11641594          41.41622227
         "BPM.29L8.B1"        "BPM.28L8.B1"             18785.58          18839.02951                    1           0.13846019                    0           0.13994741          41.53263821
         "BPM.28L8.B1"        "BPM.27L8.B1"             18839.03            18892.481                    1           0.11599531                    0           0.11641834          41.67258562
         "BPM.27L8.B1"        "BPM.26L8.B1"             18892.48          18945.93248                    1           0.14348191                    0           0.13993992          41.78900396
         "BPM.26L8.B1"        "BPM.25L8.B1"             18945.93          18999.38397                    1           0.11292174                    0           0.11641646          41.92894388
         "BPM.25L8.B1"        "BPM.24L8.B1"             18999.38          19052.83545                    1           0.14221639                    0           0.13994758          42.04536034
         "BPM.24L8.B1"        "BPM.23L8.B1"             19052.84          19106.28693                    1           0.11753135                    0           0.11641781          42.18530792
         "BPM.23L8.B1"        "BPM.22L8.B1"             19106.29          19159.73842                    1          0.141780757                    0            0.1399398          42.30172573
         "BPM.22L8.B1"        "BPM.21L8.B1"             19159.74           19213.1899                    1          0.114469503                    0             0.116417          42.44166553
         "BPM.21L8.B1"        "BPM.20L8.B1"             19213.19          19266.64139                    1           0.13740157                    0           0.13925448          42.55808253
         "BPM.20L8.B1"        "BPM.19L8.B1"             19266.64          19320.09287                    1           0.12316878                    0           0.11968248          42.69733701
         "BPM.19L8.B1"        "BPM.18L8.B1"             19320.09          19373.54435                    1           0.14734256                    0           0.14458088          42.81701949
         "BPM.18L8.B1"        "BPM.17L8.B1"             19373.54          19426.99584                    1           0.11511677                    0           0.11585356          42.96160037
         "BPM.17L8.B1"        "BPM.16L8.B1"                19427          19480.44732                    1           0.13501736                    0            0.1397934          43.07745393
         "BPM.16L8.B1"        "BPM.15L8.B1"             19480.45          19533.89881                    1           0.12482233                    0           0.12021477          43.21724733
         "BPM.15L8.B1"        "BPM.14L8.B1"              19533.9          19587.35029                    1           0.14558517                    0           0.14393915           43.3374621
         "BPM.14L8.B1"        "BPM.13L8.B1"             19587.35          19640.80177                    1           0.11217374                    0           0.11541778          43.48140125
         "BPM.13L8.B1"        "BPM.12L8.B1"              19640.8          19694.25326                    1           0.14005766                    0           0.14131889          43.59681903
         "BPM.12L8.B1"        "BPM.11L8.B1"             19694.25          19747.70474                    1           0.11425523                    0           0.11169795          43.73813792
         "BPM.11L8.B1"        "BPM.10L8.B1"              19747.7          19799.54543                    1           0.12877912                    0            0.1283355          43.84983587
         "BPM.10L8.B1"         "BPM.9L8.B1"             19799.55          19838.61242                    1           0.06861114                    0           0.06942851          43.97817137
          "BPM.9L8.B1"         "BPM.8L8.B1"             19838.61          19879.07741                    1           0.10693958                    0           0.10839448          44.04759988
          "BPM.8L8.B1"         "BPM.7L8.B1"             19879.08           19918.1454                    1     0.09619891999999                    0           0.09613525          44.15599436
          "BPM.7L8.B1"        "BPMR.6L8.B1"             19918.15           19950.6144                    1           0.09832851                    0           0.09655334          44.25212961
         "BPMR.6L8.B1"       "BPMYB.4L8.B1"             19950.61           20031.8004                    1           0.34906177                    0           0.35269169          44.34868295
        "BPMYB.4L8.B1"       "BPMWB.4L8.B1"              20031.8           20056.1919                    1           0.01472209                    0           0.01433854          44.70137464
        "BPMWB.4L8.B1"       "BPMSX.4L8.B1"             20056.19           20106.4249                    1           0.02691579                    0           0.02601163          44.71571318
        "BPMSX.4L8.B1"        "BPMS.2L8.B1"             20106.42           20144.3364                    1           0.01362546                    0           0.01355345          44.74172481
         "BPMS.2L8.B1"       "BPMSW.1L8.B1"             20144.34           20154.2704                    1    0.006143979999999                    0           0.00615063          44.75527826
        "BPMSW.1L8.B1"        "BPMS.2R8.B1"             20154.27           20207.3944                    1           0.46294974                    0           0.46400124          44.76142889
         "BPMS.2R8.B1"       "BPMSX.4R8.B1"             20207.39           20245.3059                    1     0.01529215999999                    0           0.01547202          45.22543013
        "BPMSX.4R8.B1"       "BPMWB.4R8.B1"             20245.31           20295.4629                    1           0.02549749                    0     0.02228323000001          45.24090215
        "BPMWB.4R8.B1"       "BPMYB.4R8.B1"             20295.46           20319.9304                    1           0.07960015                    0           0.02282164          45.26318538
        "BPMYB.4R8.B1"       "BPMYB.5R8.B1"             20319.93           20340.5074                    1           0.96160011                    0           0.01889282          45.28600702
        "BPMYB.5R8.B1"         "BPM.6R8.B1"             20340.51           20424.6154                    1            0.2026179                    0           0.20859661          45.30489984
          "BPM.6R8.B1"       "BPM_A.7R8.B1"             20424.62           20446.8554                    1           0.04688875                    0           0.04426209          45.51349645
        "BPM_A.7R8.B1"         "BPM.8R8.B1"             20446.86          20488.29241                    1           0.14405272                    0           0.14092694          45.55775854
          "BPM.8R8.B1"         "BPM.9R8.B1"             20488.29          20527.35742                    1           0.21341647                    0           0.21218097          45.69868548
          "BPM.9R8.B1"        "BPM.10R8.B1"             20527.36          20567.82043                    1           0.08993663                    0           0.09288735          45.91086645
         "BPM.10R8.B1"        "BPM.11R8.B1"             20567.82          20619.65914                    1           0.18818397                    0           0.18468034           46.0037538
         "BPM.11R8.B1"        "BPM.12R8.B1"             20619.66          20674.38266                    1           0.10387015                    0           0.10569672          46.18843414
         "BPM.12R8.B1"        "BPM.13R8.B1"             20674.38          20727.83117                    1     0.09145482999999                    0             0.092446          46.29413086
         "BPM.13R8.B1"        "BPM.14R8.B1"             20727.83          20781.27969                    1           0.10018863                    0           0.09381738          46.38657686
         "BPM.14R8.B1"        "BPM.16R8.B1"             20781.28          20888.17672                    1           0.29163789                    0           0.29514967          46.48039424
         "BPM.16R8.B1"        "BPM.17R8.B1"             20888.18          20941.62524                    1            0.1041012                    0            0.1110053          46.77554391
         "BPM.17R8.B1"        "BPM.18R8.B1"             20941.63          20995.07375                    1           0.09241085                    0           0.09381054          46.88654921
         "BPM.18R8.B1"        "BPM.19R8.B1"             20995.07          21048.52227                    1           0.16593532                    0            0.1620295          46.98035975
         "BPM.19R8.B1"        "BPM.20R8.B1"             21048.52          21101.97079                    1           0.12893339                    0           0.13311991          47.14238925
         "BPM.20R8.B1"        "BPM.21R8.B1"             21101.97           21155.4193                    1           0.10770153                    0           0.11101296          47.27550916
         "BPM.21R8.B1"        "BPM.23R8.B1"             21155.42          21262.31633                    1           0.25667452                    0           0.25581921          47.38652212
         "BPM.23R8.B1"        "BPM.24R8.B1"             21262.32          21315.76485                    1           0.13487191                    0           0.13313308          47.64234133
         "BPM.24R8.B1"        "BPM.25R8.B1"             21315.76          21369.21337                    1           0.11061026                    0           0.11102062          47.77547441
         "BPM.25R8.B1"        "BPM.26R8.B1"             21369.21          21422.66188                    1           0.09305502                    0           0.09379576          47.88649503
         "BPM.26R8.B1"        "BPM.27R8.B1"             21422.66           21476.1104                    1           0.16124403                    0           0.16200261          47.98029079
         "BPM.27R8.B1"        "BPM.28R8.B1"             21476.11          21529.55891                    1           0.13556564                    0           0.13314625           48.1422934
         "BPM.28R8.B1"        "BPM.29R8.B1"             21529.56          21583.00743                    1           0.11005708                    0           0.11102829          48.27543965
         "BPM.29R8.B1"        "BPM.30R8.B1"             21583.01          21636.45594                    1           0.09681916                    0           0.09378838          48.38646794
         "BPM.30R8.B1"        "BPM.31R8.B1"             21636.46          21689.90446                    1           0.16232293                    0           0.16198914          48.48025632
         "BPM.31R8.B1"        "BPM.32R8.B1"              21689.9          21743.35298                    1           0.13351539                    0           0.13315943          48.64224546
         "BPM.32R8.B1"        "BPM.33R8.B1"             21743.35          21796.80149                    1           0.10881283                    0           0.11103596          48.77540489
         "BPM.33R8.B1"        "BPM.34R8.B1"              21796.8          21850.25001                    1     0.09550758000001                    0             0.093781          48.88644085
         "BPM.34R8.B1"        "BPM.33L1.B1"             21850.25          21903.69852                    1           0.16469752                    0           0.16197568          48.98022185
         "BPM.33L1.B1"        "BPM.32L1.B1"              21903.7          21957.14704                    1           0.13084773                    0            0.1331726          49.14219753
         "BPM.32L1.B1"        "BPM.31L1.B1"             21957.15          22010.59556                    1           0.11050222                    0           0.11104363          49.27537013
         "BPM.31L1.B1"        "BPM.30L1.B1"              22010.6          22064.04407                    1     0.09734837999999                    0     0.09377362999999          49.38641376
         "BPM.30L1.B1"        "BPM.29L1.B1"             22064.04          22117.49259                    1            0.1622686                    0           0.16196221          49.48018739
         "BPM.29L1.B1"        "BPM.28L1.B1"             22117.49           22170.9411                    1           0.12895416                    0           0.13318576           49.6421496
         "BPM.28L1.B1"        "BPM.27L1.B1"             22170.94          22224.38962                    1           0.11153419                    0           0.11105131          49.77533536
         "BPM.27L1.B1"        "BPM.26L1.B1"             22224.39          22277.83814                    1           0.09758026                    0           0.09376626          49.88638667
         "BPM.26L1.B1"        "BPM.25L1.B1"             22277.84          22331.28665                    1            0.1585115                    0           0.16194873          49.98015293
         "BPM.25L1.B1"        "BPM.24L1.B1"             22331.29          22384.73517                    1            0.1361365                    0           0.13319892          50.14210166
         "BPM.24L1.B1"        "BPM.23L1.B1"             22384.74          22438.18368                    1           0.10820511                    0           0.11105901          50.27530058
         "BPM.23L1.B1"        "BPM.22L1.B1"             22438.18           22491.6322                    1           0.09503572                    0           0.09375888          50.38635959
         "BPM.22L1.B1"        "BPM.21L1.B1"             22491.63          22545.08071                    1           0.16124469                    0           0.16193526          50.48011847
         "BPM.21L1.B1"        "BPM.20L1.B1"             22545.08          22598.52923                    1           0.13377084                    0           0.13321207          50.64205373
         "BPM.20L1.B1"        "BPM.19L1.B1"             22598.53          22651.97775                    1           0.10710178                    0            0.1110667           50.7752658
         "BPM.19L1.B1"        "BPM.18L1.B1"             22651.98          22705.42626                    1     0.09514320999999                    0           0.09375152           50.8863325
         "BPM.18L1.B1"        "BPM.17L1.B1"             22705.43          22758.87478                    1           0.16270157                    0           0.16192177          50.98008402
         "BPM.17L1.B1"        "BPM.16L1.B1"             22758.87          22812.32329                    1            0.1297071                    0           0.13322523          51.14200579
         "BPM.16L1.B1"        "BPM.15L1.B1"             22812.32          22865.77181                    1           0.10936324                    0           0.11107439          51.27523102
         "BPM.15L1.B1"        "BPM.14L1.B1"             22865.77          22919.22033                    1            0.0944451                    0           0.09374417          51.38630541
         "BPM.14L1.B1"        "BPM.13L1.B1"             22919.22          22972.66884                    1           0.16046418                    0           0.16190828          51.48004958
         "BPM.13L1.B1"        "BPM.12L1.B1"             22972.67          23026.11736                    1           0.12502077                    0           0.12622387          51.64195786
         "BPM.12L1.B1"        "BPM.11L1.B1"             23026.12          23079.56587                    1            0.1099028                    0            0.1062465          51.76818173
         "BPM.11L1.B1"        "BPM.10L1.B1"             23079.57          23132.34658                    1           0.06552979                    0           0.06490133          51.87442823
         "BPM.10L1.B1"         "BPM.9L1.B1"             23132.35           23171.4116                    1            0.0543077                    0     0.05586192000001          51.93932956
          "BPM.9L1.B1"         "BPM.8L1.B1"             23171.41          23211.87461                    1           0.16611384                    0           0.15459723          51.99519148
          "BPM.8L1.B1"        "BPMR.7L1.B1"             23211.87          23250.94062                    1           0.24517675                    0           0.25240129          52.14978871
         "BPMR.7L1.B1"         "BPM.6L1.B1"             23250.94          23294.12462                    1           0.25271391                    0           0.28599627             52.40219
          "BPM.6L1.B1"       "BPMYA.4L1.B1"             23294.12          23347.14262                    1           0.21429657                    0           0.18087566          52.68818627
        "BPMYA.4L1.B1"       "BPMWB.4L1.B1"             23347.14          23368.27512                    1    0.004974500000002                    0    0.004685729999999          52.86906193
        "BPMWB.4L1.B1"       "BPMSY.4L1.B1"             23368.28          23461.05512                    1    0.005686110000001                    0    0.005399340000004          52.87374766
        "BPMSY.4L1.B1"        "BPMS.2L1.B1"             23461.06          23487.84062                    1    0.001815939999996                    0    0.001242769999998            52.879147
         "BPMS.2L1.B1"       "BPMSW.1L1.B1"             23487.84          23497.79062                    1   0.0003073600000041                    0   0.0008047199999979          52.88038977
        "BPMSW.1L1.B1"       "BPMSW.1R1.B1"             23497.79          23540.93362                    1           0.49562454                    0           0.49557358          52.88119449
        "BPMSW.1R1.B1"        "BPMS.2R1.B1"             23540.93          23550.89862                    1   0.0008860200000038                    0   0.0006275200000019          53.37676807
         "BPMS.2R1.B1"       "BPMSY.4R1.B1"              23550.9          23577.68412                    1    0.000777419999999                    0   0.0008566099999996          53.37739559
        "BPMSY.4R1.B1"       "BPMWB.4R1.B1"             23577.68          23670.46412                    1    0.006386839999995                    0    0.006128539999999           53.3782522
        "BPMWB.4R1.B1"       "BPMYA.4R1.B1"             23670.46          23691.59662                    1    0.001734550000002                    0    0.002104500000002          53.38438074
        "BPMYA.4R1.B1"         "BPM.5R1.B1"              23691.6          23719.00462                    1    0.004826380000004                    0    0.004798909999998          53.38648524
          "BPM.5R1.B1"        "BPMR.6R1.B1"                23719          23750.90462                    1           0.01461748                    0           0.01459583          53.39128415
         "BPMR.6R1.B1"       "BPMSX.7R1.B1"              23750.9          23757.12012                    1    0.007190609999994                    0    0.005913319999998          53.40587998
        "BPMSX.7R1.B1"       "BPM_A.7R1.B1"             23757.12          23778.62862                    1     0.06890846000001                    0           0.06165868           53.4117933
        "BPM_A.7R1.B1"         "BPM.8R1.B1"             23778.63          23820.06761                    1           0.25227427                    0           0.25166897          53.47345198
          "BPM.8R1.B1"         "BPM.9R1.B1"             23820.07           23859.1346                    1     0.07493694000001                    0     0.07989206000001          53.72512095
          "BPM.9R1.B1"        "BPM.10R1.B1"             23859.13          23899.59958                    1           0.06935916                    0           0.07198414          53.80501301
         "BPM.10R1.B1"        "BPM.11R1.B1"              23899.6          23952.38227                    1     0.09335523999999                    0           0.09404512          53.87699715
         "BPM.11R1.B1"        "BPM.12R1.B1"             23952.38          24007.10876                    1           0.16738166                    0           0.17184822          53.97104227
         "BPM.12R1.B1"        "BPM.13R1.B1"             24007.11          24060.56024                    1           0.14036618                    0           0.13348495          54.14289049
         "BPM.13R1.B1"        "BPM.14R1.B1"             24060.56          24114.01173                    1             0.108864                    0           0.11083139          54.27637544
         "BPM.14R1.B1"        "BPM.15R1.B1"             24114.01          24167.46321                    1     0.09251967000001                    0           0.09399858          54.38720683
         "BPM.15R1.B1"        "BPM.16R1.B1"             24167.46          24220.91469                    1           0.16312424                    0           0.16237078          54.48120541
         "BPM.16R1.B1"        "BPM.17R1.B1"             24220.91          24274.36618                    1           0.13321395                    0           0.13279983          54.64357619
         "BPM.17R1.B1"        "BPM.18R1.B1"             24274.37          24327.81766                    1           0.11301187                    0           0.11083081          54.77637602
         "BPM.18R1.B1"        "BPM.19R1.B1"             24327.82          24381.26915                    1     0.09248189000001                    0           0.09399858          54.88720683
         "BPM.19R1.B1"        "BPM.20R1.B1"             24381.27          24434.72063                    1           0.16446249                    0           0.16237078          54.98120541
         "BPM.20R1.B1"        "BPM.21R1.B1"             24434.72          24488.17211                    1           0.13271575                    0           0.13279983          55.14357619
         "BPM.21R1.B1"        "BPM.22R1.B1"             24488.17           24541.6236                    1            0.1117344                    0           0.11083081          55.27637602
         "BPM.22R1.B1"        "BPM.23R1.B1"             24541.62          24595.07508                    1     0.09315367000001                    0           0.09399858          55.38720683
         "BPM.23R1.B1"        "BPM.24R1.B1"             24595.08          24648.52657                    1           0.16175338                    0           0.16237078          55.48120541
         "BPM.24R1.B1"        "BPM.25R1.B1"             24648.53          24701.97805                    1           0.13264745                    0           0.13279983          55.64357619
         "BPM.25R1.B1"        "BPM.26R1.B1"             24701.98          24755.42954                    1           0.11066657                    0           0.11083081          55.77637602
         "BPM.26R1.B1"        "BPM.27R1.B1"             24755.43          24808.88102                    1     0.09247439000001                    0           0.09399858          55.88720683
         "BPM.27R1.B1"        "BPM.28R1.B1"             24808.88           24862.3325                    1           0.16504369                    0           0.16237078          55.98120541
         "BPM.28R1.B1"        "BPM.29R1.B1"             24862.33          24915.78399                    1           0.13609775                    0           0.13279983          56.14357619
         "BPM.29R1.B1"        "BPM.30R1.B1"             24915.78          24969.23547                    1           0.10731481                    0           0.11083081          56.27637602
         "BPM.30R1.B1"        "BPM.31R1.B1"             24969.24          25022.68696                    1     0.09458460000001                    0           0.09399858          56.38720683
         "BPM.31R1.B1"        "BPM.32R1.B1"             25022.69          25076.13844                    1           0.16020534                    0           0.16237078          56.48120541
         "BPM.32R1.B1"        "BPM.33R1.B1"             25076.14          25129.58992                    1           0.13552995                    0           0.13279983          56.64357619
         "BPM.33R1.B1"        "BPM.34R1.B1"             25129.59          25183.04141                    1           0.10982617                    0           0.11083081          56.77637602
         "BPM.34R1.B1"        "BPM.33L2.B1"             25183.04          25236.49289                    1     0.09417999000001                    0           0.09399858          56.88720683
         "BPM.33L2.B1"        "BPM.32L2.B1"             25236.49          25289.94438                    1           0.15873009                    0           0.16237078          56.98120541
         "BPM.32L2.B1"        "BPM.31L2.B1"             25289.94          25343.39586                    1           0.13529145                    0           0.13279983          57.14357619
         "BPM.31L2.B1"        "BPM.30L2.B1"              25343.4          25396.84734                    1           0.11231687                    0           0.11083081          57.27637602
         "BPM.30L2.B1"        "BPM.29L2.B1"             25396.85          25450.29883                    1     0.09176674000001                    0           0.09399858          57.38720683
         "BPM.29L2.B1"        "BPM.28L2.B1"              25450.3          25503.75031                    1           0.16212414                    0           0.16237078          57.48120541
         "BPM.28L2.B1"        "BPM.27L2.B1"             25503.75           25557.2018                    1           0.13303065                    0           0.13279983          57.64357619
         "BPM.27L2.B1"        "BPM.26L2.B1"              25557.2          25610.65328                    1           0.11341667                    0           0.11083081          57.77637602
         "BPM.26L2.B1"        "BPM.25L2.B1"             25610.65          25664.10477                    1     0.09359769000001                    0           0.09399858          57.88720683
         "BPM.25L2.B1"        "BPM.24L2.B1"              25664.1          25717.55625                    1           0.16096079                    0           0.16237078          57.98120541
         "BPM.24L2.B1"        "BPM.23L2.B1"             25717.56          25771.00773                    1           0.13295575                    0           0.13279983          58.14357619
         "BPM.23L2.B1"        "BPM.22L2.B1"             25771.01          25824.45922                    1           0.11161043                    0           0.11083081          58.27637602
         "BPM.22L2.B1"        "BPM.21L2.B1"             25824.46           25877.9107                    1     0.09224543000001                    0           0.09399858          58.38720683
         "BPM.21L2.B1"        "BPM.20L2.B1"             25877.91          25931.36219                    1           0.16183539                    0           0.16237078          58.48120541
         "BPM.20L2.B1"        "BPM.19L2.B1"             25931.36          25984.81367                    1           0.13569495                    0           0.13279983          58.64357619
         "BPM.19L2.B1"        "BPM.18L2.B1"             25984.81          26038.26515                    1           0.11148147                    0           0.11083081          58.77637602
         "BPM.18L2.B1"        "BPM.16L2.B1"             26038.27          26145.16812                    1           0.25326048                    0           0.25636936          58.88720683
         "BPM.16L2.B1"        "BPM.15L2.B1"             26145.17          26198.61961                    1           0.13500195                    0           0.13279983          59.14357619
         "BPM.15L2.B1"        "BPM.14L2.B1"             26198.62          26252.07109                    1           0.11090252                    0           0.11083081          59.27637602
         "BPM.14L2.B1"        "BPM.13L2.B1"             26252.07          26305.52257                    1     0.09607139000001                    0           0.09399858          59.38720683
         "BPM.13L2.B1"        "BPM.12L2.B1"             26305.52          26358.97406                    1           0.15756108                    0           0.16032755          59.48120541
         "BPM.12L2.B1"        "BPM.11L2.B1"             26358.97          26412.42554                    1           0.14037046                    0           0.14092474          59.64153296
         "BPM.11L2.B1"        "BPM.10L2.B1"             26412.43          26464.26623                    1           0.11743173                    0           0.11591514           59.7824577
         "BPM.10L2.B1"         "BPM.9L2.B1"             26464.27          26503.33322                    1     0.06139033999999                    0           0.06008718          59.89837284
          "BPM.9L2.B1"         "BPM.8L2.B1"             26503.33          26543.79821                    1           0.14220797                    0           0.14044433          59.95846002
          "BPM.8L2.B1"         "BPM.7L2.B1"              26543.8           26582.8662                    1           0.09545807                    0           0.09691628          60.09890435
          "BPM.7L2.B1"        "BPMR.6L2.B1"             26582.87           26614.9722                    1     0.05495093000001                    0           0.05433244          60.19582063
         "BPMR.6L2.B1"       "BPMYB.5L2.B1"             26614.97               28.288                    1         0.8566398334                    0         0.1907354819          60.25015307