*                 NAME                    S             BETPROPX          ERRBETPROPX              BETXMDL              MODEL_S
$                   %s                  %le                  %le                  %le                  %le                  %le
          BPMSW.1L2.B1                    0       54.97560098939       1.560154181643          56.63184487              171.328
    BPMSW.1L2.B1_DOROS                    0       54.97560098939       1.560154181643          56.63184487              171.328
                   IP2               21.595       42.10537320447      0.4892997371251          10.00019689              192.923
          BPMSW.1R2.B1                43.19       51.40124627673      0.7902594968246          56.63551777              214.518