*                 NAME                    S             ALFPROPX          ERRALFPROPX              ALFXMDL              MODEL_S
$                   %s                  %le                  %le                  %le                  %le                  %le
          BPMSY.4L5.B1                    0      -6.364896590773     0.03510456567165         -9.755897717          10131.46115
              MQXA.3L5              11.3495      -208.9951571965      0.7717319268585         -256.8531223          10142.81065
              MQSX.3L5               11.818       -214.050866574      0.8080944037803         -263.1175261          10143.27915
              TASB.3L5              13.5725      -232.9827443364       0.873380219519         -286.5772837          10145.03365
             MQXB.B2L5              19.7645       43.33930056433     0.08375689545865          50.98604099          10151.22565
             MQXB.A2L5              26.2645       281.2517944444      0.8007436885273          343.8372669          10157.72565
           BPMS.2L5.B1              26.7855       272.0974915585        1.29229459557          332.7160202          10158.24665
              MQXA.1L5              35.3495       63.10277501183      0.1926715485937          76.54818383          10166.81065
         BPMWF.A1L5.B1              36.5905       59.59729487973      0.2334630322087          72.41161825          10168.05165
             BPMWK.1L5              36.6945       59.30353700231      0.2332604914558          72.06496005          10168.15565
          BPMSW.1L5.B1              36.7505        59.1453596679      0.2331543852759          71.87829795          10168.21165
    BPMSW.1L5.B1_DOROS              36.7505        59.1453596679      0.2331543852759          71.87829795          10168.21165
               TAS.1L5              39.2645       52.04441874364      0.1994198029607          63.49850272          10170.72565
                   IP5              58.3145      -1.763552722397     0.06246901029129      5.442284619e-05          10189.77565
               TAS.1R5              79.1645      -60.65428949583      0.7071924436555         -69.49824726          10210.62565
          BPMSW.1R5.B1              79.8785      -62.67071102508      0.7908591163634          -71.8781891          10211.33965
    BPMSW.1R5.B1_DOROS              79.8785      -62.67071102508      0.7908591163634          -71.8781891          10211.33965
             BPMWK.1R5              79.9345      -62.82887305754      0.7943286290454         -72.06485121          10211.39565
         BPMWF.A1R5.B1              80.0385      -63.12260256784      0.8007570619058          -72.4115094          10211.49965
              MQXA.1R5              87.6495       29.09776291696      0.2400387562175          30.91728513          10219.11065
           BPMS.2R5.B1              89.8435       28.08784507849      0.4486556403535          29.91218012          10221.30465