*                 NAME                    S             BETPROPX          ERRBETPROPX              BETXMDL              MODEL_S
$                   %s                  %le                  %le                  %le                  %le                  %le
          BPMSW.1L2.B1                    0       56.89466166051      0.9963768786223          56.63184487              171.328
    BPMSW.1L2.B1_DOROS                    0       56.89466166051      0.9963768786223          56.63184487              171.328
                   IP2               21.595       41.38912690924       1.026870896581          10.00019689              192.923
          BPMSW.1R2.B1                43.19       48.55699518297       0.516235349936          56.63551777              214.518