*                 NAME                    S             BETPROPX          ERRBETPROPX              BETXMDL              MODEL_S
$                   %s                  %le                  %le                  %le                  %le                  %le
          BPMSY.4L5.B1                    0       2753.748933698       35.31495769538          3313.304638          10131.46115
              MQXA.3L5              11.3495       4046.415873801       89.97805108416          4934.079396          10142.81065
              MQSX.3L5               11.818       4245.169700608       70.01963087358          5177.685645          10143.27915
              TASB.3L5              13.5725       5027.851141804       126.2625159789          6142.125189          10145.03365
             MQXB.B2L5              19.7645       6530.171857108       404.9395536024          8025.751542          10151.22565
             MQXB.A2L5              26.2645       4483.041295523       267.0922205338          5538.521092          10157.72565
           BPMS.2L5.B1              26.7855       4176.018089215       445.6421166568           5186.03683          10158.24665
              MQXA.1L5              35.3495       1391.574630854       110.0703323173          1758.230299          10166.81065
         BPMWF.A1L5.B1              36.5905       1160.694497844       411.7189903732          1573.371184          10168.05165
             BPMWK.1L5              36.6945       1147.744585897       411.2347998147           1558.34562          10168.15565
          BPMSW.1L5.B1              36.7505       1140.806916175       410.9474225854          1550.284798          10168.21165
    BPMSW.1L5.B1_DOROS              36.7505       1140.806916175       410.9474225854          1550.284798          10168.21165
               TAS.1L5              39.2645       848.2134316003       366.7733195884          1209.947521          10170.72565
                   IP5              58.3145       1.597778112045       9.199383959804         0.3000073319          10189.77565
               TAS.1R5              79.1645       2227.423844181       232.8187515582          1449.337328          10210.62565
          BPMSW.1R5.B1              79.8785       2619.309827068       283.7702033056          1550.280104          10211.33965
    BPMSW.1R5.B1_DOROS              79.8785       2619.309827068       283.7702033056          1550.280104          10211.33965
             BPMWK.1R5              79.9345       2628.684452116       283.1689357226          1558.340914          10211.39565
         BPMWF.A1R5.B1              80.0385       2646.129050524       282.0716056919          1573.366455          10211.49965
              MQXA.1R5              87.6495       2864.703923634       210.8910565715          2088.728503          10219.11065
           BPMS.2R5.B1              89.8435       2562.494997186       173.1663993725          1955.268656          10221.30465