*                 NAME                    S         F1001ABSPROP      ERRF1001ABSPROP          F1001REPROP       ERRF1001REPROP          F1001IMPROP       ERRF1001IMPROP         F1010ABSPROP      ERRF1010ABSPROP          F1010REPROP       ERRF1010REPROP          F1010IMPROP       ERRF1010IMPROP        MODEL_F1001RE        MODEL_F1001IM        MODEL_F1010RE        MODEL_F1010IM              MODEL_S
$                   %s                  %le                  %le                  %le                  %le                  %le                  %le                  %le                  %le                  %le                  %le                  %le                  %le                  %le                  %le                  %le                  %le                  %le                  %le
          BPMSY.4L5.B1                    0                  nan                  nan     0.02432740650795     0.01714652882976    -0.02263294146596   0.0009721556952135                  nan                  nan    0.006402424343814    0.004141906348731    -0.01990590985872    0.004981519285575                    0                    0                    0                    0          10131.46115
              MQXA.3L5              11.3495                  nan                  nan     0.02437951040973      0.0171489697719    -0.02257678796563   0.0009323233520036                  nan                  nan    0.006475611479589    0.004141629699723    -0.01988132659639    0.004925794173299                    0                    0                    0                    0          10142.81065
              MQSX.3L5               11.818                  nan                  nan      0.0244470820162     0.01715170202991    -0.02250354713467   0.0008804563126079                  nan                  nan    0.006573879269678    0.004135408762368    -0.01984992623311    0.004998550297055                    0                    0                    0                    0          10143.27915
              TASB.3L5              13.5725                  nan                  nan      0.0244522284655      0.0171519066315    -0.02249795444359   0.0008765013891771                  nan                  nan     0.00658434751925    0.004135332676248    -0.01984633646618    0.004991262054258                    0                    0                    0                    0          10145.03365
             MQXB.B2L5              19.7645                  nan                  nan      0.0244613725853     0.01715215583468    -0.02248814365674   0.0008695534650568                  nan                  nan    0.006609343043061    0.004136243339767    -0.01983741047191    0.004947612316534                    0                    0                    0                    0          10151.22565
             MQXB.A2L5              26.2645                  nan                  nan     0.02446136573875     0.01715194581741    -0.02248806170143   0.0008694753329409                  nan                  nan    0.006703081559031    0.004133662282423    -0.01980554485859    0.004932169601057                    0                    0                    0                    0          10157.72565
           BPMS.2L5.B1              26.7855                  nan                  nan     0.02445375087963     0.01715163495336    -0.02249633873858   0.0008753252129274                  nan                  nan    0.006817610207845    0.004126225449806    -0.01976735972012    0.005011121986535                    0                    0                    0                    0          10158.24665
              MQXA.1L5              35.3495                  nan                  nan     0.02446640975712     0.01715210531984    -0.02248257141984   0.0008655913170342                  nan                  nan    0.006870636994334    0.004129527555242     -0.0197472494292    0.004893992870783                    0                    0                    0                    0          10166.81065
         BPMWF.A1L5.B1              36.5905                  nan                  nan     0.02469736348663     0.01716019305168    -0.02222854675516   0.0006868687447779                  nan                  nan    0.007223246686373    0.004105887396589    -0.01962367982468    0.005118934581286                    0                    0                    0                    0          10168.05165
             BPMWK.1L5              36.6945                  nan                  nan     0.02470369390051     0.01716039118017    -0.02222151979404   0.0006819476476228                  nan                  nan    0.007231375828749     0.00410542384635    -0.01962071876128    0.005121892797672                    0                    0                    0                    0          10168.15565
          BPMSW.1L5.B1              36.7505                  nan                  nan     0.02470714934563     0.01716049901706     -0.0222176729939   0.0006792538152129                  nan                  nan    0.007235803598174    0.004105170011728    -0.01961910141298    0.005123515525488                    0                    0                    0                    0          10168.21165
    BPMSW.1L5.B1_DOROS              36.7505                  nan                  nan     0.02470714934563     0.01716049901706     -0.0222176729939   0.0006792538152129                  nan                  nan    0.007235803598174    0.004105170011728    -0.01961910141298    0.005123515525488                    0                    0                    0                    0          10168.21165
               TAS.1L5              39.2645                  nan                  nan     0.02475497861154     0.01716199062655    -0.02216435966954   0.0006419628136574                  nan                  nan    0.007296194740899     0.00410442231736    -0.01959607747328    0.005086236504104                    0                    0                    0                    0          10170.72565
                   IP5              58.3145                  nan                  nan     0.01721835479217    0.002539442728592     0.02841124440787     0.01719783219918                  nan                  nan    -0.02087583125245   8.384675814423e-05  -0.0004331202907964    0.005299146245695                    0                    0                    0                    0          10189.77565
               TAS.1R5              79.1645                  nan                  nan     0.02423969551115     0.01714178599095    -0.02272688325483    0.001038915907871                  nan                  nan    0.005661135968469    0.004158787629986     -0.0201336334763    0.005213547260971                    0                    0                    0                    0          10210.62565
          BPMSW.1R5.B1              79.8785                  nan                  nan     0.02422159461796       0.017140961593    -0.02274620817678    0.001052697616797                  nan                  nan    0.005718463296963    0.004156272017244    -0.02011777511458    0.005241606028593                    0                    0                    0                    0          10211.33965
    BPMSW.1R5.B1_DOROS              79.8785                  nan                  nan     0.02422159461796       0.017140961593    -0.02274620817678    0.001052697616797                  nan                  nan    0.005718463296963    0.004156272017244    -0.02011777511458    0.005241606028593                    0                    0                    0                    0          10211.33965
             BPMWK.1R5              79.9345                  nan                  nan      0.0242212360858      0.0171409468984    -0.02274656493823    0.001052952210058                  nan                  nan    0.005719580801575    0.004156258196261    -0.02011743577008    0.005240702280771                    0                    0                    0                    0          10211.39565
         BPMWF.A1R5.B1              80.0385                  nan                  nan     0.02422062888495     0.01714091993815    -0.02274722012812    0.001053419857423                  nan                  nan    0.005721694200232    0.004156232771674    -0.02011680962494    0.005239039310276                    0                    0                    0                    0          10211.49965
              MQXA.1R5              87.6495                  nan                  nan     0.02421392521789     0.01714075287715    -0.02275436518411    0.001058535119527                  nan                  nan    0.005745406900607    0.004160079388371    -0.02010750616671    0.005066899290228                    0                    0                    0                    0          10219.11065
           BPMS.2R5.B1              89.8435                  nan                  nan     0.02420921716446     0.01714061819405    -0.02275935176384    0.001062103954382                  nan                  nan    0.005864448513216    0.004154541368351    -0.02007388741748     0.00513192329886                    0                    0                    0                    0          10221.30465