@ GetLLMVersion %s "V3.0.0 Dev"
@ Command %s "/afs/cern.ch/work/o/omc/anaconda/bin/python '/afs/cern.ch/eng/sl/lintrack/Beta-Beat.src/GetLLM/GetLLM.py' '--accel=LHCB1' '--model=/afs/cern.ch/user/t/thpugnat/public/Outputs/2018-09-04/models/LHCB1/b1_squeeze_collQ/twiss.dat' '--files=/afs/cern.ch/user/t/thpugnat/public/Outputs/2018-09-04/LHCB1/Measurements/Beam1@Turn@2018_06_16@17_32_32_233/Beam1@Turn@2018_06_16@17_32_32_233.sdds.clean' '--output=/afs/cern.ch/user/t/thpugnat/public/Outputs/2018-09-04/LHCB1/Results/15-28-20_NORMALANALYSIS_SUSSIX_15' '--tbtana=SUSSIX' '--bpmu=mm' '--lhcphase=1' '--errordefs=/afs/cern.ch/user/t/thpugnat/public/Outputs/2018-09-04/models/LHCB1/b1_squeeze_collQ/error_deff.txt' '--calibration=/afs/cern.ch/eng/sl/lintrack/LHC_commissioning2017/Calibration_factors_2017/Calibration_factors_2017_beam1'"
@ CWD %s "/afs/cern.ch/user/t/thpugnat"
@ Date %s "04. September 2018, 15:28:24"
@ TABLE %s "ORBIT"
@ TYPE %s "ORBIT"
@ SEQUENCE %s "LHCB1"
@ Q1 %le 0.3024325894117647
@ Q2 %le 0.32982106966067865
@ FILES %s "/afs/cern.ch/user/t/thpugnat/public/Outputs/2018-09-04/LHCB1/Measurements/Beam1@Turn@2018_06_16@17_32_32_233/Beam1@Turn@2018_06_16@17_32_32_233.sdds.clean_liny"
*                 NAME                    S                COUNT                    Y                 STDY                 YMDL               MUYMDL
$                   %s                  %le                  %le                  %le                  %le                  %le                  %le
        "BPMYB.5L2.B1"               28.288                    1           -0.2684267   1.483239697419e-08                    0         0.1210674621
        "BPMYB.4L2.B1"               48.858                    1           -0.3636957   1.483239697419e-08                    0          0.174925738
        "BPMWI.4L2.B1"              73.3255                    1           -0.2535975   1.483239697419e-08                    0         0.2098764858
        "BPMSX.4L2.B1"             123.4825                    1          0.003140347   1.483239697419e-08                    0          0.291235075
         "BPMS.2L2.B1"              161.394                    1           -0.1502183   1.483239697419e-08                    0         0.3347648488
        "BPMSW.1L2.B1"              171.328                    1            0.3303724   1.483239697419e-08                    0         0.3527111328
        "BPMSW.1R2.B1"              214.518                    1             1.648988   1.483239697419e-08                    0         0.7146672015
         "BPMS.2R2.B1"              224.452                    1             1.165866   1.483239697419e-08                    0         0.7380923577
        "BPMSX.4R2.B1"             262.3635                    1         -0.007724505   1.483239697419e-08                    0         0.7884966317
        "BPMWB.4R2.B1"             312.5965                    1          -0.08667029   1.483239697419e-08                    0         0.8577072008
        "BPMYB.4R2.B1"              336.988                    1           -0.1584155   1.483239697419e-08                    0         0.9088117746
         "BPMR.5R2.B1"              366.522                    1            0.1731096   1.483239697419e-08                    0         0.9431551469
          "BPM.6R2.B1"              439.818                    1           -0.2815834   1.483239697419e-08                    0          1.164742328
        "BPM_A.7R2.B1"              452.693                    1          -0.08923233   1.483239697419e-08                    0          1.197797728
          "BPM.8R2.B1"               494.13                    1            0.3330237   1.483239697419e-08                    0          1.317986634
          "BPM.9R2.B1"              533.195                    1             0.077283   1.483239697419e-08                    0          1.445679332
         "BPM.10R2.B1"              573.658                    1           -0.1070488   1.483239697419e-08                    0          1.532975257
         "BPM.11R2.B1"             625.4967                    1            -0.137889   1.483239697419e-08                    0          1.657266631
         "BPM.12R2.B1"             680.2203                    1             0.151368   1.483239697419e-08                    0          1.776791765
         "BPM.13R2.B1"             733.6688                    1          -0.07909029   1.483239697419e-08                    0          1.921205946
         "BPM.14R2.B1"             787.1173                    1          -0.05676113   1.483239697419e-08                    0          2.033027887
         "BPM.15R2.B1"             840.5658                    1           -0.1190391   1.483239697419e-08                    0           2.16466605
         "BPM.16R2.B1"             894.0143                    1            0.3029719   1.483239697419e-08                    0          2.271897556
         "BPM.17R2.B1"             947.4628                    1           -0.1082903   1.483239697419e-08                    0          2.400143777
         "BPM.18R2.B1"             1000.911                    1            0.1287918   1.483239697419e-08                    0          2.511563811
         "BPM.19R2.B1"              1054.36                    1           -0.0913221   1.483239697419e-08                    0          2.643848989
         "BPM.20R2.B1"             1107.808                    1             0.220458   1.483239697419e-08                    0          2.751527279
         "BPM.21R2.B1"             1161.257                    1           -0.3008602   1.483239697419e-08                    0          2.879224016
         "BPM.22R2.B1"             1214.705                    1            0.3064798   1.483239697419e-08                    0          2.990105129
         "BPM.23R2.B1"             1268.154                    1           0.01762385   1.483239697419e-08                    0          3.122187522
         "BPM.24R2.B1"             1321.602                    1           -0.2342957   1.483239697419e-08                    0          3.233068179
         "BPM.25R2.B1"             1375.051                    1          -0.03429914   1.483239697419e-08                    0          3.365153169
         "BPM.26R2.B1"             1428.499                    1            0.2967083   1.483239697419e-08                    0          3.476034637
         "BPM.27R2.B1"             1481.948                    1          -0.04557475   1.483239697419e-08                    0          3.608117113
         "BPM.28R2.B1"             1535.397                    1           0.00316036   1.483239697419e-08                    0          3.718997576
         "BPM.29R2.B1"             1588.845                    1           -0.1340942   1.483239697419e-08                    0          3.851082464
         "BPM.30R2.B1"             1642.294                    1          -0.04108876   1.483239697419e-08                    0          3.961964118
         "BPM.31R2.B1"             1695.742                    1            0.1448658   1.483239697419e-08                    0          4.094046715
         "BPM.32R2.B1"             1749.191                    1           -0.4502348   1.483239697419e-08                    0          4.204927002
         "BPM.33R2.B1"             1802.639                    1            0.2120709   1.483239697419e-08                    0           4.33701175
         "BPM.34R2.B1"             1856.088                    1           -0.1465382   1.483239697419e-08                    0           4.44789357
         "BPM.33L3.B1"             1909.536                    1          -0.01819338   1.483239697419e-08                    0          4.579976323
         "BPM.32L3.B1"             1962.985                    1            0.3606198   1.483239697419e-08                    0          4.690856456
         "BPM.31L3.B1"             2016.433                    1           -0.2075698   1.483239697419e-08                    0          4.822941034
         "BPM.30L3.B1"             2069.882                    1          -0.02208486   1.483239697419e-08                    0          4.933822993
         "BPM.29L3.B1"              2123.33                    1          -0.02403525   1.483239697419e-08                    0          5.065905931
         "BPM.27L3.B1"             2230.227                    1            0.1073825   1.483239697419e-08                    0          5.308870318
         "BPM.26L3.B1"             2283.676                    1           -0.0483982   1.483239697419e-08                    0          5.419752388
         "BPM.25L3.B1"             2337.124                    1            0.1544829   1.483239697419e-08                    0          5.551835536
         "BPM.24L3.B1"             2390.573                    1           -0.2557898   1.483239697419e-08                    0          5.662715449
         "BPM.23L3.B1"             2444.021                    1           -0.1040636   1.483239697419e-08                    0          5.794799609
         "BPM.22L3.B1"              2497.47                    1            0.3003701   1.483239697419e-08                    0          5.905681757
         "BPM.21L3.B1"             2550.918                    1          -0.02911357   1.483239697419e-08                    0          6.037765132
         "BPM.20L3.B1"             2604.367                    1           -0.2739668   1.483239697419e-08                    0          6.145384431
         "BPM.19L3.B1"             2657.815                    1          0.006144508   1.483239697419e-08                    0           6.27326624
         "BPM.18L3.B1"             2711.264                    1            0.4007554   1.483239697419e-08                    0          6.384234759
         "BPM.17L3.B1"             2764.712                    1          -0.08419381   1.483239697419e-08                    0          6.516838617
         "BPM.16L3.B1"             2818.161                    1            0.1962126   1.483239697419e-08                    0          6.624983946
         "BPM.14L3.B1"             2925.058                    1          -0.03004708   1.483239697419e-08                    0          6.862822765
         "BPM.13L3.B1"             2978.506                    1           -0.1008807   1.483239697419e-08                    0          6.995773789
         "BPM.12L3.B1"             3031.955                    1            0.3238405   1.483239697419e-08                    0          7.110180918
         "BPM.11L3.B1"             3085.403                    1          -0.02136538   1.483239697419e-08                    0          7.242234687
         "BPM.10L3.B1"             3138.184                    1          0.002130582   1.483239697419e-08                    0          7.350060984
          "BPM.8L3.B1"             3217.712                    1           0.05335415   1.483239697419e-08                    0           7.63419384
          "BPM.7L3.B1"             3256.776                    1            0.1089465   1.483239697419e-08                    0          7.807370251
          "BPM.6L3.B1"             3329.415                    1           -0.9029098   1.483239697419e-08                    0          7.926729283
       "BPMWG.A5L3.B1"              3371.12                    1            0.4444243   1.483239697419e-08                    0          7.973504276
         "BPMW.5L3.B1"              3400.09                    1            -0.103895   1.483239697419e-08                    0          7.989104128
        "BPMWE.4L3.B1"             3475.218                    1         -0.001734515   1.483239697419e-08                    0          8.062529851
         "BPMW.4L3.B1"             3502.763                    1           -0.3264357   1.483239697419e-08                    0          8.108156365
         "BPMW.4R3.B1"             3547.728                    1          -0.01759505   1.483239697419e-08                    0          8.143298549
        "BPMWE.4R3.B1"             3575.273                    1           0.03239549   1.483239697419e-08                    0          8.154587111
         "BPMW.5R3.B1"             3650.401                    1             0.635017   1.483239697419e-08                    0          8.227970396
       "BPMWJ.A5R3.B1"             3679.119                    1            0.2877038   1.483239697419e-08                    0           8.29133065
        "BPMWC.6R3.B1"             3718.937                    1            0.7749034   1.483239697419e-08                    0          8.336288707
         "BPMR.6R3.B1"             3731.015                    1           -0.6439258   1.483239697419e-08                    0          8.343963785
        "BPM_A.7R3.B1"             3786.839                    1           -0.1488166   1.483239697419e-08                    0          8.415479183
          "BPM.8R3.B1"             3825.903                    1            0.1933086   1.483239697419e-08                    0          8.477497493
         "BPM.10R3.B1"             3905.431                    1             0.444204   1.483239697419e-08                    0          8.593477418
         "BPM.11R3.B1"             3958.212                    1           -0.2766545   1.483239697419e-08                    0          8.695173073
         "BPM.12R3.B1"             4012.935                    1          -0.01769672   1.483239697419e-08                    0          8.817242681
         "BPM.13R3.B1"             4066.384                    1           -0.1188572   1.483239697419e-08                    0          8.932217292
         "BPM.14R3.B1"             4119.833                    1            0.2166839   1.483239697419e-08                    0          9.062910094
         "BPM.15R3.B1"             4173.281                    1           -0.3675365   1.483239697419e-08                    0          9.169876588
         "BPM.17R3.B1"             4280.178                    1            0.1519723   1.483239697419e-08                    0          9.410819729
         "BPM.19R3.B1"             4387.075                    1           -0.3698497   1.483239697419e-08                    0          9.649469044
         "BPM.20R3.B1"             4440.524                    1          -0.07544048   1.483239697419e-08                    0          9.777917062
         "BPM.21R3.B1"             4493.972                    1            0.2534901   1.483239697419e-08                    0          9.889377503
         "BPM.22R3.B1"             4547.421                    1           -0.1449718   1.483239697419e-08                    0          10.02146085
         "BPM.23R3.B1"             4600.869                    1            0.4969126   1.483239697419e-08                    0          10.13234278
         "BPM.24R3.B1"             4654.318                    1          -0.03309698   1.483239697419e-08                    0           10.2644276
         "BPM.25R3.B1"             4707.766                    1          -0.08112544   1.483239697419e-08                    0          10.37530777
         "BPM.26R3.B1"             4761.215                    1            0.3897018   1.483239697419e-08                    0          10.50739029
         "BPM.27R3.B1"             4814.663                    1          0.005169218   1.483239697419e-08                    0          10.61827205
         "BPM.28R3.B1"             4868.112                    1          0.002464377   1.483239697419e-08                    0          10.75035703
         "BPM.29R3.B1"              4921.56                    1            0.0933679   1.483239697419e-08                    0          10.86123739
         "BPM.30R3.B1"             4975.009                    1            0.1248177   1.483239697419e-08                    0          10.99331977
         "BPM.31R3.B1"             5028.457                    1           -0.4290333   1.483239697419e-08                    0          11.10420133
         "BPM.32R3.B1"             5081.906                    1            0.2994098   1.483239697419e-08                    0          11.23628643
         "BPM.33R3.B1"             5135.354                    1           -0.4563586   1.483239697419e-08                    0            11.347167
         "BPM.34R3.B1"             5188.803                    1            0.2837468   1.483239697419e-08                    0          11.47924928
         "BPM.33L4.B1"             5242.251                    1          -0.04212201   1.483239697419e-08                    0          11.59013062
         "BPM.32L4.B1"               5295.7                    1           0.05587598   1.483239697419e-08                    0           11.7222158
         "BPM.31L4.B1"             5349.148                    1           -0.7094422   1.483239697419e-08                    0          11.83309659
         "BPM.30L4.B1"             5402.597                    1           0.06488512   1.483239697419e-08                    0          11.96517881
         "BPM.29L4.B1"             5456.045                    1            0.1513897   1.483239697419e-08                    0          12.07605993
         "BPM.27L4.B1"             5562.942                    1           -0.1735201   1.483239697419e-08                    0          12.31902617
         "BPM.26L4.B1"             5616.391                    1           0.03391716   1.483239697419e-08                    0          12.45110838
         "BPM.25L4.B1"             5669.839                    1            0.3072827   1.483239697419e-08                    0          12.56198926
         "BPM.24L4.B1"             5723.288                    1          -0.07103381   1.483239697419e-08                    0          12.69407446
         "BPM.23L4.B1"             5776.736                    1           0.05308584   1.483239697419e-08                    0          12.80495571
         "BPM.22L4.B1"             5830.185                    1          -0.09346024   1.483239697419e-08                    0          12.93703796
         "BPM.21L4.B1"             5883.634                    1          -0.09567866   1.483239697419e-08                    0          13.04791862
         "BPM.20L4.B1"             5937.082                    1            0.1306027   1.483239697419e-08                    0          13.18070485
         "BPM.19L4.B1"             5990.531                    1          -0.07046991   1.483239697419e-08                    0          13.28895137
         "BPM.18L4.B1"             6043.979                    1            0.1338563   1.483239697419e-08                    0          13.41626088
         "BPM.17L4.B1"             6097.428                    1           -0.1994916   1.483239697419e-08                    0          13.52650416
         "BPM.15L4.B1"             6204.325                    1            0.3300769   1.483239697419e-08                    0          13.76850137
         "BPM.14L4.B1"             6257.773                    1           -0.1638512   1.483239697419e-08                    0          13.89561536
         "BPM.13L4.B1"             6311.222                    1          -0.08391536   1.483239697419e-08                    0          14.00516972
         "BPM.12L4.B1"              6364.67                    1           -0.1037175   1.483239697419e-08                    0          14.13813277
         "BPM.11L4.B1"             6418.119                    1            0.4133826   1.483239697419e-08                    0           14.2438779
         "BPM.10L4.B1"             6469.957                    1            0.1576469   1.483239697419e-08                    0          14.36151651
          "BPM.9L4.B1"             6509.022                    1           -0.2083551   1.483239697419e-08                    0          14.42203041
          "BPM.8L4.B1"             6549.485                    1           -0.2561626   1.483239697419e-08                    0          14.50689283
          "BPM.7L4.B1"             6588.549                    1             0.562231   1.483239697419e-08                    0          14.55961858
        "BPMYB.6L4.B1"             6685.153                    1            0.2667405   1.483239697419e-08                    0          14.63689835
        "BPMYA.5L4.B1"             6722.153                    1            0.3204701   1.483239697419e-08                    0          14.65196272
       "BPMWI.A5L4.B1"             6798.756                    1            -2.063916   1.483239697419e-08                    0          14.70814889
       "BPMWA.B5L4.B1"              6824.62                    1           -0.2326154   1.483239697419e-08                    0           14.7269777
       "BPMWA.A5L4.B1"             6833.505                    1           -0.4656489   1.483239697419e-08                    0          14.73325299
       "BPMWA.A5R4.B1"             6881.554                    1           -0.5091867   1.483239697419e-08                    0          14.76468875
       "BPMWA.B5R4.B1"             6890.439                    1           -0.2618386   1.483239697419e-08                    0          14.76996714
        "BPMYB.5R4.B1"             6992.829                    1             0.236848   1.483239697419e-08                    0          14.81837127
        "BPMYA.6R4.B1"             7024.393                    1            0.8365985   1.483239697419e-08                    0          14.84171732
          "BPM.7R4.B1"             7120.909                    1           -0.1985016   1.483239697419e-08                    0           15.0343468
          "BPM.8R4.B1"             7158.698                    1          -0.03981505   1.483239697419e-08                    0          15.14729534
          "BPM.9R4.B1"             7197.763                    1           -0.4384381   1.483239697419e-08                    0          15.24809222
         "BPM.10R4.B1"             7238.226                    1            0.3001721   1.483239697419e-08                    0           15.3117016
         "BPM.11R4.B1"             7290.065                    1           0.01502077   1.483239697419e-08                    0          15.43524419
         "BPM.12R4.B1"             7344.789                    1           0.04376351   1.483239697419e-08                    0           15.5878806
         "BPM.13R4.B1"             7398.237                    1          -0.01985397   1.483239697419e-08                    0          15.71513053
         "BPM.14R4.B1"             7451.686                    1           -0.1356083   1.483239697419e-08                    0             15.80895
         "BPM.15R4.B1"             7505.134                    1          -0.05206415   1.483239697419e-08                    0          15.97098848
         "BPM.16R4.B1"             7558.583                    1           0.01637614   1.483239697419e-08                    0          16.10409495
         "BPM.17R4.B1"             7612.031                    1            0.1087503   1.483239697419e-08                    0          16.21510382
         "BPM.18R4.B1"              7665.48                    1           -0.2205538   1.483239697419e-08                    0          16.30891552
         "BPM.19R4.B1"             7718.928                    1            0.2362516   1.483239697419e-08                    0          16.47094056
         "BPM.20R4.B1"             7772.377                    1           -0.2397383   1.483239697419e-08                    0           16.6040602
         "BPM.21R4.B1"             7825.825                    1          -0.06460628   1.483239697419e-08                    0          16.71507673
         "BPM.22R4.B1"             7879.274                    1            0.3931656   1.483239697419e-08                    0          16.80888104
         "BPM.23R4.B1"             7932.722                    1          -0.08385772   1.483239697419e-08                    0          16.97089263
         "BPM.24R4.B1"             7986.171                    1           -0.2758183   1.483239697419e-08                    0          17.10402545
         "BPM.26R4.B1"             8093.068                    1          -0.02576027   1.483239697419e-08                    0          17.30884656
         "BPM.27R4.B1"             8146.516                    1          -0.01791769   1.483239697419e-08                    0           17.4708447
         "BPM.28R4.B1"             8199.965                    1            0.3987305   1.483239697419e-08                    0          17.60399069
         "BPM.29R4.B1"             8253.413                    1            0.1950062   1.483239697419e-08                    0          17.71502255
         "BPM.30R4.B1"             8306.862                    1           -0.9449413   1.483239697419e-08                    0          17.80881209
         "BPM.32R4.B1"             8413.759                    1             0.180351   1.483239697419e-08                    0          18.10395593
         "BPM.33R4.B1"             8467.208                    1           -0.0672343   1.483239697419e-08                    0          18.21499546
         "BPM.34R4.B1"             8520.656                    1            0.1230676   1.483239697419e-08                    0          18.30877762
         "BPM.33L5.B1"             8574.105                    1           -0.0019408   1.483239697419e-08                    0          18.47074884
         "BPM.32L5.B1"             8627.553                    1            0.1749955   1.483239697419e-08                    0          18.60392117
         "BPM.31L5.B1"             8681.002                    1          -0.03016895   1.483239697419e-08                    0          18.71496837
         "BPM.30L5.B1"              8734.45                    1           0.09583554   1.483239697419e-08                    0          18.80874316
         "BPM.29L5.B1"             8787.899                    1           -0.2225911   1.483239697419e-08                    0          18.97070091
         "BPM.28L5.B1"             8841.347                    1            0.2362203   1.483239697419e-08                    0           19.1038864
         "BPM.27L5.B1"             8894.796                    1          -0.08390019   1.483239697419e-08                    0          19.21494128
         "BPM.26L5.B1"             8948.244                    1            0.1279408   1.483239697419e-08                    0           19.3087087
         "BPM.25L5.B1"             9001.693                    1             0.082023   1.483239697419e-08                    0          19.47065297
         "BPM.24L5.B1"             9055.141                    1          -0.07306203   1.483239697419e-08                    0          19.60385162
         "BPM.22L5.B1"             9162.038                    1           -0.3387162   1.483239697419e-08                    0          19.80867424
         "BPM.21L5.B1"             9215.487                    1         -0.008214446   1.483239697419e-08                    0          19.97060504
         "BPM.20L5.B1"             9268.935                    1           0.03350592   1.483239697419e-08                    0          20.10381684
         "BPM.19L5.B1"             9322.384                    1          -0.02603029   1.483239697419e-08                    0           20.2148871
         "BPM.18L5.B1"             9375.832                    1           0.08801714   1.483239697419e-08                    0          20.30863979
         "BPM.17L5.B1"             9429.281                    1           0.03255406   1.483239697419e-08                    0           20.4705571
         "BPM.16L5.B1"             9482.729                    1            0.1124713   1.483239697419e-08                    0          20.60378206
         "BPM.15L5.B1"             9536.178                    1         -0.005521043   1.483239697419e-08                    0          20.71486001
         "BPM.14L5.B1"             9589.626                    1          -0.07816034   1.483239697419e-08                    0          20.80860535
         "BPM.13L5.B1"             9643.075                    1           -0.1188296   1.483239697419e-08                    0          20.97050917
         "BPM.12L5.B1"             9696.523                    1            0.2568167   1.483239697419e-08                    0           21.0967326
         "BPM.11L5.B1"             9749.972                    1           -0.1313592   1.483239697419e-08                    0          21.20298247
         "BPM.10L5.B1"             9802.753                    1            0.1695649   1.483239697419e-08                    0          21.26788526
          "BPM.9L5.B1"             9841.818                    1           -0.1648011   1.483239697419e-08                    0           21.3237471
          "BPM.8L5.B1"             9882.281                    1            0.4351299   1.483239697419e-08                    0          21.47833982
         "BPMR.7L5.B1"             9921.347                    1           0.07832955   1.483239697419e-08                    0          21.73074503
         "BPMR.5L5.B1"             9990.141                    1           -0.2881664   1.483239697419e-08                    0          22.18206903
        "BPMWB.4L5.B1"             10038.68                    1           -0.1746698   1.483239697419e-08                    0          22.20230188
        "BPMSY.4L5.B1"             10131.46                    1            -0.714169   1.483239697419e-08                    0          22.20770139
         "BPMS.2L5.B1"             10158.25                    1            -1.502591   1.483239697419e-08                    0           22.2089442
        "BPMSW.1L5.B1"             10168.21                    1            0.3878502   1.483239697419e-08                    0          22.20975048
         "BPMS.2R5.B1"              10221.3                    1             2.501231   1.483239697419e-08                    0          22.70594993
        "BPMSY.4R5.B1"             10248.09                    1           -0.2889753   1.483239697419e-08                    0          22.70680656
        "BPMWB.4R5.B1"             10340.87                    1            0.2179085   1.483239697419e-08                    0          22.71293529
        "BPMYA.4R5.B1"                10362                    1            0.5933435   1.483239697419e-08                    0          22.71503985
          "BPM.5R5.B1"             10383.12                    1            0.1131673   1.483239697419e-08                    0          22.71833641
         "BPMR.6R5.B1"             10415.02                    1            0.0491746   1.483239697419e-08                    0          22.73004919
        "BPM_A.7R5.B1"             10449.03                    1           -0.4932143   1.483239697419e-08                    0          22.80200778
          "BPM.8R5.B1"             10490.47                    1            0.2027455   1.483239697419e-08                    0          23.05367122
          "BPM.9R5.B1"             10529.54                    1           -0.1247866   1.483239697419e-08                    0          23.13356489
         "BPM.10R5.B1"             10570.01                    1           0.05942746   1.483239697419e-08                    0          23.20555147
         "BPM.11R5.B1"             10622.79                    1          -0.09301414   1.483239697419e-08                    0          23.29959809
         "BPM.12R5.B1"             10677.51                    1           0.00235191   1.483239697419e-08                    0          23.47144178
         "BPM.14R5.B1"             10784.42                    1            0.1226297   1.483239697419e-08                    0          23.71576146
         "BPM.17R5.B1"             10944.77                    1           -0.5002134   1.483239697419e-08                    0          24.10492709
         "BPM.18R5.B1"             10998.22                    1            0.1535211   1.483239697419e-08                    0          24.21576146
         "BPM.19R5.B1"             11051.68                    1           -0.2042201   1.483239697419e-08                    0          24.30976117
         "BPM.20R5.B1"             11105.13                    1           0.09580026   1.483239697419e-08                    0          24.47212746
         "BPM.23R5.B1"             11265.48                    1           -0.3393687   1.483239697419e-08                    0          24.80976117
         "BPM.24R5.B1"             11318.93                    1           -0.1742971   1.483239697419e-08                    0          24.97212746
         "BPM.25R5.B1"             11372.38                    1           -0.3549232   1.483239697419e-08                    0          25.10492709
         "BPM.26R5.B1"             11425.84                    1           0.00732666   1.483239697419e-08                    0          25.21576146
         "BPM.27R5.B1"             11479.29                    1            0.1507898   1.483239697419e-08                    0          25.30976117
         "BPM.28R5.B1"             11532.74                    1            -0.272831   1.483239697419e-08                    0          25.47212746
         "BPM.29R5.B1"             11586.19                    1           -0.4089618   1.483239697419e-08                    0          25.60492709
         "BPM.30R5.B1"             11639.64                    1            0.1539525   1.483239697419e-08                    0          25.71576146
         "BPM.31R5.B1"             11693.09                    1        -0.0002788324   1.483239697419e-08                    0          25.80976117
         "BPM.32R5.B1"             11746.54                    1            0.0197081   1.483239697419e-08                    0          25.97212746
         "BPM.33R5.B1"                11800                    1           0.04557842   1.483239697419e-08                    0          26.10492709
         "BPM.34R5.B1"             11853.45                    1           -0.1691952   1.483239697419e-08                    0          26.21576146
         "BPM.33L6.B1"              11906.9                    1            0.2603373   1.483239697419e-08                    0          26.30976117
         "BPM.32L6.B1"             11960.35                    1           -0.1141584   1.483239697419e-08                    0          26.47212746
         "BPM.30L6.B1"             12067.25                    1           -0.1881186   1.483239697419e-08                    0          26.71576146
         "BPM.29L6.B1"              12120.7                    1            0.2683286   1.483239697419e-08                    0          26.80976117
         "BPM.28L6.B1"             12174.16                    1          -0.03078742   1.483239697419e-08                    0          26.97212746
         "BPM.27L6.B1"             12227.61                    1          -0.02492362   1.483239697419e-08                    0          27.10492709
         "BPM.26L6.B1"             12281.06                    1           0.07368756   1.483239697419e-08                    0          27.21576146
         "BPM.25L6.B1"             12334.51                    1           -0.4495165   1.483239697419e-08                    0          27.30976117
         "BPM.24L6.B1"             12387.96                    1            0.2146336   1.483239697419e-08                    0          27.47212746
         "BPM.22L6.B1"             12494.87                    1           -0.1101329   1.483239697419e-08                    0          27.71576146
         "BPM.21L6.B1"             12548.32                    1            0.4012385   1.483239697419e-08                    0          27.80976117
         "BPM.20L6.B1"             12601.77                    1          -0.00251225   1.483239697419e-08                    0          27.97212746
         "BPM.19L6.B1"             12655.22                    1           -0.1916071   1.483239697419e-08                    0          28.10492709
         "BPM.18L6.B1"             12708.67                    1            0.1991003   1.483239697419e-08                    0          28.21576146
         "BPM.17L6.B1"             12762.12                    1           -0.6725388   1.483239697419e-08                    0          28.30976117
         "BPM.16L6.B1"             12815.57                    1           0.07376606   1.483239697419e-08                    0          28.47212746
         "BPM.15L6.B1"             12869.03                    1            0.4881877   1.483239697419e-08                    0          28.60492709
         "BPM.14L6.B1"             12922.48                    1            -0.187199   1.483239697419e-08                    0          28.71576146
         "BPM.13L6.B1"             12975.93                    1            0.1975694   1.483239697419e-08                    0          28.80976117
         "BPM.12L6.B1"             13029.38                    1           -0.1102944   1.483239697419e-08                    0          28.97209448
         "BPM.11L6.B1"             13082.83                    1            0.2290899   1.483239697419e-08                    0          29.11761004
         "BPM.10L6.B1"             13134.67                    1           -0.2782575   1.483239697419e-08                    0          29.23425177
          "BPM.9L6.B1"             13173.74                    1             0.438085   1.483239697419e-08                    0          29.33510209
          "BPM.8L6.B1"              13214.2                    1          -0.08770227   1.483239697419e-08                    0          29.60662689
        "BPMYA.5L6.B1"             13311.29                    1            0.1510976   1.483239697419e-08                    0          29.70414572
        "BPMYB.4L6.B1"             13347.69                    1            0.2238282   1.483239697419e-08                    0          29.72308331
       "BPMSX.B4L6.B1"             13383.23                    1            0.2381208   1.483239697419e-08                    0          29.73278245
       "BPMSX.A4L6.B1"             13383.82                    1           -0.3516419   1.483239697419e-08                    0           29.7329618
        "BPMSA.4R6.B1"             13568.51                    1            0.2936715   1.483239697419e-08                    0          29.85810344
       "BPMSI.A4R6.B1"             13661.77                    1            0.5015422   1.483239697419e-08                    0          29.97388573
       "BPMSI.B4R6.B1"             13662.41                    1            0.1891577   1.483239697419e-08                    0          29.97455984
        "BPMYA.4R6.B1"             13691.29                    1          0.004811556   1.483239697419e-08                    0          30.00226014
        "BPMYB.5R6.B1"             13727.69                    1           -0.3479504   1.483239697419e-08                    0          30.02028842
          "BPM.9R6.B1"             13862.49                    1             1.364113   1.483239697419e-08                    0          30.31961775
         "BPM.10R6.B1"             13902.95                    1          -0.09723515   1.483239697419e-08                    0          30.42183754
         "BPM.11R6.B1"             13954.79                    1           0.04388122   1.483239697419e-08                    0          30.56428843
         "BPM.12R6.B1"             14009.52                    1          -0.04124419   1.483239697419e-08                    0          30.67410997
         "BPM.13R6.B1"             14062.97                    1            0.0640502   1.483239697419e-08                    0          30.80466431
         "BPM.14R6.B1"             14116.42                    1           -0.0981077   1.483239697419e-08                    0          30.92245471
         "BPM.15R6.B1"             14169.87                    1           0.03655456   1.483239697419e-08                    0          31.06116151
         "BPM.16R6.B1"             14223.33                    1          -0.03868208   1.483239697419e-08                    0          31.17949587
         "BPM.17R6.B1"             14276.78                    1          -0.01594284   1.483239697419e-08                    0          31.32485564
         "BPM.18R6.B1"             14330.23                    1           0.03149349   1.483239697419e-08                    0          31.44193046
         "BPM.20R6.B1"             14437.13                    1            0.1113557   1.483239697419e-08                    0          31.69985625
         "BPM.21R6.B1"             14490.58                    1           -0.1100369   1.483239697419e-08                    0          31.84492386
         "BPM.22R6.B1"             14544.04                    1            0.2922488   1.483239697419e-08                    0          31.96133897
         "BPM.23R6.B1"             14597.49                    1          -0.04647746   1.483239697419e-08                    0          32.10128323
         "BPM.24R6.B1"             14650.94                    1           -0.1240354   1.483239697419e-08                    0          32.21770278
         "BPM.25R6.B1"             14704.39                    1         -0.006136707   1.483239697419e-08                    0          32.35764574
         "BPM.26R6.B1"             14757.84                    1            0.0907339   1.483239697419e-08                    0          32.47406078
         "BPM.27R6.B1"             14811.29                    1          -0.07723431   1.483239697419e-08                    0          32.61400545
         "BPM.28R6.B1"             14864.74                    1            0.1477141   1.483239697419e-08                    0          32.73042488
         "BPM.29R6.B1"              14918.2                    1           -0.0152389   1.483239697419e-08                    0          32.87036744
         "BPM.30R6.B1"             14971.65                    1          -0.04671722   1.483239697419e-08                    0          32.98678263
         "BPM.31R6.B1"              15025.1                    1          -0.05936232   1.483239697419e-08                    0          33.12672769
         "BPM.32R6.B1"             15078.55                    1            0.2318192   1.483239697419e-08                    0          33.24314695
         "BPM.33R6.B1"                15132                    1            -0.193262   1.483239697419e-08                    0          33.38308913
         "BPM.34R6.B1"             15185.45                    1             0.339191   1.483239697419e-08                    0          33.49950451
         "BPM.32L7.B1"             15292.36                    1           -0.6872778   1.483239697419e-08                    0          33.75586897
         "BPM.31L7.B1"             15345.81                    1            0.1874119   1.483239697419e-08                    0          33.89581082
         "BPM.30L7.B1"             15399.26                    1           0.03547134   1.483239697419e-08                    0          34.01222645
         "BPM.29L7.B1"             15452.71                    1          -0.02168727   1.483239697419e-08                    0          34.15217218
         "BPM.28L7.B1"             15506.16                    1           0.04791626   1.483239697419e-08                    0          34.26859094
         "BPM.27L7.B1"             15559.61                    1            -0.123146   1.483239697419e-08                    0           34.4085325
         "BPM.26L7.B1"             15613.06                    1            0.2344237   1.483239697419e-08                    0          34.52494842
         "BPM.25L7.B1"             15666.52                    1          -0.05541835   1.483239697419e-08                    0          34.66489442
         "BPM.24L7.B1"             15719.97                    1           -0.1038447   1.483239697419e-08                    0          34.78131288
         "BPM.23L7.B1"             15773.42                    1           0.01435224   1.483239697419e-08                    0           34.9212542
         "BPM.22L7.B1"             15826.87                    1           0.05837157   1.483239697419e-08                    0          35.03767045
         "BPM.21L7.B1"             15880.32                    1          -0.00568663   1.483239697419e-08                    0          35.17761664
         "BPM.20L7.B1"             15933.77                    1           -0.0615365   1.483239697419e-08                    0          35.29782612
         "BPM.19L7.B1"             15987.23                    1           0.01163781   1.483239697419e-08                    0          35.44161126
         "BPM.18L7.B1"             16040.68                    1           -0.1545342   1.483239697419e-08                    0          35.55705328
         "BPM.17L7.B1"             16094.13                    1           0.07484202   1.483239697419e-08                    0          35.69767466
         "BPM.16L7.B1"             16147.58                    1           -0.2437982   1.483239697419e-08                    0          35.81823786
         "BPM.15L7.B1"             16201.03                    1          -0.02218664   1.483239697419e-08                    0          35.96127533
         "BPM.14L7.B1"             16254.48                    1            0.2945065   1.483239697419e-08                    0          36.07646446
         "BPM.13L7.B1"             16307.93                    1          -0.06671338   1.483239697419e-08                    0          36.21785294
         "BPM.12L7.B1"             16361.39                    1          -0.06613889   1.483239697419e-08                    0          36.32689443
         "BPM.10L7.B1"             16467.62                    1            0.1121215   1.483239697419e-08                    0          36.54559671
          "BPM.9L7.B1"             16506.69                    1             1.483048   1.483239697419e-08                    0          36.62526296
          "BPM.8L7.B1"             16547.15                    1          -0.02128565   1.483239697419e-08                    0          36.68699652
          "BPM.7L7.B1"             16586.22                    1           -0.1614239   1.483239697419e-08                    0          36.76280111
          "BPM.6L7.B1"             16621.04                    1            -1.862358   1.483239697419e-08                    0          36.82856286
        "BPMWC.6L7.B1"             16633.14                    1            0.2984509   1.483239697419e-08                    0          36.87017637
        "BPMWE.5L7.B1"             16710.19                    1           -0.1532003   1.483239697419e-08                    0          36.97594829
         "BPMW.5L7.B1"              16733.4                    1          -0.09776134   1.483239697419e-08                    0           36.9873769
        "BPMWE.4L7.B1"             16768.48                    1            0.2624549   1.483239697419e-08                    0          37.02186845
         "BPMW.4L7.B1"             16796.59                    1            0.1760276   1.483239697419e-08                    0          37.09270446
         "BPMW.4R7.B1"             16912.63                    1           -0.1422824   1.483239697419e-08                    0           37.2433783
        "BPMWE.4R7.B1"             16940.74                    1            0.1234797   1.483239697419e-08                    0          37.25538016
         "BPMW.5R7.B1"             16975.82                    1          -0.01106584   1.483239697419e-08                    0           37.2880823
        "BPMWE.5R7.B1"             16999.03                    1           0.05121428   1.483239697419e-08                    0           37.3493264
         "BPMR.6R7.B1"             17078.24                    1          -0.07594461   1.483239697419e-08                    0          37.52174802
        "BPM_A.7R7.B1"             17116.28                    1           0.03673955   1.483239697419e-08                    0          37.57832316
          "BPM.8R7.B1"             17155.35                    1             1.564396   1.483239697419e-08                    0           37.6595784
          "BPM.9R7.B1"             17194.41                    1           -0.2048974   1.483239697419e-08                    0          37.73862911
         "BPM.10R7.B1"             17234.88                    1             0.240898   1.483239697419e-08                    0          37.82399346
         "BPM.11R7.B1"             17287.66                    1           -0.4779359   1.483239697419e-08                    0          37.93301419
         "BPM.12R7.B1"             17342.39                    1            0.1807642   1.483239697419e-08                    0          38.06984667
         "BPM.13R7.B1"             17395.84                    1          -0.09395016   1.483239697419e-08                    0          38.18659432
         "BPM.14R7.B1"             17449.29                    1          -0.01728501   1.483239697419e-08                    0          38.32561066
         "BPM.15R7.B1"             17502.74                    1             0.212291   1.483239697419e-08                    0          38.44470728
         "BPM.16R7.B1"             17556.19                    1           0.09641808   1.483239697419e-08                    0          38.58962864
         "BPM.17R7.B1"             17609.65                    1           -0.5618451   1.483239697419e-08                    0          38.70601075
         "BPM.18R7.B1"              17663.1                    1            0.2192012   1.483239697419e-08                    0          38.84540832
         "BPM.19R7.B1"             17716.55                    1           -0.2521701   1.483239697419e-08                    0          38.96511482
         "BPM.20R7.B1"                17770                    1            0.1795961   1.483239697419e-08                    0          39.10954513
         "BPM.21R7.B1"             17823.45                    1           -0.2992624   1.483239697419e-08                    0          39.22539486
         "BPM.22R7.B1"              17876.9                    1             0.228256   1.483239697419e-08                    0            39.365336
         "BPM.24R7.B1"             17983.81                    1            0.1115389   1.483239697419e-08                    0          39.62169618
         "BPM.25R7.B1"             18037.26                    1           -0.1788713   1.483239697419e-08                    0          39.73811625
         "BPM.26R7.B1"             18090.71                    1           0.09129623   1.483239697419e-08                    0          39.87805756
         "BPM.28R7.B1"             18197.61                    1            0.1071307   1.483239697419e-08                    0          40.13441856
         "BPM.29R7.B1"             18251.06                    1           -0.1071515   1.483239697419e-08                    0          40.25083827
         "BPM.30R7.B1"             18304.51                    1             0.149124   1.483239697419e-08                    0          40.39077912
         "BPM.31R7.B1"             18357.97                    1           -0.3287669   1.483239697419e-08                    0          40.50719414
         "BPM.32R7.B1"             18411.42                    1            0.1183161   1.483239697419e-08                    0          40.64714093
         "BPM.33R7.B1"             18464.87                    1           -0.2531466   1.483239697419e-08                    0          40.76356023
         "BPM.34R7.B1"             18518.32                    1            0.2724482   1.483239697419e-08                    0          40.90350069
         "BPM.33L8.B1"             18571.77                    1           -0.6394403   1.483239697419e-08                    0          41.01991614
         "BPM.32L8.B1"             18625.22                    1            0.2207814   1.483239697419e-08                    0          41.15986329
         "BPM.31L8.B1"             18678.68                    1           0.03587068   1.483239697419e-08                    0          41.27628213
         "BPM.30L8.B1"             18732.13                    1            0.1754251   1.483239697419e-08                    0          41.41622227
         "BPM.29L8.B1"             18785.58                    1           -0.5728549   1.483239697419e-08                    0          41.53263821
         "BPM.28L8.B1"             18839.03                    1          -0.06145165   1.483239697419e-08                    0          41.67258562
         "BPM.27L8.B1"             18892.48                    1            0.3880499   1.483239697419e-08                    0          41.78900396
         "BPM.26L8.B1"             18945.93                    1            0.1600683   1.483239697419e-08                    0          41.92894388
         "BPM.25L8.B1"             18999.38                    1           -0.8724668   1.483239697419e-08                    0          42.04536034
         "BPM.24L8.B1"             19052.84                    1            0.2333777   1.483239697419e-08                    0          42.18530792
         "BPM.23L8.B1"             19106.29                    1            0.1910893   1.483239697419e-08                    0          42.30172573
         "BPM.22L8.B1"             19159.74                    1            0.2173257   1.483239697419e-08                    0          42.44166553
         "BPM.21L8.B1"             19213.19                    1           -0.8915895   1.483239697419e-08                    0          42.55808253
         "BPM.20L8.B1"             19266.64                    1            0.1258892   1.483239697419e-08                    0          42.69733701
         "BPM.19L8.B1"             19320.09                    1            0.1070239   1.483239697419e-08                    0          42.81701949
         "BPM.18L8.B1"             19373.54                    1           0.08014488   1.483239697419e-08                    0          42.96160037
         "BPM.17L8.B1"                19427                    1           -0.3530767   1.483239697419e-08                    0          43.07745393
         "BPM.16L8.B1"             19480.45                    1            0.1832002   1.483239697419e-08                    0          43.21724733
         "BPM.15L8.B1"              19533.9                    1           -0.1168554   1.483239697419e-08                    0           43.3374621
         "BPM.14L8.B1"             19587.35                    1          -0.02252665   1.483239697419e-08                    0          43.48140125
         "BPM.13L8.B1"              19640.8                    1           0.07869953   1.483239697419e-08                    0          43.59681903
         "BPM.12L8.B1"             19694.25                    1           0.04807332   1.483239697419e-08                    0          43.73813792
         "BPM.11L8.B1"              19747.7                    1           -0.4000147   1.483239697419e-08                    0          43.84983587
         "BPM.10L8.B1"             19799.55                    1            0.1679629   1.483239697419e-08                    0          43.97817137
          "BPM.9L8.B1"             19838.61                    1           -0.2533096   1.483239697419e-08                    0          44.04759988
          "BPM.8L8.B1"             19879.08                    1            0.2397404   1.483239697419e-08                    0          44.15599436
          "BPM.7L8.B1"             19918.15                    1           -0.1279354   1.483239697419e-08                    0          44.25212961
         "BPMR.6L8.B1"             19950.61                    1          0.002447008   1.483239697419e-08                    0          44.34868295
        "BPMYB.4L8.B1"              20031.8                    1          -0.02399548   1.483239697419e-08                    0          44.70137464
        "BPMWB.4L8.B1"             20056.19                    1           -0.2760385   1.483239697419e-08                    0          44.71571318
        "BPMSX.4L8.B1"             20106.42                    1           -0.1919382   1.483239697419e-08                    0          44.74172481
         "BPMS.2L8.B1"             20144.34                    1             0.283792   1.483239697419e-08                    0          44.75527826
        "BPMSW.1L8.B1"             20154.27                    1            0.7673687   1.483239697419e-08                    0          44.76142889
        "BPMSW.1R8.B1"             20197.46                    1             2.939007   1.483239697419e-08                    0          45.21748989
         "BPMS.2R8.B1"             20207.39                    1           -0.1585413   1.483239697419e-08                    0          45.22543013
        "BPMSX.4R8.B1"             20245.31                    1            0.8720963   1.483239697419e-08                    0          45.24090215
        "BPMWB.4R8.B1"             20295.46                    1            0.9327928   1.483239697419e-08                    0          45.26318538
        "BPMYB.4R8.B1"             20319.93                    1            0.5083747   1.483239697419e-08                    0          45.28600702
        "BPMYB.5R8.B1"             20340.51                    1           -0.1535772   1.483239697419e-08                    0          45.30489984
          "BPM.6R8.B1"             20424.62                    1           -0.4157272   1.483239697419e-08                    0          45.51349645
        "BPM_A.7R8.B1"             20446.86                    1          -0.05007455   1.483239697419e-08                    0          45.55775854
          "BPM.8R8.B1"             20488.29                    1            0.3737042   1.483239697419e-08                    0          45.69868548
          "BPM.9R8.B1"             20527.36                    1           -0.1786735   1.483239697419e-08                    0          45.91086645
         "BPM.10R8.B1"             20567.82                    1           -0.5166895   1.483239697419e-08                    0           46.0037538
         "BPM.11R8.B1"             20619.66                    1            0.1086055   1.483239697419e-08                    0          46.18843414
         "BPM.12R8.B1"             20674.38                    1           -0.4731584   1.483239697419e-08                    0          46.29413086
         "BPM.13R8.B1"             20727.83                    1            0.3194658   1.483239697419e-08                    0          46.38657686
         "BPM.14R8.B1"             20781.28                    1           -0.4636602   1.483239697419e-08                    0          46.48039424
         "BPM.16R8.B1"             20888.18                    1           -0.7933862   1.483239697419e-08                    0          46.77554391
         "BPM.17R8.B1"             20941.63                    1            0.2064407   1.483239697419e-08                    0          46.88654921
         "BPM.18R8.B1"             20995.07                    1          -0.00338003   1.483239697419e-08                    0          46.98035975
         "BPM.19R8.B1"             21048.52                    1           0.04206276   1.483239697419e-08                    0          47.14238925
         "BPM.20R8.B1"             21101.97                    1           -0.3705888   1.483239697419e-08                    0          47.27550916
         "BPM.21R8.B1"             21155.42                    1           0.01931358   1.483239697419e-08                    0          47.38652212
         "BPM.23R8.B1"             21262.32                    1          -0.06203848   1.483239697419e-08                    0          47.64234133
         "BPM.24R8.B1"             21315.76                    1           -0.1420166   1.483239697419e-08                    0          47.77547441
         "BPM.25R8.B1"             21369.21                    1            0.2102085   1.483239697419e-08                    0          47.88649503
         "BPM.26R8.B1"             21422.66                    1            -0.260505   1.483239697419e-08                    0          47.98029079
         "BPM.27R8.B1"             21476.11                    1          0.004148453   1.483239697419e-08                    0           48.1422934
         "BPM.29R8.B1"             21583.01                    1             0.174259   1.483239697419e-08                    0          48.38646794
         "BPM.30R8.B1"             21636.46                    1           -0.3227278   1.483239697419e-08                    0          48.48025632
         "BPM.31R8.B1"              21689.9                    1          -0.08198557   1.483239697419e-08                    0          48.64224546
         "BPM.32R8.B1"             21743.35                    1            0.3906029   1.483239697419e-08                    0          48.77540489
         "BPM.33R8.B1"              21796.8                    1          -0.05333936   1.483239697419e-08                    0          48.88644085
         "BPM.34R8.B1"             21850.25                    1           -0.1400858   1.483239697419e-08                    0          48.98022185
         "BPM.33L1.B1"              21903.7                    1          0.009419574   1.483239697419e-08                    0          49.14219753
         "BPM.32L1.B1"             21957.15                    1           -0.1718169   1.483239697419e-08                    0          49.27537013
         "BPM.31L1.B1"              22010.6                    1          -0.06041247   1.483239697419e-08                    0          49.38641376
         "BPM.30L1.B1"             22064.04                    1             0.501089   1.483239697419e-08                    0          49.48018739
         "BPM.29L1.B1"             22117.49                    1          -0.06110422   1.483239697419e-08                    0           49.6421496
         "BPM.28L1.B1"             22170.94                    1           -0.2978324   1.483239697419e-08                    0          49.77533536
         "BPM.27L1.B1"             22224.39                    1           0.09290112   1.483239697419e-08                    0          49.88638667
         "BPM.26L1.B1"             22277.84                    1           0.02398942   1.483239697419e-08                    0          49.98015293
         "BPM.25L1.B1"             22331.29                    1           -0.1501752   1.483239697419e-08                    0          50.14210166
         "BPM.24L1.B1"             22384.74                    1            0.1219849   1.483239697419e-08                    0          50.27530058
         "BPM.23L1.B1"             22438.18                    1           0.06119729   1.483239697419e-08                    0          50.38635959
         "BPM.22L1.B1"             22491.63                    1           -0.1044281   1.483239697419e-08                    0          50.48011847
         "BPM.21L1.B1"             22545.08                    1          -0.02899028   1.483239697419e-08                    0          50.64205373
         "BPM.20L1.B1"             22598.53                    1             0.207352   1.483239697419e-08                    0           50.7752658
         "BPM.19L1.B1"             22651.98                    1          -0.09248927   1.483239697419e-08                    0           50.8863325
         "BPM.18L1.B1"             22705.43                    1             0.256738   1.483239697419e-08                    0          50.98008402
         "BPM.17L1.B1"             22758.87                    1          -0.07185065   1.483239697419e-08                    0          51.14200579
         "BPM.16L1.B1"             22812.32                    1           -0.3567172   1.483239697419e-08                    0          51.27523102
         "BPM.15L1.B1"             22865.77                    1            0.1064824   1.483239697419e-08                    0          51.38630541
         "BPM.14L1.B1"             22919.22                    1          0.002699218   1.483239697419e-08                    0          51.48004958
         "BPM.13L1.B1"             22972.67                    1            0.1427279   1.483239697419e-08                    0          51.64195786
         "BPM.12L1.B1"             23026.12                    1            -0.348244   1.483239697419e-08                    0          51.76818173
         "BPM.11L1.B1"             23079.57                    1            0.1369635   1.483239697419e-08                    0          51.87442823
         "BPM.10L1.B1"             23132.35                    1            0.1513047   1.483239697419e-08                    0          51.93932956
          "BPM.9L1.B1"             23171.41                    1           -0.2797459   1.483239697419e-08                    0          51.99519148
          "BPM.8L1.B1"             23211.87                    1            0.2099717   1.483239697419e-08                    0          52.14978871
         "BPMR.7L1.B1"             23250.94                    1           -0.1847829   1.483239697419e-08                    0             52.40219
          "BPM.6L1.B1"             23294.12                    1            0.5257041   1.483239697419e-08                    0          52.68818627
        "BPMYA.4L1.B1"             23347.14                    1            0.4983497   1.483239697419e-08                    0          52.86906193
        "BPMWB.4L1.B1"             23368.28                    1           -0.2290634   1.483239697419e-08                    0          52.87374766
        "BPMSY.4L1.B1"             23461.06                    1            0.3930857   1.483239697419e-08                    0            52.879147
         "BPMS.2L1.B1"             23487.84                    1            0.2971438   1.483239697419e-08                    0          52.88038977
        "BPMSW.1L1.B1"             23497.79                    1           -0.1109301   1.483239697419e-08                    0          52.88119449
        "BPMSW.1R1.B1"             23540.93                    1            0.3642109   1.483239697419e-08                    0          53.37676807
         "BPMS.2R1.B1"              23550.9                    1            0.8576235   1.483239697419e-08                    0          53.37739559
        "BPMSY.4R1.B1"             23577.68                    1           -0.1626516   1.483239697419e-08                    0           53.3782522
        "BPMWB.4R1.B1"             23670.46                    1           -0.4675311   1.483239697419e-08                    0          53.38438074
        "BPMYA.4R1.B1"              23691.6                    1            0.6107426   1.483239697419e-08                    0          53.38648524
          "BPM.5R1.B1"                23719                    1           -0.7639548   1.483239697419e-08                    0          53.39128415
         "BPMR.6R1.B1"              23750.9                    1           0.05259609   1.483239697419e-08                    0          53.40587998
        "BPMSX.7R1.B1"             23757.12                    1             1.151688   1.483239697419e-08                    0           53.4117933
        "BPM_A.7R1.B1"             23778.63                    1           -0.7933686   1.483239697419e-08                    0          53.47345198
          "BPM.8R1.B1"             23820.07                    1            0.2723748   1.483239697419e-08                    0          53.72512095
          "BPM.9R1.B1"             23859.13                    1           -0.4872002   1.483239697419e-08                    0          53.80501301
         "BPM.10R1.B1"              23899.6                    1           0.05936377   1.483239697419e-08                    0          53.87699715
         "BPM.11R1.B1"             23952.38                    1            -3.635942   1.483239697419e-08                    0          53.97104227
         "BPM.12R1.B1"             24007.11                    1           0.07923019   1.483239697419e-08                    0          54.14289049
         "BPM.13R1.B1"             24060.56                    1            -0.241313   1.483239697419e-08                    0          54.27637544
         "BPM.14R1.B1"             24114.01                    1          -0.06463826   1.483239697419e-08                    0          54.38720683
         "BPM.15R1.B1"             24167.46                    1            0.4936868   1.483239697419e-08                    0          54.48120541
         "BPM.16R1.B1"             24220.91                    1          -0.03460509   1.483239697419e-08                    0          54.64357619
         "BPM.17R1.B1"             24274.37                    1           -0.1584152   1.483239697419e-08                    0          54.77637602
         "BPM.18R1.B1"             24327.82                    1           0.08809691   1.483239697419e-08                    0          54.88720683
         "BPM.19R1.B1"             24381.27                    1            -0.208926   1.483239697419e-08                    0          54.98120541
         "BPM.20R1.B1"             24434.72                    1            0.1101971   1.483239697419e-08                    0          55.14357619
         "BPM.21R1.B1"             24488.17                    1           -0.3977484   1.483239697419e-08                    0          55.27637602
         "BPM.22R1.B1"             24541.62                    1            0.1387929   1.483239697419e-08                    0          55.38720683
         "BPM.23R1.B1"             24595.08                    1           -0.2785694   1.483239697419e-08                    0          55.48120541
         "BPM.24R1.B1"             24648.53                    1           0.09616898   1.483239697419e-08                    0          55.64357619
         "BPM.25R1.B1"             24701.98                    1             -0.22681   1.483239697419e-08                    0          55.77637602
         "BPM.26R1.B1"             24755.43                    1             0.126442   1.483239697419e-08                    0          55.88720683
         "BPM.27R1.B1"             24808.88                    1           -0.1427329   1.483239697419e-08                    0          55.98120541
         "BPM.28R1.B1"             24862.33                    1         -0.003987212   1.483239697419e-08                    0          56.14357619
         "BPM.29R1.B1"             24915.78                    1           -0.1232462   1.483239697419e-08                    0          56.27637602
         "BPM.30R1.B1"             24969.24                    1            0.3834668   1.483239697419e-08                    0          56.38720683
         "BPM.31R1.B1"             25022.69                    1           -0.8813369   1.483239697419e-08                    0          56.48120541
         "BPM.32R1.B1"             25076.14                    1            0.3880693   1.483239697419e-08                    0          56.64357619
         "BPM.33R1.B1"             25129.59                    1           -0.3424002   1.483239697419e-08                    0          56.77637602
         "BPM.34R1.B1"             25183.04                    1           0.01834659   1.483239697419e-08                    0          56.88720683
         "BPM.33L2.B1"             25236.49                    1            0.2912859   1.483239697419e-08                    0          56.98120541
         "BPM.32L2.B1"             25289.94                    1          0.009971523   1.483239697419e-08                    0          57.14357619
         "BPM.31L2.B1"              25343.4                    1           -0.4055746   1.483239697419e-08                    0          57.27637602
         "BPM.30L2.B1"             25396.85                    1           0.07681374   1.483239697419e-08                    0          57.38720683
         "BPM.29L2.B1"              25450.3                    1            0.2491162   1.483239697419e-08                    0          57.48120541
         "BPM.28L2.B1"             25503.75                    1           0.08811147   1.483239697419e-08                    0          57.64357619
         "BPM.27L2.B1"              25557.2                    1           -0.4368134   1.483239697419e-08                    0          57.77637602
         "BPM.26L2.B1"             25610.65                    1             0.159558   1.483239697419e-08                    0          57.88720683
         "BPM.25L2.B1"              25664.1                    1            0.1139766   1.483239697419e-08                    0          57.98120541
         "BPM.24L2.B1"             25717.56                    1           0.07910399   1.483239697419e-08                    0          58.14357619
         "BPM.23L2.B1"             25771.01                    1           -0.4320836   1.483239697419e-08                    0          58.27637602
         "BPM.22L2.B1"             25824.46                    1            0.1214421   1.483239697419e-08                    0          58.38720683
         "BPM.21L2.B1"             25877.91                    1           0.07970339   1.483239697419e-08                    0          58.48120541
         "BPM.20L2.B1"             25931.36                    1           0.08818718   1.483239697419e-08                    0          58.64357619
         "BPM.19L2.B1"             25984.81                    1           -0.3119574   1.483239697419e-08                    0          58.77637602
         "BPM.18L2.B1"             26038.27                    1            0.3564716   1.483239697419e-08                    0          58.88720683
         "BPM.16L2.B1"             26145.17                    1          -0.05709166   1.483239697419e-08                    0          59.14357619
         "BPM.15L2.B1"             26198.62                    1            0.4123596   1.483239697419e-08                    0          59.27637602
         "BPM.14L2.B1"             26252.07                    1           -0.1778536   1.483239697419e-08                    0          59.38720683
         "BPM.13L2.B1"             26305.52                    1            0.1794023   1.483239697419e-08                    0          59.48120541
         "BPM.12L2.B1"             26358.97                    1          -0.08807892   1.483239697419e-08                    0          59.64153296
         "BPM.11L2.B1"             26412.43                    1          -0.02422031   1.483239697419e-08                    0           59.7824577
         "BPM.10L2.B1"             26464.27                    1            0.9106259   1.483239697419e-08                    0          59.89837284
          "BPM.9L2.B1"             26503.33                    1           -0.8796237   1.483239697419e-08                    0          59.95846002
          "BPM.8L2.B1"              26543.8                    1           -0.9326569   1.483239697419e-08                    0          60.09890435
          "BPM.7L2.B1"             26582.87                    1            0.5805606   1.483239697419e-08                    0          60.19582063
         "BPMR.6L2.B1"             26614.97                    1            0.4223122   1.483239697419e-08                    0          60.25015307