@ GetLLMVersion %s "V3.0.0 Dev"
@ Command %s "/afs/cern.ch/work/o/omc/anaconda/bin/python '/afs/cern.ch/eng/sl/lintrack/Beta-Beat.src/GetLLM/GetLLM.py' '--accel=LHCB1' '--model=/afs/cern.ch/user/t/thpugnat/public/Outputs/2018-09-04/models/LHCB1/b1_squeeze_collQ/twiss.dat' '--files=/afs/cern.ch/user/t/thpugnat/public/Outputs/2018-09-04/LHCB1/Measurements/Beam1@Turn@2018_06_16@17_32_32_233/Beam1@Turn@2018_06_16@17_32_32_233.sdds.clean' '--output=/afs/cern.ch/user/t/thpugnat/public/Outputs/2018-09-04/LHCB1/Results/15-28-20_NORMALANALYSIS_SUSSIX_15' '--tbtana=SUSSIX' '--bpmu=mm' '--lhcphase=1' '--errordefs=/afs/cern.ch/user/t/thpugnat/public/Outputs/2018-09-04/models/LHCB1/b1_squeeze_collQ/error_deff.txt' '--calibration=/afs/cern.ch/eng/sl/lintrack/LHC_commissioning2017/Calibration_factors_2017/Calibration_factors_2017_beam1'"
@ CWD %s "/afs/cern.ch/user/t/thpugnat"
@ Date %s "04. September 2018, 15:28:24"
@ Threshold_for_abs(beta_d-beta_m)/beta_m %le 0.15
@ Threshold_for_uncert(beta_d)/beta_d %le 0.15
@ X_BPMs_Rejected %le 14
@ Y_BPMs_Rejected %le 51
@ FILES %s ""
*                 TIME                  DPP                   QX                QXRMS                   QY                QYRMS                NATQX             NATQXRMS                NATQY             NATQYRMS              sqrt2JX           sqrt2JXSTD              sqrt2JY           sqrt2JYSTD                  2JX               2JXSTD                  2JY               2JYSTD
$                  %le                  %le                  %le                  %le                  %le                  %le                  %le                  %le                  %le                  %le                  %le                  %le                  %le                  %le                  %le                  %le                  %le                  %le
            1529170352                    0       0.302432589824    1.65681207514e-07       0.329821069721    2.26614442369e-07       0.309861660861    0.000249269995467      -0.679017207371        9.96202937215     0.05949172602302     0.00475742919094     0.02867545922838    0.004292248131846    0.003559529220481   0.0006161394844597   0.0008235686491247   0.0003108912017514