@ GetLLMVersion %s "V3.0.0 Dev"
@ Command %s "/afs/cern.ch/work/o/omc/anaconda/bin/python '/afs/cern.ch/eng/sl/lintrack/Beta-Beat.src/GetLLM/GetLLM.py' '--accel=LHCB1' '--model=/afs/cern.ch/user/t/thpugnat/public/Outputs/2018-09-04/models/LHCB1/b1_squeeze_collQ/twiss.dat' '--files=/afs/cern.ch/user/t/thpugnat/public/Outputs/2018-09-04/LHCB1/Measurements/Beam1@Turn@2018_06_16@17_32_32_233/Beam1@Turn@2018_06_16@17_32_32_233.sdds.clean' '--output=/afs/cern.ch/user/t/thpugnat/public/Outputs/2018-09-04/LHCB1/Results/15-28-20_NORMALANALYSIS_SUSSIX_15' '--tbtana=SUSSIX' '--bpmu=mm' '--lhcphase=1' '--errordefs=/afs/cern.ch/user/t/thpugnat/public/Outputs/2018-09-04/models/LHCB1/b1_squeeze_collQ/error_deff.txt' '--calibration=/afs/cern.ch/eng/sl/lintrack/LHC_commissioning2017/Calibration_factors_2017/Calibration_factors_2017_beam1'"
@ CWD %s "/afs/cern.ch/user/t/thpugnat"
@ Date %s "04. September 2018, 15:28:24"
@ Q1 %le 0.3104325894117603
@ MUX %le 63.31043258941172
@ Q2 %le 0.31982106966067353
@ MUY %le 64.31982106966068
@ FILES %s "/afs/cern.ch/user/t/thpugnat/public/Outputs/2018-09-04/LHCB1/Measurements/Beam1@Turn@2018_06_16@17_32_32_233/Beam1@Turn@2018_06_16@17_32_32_233.sdds.clean_linx"
*                 NAME                NAME2                    S                   S1                COUNT               PHASEX               STDPHX               PHXMDL               MUXMDL
$                   %s                   %s                  %le                  %le                  %le                  %le                  %le                  %le                  %le
        "BPMYB.5L2.B1"       "BPMYB.5L2.B1"               28.288               28.288                    1                    0                    0                    0        0.03008760323
        "BPMYB.4L2.B1"       "BPMYB.5L2.B1"               48.858               28.288                    1        0.02953168419                    0        0.02694554429        0.05703314752
        "BPMWI.4L2.B1"       "BPMYB.5L2.B1"              73.3255               28.288                    1        0.07648445065                    0        0.07820303447         0.1082906377
        "BPMSX.4L2.B1"       "BPMYB.5L2.B1"             123.4825               28.288                    1        0.15288801105                    0        0.14726534387         0.1773529471
         "BPMS.2L2.B1"       "BPMYB.5L2.B1"              161.394               28.288                    1        0.20564447615                    0        0.19767018237         0.2277577856
        "BPMSW.1L2.B1"       "BPMYB.5L2.B1"              171.328               28.288                    1        0.22898427695                    0        0.22109611057         0.2511837138
        "BPMSW.1R2.B1"       "BPMYB.5L2.B1"              214.518               28.288                    1      0.8874740789618                    0        0.58305235147         0.6131399547
         "BPMS.2R2.B1"       "BPMYB.5L2.B1"              224.452               28.288                    1      0.9085089385618                    0        0.60099798187         0.6310855851
        "BPMSX.4R2.B1"       "BPMYB.5L2.B1"             262.3635               28.288                    1      0.9526734303618                    0        0.64452686697         0.6746144702
        "BPMWB.4R2.B1"       "BPMYB.5L2.B1"             312.5965               28.288                    1     0.03654140226176                    0        0.72600109757         0.7560887008
        "BPMYB.4R2.B1"       "BPMYB.5L2.B1"              336.988               28.288                    1     0.07015955876176                    0        0.76084705267         0.7909346559
         "BPMR.5R2.B1"       "BPMYB.5L2.B1"              366.522               28.288                    1      0.1683757297618                    0        0.86013361807         0.8902212213
          "BPM.6R2.B1"       "BPMYB.5L2.B1"              439.818               28.288                    1      0.3223468419618                    0        0.01816823677           1.04825584
        "BPM_A.7R2.B1"       "BPMYB.5L2.B1"              452.693               28.288                    1      0.3379734829618                    0        0.03519863177          1.065286235
          "BPM.8R2.B1"       "BPMYB.5L2.B1"               494.13               28.288                    1      0.4236123289618                    0        0.11809083777          1.148178441
          "BPM.9R2.B1"       "BPMYB.5L2.B1"              533.195               28.288                    1      0.5744759099618                    0        0.26810519577          1.298192799
         "BPM.10R2.B1"       "BPMYB.5L2.B1"              573.658               28.288                    1      0.7420188829618                    0        0.43839678477          1.468484388
         "BPM.11R2.B1"       "BPMYB.5L2.B1"             625.4967               28.288                    1      0.8509011729618                    0        0.54765081577          1.577738419
         "BPM.12R2.B1"       "BPMYB.5L2.B1"             680.2203               28.288                    1      0.9884411419618                    0        0.68451262677           1.71460023
         "BPM.13R2.B1"       "BPMYB.5L2.B1"             733.6688               28.288                    1      0.1006245489618                    0        0.79801851177          1.828106115
         "BPM.14R2.B1"       "BPMYB.5L2.B1"             787.1173               28.288                    1      0.2398713729618                    0        0.93571037877          1.965797982
         "BPM.15R2.B1"       "BPMYB.5L2.B1"             840.5658               28.288                    1      0.3522757539618                    0        0.04793055077          2.078018154
         "BPM.16R2.B1"       "BPMYB.5L2.B1"             894.0143               28.288                    1      0.4879182769618                    0        0.18252329777          2.212610901
         "BPM.17R2.B1"       "BPMYB.5L2.B1"             947.4628               28.288                    1      0.6033228599618                    0        0.29832854077          2.328416144
         "BPM.18R2.B1"       "BPMYB.5L2.B1"             1000.911               28.288                    1      0.7426548359618                    0        0.43601504577          2.466102649
         "BPM.19R2.B1"       "BPMYB.5L2.B1"              1054.36               28.288                    1      0.8550824869618                    0        0.54823017477          2.578317778
         "BPM.20R2.B1"       "BPMYB.5L2.B1"             1107.808               28.288                    1      0.9915868729618                    0        0.68283072677           2.71291833
         "BPM.21R2.B1"       "BPMYB.5L2.B1"             1161.257               28.288                    1      0.1060683869618                    0        0.79864126677           2.82872887
         "BPM.22R2.B1"       "BPMYB.5L2.B1"             1214.705               28.288                    1      0.2439767959618                    0        0.93631968877          2.966407292
         "BPM.23R2.B1"       "BPMYB.5L2.B1"             1268.154               28.288                    1      0.3583365729618                    0        0.05142035977          3.081507963
         "BPM.24R2.B1"       "BPMYB.5L2.B1"             1321.602               28.288                    1      0.4950127569618                    0        0.18910133877          3.219188942
         "BPM.25R2.B1"       "BPMYB.5L2.B1"             1375.051               28.288                    1      0.6107625089618                    0        0.30421372977          3.334301333
         "BPM.26R2.B1"       "BPMYB.5L2.B1"             1428.499               28.288                    1      0.7493219099618                    0        0.44189086577          3.471978469
         "BPM.27R2.B1"       "BPMYB.5L2.B1"             1481.948               28.288                    1      0.8634150079618                    0        0.55699165477          3.587079258
         "BPM.28R2.B1"       "BPMYB.5L2.B1"             1535.397               28.288                    1  -0.0004761740382357                    0        0.69467309977          3.724760703
         "BPM.29R2.B1"       "BPMYB.5L2.B1"             1588.845               28.288                    1      0.1157556449618                    0        0.80978535977          3.839872963
         "BPM.30R2.B1"       "BPMYB.5L2.B1"             1642.294               28.288                    1      0.2533795279618                    0        0.94746203477          3.977549638
         "BPM.31R2.B1"       "BPMYB.5L2.B1"             1695.742               28.288                    1      0.3657155829618                    0        0.06256296777          4.092650571
         "BPM.32R2.B1"       "BPMYB.5L2.B1"             1749.191               28.288                    1      0.5035421549618                    0        0.20024486977          4.230332473
         "BPM.33R2.B1"       "BPMYB.5L2.B1"             1802.639               28.288                    1      0.6194464239618                    0        0.31535697077          4.345444574
         "BPM.34R2.B1"       "BPMYB.5L2.B1"             1856.088               28.288                    1      0.7581480429618                    0        0.45303319577          4.483120799
         "BPM.33L3.B1"       "BPMYB.5L2.B1"             1909.536               28.288                    1      0.8716020819618                    0        0.56813430177          4.598221905
         "BPM.32L3.B1"       "BPMYB.5L2.B1"             1962.985               28.288                    1    0.009723173961765                    0        0.70581664677           4.73590425
         "BPM.31L3.B1"       "BPMYB.5L2.B1"             2016.433               28.288                    1      0.1254496849618                    0        0.82092856077          4.851016164
         "BPM.30L3.B1"       "BPMYB.5L2.B1"             2069.882               28.288                    1      0.2633508169618                    0        0.95860435077          4.988691954
         "BPM.29L3.B1"       "BPMYB.5L2.B1"              2123.33               28.288                    1      0.3780220909618                    0        0.07370565677           5.10379326
         "BPM.28L3.B1"       "BPMYB.5L2.B1"             2176.779               28.288                    1      0.5132426199618                    0        0.21138842877          5.241476032
         "BPM.27L3.B1"       "BPMYB.5L2.B1"             2230.227               28.288                    1      0.6297990069618                    0        0.32650012977          5.356587733
         "BPM.26L3.B1"       "BPMYB.5L2.B1"             2283.676               28.288                    1      0.7667296439618                    0        0.46417550177          5.494263105
         "BPM.25L3.B1"       "BPMYB.5L2.B1"             2337.124               28.288                    1      0.8802235009618                    0        0.57927703277          5.609364636
         "BPM.24L3.B1"       "BPMYB.5L2.B1"             2390.573               28.288                    1     0.01608333396176                    0        0.71696021377          5.747047817
         "BPM.23L3.B1"       "BPMYB.5L2.B1"             2444.021               28.288                    1      0.1318191099618                    0        0.83207167777          5.862159281
         "BPM.22L3.B1"       "BPMYB.5L2.B1"              2497.47               28.288                    1      0.2703003119618                    0        0.96974664977          5.999834253
         "BPM.21L3.B1"       "BPMYB.5L2.B1"             2550.918               28.288                    1      0.3832477009618                    0        0.08484843077          6.114936034
         "BPM.20L3.B1"       "BPMYB.5L2.B1"             2604.367               28.288                    1      0.5200254979618                    0        0.22337597477          6.253463578
         "BPM.19L3.B1"       "BPMYB.5L2.B1"             2657.815               28.288                    1      0.6360919319618                    0        0.33626128977          6.366348893
         "BPM.18L3.B1"       "BPMYB.5L2.B1"             2711.264               28.288                    1      0.7706110269618                    0        0.47005130977          6.500138913
         "BPM.17L3.B1"       "BPMYB.5L2.B1"             2764.712               28.288                    1      0.8846047769618                    0        0.58516100977          6.615248613
         "BPM.16L3.B1"       "BPMYB.5L2.B1"             2818.161               28.288                    1     0.02279201396176                    0        0.72368350777          6.753771111
         "BPM.15L3.B1"       "BPMYB.5L2.B1"             2871.609               28.288                    1      0.1374852589618                    0        0.83656103277          6.866648636
         "BPM.14L3.B1"       "BPMYB.5L2.B1"             2925.058               28.288                    1      0.2747097079618                    0        0.97035586177          7.000443465
         "BPM.13L3.B1"       "BPMYB.5L2.B1"             2978.506               28.288                    1      0.3884525079618                    0        0.08547359977          7.115561203
         "BPM.12L3.B1"       "BPMYB.5L2.B1"             3031.955               28.288                    1      0.5225770199618                    0        0.22256638677           7.25265399
         "BPM.11L3.B1"       "BPMYB.5L2.B1"             3085.403               28.288                    1      0.6516120179618                    0        0.34902682377          7.379114427
         "BPM.10L3.B1"       "BPMYB.5L2.B1"             3138.184               28.288                    1      0.8014184249618                    0        0.49810219477          7.528189798
          "BPM.8L3.B1"       "BPMYB.5L2.B1"             3217.712               28.288                    1      0.9374892959618                    0        0.63572901577          7.665816619
          "BPM.7L3.B1"       "BPMYB.5L2.B1"             3256.776               28.288                    1   -0.004722084038236                    0        0.69467807277          7.724765676
          "BPM.6L3.B1"       "BPMYB.5L2.B1"             3329.415               28.288                    1      0.1081185529618                    0        0.80682850177          7.836916105
       "BPMWG.A5L3.B1"       "BPMYB.5L2.B1"              3371.12               28.288                    1      0.1655456199618                    0        0.86391288977          7.894000493
         "BPMW.5L3.B1"       "BPMYB.5L2.B1"              3400.09               28.288                    1      0.2469707889618                    0        0.94726857877          7.977356182
        "BPMWE.4L3.B1"       "BPMYB.5L2.B1"             3475.218               28.288                    1      0.3516318469618                    0        0.05063745377          8.080725057
         "BPMW.4L3.B1"       "BPMYB.5L2.B1"             3502.763               28.288                    1      0.3670446919618                    0        0.06584036477          8.095927968
         "BPMW.4R3.B1"       "BPMYB.5L2.B1"             3547.728               28.288                    1      0.4357530709618                    0        0.13599151377          8.166079117
        "BPMWE.4R3.B1"       "BPMYB.5L2.B1"             3575.273               28.288                    1      0.5819885669618                    0        0.28363976377          8.313727367
         "BPMW.5R3.B1"       "BPMYB.5L2.B1"             3650.401               28.288                    1      0.7139736359618                    0        0.41316783177          8.443255435
       "BPMWJ.A5R3.B1"       "BPMYB.5L2.B1"             3679.119               28.288                    1      0.7277430099618                    0        0.42579431077          8.455881914
        "BPMWC.6R3.B1"       "BPMYB.5L2.B1"             3718.937               28.288                    1      0.7732680699618                    0        0.47168597677           8.50177358
         "BPMR.6R3.B1"       "BPMYB.5L2.B1"             3731.015               28.288                    1      0.8130117579618                    0        0.51179537777          8.541882981
          "BPM.8R3.B1"       "BPMYB.5L2.B1"             3825.903               28.288                    1      0.1099582039618                    0        0.81127487877          8.841362482
          "BPM.9R3.B1"       "BPMYB.5L2.B1"             3864.968               28.288                    1      0.2172249749618                    0        0.91540576577          8.945493369
         "BPM.10R3.B1"       "BPMYB.5L2.B1"             3905.431               28.288                    1      0.2913042689618                    0        0.99013632077          9.020223924
         "BPM.11R3.B1"       "BPMYB.5L2.B1"             3958.212               28.288                    1      0.3826694019618                    0        0.08318885677           9.11327646
         "BPM.12R3.B1"       "BPMYB.5L2.B1"             4012.935               28.288                    1      0.4824530549618                    0        0.18397364977          9.214061253
         "BPM.13R3.B1"       "BPMYB.5L2.B1"             4066.384               28.288                    1      0.5988187529618                    0        0.30079043077          9.330878034
         "BPM.14R3.B1"       "BPMYB.5L2.B1"             4119.833               28.288                    1      0.7143079039618                    0        0.41588083377          9.445968437
         "BPM.15R3.B1"       "BPMYB.5L2.B1"             4173.281               28.288                    1      0.8504509479618                    0        0.55440809477          9.584495698
         "BPM.17R3.B1"       "BPMYB.5L2.B1"             4280.178               28.288                    1      0.1007492229618                    0        0.80109428177          9.831181885
         "BPM.18R3.B1"       "BPMYB.5L2.B1"             4333.627               28.288                    1      0.2169199769618                    0        0.91619338877          9.946280992
         "BPM.19R3.B1"       "BPMYB.5L2.B1"             4387.075               28.288                    1      0.3533914519618                    0        0.05471564677          10.08480325
         "BPM.20R3.B1"       "BPMYB.5L2.B1"             4440.524               28.288                    1      0.4651391819618                    0        0.16760360677          10.19769121
         "BPM.21R3.B1"       "BPMYB.5L2.B1"             4493.972               28.288                    1      0.6029154619618                    0        0.30139881677          10.33148642
         "BPM.22R3.B1"       "BPMYB.5L2.B1"             4547.421               28.288                    1      0.7190686419618                    0        0.41650595677          10.44659356
         "BPM.23R3.B1"       "BPMYB.5L2.B1"             4600.869               28.288                    1      0.8577731119618                    0        0.55417928677          10.58426689
         "BPM.24R3.B1"       "BPMYB.5L2.B1"             4654.318               28.288                    1      0.9709043019618                    0        0.66928530677          10.69937291
         "BPM.25R3.B1"       "BPMYB.5L2.B1"             4707.766               28.288                    1      0.1069553819618                    0        0.80697034677          10.83705795
         "BPM.26R3.B1"       "BPMYB.5L2.B1"             4761.215               28.288                    1      0.2238347419618                    0        0.92207726677          10.95216487
         "BPM.27R3.B1"       "BPMYB.5L2.B1"             4814.663               28.288                    1      0.3632123719618                    0        0.05975055677          11.08983816
         "BPM.28R3.B1"       "BPMYB.5L2.B1"             4868.112               28.288                    1      0.4761798219618                    0        0.17485693677          11.20494454
         "BPM.29R3.B1"       "BPMYB.5L2.B1"              4921.56               28.288                    1      0.6123602519618                    0        0.31254199677           11.3426296
         "BPM.30R3.B1"       "BPMYB.5L2.B1"             4975.009               28.288                    1      0.7304278119618                    0        0.42764855677          11.45773616
         "BPM.31R3.B1"       "BPMYB.5L2.B1"             5028.457               28.288                    1      0.8664792119618                    0        0.56532184677          11.59540945
         "BPM.32R3.B1"       "BPMYB.5L2.B1"             5081.906               28.288                    1      0.9800502219618                    0        0.68042858677          11.71051619
         "BPM.33R3.B1"       "BPMYB.5L2.B1"             5135.354               28.288                    1      0.1177734519618                    0        0.81811363677          11.84820124
         "BPM.34R3.B1"       "BPMYB.5L2.B1"             5188.803               28.288                    1      0.2342927519618                    0        0.93321983677          11.96330744
         "BPM.33L4.B1"       "BPMYB.5L2.B1"             5242.251               28.288                    1      0.3696087419618                    0        0.07089314677          12.10098075
         "BPM.32L4.B1"       "BPMYB.5L2.B1"               5295.7               28.288                    1      0.4857521119618                    0        0.18600024677          12.21608785
         "BPM.31L4.B1"       "BPMYB.5L2.B1"             5349.148               28.288                    1      0.6233321919618                    0        0.32368526677          12.35377287
         "BPM.30L4.B1"       "BPMYB.5L2.B1"             5402.597               28.288                    1      0.7395942889618                    0        0.43879110677          12.46887871
         "BPM.29L4.B1"       "BPMYB.5L2.B1"             5456.045               28.288                    1      0.8756387219618                    0        0.57646446677          12.60655207
         "BPM.28L4.B1"       "BPMYB.5L2.B1"             5509.494               28.288                    1      0.9911809219618                    0        0.69157191677          12.72165952
         "BPM.27L4.B1"       "BPMYB.5L2.B1"             5562.942               28.288                    1      0.1297579119618                    0        0.82925687677          12.85934448
         "BPM.26L4.B1"       "BPMYB.5L2.B1"             5616.391               28.288                    1      0.2435563419618                    0        0.94436236677          12.97444997
         "BPM.25L4.B1"       "BPMYB.5L2.B1"             5669.839               28.288                    1      0.3790526819618                    0        0.08203580677          13.11212341
         "BPM.24L4.B1"       "BPMYB.5L2.B1"             5723.288               28.288                    1      0.4953644319618                    0        0.19714360677          13.22723121
         "BPM.22L4.B1"       "BPMYB.5L2.B1"             5830.185               28.288                    1      0.7493480569618                    0        0.44993360677          13.48002121
         "BPM.21L4.B1"       "BPMYB.5L2.B1"             5883.634               28.288                    1      0.8838467519618                    0        0.58760715677          13.61769476
         "BPM.19L4.B1"       "BPMYB.5L2.B1"             5990.531               28.288                    1      0.1372040719618                    0        0.83443706677          13.86452467
         "BPM.18L4.B1"       "BPMYB.5L2.B1"             6043.979               28.288                    1      0.2517289219618                    0        0.95024549677           13.9803331
         "BPM.17L4.B1"       "BPMYB.5L2.B1"             6097.428               28.288                    1      0.3868810619618                    0        0.08791178677          14.11799939
         "BPM.16L4.B1"       "BPMYB.5L2.B1"             6150.876               28.288                    1      0.4998538319618                    0        0.20012416677          14.23021177
         "BPM.15L4.B1"       "BPMYB.5L2.B1"             6204.325               28.288                    1      0.6387200019618                    0        0.33474453677          14.36483214
         "BPM.14L4.B1"       "BPMYB.5L2.B1"             6257.773               28.288                    1      0.7544662549618                    0        0.45055819677           14.4806458
         "BPM.13L4.B1"       "BPMYB.5L2.B1"             6311.222               28.288                    1      0.8890156319618                    0        0.58821638677          14.61830399
         "BPM.12L4.B1"       "BPMYB.5L2.B1"              6364.67               28.288                    1    0.002047041961767                    0        0.70137788677          14.73146549
         "BPM.11L4.B1"       "BPMYB.5L2.B1"             6418.119               28.288                    1      0.1410249219618                    0        0.83832524677          14.86841285
         "BPM.10L4.B1"       "BPMYB.5L2.B1"             6469.957               28.288                    1      0.2573819919618                    0        0.95552296677          14.98561057
          "BPM.9L4.B1"       "BPMYB.5L2.B1"             6509.022               28.288                    1      0.3837901919618                    0        0.08293221677          15.11301982
          "BPM.8L4.B1"       "BPMYB.5L2.B1"             6549.485               28.288                    1      0.5049911019618                    0        0.21107545677          15.24116306
          "BPM.7L4.B1"       "BPMYB.5L2.B1"             6588.549               28.288                    1      0.6730077919618                    0        0.38404256677          15.41413017
        "BPMYB.6L4.B1"       "BPMYB.5L2.B1"             6685.153               28.288                    1      0.8265287519618                    0        0.52739880677          15.55748641
        "BPMYA.5L4.B1"       "BPMYB.5L2.B1"             6722.153               28.288                    1      0.8537546019618                    0        0.55311980677          15.58320741
       "BPMWI.A5L4.B1"       "BPMYB.5L2.B1"             6798.756               28.288                    1      0.8853223119618                    0        0.58506795677          15.61515556
       "BPMWA.B5L4.B1"       "BPMYB.5L2.B1"              6824.62               28.288                    1      0.9000954319618                    0        0.59899161677          15.62907922
       "BPMWA.A5L4.B1"       "BPMYB.5L2.B1"             6833.505               28.288                    1      0.9052123619618                    0        0.60419414677          15.63428175
       "BPMWA.A5R4.B1"       "BPMYB.5L2.B1"             6881.554               28.288                    1      0.9377876719618                    0        0.63611131677          15.66619892
       "BPMWA.B5R4.B1"       "BPMYB.5L2.B1"             6890.439               28.288                    1      0.9436118319618                    0        0.64267635677          15.67276396
        "BPMYB.5R4.B1"       "BPMYB.5L2.B1"             6992.829               28.288                    1     0.02803974196177                    0        0.72519749677           15.7552851
        "BPMYA.6R4.B1"       "BPMYB.5L2.B1"             7024.393               28.288                    1     0.04296795196177                    0        0.74014801677          15.77023562
          "BPM.7R4.B1"       "BPMYB.5L2.B1"             7120.909               28.288                    1      0.1704880419618                    0        0.87042048677          15.90050809
          "BPM.8R4.B1"       "BPMYB.5L2.B1"             7158.698               28.288                    1      0.3147597519618                    0        0.01546492677          16.04555253
          "BPM.9R4.B1"       "BPMYB.5L2.B1"             7197.763               28.288                    1      0.4991019619618                    0        0.19651737677          16.22660498
         "BPM.11R4.B1"       "BPMYB.5L2.B1"             7290.065               28.288                    1      0.7222929219618                    0        0.42584962677          16.45593723
         "BPM.12R4.B1"       "BPMYB.5L2.B1"             7344.789               28.288                    1      0.8800992619618                    0        0.58104864677          16.61113625
         "BPM.13R4.B1"       "BPMYB.5L2.B1"             7398.237               28.288                    1     0.01873325196176                    0        0.72042697677          16.75051458
         "BPM.14R4.B1"       "BPMYB.5L2.B1"             7451.686               28.288                    1      0.1358922419618                    0        0.83918555677          16.86927316
         "BPM.15R4.B1"       "BPMYB.5L2.B1"             7505.134               28.288                    1      0.2241954219618                    0        0.92832666677          16.95841427
         "BPM.16R4.B1"       "BPMYB.5L2.B1"             7558.583               28.288                    1      0.3812784219618                    0        0.07811298677          17.10820059
         "BPM.17R4.B1"       "BPMYB.5L2.B1"             7612.031               28.288                    1      0.5234596319618                    0        0.22038556677          17.25047317
         "BPM.18R4.B1"       "BPMYB.5L2.B1"              7665.48               28.288                    1      0.6390262319618                    0        0.33915833677          17.36924594
         "BPM.19R4.B1"       "BPMYB.5L2.B1"             7718.928               28.288                    1      0.7304684519618                    0        0.42829531677          17.45838292
         "BPM.20R4.B1"       "BPMYB.5L2.B1"             7772.377               28.288                    1      0.8864902219618                    0        0.57806545677          17.60815306
         "BPM.21R4.B1"       "BPMYB.5L2.B1"             7825.825               28.288                    1     0.02610098196176                    0        0.72034693677          17.75043454
         "BPM.22R4.B1"       "BPMYB.5L2.B1"             7879.274               28.288                    1      0.1417407219618                    0        0.83913112677          17.86921873
         "BPM.23R4.B1"       "BPMYB.5L2.B1"             7932.722               28.288                    1      0.2310190119618                    0        0.92826397677          17.95835158
         "BPM.24R4.B1"       "BPMYB.5L2.B1"             7986.171               28.288                    1      0.3840258019618                    0        0.07801792677          18.10810553
         "BPM.26R4.B1"       "BPMYB.5L2.B1"             8093.068               28.288                    1      0.6405428219618                    0        0.33910391677          18.36919152
         "BPM.27R4.B1"       "BPMYB.5L2.B1"             8146.516               28.288                    1      0.7266409919618                    0        0.42823263677          18.45832024
         "BPM.28R4.B1"       "BPMYB.5L2.B1"             8199.965               28.288                    1      0.8784107819618                    0        0.57797038677          18.60805799
         "BPM.29R4.B1"       "BPMYB.5L2.B1"             8253.413               28.288                    1     0.02220904196176                    0        0.72026963677          18.75035724
         "BPM.32R4.B1"       "BPMYB.5L2.B1"             8413.759               28.288                    1      0.3745871719618                    0        0.07792285677          19.10801046
         "BPM.33R4.B1"       "BPMYB.5L2.B1"             8467.208               28.288                    1      0.5188804719618                    0        0.22023098677          19.25031859
         "BPM.34R4.B1"       "BPMYB.5L2.B1"             8520.656               28.288                    1      0.6372815919618                    0        0.33904948677          19.36913709
         "BPM.33L5.B1"       "BPMYB.5L2.B1"             8574.105               28.288                    1      0.7234284819618                    0        0.42816996677          19.45825757
         "BPM.32L5.B1"       "BPMYB.5L2.B1"             8627.553               28.288                    1      0.8709192719618                    0        0.57787533677          19.60796294
         "BPM.31L5.B1"       "BPMYB.5L2.B1"             8681.002               28.288                    1     0.01449621196176                    0        0.72019232677          19.75027993
         "BPM.30L5.B1"       "BPMYB.5L2.B1"              8734.45               28.288                    1      0.1340619819618                    0        0.83902226677          19.86910987
         "BPM.29L5.B1"       "BPMYB.5L2.B1"             8787.899               28.288                    1      0.2194916919618                    0        0.92813863677          19.95822624
         "BPM.28L5.B1"       "BPMYB.5L2.B1"             8841.347               28.288                    1      0.3682934619618                    0        0.07782780677          20.10791541
         "BPM.26L5.B1"       "BPMYB.5L2.B1"             8948.244               28.288                    1      0.6321384719618                    0        0.33899504677          20.36908265
         "BPM.25L5.B1"       "BPMYB.5L2.B1"             9001.693               28.288                    1      0.7182424119618                    0        0.42810731677          20.45819492
         "BPM.24L5.B1"       "BPMYB.5L2.B1"             9055.141               28.288                    1      0.8655210619618                    0        0.57778028677          20.60786789
         "BPM.23L5.B1"       "BPMYB.5L2.B1"              9108.59               28.288                    1     0.01166647196176                    0        0.72011498677          20.75020259
         "BPM.22L5.B1"       "BPMYB.5L2.B1"             9162.038               28.288                    1      0.1317344619618                    0        0.83896783677          20.86905544
         "BPM.21L5.B1"       "BPMYB.5L2.B1"             9215.487               28.288                    1      0.2178341819618                    0        0.92807598677          20.95816359
         "BPM.20L5.B1"       "BPMYB.5L2.B1"             9268.935               28.288                    1      0.3658419519618                    0        0.07773276677          21.10782037
         "BPM.19L5.B1"       "BPMYB.5L2.B1"             9322.384               28.288                    1      0.5138782019618                    0        0.22007631677          21.25016392
         "BPM.18L5.B1"       "BPMYB.5L2.B1"             9375.832               28.288                    1      0.6342852519618                    0        0.33894061677          21.36902822
         "BPM.17L5.B1"       "BPMYB.5L2.B1"             9429.281               28.288                    1      0.7230088619618                    0        0.42804466677          21.45813227
         "BPM.16L5.B1"       "BPMYB.5L2.B1"             9482.729               28.288                    1      0.8712242519618                    0        0.57768524677          21.60777285
         "BPM.15L5.B1"       "BPMYB.5L2.B1"             9536.178               28.288                    1     0.01773793196176                    0        0.72003763677          21.75012524
         "BPM.14L5.B1"       "BPMYB.5L2.B1"             9589.626               28.288                    1      0.1374653319618                    0        0.83891339677            21.869001
         "BPM.13L5.B1"       "BPMYB.5L2.B1"             9643.075               28.288                    1      0.2257132719618                    0        0.92801335677          21.95810096
         "BPM.12L5.B1"       "BPMYB.5L2.B1"             9696.523               28.288                    1      0.3769773519618                    0        0.08006182677          22.11014943
         "BPM.11L5.B1"       "BPMYB.5L2.B1"             9749.972               28.288                    1      0.5132191719618                    0        0.21537770677          22.24546531
         "BPM.10L5.B1"       "BPMYB.5L2.B1"             9802.753               28.288                    1      0.6290754719618                    0        0.33210063677          22.36218824
          "BPM.9L5.B1"       "BPMYB.5L2.B1"             9841.818               28.288                    1      0.7143451619618                    0        0.41508155677          22.44516916
          "BPM.8L5.B1"       "BPMYB.5L2.B1"             9882.281               28.288                    1      0.9306797219618                    0        0.62124882677          22.65133643
         "BPMR.7L5.B1"       "BPMYB.5L2.B1"             9921.347               28.288                    1     0.04496795196176                    0        0.73870038677          22.76878799
          "BPM.6L5.B1"       "BPMYB.5L2.B1"             9958.241               28.288                    1      0.1318753619618                    0        0.82783678677          22.85792439
         "BPMR.5L5.B1"       "BPMYB.5L2.B1"             9990.141               28.288                    1      0.1457228619618                    0        0.84127467677          22.87136228
        "BPMYA.4L5.B1"       "BPMYB.5L2.B1"             10017.55               28.288                    1      0.1505548919618                    0        0.84606950677          22.87615711
        "BPMWB.4L5.B1"       "BPMYB.5L2.B1"             10038.68               28.288                    1      0.1526698519618                    0        0.84817431677          22.87826192
        "BPMSY.4L5.B1"       "BPMYB.5L2.B1"             10131.46               28.288                    1      0.1590690219618                    0        0.85430311677          22.88439072
         "BPMS.2L5.B1"       "BPMYB.5L2.B1"             10158.25               28.288                    1      0.1598922119618                    0        0.85515976677          22.88524737
        "BPMSW.1L5.B1"       "BPMYB.5L2.B1"             10168.21               28.288                    1      0.1604564819618                    0        0.85578732677          22.88587493
         "BPMS.2R5.B1"       "BPMYB.5L2.B1"              10221.3               28.288                    1      0.6569658119618                    0        0.35216544677          23.38225305
        "BPMWB.4R5.B1"       "BPMYB.5L2.B1"             10340.87               28.288                    1      0.6638381219618                    0        0.35880780677          23.38889541
        "BPMYA.4R5.B1"       "BPMYB.5L2.B1"                10362               28.288                    1      0.6683110419618                    0        0.36349356677          23.39358117
          "BPM.5R5.B1"       "BPMYB.5L2.B1"             10383.12               28.288                    1      0.6789885219618                    0        0.37368126677          23.40376887
         "BPMR.6R5.B1"       "BPMYB.5L2.B1"             10415.02               28.288                    1      0.8207090019618                    0        0.51828777677          23.54837538
        "BPM_A.7R5.B1"       "BPMYB.5L2.B1"             10449.03               28.288                    1      0.1243339219618                    0        0.82009078677          23.85017839
          "BPM.8R5.B1"       "BPMYB.5L2.B1"             10490.47               28.288                    1      0.2125113419618                    0        0.90843895677          23.93852656
          "BPM.9R5.B1"       "BPMYB.5L2.B1"             10529.54               28.288                    1      0.4333146019618                    0        0.13505091677          24.16513852
         "BPM.10R5.B1"       "BPMYB.5L2.B1"             10570.01               28.288                    1      0.5432069819618                    0        0.24200766677          24.27209527
         "BPM.11R5.B1"       "BPMYB.5L2.B1"             10622.79               28.288                    1      0.6462461219618                    0        0.34377480677          24.37386241
         "BPM.12R5.B1"       "BPMYB.5L2.B1"             10677.51               28.288                    1      0.7352094619618                    0        0.43190065677          24.46198826
         "BPM.13R5.B1"       "BPMYB.5L2.B1"             10730.97               28.288                    1      0.8817545319618                    0        0.57899328677          24.60908089
         "BPM.14R5.B1"       "BPMYB.5L2.B1"             10784.42               28.288                    1     0.02324985196176                    0        0.72110805677          24.75119566
         "BPM.16R5.B1"       "BPMYB.5L2.B1"             10891.32               28.288                    1      0.2295121419618                    0        0.92889844677          24.95898605
         "BPM.17R5.B1"       "BPMYB.5L2.B1"             10944.77               28.288                    1      0.3769115319618                    0        0.07899313677          25.10908074
         "BPM.18R5.B1"       "BPMYB.5L2.B1"             10998.22               28.288                    1      0.5188901519618                    0        0.22110805677          25.25119566
         "BPM.19R5.B1"       "BPMYB.5L2.B1"             11051.68               28.288                    1      0.6387172119618                    0        0.33967549677           25.3697631
         "BPM.20R5.B1"       "BPMYB.5L2.B1"             11105.13               28.288                    1      0.7277068519618                    0        0.42889844677          25.45898605
         "BPM.22R5.B1"       "BPMYB.5L2.B1"             11212.03               28.288                    1     0.01717105196176                    0        0.72110805677          25.75119566
         "BPM.23R5.B1"       "BPMYB.5L2.B1"             11265.48               28.288                    1      0.1366283119618                    0        0.83967549677           25.8697631
         "BPM.24R5.B1"       "BPMYB.5L2.B1"             11318.93               28.288                    1      0.2269494419618                    0        0.92889844677          25.95898605
         "BPM.25R5.B1"       "BPMYB.5L2.B1"             11372.38               28.288                    1      0.3775482319618                    0        0.07899313677          26.10908074
         "BPM.26R5.B1"       "BPMYB.5L2.B1"             11425.84               28.288                    1      0.5186906519618                    0        0.22110805677          26.25119566
         "BPM.27R5.B1"       "BPMYB.5L2.B1"             11479.29               28.288                    1      0.6374813119618                    0        0.33967549677           26.3697631
         "BPM.28R5.B1"       "BPMYB.5L2.B1"             11532.74               28.288                    1      0.7279619819618                    0        0.42889844677          26.45898605
         "BPM.29R5.B1"       "BPMYB.5L2.B1"             11586.19               28.288                    1      0.8802842319618                    0        0.57899313677          26.60908074
         "BPM.30R5.B1"       "BPMYB.5L2.B1"             11639.64               28.288                    1     0.01976775196176                    0        0.72110805677          26.75119566
         "BPM.31R5.B1"       "BPMYB.5L2.B1"             11693.09               28.288                    1      0.1372243119618                    0        0.83967549677           26.8697631
         "BPM.32R5.B1"       "BPMYB.5L2.B1"             11746.54               28.288                    1      0.2297669419618                    0        0.92889844677          26.95898605
         "BPM.33R5.B1"       "BPMYB.5L2.B1"                11800               28.288                    1      0.3848183319618                    0        0.07899313677          27.10908074
         "BPM.34R5.B1"       "BPMYB.5L2.B1"             11853.45               28.288                    1      0.5227217519618                    0        0.22110805677          27.25119566
         "BPM.33L6.B1"       "BPMYB.5L2.B1"              11906.9               28.288                    1      0.6375258119618                    0        0.33967549677           27.3697631
         "BPM.32L6.B1"       "BPMYB.5L2.B1"             11960.35               28.288                    1      0.7307112919618                    0        0.42889844677          27.45898605
         "BPM.30L6.B1"       "BPMYB.5L2.B1"             12067.25               28.288                    1     0.02295845196176                    0        0.72110805677          27.75119566
         "BPM.29L6.B1"       "BPMYB.5L2.B1"              12120.7               28.288                    1      0.1380641119618                    0        0.83967549677           27.8697631
         "BPM.28L6.B1"       "BPMYB.5L2.B1"             12174.16               28.288                    1      0.2297859419618                    0        0.92889844677          27.95898605
         "BPM.27L6.B1"       "BPMYB.5L2.B1"             12227.61               28.288                    1      0.3887745319618                    0        0.07899313677          28.10908074
         "BPM.26L6.B1"       "BPMYB.5L2.B1"             12281.06               28.288                    1      0.5238948519618                    0        0.22110805677          28.25119566
         "BPM.25L6.B1"       "BPMYB.5L2.B1"             12334.51               28.288                    1      0.6387852119618                    0        0.33967549677           28.3697631
         "BPM.24L6.B1"       "BPMYB.5L2.B1"             12387.96               28.288                    1      0.7314702919618                    0        0.42889844677          28.45898605
         "BPM.22L6.B1"       "BPMYB.5L2.B1"             12494.87               28.288                    1     0.02481965196176                    0        0.72110805677          28.75119566
         "BPM.21L6.B1"       "BPMYB.5L2.B1"             12548.32               28.288                    1      0.1402187119618                    0        0.83967549677           28.8697631
         "BPM.20L6.B1"       "BPMYB.5L2.B1"             12601.77               28.288                    1      0.2305673419618                    0        0.92889844677          28.95898605
         "BPM.19L6.B1"       "BPMYB.5L2.B1"             12655.22               28.288                    1      0.3797710319618                    0        0.07899313677          29.10908074
         "BPM.18L6.B1"       "BPMYB.5L2.B1"             12708.67               28.288                    1      0.5202327519618                    0        0.22110805677          29.25119566
         "BPM.17L6.B1"       "BPMYB.5L2.B1"             12762.12               28.288                    1      0.6384050119618                    0        0.33967549677           29.3697631
         "BPM.16L6.B1"       "BPMYB.5L2.B1"             12815.57               28.288                    1      0.7273843019618                    0        0.42889844677          29.45898605
         "BPM.15L6.B1"       "BPMYB.5L2.B1"             12869.03               28.288                    1      0.8745921319618                    0        0.57899313677          29.60908074
         "BPM.14L6.B1"       "BPMYB.5L2.B1"             12922.48               28.288                    1     0.01470415196176                    0        0.72110805677          29.75119566
         "BPM.13L6.B1"       "BPMYB.5L2.B1"             12975.93               28.288                    1      0.1351524119618                    0        0.83967549677           29.8697631
         "BPM.12L6.B1"       "BPMYB.5L2.B1"             13029.38               28.288                    1      0.2268198819618                    0        0.92898870677          29.95907631
         "BPM.11L6.B1"       "BPMYB.5L2.B1"             13082.83               28.288                    1      0.3741953419618                    0        0.07547084677          30.10555845
         "BPM.10L6.B1"       "BPMYB.5L2.B1"             13134.67               28.288                    1      0.5168122419618                    0        0.21924727677          30.24933488
          "BPM.9L6.B1"       "BPMYB.5L2.B1"             13173.74               28.288                    1      0.6205690619618                    0        0.32454094677          30.35462855
          "BPM.8L6.B1"       "BPMYB.5L2.B1"              13214.2               28.288                    1      0.7178134119618                    0        0.41921810677          30.44930571
        "BPMYB.4L6.B1"       "BPMYB.5L2.B1"             13347.69               28.288                    1     0.01533095196176                    0        0.71624049677           30.7463281
       "BPMSX.B4L6.B1"       "BPMYB.5L2.B1"             13383.23               28.288                    1     0.04852620196176                    0        0.75038323677          30.78047084
       "BPMSX.A4L6.B1"       "BPMYB.5L2.B1"             13383.82               28.288                    1     0.04913376196176                    0        0.75099985677          30.78108746
        "BPMSA.4R6.B1"       "BPMYB.5L2.B1"             13568.51               28.288                    1      0.2299869119618                    0        0.92710376677          30.95719137
       "BPMSI.A4R6.B1"       "BPMYB.5L2.B1"             13661.77               28.288                    1      0.2683629819618                    0        0.96549508677          30.99558269
       "BPMSI.B4R6.B1"       "BPMYB.5L2.B1"             13662.41               28.288                    1      0.2704065319618                    0        0.96568232677          30.99576993
        "BPMYA.4R6.B1"       "BPMYB.5L2.B1"             13691.29               28.288                    1      0.2772766419618                    0        0.97346251677          31.00355012
        "BPMYB.5R6.B1"       "BPMYB.5L2.B1"             13727.69               28.288                    1      0.2959175519618                    0        0.99215040677          31.02223801
          "BPM.9R6.B1"       "BPMYB.5L2.B1"             13862.49               28.288                    1      0.7730333219618                    0        0.47291888677          31.50300649
         "BPM.11R6.B1"       "BPMYB.5L2.B1"             13954.79               28.288                    1     0.03532542196176                    0        0.73021886677          31.76030647
         "BPM.12R6.B1"       "BPMYB.5L2.B1"             14009.52               28.288                    1      0.1747360119618                    0        0.86827082677          31.89835843
         "BPM.13R6.B1"       "BPMYB.5L2.B1"             14062.97               28.288                    1      0.2904607019618                    0        0.98460643677          32.01469404
         "BPM.14R6.B1"       "BPMYB.5L2.B1"             14116.42               28.288                    1      0.4288794819618                    0        0.12153217677          32.15161978
         "BPM.15R6.B1"       "BPMYB.5L2.B1"             14169.87               28.288                    1      0.5441888619618                    0        0.23870681677          32.26879442
         "BPM.16R6.B1"       "BPMYB.5L2.B1"             14223.33               28.288                    1      0.6808690119618                    0        0.37955786677          32.40964547
         "BPM.17R6.B1"       "BPMYB.5L2.B1"             14276.78               28.288                    1      0.7951735119618                    0        0.49352867677          32.52361628
         "BPM.18R6.B1"       "BPMYB.5L2.B1"             14330.23               28.288                    1      0.9333882319618                    0        0.63065939677            32.660747
         "BPM.19R6.B1"       "BPMYB.5L2.B1"             14383.68               28.288                    1     0.04675399196176                    0        0.74802294677          32.77811055
         "BPM.20R6.B1"       "BPMYB.5L2.B1"             14437.13               28.288                    1      0.1849163019618                    0        0.88864574677          32.91873335
         "BPM.21R6.B1"       "BPMYB.5L2.B1"             14490.58               28.288                    1      0.2985015819618                    0    0.002447326769996          33.03253493
         "BPM.22R6.B1"       "BPMYB.5L2.B1"             14544.04               28.288                    1      0.4378197019618                    0        0.13980931677          33.16989692
         "BPM.23R6.B1"       "BPMYB.5L2.B1"             14597.49               28.288                    1      0.5512920119618                    0        0.25431870677          33.28440631
         "BPM.24R6.B1"       "BPMYB.5L2.B1"             14650.94               28.288                    1      0.6875188319618                    0        0.39168464677          33.42177225
         "BPM.25R6.B1"       "BPMYB.5L2.B1"             14704.39               28.288                    1      0.8044649719618                    0        0.50618011677          33.53626772
         "BPM.26R6.B1"       "BPMYB.5L2.B1"             14757.84               28.288                    1      0.9432211519618                    0        0.64354331677          33.67363092
         "BPM.27R6.B1"       "BPMYB.5L2.B1"             14811.29               28.288                    1     0.05640140196176                    0        0.75805276677          33.78814037
         "BPM.28R6.B1"       "BPMYB.5L2.B1"             14864.74               28.288                    1      0.1922255319618                    0        0.89541832677          33.92550593
         "BPM.29R6.B1"       "BPMYB.5L2.B1"              14918.2               28.288                    1      0.3085509119618                    0    0.009913746769996          34.04000135
         "BPM.30R6.B1"       "BPMYB.5L2.B1"             14971.65               28.288                    1      0.4462797819618                    0        0.14727733677          34.17736494
         "BPM.31R6.B1"       "BPMYB.5L2.B1"              15025.1               28.288                    1      0.5602773519618                    0        0.26178681677          34.29187442
         "BPM.32R6.B1"       "BPMYB.5L2.B1"             15078.55               28.288                    1      0.6983029619618                    0        0.39915200677          34.42923961
         "BPM.33R6.B1"       "BPMYB.5L2.B1"                15132               28.288                    1      0.8147294219618                    0        0.51364738677          34.54373499
         "BPM.34R6.B1"       "BPMYB.5L2.B1"             15185.45               28.288                    1      0.9520901519618                    0        0.65101135677          34.68109896
         "BPM.33L7.B1"       "BPMYB.5L2.B1"              15238.9               28.288                    1     0.06605414196176                    0        0.76552086677          34.79560847
         "BPM.32L7.B1"       "BPMYB.5L2.B1"             15292.36               28.288                    1      0.2020293519618                    0        0.90288566677          34.93297327
         "BPM.31L7.B1"       "BPMYB.5L2.B1"             15345.81               28.288                    1      0.3169418719618                    0        0.01738103677          35.04746864
         "BPM.30L7.B1"       "BPMYB.5L2.B1"             15399.26               28.288                    1      0.4549972519618                    0        0.15474538677          35.18483299
         "BPM.29L7.B1"       "BPMYB.5L2.B1"             15452.71               28.288                    1      0.5688753819618                    0        0.26925490677          35.29934251
         "BPM.28L7.B1"       "BPMYB.5L2.B1"             15506.16               28.288                    1      0.7077305419618                    0        0.40661932677          35.43670693
         "BPM.27L7.B1"       "BPMYB.5L2.B1"             15559.61               28.288                    1      0.8235219019618                    0        0.52111468677          35.55120229
         "BPM.26L7.B1"       "BPMYB.5L2.B1"             15613.06               28.288                    1      0.9621870019618                    0        0.65847941677          35.68856702
         "BPM.25L7.B1"       "BPMYB.5L2.B1"             15666.52               28.288                    1     0.07504044196177                    0        0.77298893677          35.80307654
         "BPM.24L7.B1"       "BPMYB.5L2.B1"             15719.97               28.288                    1      0.2104981119618                    0        0.91035296677          35.94044057
         "BPM.23L7.B1"       "BPMYB.5L2.B1"             15773.42               28.288                    1      0.3261851819618                    0        0.02484835677          36.05493596
         "BPM.22L7.B1"       "BPMYB.5L2.B1"             15826.87               28.288                    1      0.4667744919618                    0        0.16221346677          36.19230107
         "BPM.21L7.B1"       "BPMYB.5L2.B1"             15880.32               28.288                    1      0.5794426419618                    0        0.27672295677          36.30681056
         "BPM.20L7.B1"       "BPMYB.5L2.B1"             15933.77               28.288                    1      0.7142182019618                    0        0.41324413677          36.44333174
         "BPM.19L7.B1"       "BPMYB.5L2.B1"             15987.23               28.288                    1      0.8318841419618                    0        0.53007496677          36.56016257
         "BPM.18L7.B1"       "BPMYB.5L2.B1"             16040.68               28.288                    1      0.9746769819618                    0        0.67136633677          36.70145394
         "BPM.17L7.B1"       "BPMYB.5L2.B1"             16094.13               28.288                    1     0.08746983196177                    0        0.78564313677          36.81573074
         "BPM.16L7.B1"       "BPMYB.5L2.B1"             16147.58               28.288                    1      0.2216435619618                    0        0.92232905677          36.95241666
         "BPM.15L7.B1"       "BPMYB.5L2.B1"             16201.03               28.288                    1      0.3405765519618                    0        0.03939272677          37.06948033
         "BPM.13L7.B1"       "BPMYB.5L2.B1"             16307.93               28.288                    1      0.5940639519618                    0        0.29455760677          37.32464521
         "BPM.12L7.B1"       "BPMYB.5L2.B1"             16361.39               28.288                    1      0.7321405219618                    0        0.43425037677          37.46433798
         "BPM.11L7.B1"       "BPMYB.5L2.B1"             16414.84               28.288                    1      0.8526937019618                    0        0.55398586677          37.58407347
         "BPM.10L7.B1"       "BPMYB.5L2.B1"             16467.62               28.288                    1      0.9982479119618                    0        0.69777476677          37.72786237
          "BPM.9L7.B1"       "BPMYB.5L2.B1"             16506.69               28.288                    1     0.09081712196177                    0        0.79143782677          37.82152543
          "BPM.8L7.B1"       "BPMYB.5L2.B1"             16547.15               28.288                    1      0.2829494919618                    0        0.98416956677          38.01425717
          "BPM.7L7.B1"       "BPMYB.5L2.B1"             16586.22               28.288                    1      0.3654803819618                    0        0.06672497677          38.09681258
          "BPM.6L7.B1"       "BPMYB.5L2.B1"             16621.04               28.288                    1      0.4148688419618                    0        0.11341668677          38.14350429
        "BPMWC.6L7.B1"       "BPMYB.5L2.B1"             16633.14               28.288                    1      0.4209539119618                    0        0.12097630677          38.15106391
        "BPMWE.5L7.B1"       "BPMYB.5L2.B1"             16710.19               28.288                    1      0.6094150219618                    0        0.31010972677          38.34019733
         "BPMW.5L7.B1"       "BPMYB.5L2.B1"              16733.4               28.288                    1      0.7064615919618                    0        0.40719984677          38.43728745
        "BPMWE.4L7.B1"       "BPMYB.5L2.B1"             16768.48               28.288                    1      0.7475446859618                    0        0.44898749677           38.4790751
         "BPMW.4L7.B1"       "BPMYB.5L2.B1"             16796.59               28.288                    1      0.7616619719618                    0        0.46226251677          38.49235012
         "BPMW.4R7.B1"       "BPMYB.5L2.B1"             16912.63               28.288                    1      0.9487823419618                    0        0.65030615677          38.68039376
        "BPMWE.4R7.B1"       "BPMYB.5L2.B1"             16940.74               28.288                    1     0.02288809196177                    0        0.72648107677          38.75656868
         "BPMW.5R7.B1"       "BPMYB.5L2.B1"             16975.82               28.288                    1     0.05623221196177                    0        0.75944749677           38.7895351
        "BPMWE.5R7.B1"       "BPMYB.5L2.B1"             16999.03               28.288                    1     0.06646751196177                    0        0.76986357677          38.79995118
         "BPMR.6R7.B1"       "BPMYB.5L2.B1"             17078.24               28.288                    1      0.1601041719618                    0        0.86254065677          38.89262826
        "BPM_A.7R7.B1"       "BPMYB.5L2.B1"             17116.28               28.288                    1      0.2401854119618                    0        0.94263391677          38.97272152
          "BPM.9R7.B1"       "BPMYB.5L2.B1"             17194.41               28.288                    1      0.5574920619618                    0        0.26042680677          39.29051441
         "BPM.10R7.B1"       "BPMYB.5L2.B1"             17234.88               28.288                    1      0.6562180819618                    0        0.36006720677          39.39015481
         "BPM.11R7.B1"       "BPMYB.5L2.B1"             17287.66               28.288                    1      0.7814926619618                    0        0.48695820677          39.51704581
         "BPM.12R7.B1"       "BPMYB.5L2.B1"             17342.39               28.288                    1      0.9035054119618                    0        0.60731776677          39.63740537
         "BPM.13R7.B1"       "BPMYB.5L2.B1"             17395.84               28.288                    1     0.04888529196177                    0        0.75090771677          39.78099532
         "BPM.14R7.B1"       "BPMYB.5L2.B1"             17449.29               28.288                    1      0.1639433719618                    0        0.86591706677          39.89600467
         "BPM.15R7.B1"       "BPMYB.5L2.B1"             17502.74               28.288                    1      0.2998306319618                    0    0.002202436769998          40.03229004
         "BPM.16R7.B1"       "BPMYB.5L2.B1"             17556.19               28.288                    1      0.4143724119618                    0        0.11853263677          40.14862024
         "BPM.17R7.B1"       "BPMYB.5L2.B1"             17609.65               28.288                    1      0.5545375819618                    0        0.26010601677          40.29019362
         "BPM.18R7.B1"       "BPMYB.5L2.B1"              17663.1               28.288                    1      0.6703051019618                    0        0.37485545677          40.40494306
         "BPM.19R7.B1"       "BPMYB.5L2.B1"             17716.55               28.288                    1      0.8063209219618                    0        0.51124250677          40.54133011
         "BPM.20R7.B1"       "BPMYB.5L2.B1"                17770               28.288                    1      0.9223516119618                    0        0.62783316677          40.65792077
         "BPM.21R7.B1"       "BPMYB.5L2.B1"             17823.45               28.288                    1     0.06361502196177                    0        0.76928170677          40.79936931
         "BPM.22R7.B1"       "BPMYB.5L2.B1"              17876.9               28.288                    1      0.1772210419618                    0        0.88378330677          40.91387091
         "BPM.23R7.B1"       "BPMYB.5L2.B1"             17930.35               28.288                    1      0.3154616619618                    0        0.02114741677          41.05123502
         "BPM.24R7.B1"       "BPMYB.5L2.B1"             17983.81               28.288                    1      0.4313407019618                    0        0.13565083677          41.16573844
         "BPM.25R7.B1"       "BPMYB.5L2.B1"             18037.26               28.288                    1      0.5691307419618                    0        0.27301566677          41.30310327
         "BPM.26R7.B1"       "BPMYB.5L2.B1"             18090.71               28.288                    1      0.6831949819618                    0        0.38751711677          41.41760472
         "BPM.27R7.B1"       "BPMYB.5L2.B1"             18144.16               28.288                    1      0.8207254719618                    0        0.52488127677          41.55496888
         "BPM.28R7.B1"       "BPMYB.5L2.B1"             18197.61               28.288                    1      0.9363856419618                    0        0.63938471677          41.66947232
         "BPM.29R7.B1"       "BPMYB.5L2.B1"             18251.06               28.288                    1     0.07227518196177                    0        0.77674948677          41.80683709
         "BPM.30R7.B1"       "BPMYB.5L2.B1"             18304.51               28.288                    1      0.1869083319618                    0        0.89125092677          41.92133853
         "BPM.31R7.B1"       "BPMYB.5L2.B1"             18357.97               28.288                    1      0.3268410519618                    0        0.02861513677          42.05870274
         "BPM.32R7.B1"       "BPMYB.5L2.B1"             18411.42               28.288                    1      0.4400283919618                    0        0.14311858677          42.17320619
         "BPM.33R7.B1"       "BPMYB.5L2.B1"             18464.87               28.288                    1      0.5770291119618                    0        0.28048331677          42.31057092
         "BPM.33L8.B1"       "BPMYB.5L2.B1"             18571.77               28.288                    1      0.8323502119618                    0        0.53234900677          42.56243661
         "BPM.32L8.B1"       "BPMYB.5L2.B1"             18625.22               28.288                    1      0.9456562819618                    0        0.64685246677          42.67694007
         "BPM.31L8.B1"       "BPMYB.5L2.B1"             18678.68               28.288                    1     0.08297273196177                    0        0.78421713677          42.81430474
         "BPM.30L8.B1"       "BPMYB.5L2.B1"             18732.13               28.288                    1      0.1974843419618                    0        0.89871855677          42.92880616
         "BPM.29L8.B1"       "BPMYB.5L2.B1"             18785.58               28.288                    1      0.3367064519618                    0        0.03608287677          43.06617048
         "BPM.28L8.B1"       "BPMYB.5L2.B1"             18839.03               28.288                    1      0.4507618519618                    0        0.15058634677          43.18067395
         "BPM.27L8.B1"       "BPMYB.5L2.B1"             18892.48               28.288                    1      0.5878912019618                    0        0.28795095677          43.31803856
         "BPM.26L8.B1"       "BPMYB.5L2.B1"             18945.93               28.288                    1      0.7045593619618                    0        0.40245236677          43.43253997
         "BPM.25L8.B1"       "BPMYB.5L2.B1"             18999.38               28.288                    1      0.8418834019618                    0        0.53981674677          43.56990435
         "BPM.24L8.B1"       "BPMYB.5L2.B1"             19052.84               28.288                    1      0.9539964619618                    0        0.65432021677          43.68440782
         "BPM.23L8.B1"       "BPMYB.5L2.B1"             19106.29               28.288                    1     0.09426859196176                    0        0.79168477677          43.82177238
         "BPM.22L8.B1"       "BPMYB.5L2.B1"             19159.74               28.288                    1      0.2090017619618                    0        0.90618618677          43.93627379
         "BPM.21L8.B1"       "BPMYB.5L2.B1"             19213.19               28.288                    1      0.3472690219618                    0        0.04355061677          44.07363822
         "BPM.20L8.B1"       "BPMYB.5L2.B1"             19266.64               28.288                    1      0.4605851419618                    0        0.16107407677          44.19116168
         "BPM.19L8.B1"       "BPMYB.5L2.B1"             19320.09               28.288                    1      0.6031351819618                    0        0.30144559677           44.3315332
         "BPM.18L8.B1"       "BPMYB.5L2.B1"             19373.54               28.288                    1      0.7134339019618                    0        0.41510756677          44.44519517
         "BPM.17L8.B1"       "BPMYB.5L2.B1"                19427               28.288                    1      0.8508869619618                    0        0.55272251677          44.58281012
         "BPM.16L8.B1"       "BPMYB.5L2.B1"             19480.45               28.288                    1      0.9693280319618                    0        0.67038656677          44.70047417
         "BPM.15L8.B1"       "BPMYB.5L2.B1"              19533.9               28.288                    1      0.1120301719618                    0        0.81049018677          44.84057779
         "BPM.14L8.B1"       "BPMYB.5L2.B1"             19587.35               28.288                    1      0.2240841619618                    0        0.92403203677          44.95411964
         "BPM.13L8.B1"       "BPMYB.5L2.B1"              19640.8               28.288                    1      0.3592882319618                    0        0.06191602677          45.09200363
         "BPM.12L8.B1"       "BPMYB.5L2.B1"             19694.25               28.288                    1      0.4771193219618                    0        0.17607721677          45.20616482
         "BPM.11L8.B1"       "BPMYB.5L2.B1"              19747.7               28.288                    1      0.6183769919618                    0        0.31349511677          45.34358272
         "BPM.10L8.B1"       "BPMYB.5L2.B1"             19799.55               28.288                    1      0.7228977619618                    0        0.42329158677          45.45337919
          "BPM.9L8.B1"       "BPMYB.5L2.B1"             19838.61               28.288                    1      0.8378928219618                    0        0.54046086677          45.57054847
          "BPM.8L8.B1"       "BPMYB.5L2.B1"             19879.08               28.288                    1      0.9849788019618                    0        0.68635127677          45.71643888
          "BPM.7L8.B1"       "BPMYB.5L2.B1"             19918.15               28.288                    1      0.1631189219618                    0        0.86264954677          45.89273715
         "BPMR.6L8.B1"       "BPMYB.5L2.B1"             19950.61               28.288                    1      0.2946226719618                    0        0.98936720677          46.01945481
          "BPM.5L8.B1"       "BPMYB.5L2.B1"             20011.03               28.288                    1      0.5186718219618                    0        0.21799068677          46.24807829
        "BPMYB.4L8.B1"       "BPMYB.5L2.B1"              20031.8               28.288                    1      0.5383597919618                    0        0.23676695677          46.26685456
        "BPMWB.4L8.B1"       "BPMYB.5L2.B1"             20056.19               28.288                    1      0.5608622319618                    0        0.25951812677          46.28960573
        "BPMSX.4L8.B1"       "BPMYB.5L2.B1"             20106.42               28.288                    1      0.5822087619618                    0        0.28185300677          46.31194061
         "BPMS.2L8.B1"       "BPMYB.5L2.B1"             20144.34               28.288                    1      0.5974157819618                    0        0.29732418677          46.32741179
        "BPMSW.1L8.B1"       "BPMYB.5L2.B1"             20154.27               28.288                    1      0.6055391419618                    0        0.30526396677          46.33535157
        "BPMSW.1R8.B1"       "BPMYB.5L2.B1"             20197.46               28.288                    1     0.06239282196177                    0        0.76132720677          46.79141481
         "BPMS.2R8.B1"       "BPMYB.5L2.B1"             20207.39               28.288                    1     0.06869407196177                    0        0.76747757677          46.79756518
        "BPMSX.4R8.B1"       "BPMYB.5L2.B1"             20245.31               28.288                    1     0.08090948196176                    0        0.78103036677          46.81111797
        "BPMWB.4R8.B1"       "BPMYB.5L2.B1"             20295.46               28.288                    1      0.1064842319618                    0        0.80699782677          46.83708543
        "BPMYB.4R8.B1"       "BPMYB.5L2.B1"             20319.93               28.288                    1      0.1196559919618                    0        0.82136785677          46.85145546
        "BPMYB.5R8.B1"       "BPMYB.5L2.B1"             20340.51               28.288                    1      0.1463568419618                    0        0.84995224677          46.88003985
          "BPM.6R8.B1"       "BPMYB.5L2.B1"             20424.62               28.288                    1      0.5225823219618                    0        0.21931554677          47.24940315
        "BPM_A.7R8.B1"       "BPMYB.5L2.B1"             20446.86               28.288                    1      0.5545750319618                    0        0.25405699677           47.2841446
          "BPM.8R8.B1"       "BPMYB.5L2.B1"             20488.29               28.288                    1      0.6447689919618                    0        0.35019342677          47.38028103
          "BPM.9R8.B1"       "BPMYB.5L2.B1"             20527.36               28.288                    1      0.8203445819618                    0        0.52867900677          47.55876661
         "BPM.10R8.B1"       "BPMYB.5L2.B1"             20567.82               28.288                    1       1.003526951962                    0        0.70396459677           47.7340522
         "BPM.11R8.B1"       "BPMYB.5L2.B1"             20619.66               28.288                    1     0.08099685196177                    0        0.78215832677          47.81224593
         "BPM.12R8.B1"       "BPMYB.5L2.B1"             20674.38               28.288                    1      0.2196654219618                    0        0.92740928677          47.95749689
         "BPM.13R8.B1"       "BPMYB.5L2.B1"             20727.83               28.288                    1      0.3705353719618                    0        0.07412317677          48.10421078
         "BPM.14R8.B1"       "BPMYB.5L2.B1"             20781.28               28.288                    1      0.4921745219618                    0        0.19288504677          48.22297265
         "BPM.16R8.B1"       "BPMYB.5L2.B1"             20888.18               28.288                    1      0.7376347319618                    0        0.43181250677          48.46190011
         "BPM.17R8.B1"       "BPMYB.5L2.B1"             20941.63               28.288                    1      0.8796512819618                    0        0.57408866677          48.60417627
         "BPM.18R8.B1"       "BPMYB.5L2.B1"             20995.07               28.288                    1      0.9975215119618                    0        0.69285783677          48.72294544
         "BPM.19R8.B1"       "BPMYB.5L2.B1"             21048.52               28.288                    1     0.08922251196176                    0        0.78199190677          48.81207951
         "BPM.20R8.B1"       "BPMYB.5L2.B1"             21101.97               28.288                    1      0.2470686419618                    0        0.93176496677          48.96185257
         "BPM.21R8.B1"       "BPMYB.5L2.B1"             21155.42               28.288                    1      0.3855901919618                    0        0.07405002677          49.10413763
         "BPM.23R8.B1"       "BPMYB.5L2.B1"             21262.32               28.288                    1      0.5922719019618                    0        0.28196056677          49.31204817
         "BPM.24R8.B1"       "BPMYB.5L2.B1"             21315.76               28.288                    1      0.7439553829618                    0        0.43171743677          49.46180504
         "BPM.25R8.B1"       "BPMYB.5L2.B1"             21369.21               28.288                    1      0.8837070919618                    0        0.57401137677          49.60409898
         "BPM.26R8.B1"       "BPMYB.5L2.B1"             21422.66               28.288                    1       1.001123881962                    0        0.69280340677          49.72289101
         "BPM.27R8.B1"       "BPMYB.5L2.B1"             21476.11               28.288                    1     0.09107839196176                    0        0.78192922677          49.81201683
         "BPM.28R8.B1"       "BPMYB.5L2.B1"             21529.56               28.288                    1      0.2424713019618                    0        0.93166989677           49.9617575
         "BPM.29R8.B1"       "BPMYB.5L2.B1"             21583.01               28.288                    1      0.3826491119618                    0        0.07397272677          50.10406033
         "BPM.30R8.B1"       "BPMYB.5L2.B1"             21636.46               28.288                    1      0.5004687719618                    0        0.19277619677           50.2228638
         "BPM.31R8.B1"       "BPMYB.5L2.B1"              21689.9               28.288                    1      0.5904608719618                    0        0.28189788677          50.31198549
         "BPM.32R8.B1"       "BPMYB.5L2.B1"             21743.35               28.288                    1      0.7388029919618                    0        0.43162236677          50.46170997
         "BPM.33R8.B1"       "BPMYB.5L2.B1"              21796.8               28.288                    1      0.8789707319618                    0        0.57393407677          50.60402168
         "BPM.34R8.B1"       "BPMYB.5L2.B1"             21850.25               28.288                    1      0.9996417619618                    0        0.69274898677          50.72283659
         "BPM.33L1.B1"       "BPMYB.5L2.B1"              21903.7               28.288                    1     0.08929276196177                    0        0.78186655677          50.81195416
         "BPM.32L1.B1"       "BPMYB.5L2.B1"             21957.15               28.288                    1      0.2371654619618                    0        0.93157483677          50.96166244
         "BPM.31L1.B1"       "BPMYB.5L2.B1"              22010.6               28.288                    1      0.3771775419618                    0        0.07389541677          51.10398302
         "BPM.30L1.B1"       "BPMYB.5L2.B1"             22064.04               28.288                    1      0.4980233419618                    0        0.19272176677          51.22280937
         "BPM.29L1.B1"       "BPMYB.5L2.B1"             22117.49               28.288                    1      0.5891234419618                    0        0.28183522677          51.31192283
         "BPM.28L1.B1"       "BPMYB.5L2.B1"             22170.94               28.288                    1      0.7384310519618                    0        0.43152730677          51.46161491
         "BPM.27L1.B1"       "BPMYB.5L2.B1"             22224.39               28.288                    1      0.8784152519618                    0        0.57385674677          51.60394435
         "BPM.26L1.B1"       "BPMYB.5L2.B1"             22277.84               28.288                    1      0.9971826419618                    0        0.69269455677          51.72278216
         "BPM.25L1.B1"       "BPMYB.5L2.B1"             22331.29               28.288                    1     0.08604273196177                    0        0.78180390677          51.81189151
         "BPM.24L1.B1"       "BPMYB.5L2.B1"             22384.74               28.288                    1      0.2347153119618                    0        0.93147978677          51.96156739
         "BPM.23L1.B1"       "BPMYB.5L2.B1"             22438.18               28.288                    1      0.3768659819618                    0        0.07381808677          52.10390569
         "BPM.22L1.B1"       "BPMYB.5L2.B1"             22491.63               28.288                    1      0.4949009219618                    0        0.19266733677          52.22275494
         "BPM.21L1.B1"       "BPMYB.5L2.B1"             22545.08               28.288                    1      0.5829520119618                    0        0.28177257677          52.31186018
         "BPM.20L1.B1"       "BPMYB.5L2.B1"             22598.53               28.288                    1      0.7323434219618                    0        0.43143226677          52.46151987
         "BPM.19L1.B1"       "BPMYB.5L2.B1"             22651.98               28.288                    1      0.8750498919618                    0        0.57377940677          52.60386701
         "BPM.18L1.B1"       "BPMYB.5L2.B1"             22705.43               28.288                    1      0.9941152019618                    0        0.69264011677          52.72272772
         "BPM.17L1.B1"       "BPMYB.5L2.B1"             22758.87               28.288                    1     0.08303080196177                    0        0.78174126677          52.81182887
         "BPM.16L1.B1"       "BPMYB.5L2.B1"             22812.32               28.288                    1      0.2342778619618                    0        0.93138473677          52.96147234
         "BPM.15L1.B1"       "BPMYB.5L2.B1"             22865.77               28.288                    1      0.3767899119618                    0        0.07374072677          53.10382833
         "BPM.14L1.B1"       "BPMYB.5L2.B1"             22919.22               28.288                    1      0.4946484919618                    0        0.19261289677           53.2227005
         "BPM.13L1.B1"       "BPMYB.5L2.B1"             22972.67               28.288                    1      0.5845948819618                    0        0.28170994677          53.31179755
         "BPM.12L1.B1"       "BPMYB.5L2.B1"             23026.12               28.288                    1      0.7368762419618                    0        0.43376142677          53.46384903
         "BPM.11L1.B1"       "BPMYB.5L2.B1"             23079.57               28.288                    1      0.8710468019618                    0        0.56908082677          53.59916843
         "BPM.10L1.B1"       "BPMYB.5L2.B1"             23132.35               28.288                    1      0.9863223519618                    0        0.68580043677          53.71588804
          "BPM.9L1.B1"       "BPMYB.5L2.B1"             23171.41               28.288                    1     0.06902309196176                    0        0.76877839677            53.798866
          "BPM.8L1.B1"       "BPMYB.5L2.B1"             23211.87               28.288                    1      0.2720892419618                    0        0.97495011677          54.00503772
         "BPMR.7L1.B1"       "BPMYB.5L2.B1"             23250.94               28.288                    1      0.3910427019618                    0        0.09240327677          54.12249088
          "BPM.6L1.B1"       "BPMYB.5L2.B1"             23294.12               28.288                    1      0.4809839319618                    0        0.18536866677          54.21545627
         "BPMR.5L1.B1"       "BPMYB.5L2.B1"             23326.02               28.288                    1      0.4919399319618                    0        0.19647254677          54.22656015
        "BPMYA.4L1.B1"       "BPMYB.5L2.B1"             23347.14               28.288                    1      0.4956274419618                    0        0.19976893677          54.22985654
        "BPMWB.4L1.B1"       "BPMYB.5L2.B1"             23368.28               28.288                    1      0.4976613919618                    0        0.20187342677          54.23196103
        "BPMSY.4L1.B1"       "BPMYB.5L2.B1"             23461.06               28.288                    1      0.5030826019618                    0        0.20800197677          54.23808958
         "BPMS.2L1.B1"       "BPMYB.5L2.B1"             23487.84               28.288                    1      0.5044767619618                    0        0.20885858677          54.23894619
        "BPMSW.1L1.B1"       "BPMYB.5L2.B1"             23497.79               28.288                    1      0.5051778019618                    0        0.20948457677          54.23957218
        "BPMSW.1R1.B1"       "BPMYB.5L2.B1"             23540.93               28.288                    1       1.000755801962                    0        0.70505812677          54.73514573
         "BPMS.2R1.B1"       "BPMYB.5L2.B1"              23550.9               28.288                    1       1.001556851962                    0        0.70586439677            54.735952
        "BPMSY.4R1.B1"       "BPMYB.5L2.B1"             23577.68               28.288                    1       1.002813701962                    0        0.70710716677          54.73719477
        "BPMWB.4R1.B1"       "BPMYB.5L2.B1"             23670.46               28.288                    1    0.008290051961761                    0        0.71250648677          54.74259409
        "BPMYA.4R1.B1"       "BPMYB.5L2.B1"              23691.6               28.288                    1     0.01332261196177                    0        0.71719205677          54.74727966
          "BPM.5R1.B1"       "BPMYB.5L2.B1"                23719               28.288                    1     0.02938075196177                    0        0.73272174677          54.76280935
         "BPMR.6R1.B1"       "BPMYB.5L2.B1"              23750.9               28.288                    1      0.3368544119618                    0        0.03815687677          55.06824448
        "BPMSX.7R1.B1"       "BPMYB.5L2.B1"             23757.12               28.288                    1      0.4141589919618                    0        0.11870942677          55.14879703
        "BPM_A.7R1.B1"       "BPMYB.5L2.B1"             23778.63               28.288                    1      0.4670497419618                    0        0.17379109677           55.2038787
          "BPM.8R1.B1"       "BPMYB.5L2.B1"             23820.07               28.288                    1      0.5545403019618                    0        0.26213594677          55.29222355
          "BPM.9R1.B1"       "BPMYB.5L2.B1"             23859.13               28.288                    1      0.7747092319618                    0        0.48875270677          55.51884031
         "BPM.10R1.B1"       "BPMYB.5L2.B1"              23899.6               28.288                    1      0.8910985419618                    0        0.59571049677           55.6257981
         "BPM.11R1.B1"       "BPMYB.5L2.B1"             23952.38               28.288                    1      0.9982166319618                    0        0.69747410677          55.72756171
         "BPM.12R1.B1"       "BPMYB.5L2.B1"             24007.11               28.288                    1     0.08306519196177                    0        0.78559718677          55.81568479
         "BPM.13R1.B1"       "BPMYB.5L2.B1"             24060.56               28.288                    1      0.2196249719618                    0        0.93269284677          55.96278045
         "BPM.14R1.B1"       "BPMYB.5L2.B1"             24114.01               28.288                    1      0.3679249519618                    0        0.07481113677          56.10489874
         "BPM.15R1.B1"       "BPMYB.5L2.B1"             24167.46               28.288                    1      0.4946437719618                    0        0.19337497677          56.22346258
         "BPM.16R1.B1"       "BPMYB.5L2.B1"             24220.91               28.288                    1      0.5823386619618                    0        0.28259502677          56.31268263
         "BPM.17R1.B1"       "BPMYB.5L2.B1"             24274.37               28.288                    1      0.7241150519618                    0        0.43269268677          56.46278029
         "BPM.18R1.B1"       "BPMYB.5L2.B1"             24327.82               28.288                    1      0.8728234519618                    0        0.57481113677          56.60489874
         "BPM.19R1.B1"       "BPMYB.5L2.B1"             24381.27               28.288                    1      0.9955497719618                    0        0.69337497677          56.72346258
         "BPM.20R1.B1"       "BPMYB.5L2.B1"             24434.72               28.288                    1     0.08448646196176                    0        0.78259502677          56.81268263
         "BPM.21R1.B1"       "BPMYB.5L2.B1"             24488.17               28.288                    1      0.2278228819618                    0        0.93269268677          56.96278029
         "BPM.22R1.B1"       "BPMYB.5L2.B1"             24541.62               28.288                    1      0.3732114519618                    0        0.07481113677          57.10489874
         "BPM.23R1.B1"       "BPMYB.5L2.B1"             24595.08               28.288                    1      0.4976697719618                    0        0.19337497677          57.22346258
         "BPM.24R1.B1"       "BPMYB.5L2.B1"             24648.53               28.288                    1      0.5852186719618                    0        0.28259502677          57.31268263
         "BPM.25R1.B1"       "BPMYB.5L2.B1"             24701.98               28.288                    1      0.7325179819618                    0        0.43269268677          57.46278029
         "BPM.26R1.B1"       "BPMYB.5L2.B1"             24755.43               28.288                    1      0.8789005519618                    0        0.57481113677          57.60489874
         "BPM.27R1.B1"       "BPMYB.5L2.B1"             24808.88               28.288                    1      0.9975653719618                    0        0.69337497677          57.72346258
         "BPM.28R1.B1"       "BPMYB.5L2.B1"             24862.33               28.288                    1     0.08663377196176                    0        0.78259502677          57.81268263
         "BPM.29R1.B1"       "BPMYB.5L2.B1"             24915.78               28.288                    1      0.2367224819618                    0        0.93269268677          57.96278029
         "BPM.30R1.B1"       "BPMYB.5L2.B1"             24969.24               28.288                    1      0.3782174519618                    0        0.07481113677          58.10489874
         "BPM.31R1.B1"       "BPMYB.5L2.B1"             25022.69               28.288                    1      0.4976889719618                    0        0.19337497677          58.22346258
         "BPM.32R1.B1"       "BPMYB.5L2.B1"             25076.14               28.288                    1      0.5865094719618                    0        0.28259502677          58.31268263
         "BPM.33R1.B1"       "BPMYB.5L2.B1"             25129.59               28.288                    1      0.7366405219618                    0        0.43269268677          58.46278029
         "BPM.34R1.B1"       "BPMYB.5L2.B1"             25183.04               28.288                    1      0.8800449519618                    0        0.57481113677          58.60489874
         "BPM.33L2.B1"       "BPMYB.5L2.B1"             25236.49               28.288                    1      0.9974767719618                    0        0.69337497677          58.72346258
         "BPM.32L2.B1"       "BPMYB.5L2.B1"             25289.94               28.288                    1     0.08640217196176                    0        0.78259502677          58.81268263
         "BPM.31L2.B1"       "BPMYB.5L2.B1"              25343.4               28.288                    1      0.2374935819618                    0        0.93269268677          58.96278029
         "BPM.30L2.B1"       "BPMYB.5L2.B1"             25396.85               28.288                    1      0.3801946519618                    0        0.07481113677          59.10489874
         "BPM.29L2.B1"       "BPMYB.5L2.B1"              25450.3               28.288                    1      0.4966567719618                    0        0.19337497677          59.22346258
         "BPM.28L2.B1"       "BPMYB.5L2.B1"             25503.75               28.288                    1      0.5862336719618                    0        0.28259502677          59.31268263
         "BPM.27L2.B1"       "BPMYB.5L2.B1"              25557.2               28.288                    1      0.7357564119618                    0        0.43269268677          59.46278029
         "BPM.26L2.B1"       "BPMYB.5L2.B1"             25610.65               28.288                    1      0.8787529519618                    0        0.57481113677          59.60489874
         "BPM.25L2.B1"       "BPMYB.5L2.B1"              25664.1               28.288                    1      0.9964013619618                    0        0.69337496677          59.72346257
         "BPM.24L2.B1"       "BPMYB.5L2.B1"             25717.56               28.288                    1     0.08756657196176                    0        0.78259502677          59.81268263
         "BPM.23L2.B1"       "BPMYB.5L2.B1"             25771.01               28.288                    1      0.2381930819618                    0        0.93269268677          59.96278029
         "BPM.22L2.B1"       "BPMYB.5L2.B1"             25824.46               28.288                    1      0.3807585519618                    0        0.07481113677          60.10489874
         "BPM.21L2.B1"       "BPMYB.5L2.B1"             25877.91               28.288                    1      0.4968681619618                    0        0.19337496677          60.22346257
         "BPM.20L2.B1"       "BPMYB.5L2.B1"             25931.36               28.288                    1      0.5881917719618                    0        0.28259502677          60.31268263
         "BPM.19L2.B1"       "BPMYB.5L2.B1"             25984.81               28.288                    1      0.7426493689618                    0        0.43269268677          60.46278029
         "BPM.18L2.B1"       "BPMYB.5L2.B1"             26038.27               28.288                    1      0.8821191519618                    0        0.57481113677          60.60489874
         "BPM.17L2.B1"       "BPMYB.5L2.B1"             26091.72               28.288                    1      0.9974850619618                    0        0.69337496677          60.72346257
         "BPM.16L2.B1"       "BPMYB.5L2.B1"             26145.17               28.288                    1     0.09007337196176                    0        0.78259502677          60.81268263
         "BPM.15L2.B1"       "BPMYB.5L2.B1"             26198.62               28.288                    1      0.2437199819618                    0        0.93269268677          60.96278029
         "BPM.14L2.B1"       "BPMYB.5L2.B1"             26252.07               28.288                    1      0.3846238519618                    0        0.07481113677          61.10489874
         "BPM.13L2.B1"       "BPMYB.5L2.B1"             26305.52               28.288                    1      0.4996547619618                    0        0.19337496677          61.22346257
         "BPM.12L2.B1"       "BPMYB.5L2.B1"             26358.97               28.288                    1      0.5970398919618                    0        0.28856295677          61.31865056
         "BPM.11L2.B1"       "BPMYB.5L2.B1"             26412.43               28.288                    1      0.7636139719618                    0        0.45008031677          61.48016792
         "BPM.10L2.B1"       "BPMYB.5L2.B1"             26464.27               28.288                    1      0.8920329119618                    0        0.58352775677          61.61361536
          "BPM.9L2.B1"       "BPMYB.5L2.B1"             26503.33               28.288                    1      0.9920456619618                    0        0.68670114677          61.71678875
          "BPM.8L2.B1"       "BPMYB.5L2.B1"              26543.8               28.288                    1      0.1106018519618                    0        0.80583620677          61.83592381
          "BPM.7L2.B1"       "BPMYB.5L2.B1"             26582.87               28.288                    1      0.3427977119618                    0        0.03420633677          62.06429394
         "BPMR.6L2.B1"       "BPMYB.5L2.B1"             26614.97               28.288                    1      0.4331421119618                    0        0.12946938677          62.15955699