*                 NAME                    S             ALFPROPY          ERRALFPROPY              ALFYMDL              MODEL_S
$                   %s                  %le                  %le                  %le                  %le                  %le
          BPMSY.4L5.B1                    0      -43.58706286033     0.09975488613619          -44.5963809          10131.46115
              MQXA.3L5              11.3495       285.5973248469      0.8144118767301          300.0274054          10142.81065
              MQSX.3L5               11.818       278.3015377528       1.291157303789          292.3333043          10143.27915
              TASB.3L5              13.5725       250.9822489555        1.14729811414           263.519429          10145.03365
             MQXB.B2L5              19.7645       65.10743714709      0.3227643020003          68.89517656          10151.22565
             MQXB.A2L5              26.2645      -29.90233037312       0.170527870065         -29.67410825          10157.72565
           BPMS.2L5.B1              26.7855      -30.15238019813      0.1772528210523         -29.91279178          10158.24665
              MQXA.1L5              35.3495       73.82346392008       0.126963341381          76.54942714          10166.81065
         BPMWF.A1L5.B1              36.5905       69.89529659941      0.1419546916007          72.41279247          10168.05165
             BPMWK.1L5              36.6945       69.56610428267      0.1413220767498          72.06612848          10168.15565
          BPMSW.1L5.B1              36.7505        69.3888468701      0.1409833308811          71.87946326          10168.21165
    BPMSW.1L5.B1_DOROS              36.7505        69.3888468701      0.1409833308811          71.87946326          10168.21165
               TAS.1L5              39.2645       61.43125908372      0.1242037386931          63.49952806          10170.72565
                   IP5              58.3145       1.108861999758       0.309315278435      1.907599678e-05          10189.77565
               TAS.1R5              79.1645      -64.86122512795      0.9803815068104         -69.49944351          10210.62565
          BPMSW.1R5.B1              79.8785      -67.12003046059       1.171811706545          -71.8794251          10211.33965
    BPMSW.1R5.B1_DOROS              79.8785      -67.12003046059       1.171811706545          -71.8794251          10211.33965
             BPMWK.1R5              79.9345      -67.29723520561       1.179525087704         -72.06609033          10211.39565
         BPMWF.A1R5.B1              80.0385      -67.62632739404       1.194074341084         -72.41275431          10211.49965
              MQXA.1R5              87.6495      -265.6095398447       13.39378298761         -285.8873861          10219.11065
           BPMS.2R5.B1              89.8435      -308.1855591735       42.44579445642         -332.7211631          10221.30465