*                 NAME                    S         F1001ABSPROP      ERRF1001ABSPROP          F1001REPROP       ERRF1001REPROP          F1001IMPROP       ERRF1001IMPROP         F1010ABSPROP      ERRF1010ABSPROP          F1010REPROP       ERRF1010REPROP          F1010IMPROP       ERRF1010IMPROP        MODEL_F1001RE        MODEL_F1001IM        MODEL_F1010RE        MODEL_F1010IM              MODEL_S
$                   %s                  %le                  %le                  %le                  %le                  %le                  %le                  %le                  %le                  %le                  %le                  %le                  %le                  %le                  %le                  %le                  %le                  %le                  %le
          BPMSY.4L5.B1                    0                  nan                  nan     0.01522215239818     0.04418319766906     0.02009367091054      0.3124222332741                  nan                  nan   -0.004715854371175     0.04355832146436    -0.06645968921772     0.01599160447605                    0                    0                    0                    0          10131.46115
              MQXA.3L5              11.3495                  nan                  nan     0.01511403984738     0.04225782508735     0.02016748098848      0.3126508898215                  nan                  nan   -0.004219484788162     0.04353276463458    -0.06646322064767     0.01491646225391                    0                    0                    0                    0          10142.81065
              MQSX.3L5               11.818                  nan                  nan      0.0149226452053     0.03887077535137     0.02033883870165      0.3130934818201                  nan                  nan   -0.003362787240273     0.04355601070078     -0.0664407458225     0.01214480813616                    0                    0                    0                    0          10143.27915
              TASB.3L5              13.5725                  nan                  nan     0.01490159895912      0.0384997411961     0.02035697390493      0.3131389455754                  nan                  nan    -0.00326441600722     0.04355270772015    -0.06643976007055     0.01187802648963                    0                    0                    0                    0          10145.03365
             MQXB.B2L5              19.7645                  nan                  nan     0.01485436103022      0.0376683952442     0.02040814132752      0.3132561333166                  nan                  nan   -0.003034008248758     0.04353498365073    -0.06643938026578      0.0113328350354                    0                    0                    0                    0          10151.22565
             MQXB.A2L5              26.2645                  nan                  nan     0.01471415291946     0.03520888069888     0.02055021745551      0.3135763415249                  nan                  nan   -0.002193808038578     0.04351873526845    -0.06642425037799    0.008750550724707                    0                    0                    0                    0          10157.72565
           BPMS.2L5.B1              26.7855                  nan                  nan     0.01449514159201     0.03139072747508     0.02073794482484      0.3139868447797                  nan                  nan  -0.0009625045082995     0.04352547774922     -0.0664019347583    0.004524377587941                    0                    0                    0                    0          10158.24665
              MQXA.1L5              35.3495                  nan                  nan     0.01430301935069     0.02806557199208     0.02089510807828      0.3143004010818                  nan                  nan  -0.0001229762305364     0.04346921596935    -0.06639427475244    0.001671734537006                    0                    0                    0                    0          10166.81065
         BPMWF.A1L5.B1              36.5905                  nan                  nan   -0.003792792083922      0.2164408027862     0.02408044984936      0.2275244514626                  nan                  nan     0.05032236224392     0.02821107811172    -0.07710012143765       0.180956366688                    0                    0                    0                    0          10168.05165
             BPMWK.1L5              36.6945                  nan                  nan   -0.006706049275157      0.2449234356202      0.0229023249557       0.195711667078                  nan                  nan     0.05573636780782     0.02350466150508     -0.0776156955196      0.2005296699684                    0                    0                    0                    0          10168.15565
          BPMSW.1L5.B1              36.7505                  nan                  nan   -0.008426132137463      0.2601207336662      0.0219927411481      0.1744251501842                  nan                  nan     0.05854331629375      0.0204103205744    -0.07725632638367      0.2109533349363                    0                    0                    0                    0          10168.21165
    BPMSW.1L5.B1_DOROS              36.7505                  nan                  nan   -0.008426132137463      0.2601207336662      0.0219927411481      0.1744251501842                  nan                  nan     0.05854331629375      0.0204103205744    -0.07725632638367      0.2109533349363                    0                    0                    0                    0          10168.21165
               TAS.1L5              39.2645                  nan                  nan    -0.02229640890087       0.265269024264    0.001554686326746      0.1665634066518                  nan                  nan     0.05297167340018     0.02595648317826   -0.006238295157385      0.2263855274543                    0                    0                    0                    0          10170.72565
                   IP5              58.3145                  nan                  nan    -0.02108476471706      0.2993061420418    0.006190541549405      0.0913114172832                  nan                  nan    -0.05531733367116     0.02478773243528     0.05683337434425      0.1447243071879                    0                    0                    0                    0          10189.77565
               TAS.1R5              79.1645                  nan                  nan     0.01536629261373     0.04676607282957     0.02003620059106      0.3121651341292                  nan                  nan   -0.007472735308688     0.04375124378853    -0.06633285594856     0.02023064155168                    0                    0                    0                    0          10210.62565
          BPMSW.1R5.B1              79.8785                  nan                  nan     0.01538547668901     0.04710997817753     0.02001763105432      0.3121120112191                  nan                  nan   -0.007298017510884     0.04375235884496    -0.06633980103032     0.01987737848257                    0                    0                    0                    0          10211.33965
    BPMSW.1R5.B1_DOROS              79.8785                  nan                  nan     0.01538547668901     0.04710997817753     0.02001763105432      0.3121120112191                  nan                  nan   -0.007298017510884     0.04375235884496    -0.06633980103032     0.01987737848257                    0                    0                    0                    0          10211.33965
             BPMWK.1R5              79.9345                  nan                  nan     0.01538579600562     0.04711640046373     0.02001725276143      0.3121109659991                  nan                  nan   -0.007294663022392     0.04375182697338    -0.06634015850933     0.01987574619778                    0                    0                    0                    0          10211.39565
         BPMWF.A1R5.B1              80.0385                  nan                  nan     0.01538645048039     0.04712820426713     0.02001655747538      0.3121090439293                  nan                  nan   -0.007288404548043     0.04375084615747    -0.06634081854697     0.01987271845115                    0                    0                    0                    0          10211.49965
              MQXA.1R5              87.6495                  nan                  nan     0.01539374453367     0.04725801792103     0.01999888786231      0.3120718555778                  nan                  nan   -0.007228425717931     0.04368091750157    -0.06637400655698     0.02046035514151                    0                    0                    0                    0          10219.11065
           BPMS.2R5.B1              89.8435                  nan                  nan     0.01540721220095     0.04749709564722     0.01997832817515      0.3120223822417                  nan                  nan   -0.006862310770991     0.04368662069252    -0.06638344679235     0.01964934216585                    0                    0                    0                    0          10221.30465