@ NAME             %05s "TWISS"
@ TYPE             %05s "TWISS"
@ SEQUENCE         %10s "BACK_LHCB1"
@ PARTICLE         %06s "PROTON"
@ MASS             %le        0.9382720814
@ CHARGE           %le                   1
@ ENERGY           %le                 450
@ PC               %le         449.9990218
@ GAMMA            %le         479.6050196
@ KBUNCH           %le                   1
@ BCURRENT         %le                   0
@ SIGE             %le               0.001
@ SIGT             %le                   1
@ NPART            %le                   0
@ EX               %le                   1
@ EY               %le                   1
@ ET               %le               0.001
@ LENGTH           %le               43.19
@ ALFA             %le                   0
@ ORBIT5           %le                  -0
@ GAMMATR          %le                   0
@ Q1               %le        0.1542857778
@ Q2               %le        0.3995305303
@ DQ1              %le                   0
@ DQ2              %le                   0
@ DXMAX            %le                   0
@ DYMAX            %le                   0
@ XCOMAX           %le                   0
@ YCOMAX           %le                   0
@ BETXMAX          %le         56.50476806
@ BETYMAX          %le         115.0919987
@ XCORMS           %le                   0
@ YCORMS           %le                   0
@ DXRMS            %le                   0
@ DYRMS            %le                   0
@ DELTAP           %le                   0
@ SYNCH_1          %le                   0
@ SYNCH_2          %le                   0
@ SYNCH_3          %le                   0
@ SYNCH_4          %le                   0
@ SYNCH_5          %le                   0
@ TITLE            %08s "no-title"
@ ORIGIN           %16s "5.03.07 Linux 64"
@ DATE             %08s "04/09/18"
@ TIME             %08s "16.04.04"
* NAME                                S               BETX               ALFX               BETY               ALFY                MUX                MUY                 DX                 DY                DPX                DPY                  X                  Y                K1L               K1SL                K2L                K3L                K4L                 WX                 WY               PHIX               PHIY               DMUX               DMUY KEYWORD                           DBX                DBY                R11                R12                R21                R22 
$ %s                                %le                %le                %le                %le                %le                %le                %le                %le                %le                %le                %le                %le                %le                %le                %le                %le                %le                %le                %le                %le                %le                %le                %le                %le %s                                %le                %le                %le                %le                %le                %le 
 "BACK_LHCB1$END"                     0        56.50476806       0.6221039674        46.53378078        2.445298794                  0                  0                  0                  0                  0                  0                  0                  0                  0                  0                  0                  0                  0                  0                  0                  0                  0                  0                  0 "MARKER"                             0                  0      -0.1134781496       -4.097396652     0.001702562426      0.02508790142
 "BPMSW.1R2.B1"                       0        56.50476806       0.6221039674        46.53378078        2.445298794                  0                  0                  0                  0                  0                  0                  0                  0                  0                  0                  0                  0                  0                  0                  0                  0                  0                  0                  0 "MONITOR"                            0                  0      -0.1134781496       -4.097396652     0.001702562426      0.02508790142
 "DRIFT_0"                         0.34        56.08457498       0.6137580427        44.88831616        2.394303038    0.0009612523715     0.001184001432                  0                  0                  0                  0                  0                  0                  0                  0                  0                  0                  0     0.008345942811      0.05099586631       0.0747785764      -0.1240652857   -0.0009648427985    -0.001205498511 "DRIFT"                              0                  0      -0.1128992784       -4.050481011     0.001702562426      0.02450903019
 "DRIFT_1"                       9.5747        46.84217871       0.3870753646         13.4578636        1.009213324      0.02979365031      0.06248683837                  0                  0                  0                  0                  0                  0                  0                  0                  0                  0                  0       0.2350291136        1.436088592       0.1324433723    -0.001459611833      -0.0325318802      -0.1132322478 "DRIFT"                              0                  0     -0.09717662514        -2.92675049     0.001702562426     0.008786376957
 "DRIFT_2"                       15.545        43.09522592       0.2405233821        6.753478317       0.1137428568      0.05100506338       0.1701913736                  0                  0                  0                  0                  0                  0                  0                  0                  0                  0                  0       0.3815814147        2.331561005       0.1748661984       0.2139494586      -0.0574093514      -0.3663399588 "DRIFT"                              0                  0     -0.08701181669       -2.354806534     0.001702562426    -0.001378431495
 "IP2"                           21.595         41.0833686      0.09201501669        10.86710781      -0.7936816153      0.07396844164       0.2949899358                  0                  0                  0                  0                  0                  0                  0                  0                  0                  0                  0        0.530090103         3.23898745       0.2207929549       0.4635465831     -0.08365814645      -0.3162716823 "MARKER"                             0                  0     -0.07671131401       -1.899042595     0.001702562426     -0.01167893417
 "DRIFT_3"                       31.045        41.53637872      -0.1399525954        39.26195049       -2.211063642       0.1107023711       0.3706170307                  0                  0                  0                  0                  0                  0                  0                  0                  0                  0                  0       0.7620582193        4.656372558       0.2942608139       0.6148007728      -0.1189553856       -0.125846421 "DRIFT"                              0                  0     -0.06062209909       -1.436529687     0.001702562426      -0.0277681491
 "DRIFT_4"                        41.32        47.00395224      -0.3921713483        100.5343341        -3.75218537       0.1480544331       0.3967635642                  0                  0                  0                  0                  0                  0                  0                  0                  0                  0                  0         1.01427752        6.197497635       0.3689649378       0.6670938398       -0.139909438     -0.06541343914 "DRIFT"                              0                  0     -0.04312827016       -1.278704443     0.001702562426     -0.04526197803
 "DRIFT_5"                        43.19        48.55651092       -0.438073934        115.0919987       -4.032662025       0.1542857778       0.3995305303                  0                  0                  0                  0                  0                  0                  0                  0                  0                  0                  0        1.060180206          6.4779749       0.3814276273       0.6726277721      -0.1415652979     -0.05972541107 "DRIFT"                              0                  0     -0.03994447842       -1.288648167     0.001702562426     -0.04844576977
 "BPMSW.1L2.B1_DOROS"               43.19        48.55651092       -0.438073934        115.0919987       -4.032662025       0.1542857778       0.3995305303                  0                  0                  0                  0                  0                  0                  0                  0                  0                  0                  0        1.060180206          6.4779749       0.3814276273       0.6726277721      -0.1415652979     -0.05972541107 "MONITOR"                            0                  0     -0.03994447842       -1.288648167     0.001702562426     -0.04844576977
 "BPMSW.1L2.B1"                   43.19        48.55651092       -0.438073934        115.0919987       -4.032662025       0.1542857778       0.3995305303                  0                  0                  0                  0                  0                  0                  0                  0                  0                  0                  0        1.060180206          6.4779749       0.3814276273       0.6726277721      -0.1415652979     -0.05972541107 "MONITOR"                            0                  0     -0.03994447842       -1.288648167     0.001702562426     -0.04844576977
 "BACK_LHCB1$START"               43.19        48.55651092       -0.438073934        115.0919987       -4.032662025       0.1542857778       0.3995305303                  0                  0                  0                  0                  0                  0                  0                  0                  0                  0                  0        1.060180206          6.4779749       0.3814276273       0.6726277721      -0.1415652979     -0.05972541107 "MARKER"                             0                  0     -0.03994447842       -1.288648167     0.001702562426     -0.04844576977
