@ GetLLMVersion %s "V3.0.0 Dev"
@ Command %s "/afs/cern.ch/work/o/omc/anaconda/bin/python '/afs/cern.ch/eng/sl/lintrack/Beta-Beat.src/GetLLM/GetLLM.py' '--accel=LHCB1' '--model=/afs/cern.ch/user/t/thpugnat/public/Outputs/2018-09-04/models/LHCB1/b1_squeeze_collQ/twiss.dat' '--files=/afs/cern.ch/user/t/thpugnat/public/Outputs/2018-09-04/LHCB1/Measurements/Beam1@Turn@2018_06_16@17_37_23_562/Beam1@Turn@2018_06_16@17_37_23_562.sdds.clean' '--output=/afs/cern.ch/user/t/thpugnat/public/Outputs/2018-09-04/LHCB1/Results/15-44-35_NORMALANALYSIS_SUSSIX_23' '--tbtana=SUSSIX' '--bpmu=mm' '--lhcphase=1' '--errordefs=/afs/cern.ch/user/t/thpugnat/public/Outputs/2018-09-04/models/LHCB1/b1_squeeze_collQ/error_deff.txt' '--calibration=/afs/cern.ch/eng/sl/lintrack/LHC_commissioning2017/Calibration_factors_2017/Calibration_factors_2017_beam1'"
@ CWD %s "/afs/cern.ch/user/t/thpugnat"
@ Date %s "04. September 2018, 15:44:38"
@ Q1 %le 0.3024322739215686
@ Q2 %le 0.32982104980079685
@ RMSbetabeat %le 0.0602893118417
@ RescalingFactor %le 0.9983197311621071
@ FILES %s "/afs/cern.ch/user/t/thpugnat/public/Outputs/2018-09-04/LHCB1/Measurements/Beam1@Turn@2018_06_16@17_37_23_562/Beam1@Turn@2018_06_16@17_37_23_562.sdds.clean_liny"
*                 NAME                    S                COUNT                 BETY              BETYSTD              BETYMDL               MUYMDL              BETYRES           BETYSTDRES
$                   %s                  %le                  %le                  %le                  %le                  %le                  %le                  %le                  %le
        "BPMYB.5L2.B1"               28.288                    1       38.54143978345   1.483239697419e-08          38.49995025         0.1254438987       38.47667980322   1.480747455976e-08
        "BPMYB.4L2.B1"               48.858                    1       95.87656767542   1.483239697419e-08          106.4941291         0.1774951698       95.71546926647   1.480747455976e-08
        "BPMWI.4L2.B1"              73.3255                    1         102.90118011   1.483239697419e-08          112.2035298         0.2103744959       102.7282784637   1.480747455976e-08
        "BPMSX.4L2.B1"             123.4825                    1       94.74980109762   1.483239697419e-08          105.8037567         0.2865105605       94.59059595944   1.480747455976e-08
         "BPMS.2L2.B1"              161.394                    1       176.3663473093   1.483239697419e-08          177.5650569         0.3283383142       176.0700044318   1.480747455976e-08
        "BPMSW.1L2.B1"              171.328                    1        53.6747719292   1.483239697419e-08          57.10364998         0.3459996459       53.58458388254   1.480747455976e-08
        "BPMSW.1R2.B1"              214.518                    1       58.30856751059   1.483239697419e-08          60.65083823         0.7148502686       58.21059344162   1.480747455976e-08
         "BPMS.2R2.B1"              224.452                    1       64.73735712912   1.483239697419e-08          68.02979116         0.7366927775       64.62858096529   1.480747455976e-08
        "BPMSX.4R2.B1"             262.3635                    1       163.3885904686   1.483239697419e-08          180.3076402         0.7839186338       163.1140537116   1.480747455976e-08
        "BPMWB.4R2.B1"             312.5965                    1       77.77755288876   1.483239697419e-08          83.69367028         0.8509654526       77.64686569035   1.480747455976e-08
        "BPMYB.4R2.B1"              336.988                    1       79.02611386158   1.483239697419e-08          81.41848376         0.9030203038       78.89332874508   1.480747455976e-08
         "BPMR.5R2.B1"              366.522                    1       163.6971235525   1.483239697419e-08          172.1674942          0.939156351       163.4220683769   1.480747455976e-08
          "BPM.6R2.B1"              439.818                    1       42.27239463204   1.483239697419e-08          43.37838553          1.167806985       42.20136564464   1.480747455976e-08
        "BPM_A.7R2.B1"              452.693                    1       90.91675225583   1.483239697419e-08           100.361345          1.199063662       90.76398767018   1.480747455976e-08
          "BPM.8R2.B1"               494.13                    1       30.01870238082   1.483239697419e-08          28.31690936          1.312061048       29.96826289065   1.480747455976e-08
          "BPM.9R2.B1"              533.195                    1       126.8225968598   1.483239697419e-08          121.2124857          1.441839972       126.6095008023   1.480747455976e-08
         "BPM.10R2.B1"              573.658                    1       35.59070517955   1.483239697419e-08           34.6012891          1.535152294       35.53090322672   1.480747455976e-08
         "BPM.11R2.B1"             625.4967                    1       194.4528334141   1.483239697419e-08          187.8900437           1.66065442       194.1261003777   1.480747455976e-08
         "BPM.12R2.B1"             680.2203                    1       35.21670245063   1.483239697419e-08          33.03200958          1.772880123       35.15752892293   1.480747455976e-08
         "BPM.13R2.B1"             733.6688                    1       165.3550009381   1.483239697419e-08          161.9050388          1.915970731       165.0771600828   1.480747455976e-08
         "BPM.14R2.B1"             787.1173                    1       34.37644967056   1.483239697419e-08          32.98252064          2.035208003       34.31868799342   1.480747455976e-08
         "BPM.15R2.B1"             840.5658                    1        175.229642466   1.483239697419e-08          181.5792193          2.167734185       174.9352095583   1.480747455976e-08
         "BPM.16R2.B1"             894.0143                    1       41.50879490211   1.483239697419e-08           39.1685366          2.268281562       41.43904896753   1.480747455976e-08
         "BPM.17R2.B1"             947.4628                    1       164.9753737298   1.483239697419e-08           165.774525          2.394033645       164.6981707503   1.480747455976e-08
         "BPM.18R2.B1"             1000.911                    1       33.44417200628   1.483239697419e-08          32.65584195          2.512373863       33.38797680625   1.480747455976e-08
         "BPM.19R2.B1"              1054.36                    1       171.5667774015   1.483239697419e-08          177.6776048          2.647720795       171.2784990918   1.480747455976e-08
         "BPM.20R2.B1"             1107.808                    1       39.84054762738   1.483239697419e-08          39.38294809          2.749221166       39.77360479672   1.480747455976e-08
         "BPM.21R2.B1"             1161.257                    1       176.7943634324   1.483239697419e-08          169.8813273          2.872604433       176.4973013728   1.480747455976e-08
         "BPM.22R2.B1"             1214.705                    1       31.58168034262   1.483239697419e-08          32.55739373          2.989390087        31.5286146293   1.480747455976e-08
         "BPM.23R2.B1"             1268.154                    1       177.0070159537   1.483239697419e-08          174.7906266          3.126549157       176.7095965807   1.480747455976e-08
         "BPM.24R2.B1"             1321.602                    1       39.32587593889   1.483239697419e-08          37.48010033          3.232010574       39.25979789503   1.480747455976e-08
         "BPM.25R2.B1"             1375.051                    1       177.0349181991   1.483239697419e-08          171.9255074          3.358407119       176.7374519428   1.480747455976e-08
         "BPM.26R2.B1"             1428.499                    1       34.44846515535   1.483239697419e-08          32.56395429          3.474293248       34.39058247283   1.480747455976e-08
         "BPM.27R2.B1"             1481.948                    1        168.485424268   1.483239697419e-08          172.6482644          3.612585846       168.2023234599   1.480747455976e-08
         "BPM.28R2.B1"             1535.397                    1       37.83035275845   1.483239697419e-08          37.43514041          3.718892209       37.76678759559   1.480747455976e-08
         "BPM.29R2.B1"             1588.845                    1       187.7915526028   1.483239697419e-08          174.0735149          3.844385545       187.4760123089   1.480747455976e-08
         "BPM.30R2.B1"             1642.294                    1       33.94738037654   1.483239697419e-08           32.6469624          3.959217195       33.89033965117   1.480747455976e-08
         "BPM.31R2.B1"             1695.742                    1       159.5893141482   1.483239697419e-08          170.5113893          4.098447948       159.3211611968   1.480747455976e-08
         "BPM.32R2.B1"             1749.191                    1       36.34236788988   1.483239697419e-08          37.31473248          4.205744742       36.28130294162   1.480747455976e-08
         "BPM.33R2.B1"             1802.639                    1       179.5784235345   1.483239697419e-08          176.1825667          4.330534842       179.2766835054   1.480747455976e-08
         "BPM.34R2.B1"             1856.088                    1       35.17076601041   1.483239697419e-08          32.80382966          4.444196529       35.11166966828   1.480747455976e-08
         "BPM.33L3.B1"             1909.536                    1       162.8618242041   1.483239697419e-08          168.4466343          4.584134342        162.588172556   1.480747455976e-08
         "BPM.32L3.B1"             1962.985                    1       36.35543299404   1.483239697419e-08          37.12263115          4.692541925       36.29434609289   1.480747455976e-08
         "BPM.31L3.B1"             2016.433                    1       178.9808303928   1.483239697419e-08          178.1868974          4.816845341        178.680094481   1.480747455976e-08
         "BPM.30L3.B1"             2069.882                    1       34.48815894944   1.483239697419e-08          33.02966457          4.929263394       34.43020957068   1.480747455976e-08
         "BPM.29L3.B1"              2123.33                    1       169.0827261347   1.483239697419e-08          166.5183835          5.069649668        168.798621699   1.480747455976e-08
         "BPM.27L3.B1"             2230.227                    1       190.6400204368   1.483239697419e-08           180.024007          5.303303042       190.3196939512   1.480747455976e-08
         "BPM.26L3.B1"             2283.676                    1       35.66319943865   1.483239697419e-08          33.31742504          5.414446141       35.60327567597   1.480747455976e-08
         "BPM.25L3.B1"             2337.124                    1       172.1128354497   1.483239697419e-08          164.7867646          5.555004576       171.8236396157   1.480747455976e-08
         "BPM.24L3.B1"             2390.573                    1       34.88856665268   1.483239697419e-08          36.54935787          5.665871263       34.82994448133   1.480747455976e-08
         "BPM.23L3.B1"             2444.021                    1        174.603806728   1.483239697419e-08          181.6366098          5.789890268       174.3104253926   1.480747455976e-08
         "BPM.22L3.B1"              2497.47                    1       31.44612274977   1.483239697419e-08          33.65813798          5.899768273       31.39328480964   1.480747455976e-08
         "BPM.21L3.B1"             2550.918                    1       163.9012911516   1.483239697419e-08          163.3057736          6.040215722       163.6258929196   1.480747455976e-08
         "BPM.20L3.B1"             2604.367                    1        38.7644822017   1.483239697419e-08          37.96417211          6.149207468       38.69934745024   1.480747455976e-08
         "BPM.19L3.B1"             2657.815                    1       181.8334647887   1.483239697419e-08          183.3356368          6.269566663       181.5279356841   1.480747455976e-08
         "BPM.18L3.B1"             2711.264                    1        35.2988565775   1.483239697419e-08          34.26722798          6.377702642       35.23954500878   1.480747455976e-08
         "BPM.17L3.B1"             2764.712                    1       162.4629096957   1.483239697419e-08          160.5877222          6.518004182       162.1899283312   1.480747455976e-08
         "BPM.16L3.B1"             2818.161                    1       40.16385550896   1.483239697419e-08          37.27903831          6.629303972       40.09636943413   1.480747455976e-08
         "BPM.14L3.B1"             2925.058                    1       36.49784222695   1.483239697419e-08             35.00428           6.85607278       36.43651604001   1.480747455976e-08
         "BPM.13L3.B1"             2978.506                    1       162.9174138508   1.483239697419e-08          158.6940322           6.99547007       162.6436687972   1.480747455976e-08
         "BPM.12L3.B1"             3031.955                    1       37.48107788916   1.483239697419e-08          33.70273297           7.11464477       37.41809960198   1.480747455976e-08
         "BPM.11L3.B1"             3085.403                    1        191.533493902   1.483239697419e-08          192.6082277          7.240553802       191.2116661408   1.480747455976e-08
         "BPM.10L3.B1"             3138.184                    1       38.46555296578   1.483239697419e-08          34.87350057          7.343374374        38.4009204958   1.480747455976e-08
          "BPM.8L3.B1"             3217.712                    1       15.82340736495   1.483239697419e-08          15.55480343          7.638330739       15.79681978664   1.480747455976e-08
          "BPM.7L3.B1"             3256.776                    1       149.4578603016   1.483239697419e-08          151.9393682           7.80186729       149.2067309164   1.480747455976e-08
          "BPM.6L3.B1"             3329.415                    1       71.57337886197   1.483239697419e-08          76.16433508          7.921777176       71.45311634385   1.480747455976e-08
       "BPMWG.A5L3.B1"              3371.12                    1       223.2082689856   1.483239697419e-08          240.9774917          7.971579497       222.8332190869   1.480747455976e-08
         "BPMW.5L3.B1"              3400.09                    1       244.0632376061   1.483239697419e-08          273.4609139          7.988316136       243.6531457535   1.480747455976e-08
        "BPMWE.4L3.B1"             3475.218                    1       86.37061191118   1.483239697419e-08           93.5225902          8.066149791       86.22548606347   1.480747455976e-08
         "BPMW.4L3.B1"             3502.763                    1       101.3968524888   1.483239697419e-08          118.5266245           8.11262504       101.2264785173   1.480747455976e-08
         "BPMW.4R3.B1"             3547.728                    1       343.4096409679   1.483239697419e-08          367.4551859          8.147187406       342.8326204496   1.480747455976e-08
        "BPMWE.4R3.B1"             3575.273                    1       341.0540306301   1.483239697419e-08          382.3742589          8.158081727       340.4809681704   1.480747455976e-08
         "BPMW.5R3.B1"             3650.401                    1       78.35315979489   1.483239697419e-08          83.24281125          8.227259468       78.22150542214   1.480747455976e-08
       "BPMWJ.A5R3.B1"             3679.119                    1       95.09312693521   1.483239697419e-08          92.37161917          8.286601092       94.93334491732   1.480747455976e-08
        "BPMWC.6R3.B1"             3718.937                    1       233.3521570688   1.483239697419e-08           238.487681          8.329827562        232.960062711   1.480747455976e-08
         "BPMR.6R3.B1"             3731.015                    1        255.945484479   1.483239697419e-08          248.8867754          8.337357315       255.5154272573   1.480747455976e-08
        "BPM_A.7R3.B1"             3786.839                    1       102.6783846596   1.483239697419e-08          64.50138049          8.409972842       102.5058573696   1.480747455976e-08
          "BPM.8R3.B1"             3825.903                    1       171.4909524633   1.483239697419e-08          167.3211759          8.475862446       171.2028015599   1.480747455976e-08
         "BPM.10R3.B1"             3905.431                    1       162.3324828564   1.483239697419e-08           168.425398          8.597872211        162.059720644   1.480747455976e-08
         "BPM.11R3.B1"             3958.212                    1       44.13524214694   1.483239697419e-08          44.43720673          8.696599762       44.06108307491   1.480747455976e-08
         "BPM.12R3.B1"             4012.935                    1       176.6776019764   1.483239697419e-08          168.6746733          8.811344174       176.3807361075   1.480747455976e-08
         "BPM.13R3.B1"             4066.384                    1       35.99099228028   1.483239697419e-08          33.11530297          8.927566141        35.9305177375   1.480747455976e-08
         "BPM.14R3.B1"             4119.833                    1       162.7865759704   1.483239697419e-08           168.187446          9.066544434       162.5130507596   1.480747455976e-08
         "BPM.15R3.B1"             4173.281                    1       37.93685868615   1.483239697419e-08          38.53820274          9.172699094       37.87311456469   1.480747455976e-08
         "BPM.17R3.B1"             4280.178                    1       37.61708646596   1.483239697419e-08          33.55236047          9.405110563        37.5538796478   1.480747455976e-08
         "BPM.19R3.B1"             4387.075                    1       37.49072425636   1.483239697419e-08          38.07520731          9.653153837       37.42772976069   1.480747455976e-08
         "BPM.20R3.B1"             4440.524                    1       179.7110368855   1.483239697419e-08          181.7699681          9.773938757       179.4090740304   1.480747455976e-08
         "BPM.21R3.B1"             4493.972                    1       35.46372949951   1.483239697419e-08          34.09332168          9.882958046       35.40414089995   1.480747455976e-08
         "BPM.22R3.B1"             4547.421                    1       153.7660894281   1.483239697419e-08          161.9618496          10.02292882       153.5077210597   1.480747455976e-08
         "BPM.23R3.B1"             4600.869                    1       34.97313572611   1.483239697419e-08          35.71953964          10.13652207       34.91437145599   1.480747455976e-08
         "BPM.24R3.B1"             4654.318                    1       183.2654490834   1.483239697419e-08          184.1278255          10.26127892       182.9575138602   1.480747455976e-08
         "BPM.25R3.B1"             4707.766                    1       34.26191041187   1.483239697419e-08          34.52291756           10.3686353       34.20434119148   1.480747455976e-08
         "BPM.26R3.B1"             4761.215                    1       168.0466804611   1.483239697419e-08          161.1677085          10.50791226       167.7643168606   1.480747455976e-08
         "BPM.27R3.B1"             4814.663                    1        39.2298745008   1.483239697419e-08          35.29307433          10.62268074       39.16395776516   1.480747455976e-08
         "BPM.28R3.B1"             4868.112                    1       197.1241315847   1.483239697419e-08          184.7426283          10.74812902       196.7929100492   1.480747455976e-08
         "BPM.29R3.B1"              4921.56                    1       35.37012571447   1.483239697419e-08          34.95539846          10.85448749       35.31069439444   1.480747455976e-08
         "BPM.30R3.B1"             4975.009                    1       158.6266117442   1.483239697419e-08          160.7370464          10.99283843       158.3600763916   1.480747455976e-08
         "BPM.31R3.B1"             5028.457                    1       33.20706236499   1.483239697419e-08          34.85795588          11.10866896        33.1512655729   1.480747455976e-08
         "BPM.32R3.B1"             5081.906                    1       182.0522696744   1.483239697419e-08           184.985786          11.23500973       181.7463729188   1.480747455976e-08
         "BPM.33R3.B1"             5135.354                    1       37.43559537534   1.483239697419e-08          35.38975579          11.34051447         37.372693511   1.480747455976e-08
         "BPM.34R3.B1"             5188.803                    1       164.9760644024   1.483239697419e-08          160.6832923          11.47774182       164.6988602624   1.480747455976e-08
         "BPM.33L4.B1"             5242.251                    1       35.80156643285   1.483239697419e-08          34.42775237          11.59448172       35.74141017642   1.480747455976e-08
         "BPM.32L4.B1"               5295.7                    1       191.4136978487   1.483239697419e-08          184.8497165          11.72189424        191.092071377   1.480747455976e-08
         "BPM.31L4.B1"             5349.148                    1       33.30390479891   1.483239697419e-08          35.81244523           11.8267101        33.2479452855   1.480747455976e-08
         "BPM.30L4.B1"             5402.597                    1        173.463126169   1.483239697419e-08          161.0081225          11.96265796       173.1716614836   1.480747455976e-08
         "BPM.29L4.B1"             5456.045                    1       36.86472485139   1.483239697419e-08          34.01587858          12.08011947       36.80278220301   1.480747455976e-08
         "BPM.27L4.B1"             5562.942                    1       33.82049634243   1.483239697419e-08          36.21028627          12.31306341       33.76366881635   1.480747455976e-08
         "BPM.26L4.B1"             5616.391                    1        170.519860512   1.483239697419e-08           161.701408          12.44762181       170.2333413042   1.480747455976e-08
         "BPM.25L4.B1"             5669.839                    1       33.50568995985   1.483239697419e-08          33.63517777          12.56558853       33.44939139312   1.480747455976e-08
         "BPM.24L4.B1"             5723.288                    1       187.2682374763   1.483239697419e-08          183.4685607          12.69556769       186.9535764925   1.480747455976e-08
         "BPM.23L4.B1"             5776.736                    1       36.13604830783   1.483239697419e-08          36.57087325          12.79955931       36.07533003193   1.480747455976e-08
         "BPM.22L4.B1"             5830.185                    1        160.414827416   1.483239697419e-08          162.7415304          12.93266618       160.1452873804   1.480747455976e-08
         "BPM.21L4.B1"             5883.634                    1       34.24270276381   1.483239697419e-08          33.29752111          13.05090124       34.18516581743   1.480747455976e-08
         "BPM.20L4.B1"             5937.082                    1       174.6549694161   1.483239697419e-08          180.8117622          13.18296775       174.3615021136   1.480747455976e-08
         "BPM.19L4.B1"             5990.531                    1        37.6052364736   1.483239697419e-08           38.7787518          13.28434878       37.54204956661   1.480747455976e-08
         "BPM.18L4.B1"             6043.979                    1       173.3309510241   1.483239697419e-08          166.0163812          13.41079016       173.0397084284   1.480747455976e-08
         "BPM.17L4.B1"             6097.428                    1       31.87358212669   1.483239697419e-08          32.98642115          13.52829104       31.82002593989   1.480747455976e-08
         "BPM.15L4.B1"             6204.325                    1       39.75360428808   1.483239697419e-08          38.99000234           13.7650956        39.6868075456   1.480747455976e-08
         "BPM.14L4.B1"             6257.773                    1       169.8571776975   1.483239697419e-08          169.6690688          13.88936318       169.5717719749   1.480747455976e-08
         "BPM.13L4.B1"             6311.222                    1       32.60530143183   1.483239697419e-08          32.87866161           14.0055363       32.55051575989   1.480747455976e-08
         "BPM.12L4.B1"              6364.67                    1       175.5059347762   1.483239697419e-08          174.0267666          14.14217033       175.2110376231   1.480747455976e-08
         "BPM.11L4.B1"             6418.119                    1       43.51390135754   1.483239697419e-08          41.33755642          14.24208575       43.44078630508   1.480747455976e-08
         "BPM.10L4.B1"             6469.957                    1       171.2347272451   1.483239697419e-08          175.3732067          14.35476643       170.9470068689   1.480747455976e-08
          "BPM.9L4.B1"             6509.022                    1        50.9746020993   1.483239697419e-08          51.35549397          14.41683614       50.88895106386   1.480747455976e-08
          "BPM.8L4.B1"             6549.485                    1       144.0266025869   1.483239697419e-08          140.0695011          14.50738011       143.7845991747   1.480747455976e-08
          "BPM.7L4.B1"             6588.549                    1       82.18982594033   1.483239697419e-08          81.18791603          14.56312449       82.05172493701   1.480747455976e-08
        "BPMYB.6L4.B1"             6685.153                    1       527.1876390557   1.483239697419e-08          583.4974334          14.64096836       526.3018220941   1.480747455976e-08
        "BPMYA.5L4.B1"             6722.153                    1       237.8857814786   1.483239697419e-08          253.2610322          14.65560215        237.486069413   1.480747455976e-08
       "BPMWI.A5L4.B1"             6798.756                    1        193.016301062   1.483239697419e-08          210.1960037          14.71170274       192.6919817862   1.480747455976e-08
       "BPMWA.B5L4.B1"              6824.62                    1       186.9321011575   1.483239697419e-08          214.9262064          14.73111768       186.6180049731   1.480747455976e-08
       "BPMWA.A5L4.B1"             6833.505                    1        191.750859382   1.483239697419e-08          218.0210454          14.73765208       191.4286663883   1.480747455976e-08
       "BPMWA.A5R4.B1"             6881.554                    1       219.7570330782   1.483239697419e-08           247.783731          14.77079279       219.3877821837   1.480747455976e-08
       "BPMWA.B5R4.B1"             6890.439                    1       218.9290564963   1.483239697419e-08          255.6960498          14.77641193        218.561196825   1.480747455976e-08
        "BPMYB.5R4.B1"             6992.829                    1       330.9012645885   1.483239697419e-08          366.5728818          14.82826176       330.3452615052   1.480747455976e-08
        "BPMYA.6R4.B1"             7024.393                    1       112.5171152013   1.483239697419e-08          111.5334933          14.85320824       112.3280561989   1.480747455976e-08
          "BPM.7R4.B1"             7120.909                    1       103.9443893307   1.483239697419e-08          106.4373428          15.04454446       103.7697348124   1.480747455976e-08
          "BPM.8R4.B1"             7158.698                    1       32.68206762902   1.483239697419e-08          31.10641486           15.1510623       32.62715296923   1.480747455976e-08
          "BPM.9R4.B1"             7197.763                    1       171.1730459484   1.483239697419e-08          170.9331183          15.25321848       170.8854292134   1.480747455976e-08
         "BPM.10R4.B1"             7238.226                    1       39.15331259789   1.483239697419e-08          44.02724682          15.32111001       39.08752450683   1.480747455976e-08
         "BPM.11R4.B1"             7290.065                    1       137.3114043963   1.483239697419e-08          141.6684749          15.44967944       137.0806843224   1.480747455976e-08
         "BPM.12R4.B1"             7344.789                    1       33.23935851084   1.483239697419e-08          29.79620587          15.59450742       33.18350745255   1.480747455976e-08
         "BPM.13R4.B1"             7398.237                    1       213.5555692889   1.483239697419e-08          221.7257118          15.71886707       213.1967385207   1.480747455976e-08
         "BPM.14R4.B1"             7451.686                    1       31.12444196313   1.483239697419e-08          32.63659824          15.81815807        31.0721445332   1.480747455976e-08
         "BPM.15R4.B1"             7505.134                    1       142.3405796518   1.483239697419e-08          134.0652624          15.98461511       142.1014092114   1.480747455976e-08
         "BPM.16R4.B1"             7558.583                    1       37.45048988712   1.483239697419e-08          36.82826145          16.10975461         37.387562996   1.480747455976e-08
         "BPM.17R4.B1"             7612.031                    1       212.3118762026   1.483239697419e-08          222.0520543          16.21883958       211.9551351731   1.480747455976e-08
         "BPM.18R4.B1"              7665.48                    1       31.59563297938   1.483239697419e-08          32.64065921          16.31812107       31.54254382187   1.480747455976e-08
         "BPM.19R4.B1"             7718.928                    1       134.0064503806   1.483239697419e-08          134.0575374          16.48456893        133.781283518   1.480747455976e-08
         "BPM.20R4.B1"             7772.377                    1       39.49254433813   1.483239697419e-08          36.82420027          16.60972182       39.42618624655   1.480747455976e-08
         "BPM.21R4.B1"             7825.825                    1       225.0133341297   1.483239697419e-08          222.0597748           16.7188117       224.6352512363   1.480747455976e-08
         "BPM.22R4.B1"             7879.274                    1       31.12092212972   1.483239697419e-08           32.6447206          16.81808407       31.06863061406   1.480747455976e-08
         "BPM.23R4.B1"             7932.722                    1       142.5388858192   1.483239697419e-08          134.0498214          16.98452275       142.2993821712   1.480747455976e-08
         "BPM.24R4.B1"             7986.171                    1       38.16879955932   1.483239697419e-08          36.82013866          17.10968902       38.10466571484   1.480747455976e-08
         "BPM.26R4.B1"             8093.068                    1       33.30972872556   1.483239697419e-08          32.64878243          17.31804708       33.25375942639   1.480747455976e-08
         "BPM.27R4.B1"             8146.516                    1       137.4147616707   1.483239697419e-08          134.0421144          17.48447656       137.1838679288   1.480747455976e-08
         "BPM.28R4.B1"             8199.965                    1       36.84529047355   1.483239697419e-08          36.81607662          17.60965622       36.78338048014   1.480747455976e-08
         "BPM.29R4.B1"             8253.413                    1       208.7791837468   1.483239697419e-08          222.0751888          17.71875595       208.4283785903   1.480747455976e-08
         "BPM.30R4.B1"             8306.862                    1       31.72689800034   1.483239697419e-08          32.65284469          17.81801009        31.6735882823   1.480747455976e-08
         "BPM.32R4.B1"             8413.759                    1       36.38267301691   1.483239697419e-08          36.81201415          18.10962342        36.3215403452   1.480747455976e-08
         "BPM.33R4.B1"             8467.208                    1       221.6049477745   1.483239697419e-08          222.0828822          18.21872807       221.2325918864   1.480747455976e-08
         "BPM.34R4.B1"             8520.656                    1       31.47639465312   1.483239697419e-08          32.65690737          18.31797311       31.42350584806   1.480747455976e-08
         "BPM.33L5.B1"             8574.105                    1       136.6742651419   1.483239697419e-08          134.0267276          18.48438419       136.4446156332   1.480747455976e-08
         "BPM.32L5.B1"             8627.553                    1       40.60268316873   1.483239697419e-08          36.80795125          18.60959061       40.53445974547   1.480747455976e-08
         "BPM.31L5.B1"             8681.002                    1       218.2585850726   1.483239697419e-08          222.0905666           18.7187002       217.8918519735   1.480747455976e-08
         "BPM.30L5.B1"              8734.45                    1       30.96045167325   1.483239697419e-08          32.66097048          18.81793614        30.9084297911   1.480747455976e-08
         "BPM.29L5.B1"             8787.899                    1        140.562886069   1.483239697419e-08          134.0190477            18.984338       140.3267026318   1.480747455976e-08
         "BPM.28L5.B1"             8841.347                    1       37.99275302686   1.483239697419e-08          36.80388793           19.1095578       37.92891498788   1.480747455976e-08
         "BPM.27L5.B1"             8894.796                    1       223.7589188106   1.483239697419e-08          222.0982419          19.21867232       223.3829436722   1.480747455976e-08
         "BPM.26L5.B1"             8948.244                    1       31.73358198748   1.483239697419e-08          32.66503401          19.31789916       31.68026103855   1.480747455976e-08
         "BPM.25L5.B1"             9001.693                    1       126.0542931994   1.483239697419e-08          134.0113769           19.4842918       125.8424880987   1.480747455976e-08
         "BPM.24L5.B1"             9055.141                    1       37.57926755738   1.483239697419e-08          36.79982419          19.60952499       37.51612428515   1.480747455976e-08
         "BPM.22L5.B1"             9162.038                    1       31.98267177122   1.483239697419e-08          32.66909797           19.8178622       31.92893228449   1.480747455976e-08
         "BPM.21L5.B1"             9215.487                    1       137.4214854419   1.483239697419e-08          134.0037151          19.98424561       137.1905804022   1.480747455976e-08
         "BPM.20L5.B1"             9268.935                    1       37.31060062371   1.483239697419e-08          36.79576002          20.10949217       37.24790878416   1.480747455976e-08
         "BPM.19L5.B1"             9322.384                    1       229.0273172734   1.483239697419e-08          222.1135654          20.21861658       228.6424898092   1.480747455976e-08
         "BPM.18L5.B1"             9375.832                    1       33.26372014355   1.483239697419e-08          32.67316235          20.31782523       33.20782815116   1.480747455976e-08
         "BPM.17L5.B1"             9429.281                    1       136.2272454611   1.483239697419e-08          133.9960624          20.48419941       135.9983470657   1.480747455976e-08
         "BPM.16L5.B1"             9482.729                    1       39.06489337402   1.483239697419e-08          36.79169542          20.60945935       38.99925385103   1.480747455976e-08
         "BPM.15L5.B1"             9536.178                    1       215.1537428334   1.483239697419e-08          222.1212136           20.7185887       214.7922267039   1.480747455976e-08
         "BPM.14L5.B1"             9589.626                    1        33.1265763722   1.483239697419e-08          32.67722715          20.81778827       33.07091481822   1.480747455976e-08
         "BPM.13L5.B1"             9643.075                    1       131.8397145317   1.483239697419e-08          133.9884187           20.9841532       131.6181883678   1.480747455976e-08
         "BPM.12L5.B1"             9696.523                    1       38.37188493571   1.483239697419e-08          40.14177169          21.10281853        38.3074098532   1.480747455976e-08
         "BPM.11L5.B1"             9749.972                    1       220.0815880418   1.483239697419e-08          222.0631327          21.20642828       219.7117918076   1.480747455976e-08
         "BPM.10L5.B1"             9802.753                    1       65.79111136749   1.483239697419e-08          66.90384916          21.27419416       65.68056461325   1.480747455976e-08
          "BPM.9L5.B1"             9841.818                    1        202.321210234   1.483239697419e-08          203.2477193          21.33402049       201.9812562092   1.480747455976e-08
          "BPM.8L5.B1"             9882.281                    1       8.479698056617   1.483239697419e-08          8.726605762           21.4916793       8.465449884217   1.480747455976e-08
         "BPMR.7L5.B1"             9921.347                    1        212.963740963   1.483239697419e-08          216.1692297          21.73503692       212.6059046254   1.480747455976e-08
         "BPMR.5L5.B1"             9990.141                    1        146.387142584   1.483239697419e-08          154.5659719           22.1853188         146.14117283   1.480747455976e-08
        "BPMWB.4L5.B1"             10038.68                    1       1022.616602911   1.483239697419e-08          1069.525585           22.2057352         1020.8983321   1.480747455976e-08
        "BPMSY.4L5.B1"             10131.46                    1       6748.802086446   1.483239697419e-08          6718.383354          22.21124496       6737.462284607   1.480747455976e-08
         "BPMS.2L5.B1"             10158.25                    1        1929.05374726   1.483239697419e-08           1909.75128          22.21251674       1925.812418362   1.480747455976e-08
        "BPMSW.1L5.B1"             10168.21                    1       1522.831972631   1.483239697419e-08          1513.161903          22.21334254       1520.273205522   1.480747455976e-08
         "BPMS.2R5.B1"              10221.3                    1       4949.312056569   1.483239697419e-08          5078.206026          22.70945494       4940.995881752   1.480747455976e-08
        "BPMSY.4R5.B1"             10248.09                    1       2943.735786336   1.483239697419e-08          3242.043737           22.7103301       2938.789518827   1.480747455976e-08
        "BPMWB.4R5.B1"             10340.87                    1       1699.320141408   1.483239697419e-08          1706.336343          22.71660989       1696.464826729   1.480747455976e-08
        "BPMYA.4R5.B1"                10362                    1       1335.866044478   1.483239697419e-08          1363.372143          22.71877376       1333.621430392   1.480747455976e-08
          "BPM.5R5.B1"             10383.12                    1       702.5134428365   1.483239697419e-08          718.1543596          22.72217071       701.3330313903   1.480747455976e-08
         "BPMR.6R5.B1"             10415.02                    1       238.1708924405   1.483239697419e-08          252.0213641          22.73431219       237.7707013118   1.480747455976e-08
          "BPM.8R5.B1"             10490.47                    1       118.7594890096   1.483239697419e-08          115.1238467          23.06256576        118.559941141   1.480747455976e-08
          "BPM.9R5.B1"             10529.54                    1       54.00374151085   1.483239697419e-08          51.57037114          23.13780206       53.91300070686   1.480747455976e-08
         "BPM.10R5.B1"             10570.01                    1        214.934002015   1.483239697419e-08          217.1941179          23.20904809       214.5728551092   1.480747455976e-08
         "BPM.11R5.B1"             10622.79                    1        29.8599080154   1.483239697419e-08          31.55846446          23.30812335       29.80973534246   1.480747455976e-08
         "BPM.12R5.B1"             10677.51                    1       143.0452235155   1.483239697419e-08          133.1728114          23.48505178        142.804869084   1.480747455976e-08
         "BPM.14R5.B1"             10784.42                    1        221.337667213   1.483239697419e-08          221.8794122          23.71951656       220.9657604282   1.480747455976e-08
         "BPM.17R5.B1"             10944.77                    1       38.31038685797   1.483239697419e-08          36.92258691          24.11054008       38.24601510876   1.480747455976e-08
         "BPM.18R5.B1"             10998.22                    1       226.9026115403   1.483239697419e-08          221.8794122          24.21951656       226.5213541528   1.480747455976e-08
         "BPM.19R5.B1"             11051.68                    1       34.10241248013   1.483239697419e-08          32.53874536          24.31902836       34.04511125914   1.480747455976e-08
         "BPM.20R5.B1"             11105.13                    1       139.1380333129   1.483239697419e-08          134.2621539          24.48571205       138.9042440113   1.480747455976e-08
         "BPM.23R5.B1"             11265.48                    1       33.42071840399   1.483239697419e-08          32.53874536          24.81902836       33.36456261232   1.480747455976e-08
         "BPM.24R5.B1"             11318.93                    1       139.3639307421   1.483239697419e-08          134.2621539          24.98571205       139.1297618722   1.480747455976e-08
         "BPM.25R5.B1"             11372.38                    1       36.64610684361   1.483239697419e-08          36.92258691          25.11054008       36.58453153225   1.480747455976e-08
         "BPM.26R5.B1"             11425.84                    1       226.0251577098   1.483239697419e-08          221.8794122          25.21951656       225.6453746807   1.480747455976e-08
         "BPM.27R5.B1"             11479.29                    1       31.26254218467   1.483239697419e-08          32.53874536          25.31902836       31.21001270924   1.480747455976e-08
         "BPM.28R5.B1"             11532.74                    1       139.5436372304   1.483239697419e-08          134.2621539          25.48571205       139.3091664053   1.480747455976e-08
         "BPM.29R5.B1"             11586.19                    1       38.36623362356   1.483239697419e-08          36.92258691          25.61054008       38.30176803678   1.480747455976e-08
         "BPM.30R5.B1"             11639.64                    1       212.5566657117   1.483239697419e-08          221.8794122          25.71951656       212.1995133701   1.480747455976e-08
         "BPM.31R5.B1"             11693.09                    1       33.64211835713   1.483239697419e-08          32.53874536          25.81902836       33.58559055401   1.480747455976e-08
         "BPM.32R5.B1"             11746.54                    1       137.3313585643   1.483239697419e-08          134.2621539          25.98571205       137.1006049621   1.480747455976e-08
         "BPM.33R5.B1"                11800                    1       35.15847884372   1.483239697419e-08          36.92258691          26.11054008       35.09940314733   1.480747455976e-08
         "BPM.34R5.B1"             11853.45                    1       198.4710335075   1.483239697419e-08          221.8794122          26.21951656       198.1375488147   1.480747455976e-08
         "BPM.33L6.B1"              11906.9                    1       35.42657186114   1.483239697419e-08          32.53874536          26.31902836       35.36704569641   1.480747455976e-08
         "BPM.32L6.B1"             11960.35                    1       138.8392337707   1.483239697419e-08          134.2621539          26.48571205       138.6059465327   1.480747455976e-08
         "BPM.30L6.B1"             12067.25                    1       216.2918254884   1.483239697419e-08          221.8794122          26.71951656       215.9283970741   1.480747455976e-08
         "BPM.29L6.B1"              12120.7                    1       31.40887342456   1.483239697419e-08          32.53874537          26.81902836       31.35609807331   1.480747455976e-08
         "BPM.28L6.B1"             12174.16                    1       148.7419479561   1.483239697419e-08          134.2621539          26.98571205        148.492021496   1.480747455976e-08
         "BPM.27L6.B1"             12227.61                    1       36.04360541061   1.483239697419e-08          36.92258691          27.11054008       35.98304246363   1.480747455976e-08
         "BPM.26L6.B1"             12281.06                    1       210.6834636806   1.483239697419e-08          221.8794122          27.21951656       210.3294588219   1.480747455976e-08
         "BPM.25L6.B1"             12334.51                    1       34.67431454549   1.483239697419e-08          32.53874537          27.31902836       34.61605237528   1.480747455976e-08
         "BPM.24L6.B1"             12387.96                    1       142.3305289707   1.483239697419e-08          134.2621539          27.48571205       142.0913754182   1.480747455976e-08
         "BPM.22L6.B1"             12494.87                    1       222.5665678887   1.483239697419e-08          221.8794122          27.71951656       222.1925962204   1.480747455976e-08
         "BPM.21L6.B1"             12548.32                    1       34.38472094256   1.483239697419e-08          32.53874537          27.81902836       34.32694536746   1.480747455976e-08
         "BPM.20L6.B1"             12601.77                    1       144.3283458614   1.483239697419e-08          134.2621539          27.98571205       144.0858354394   1.480747455976e-08
         "BPM.19L6.B1"             12655.22                    1       35.31047592506   1.483239697419e-08          36.92258691          28.11054008       35.25114483271   1.480747455976e-08
         "BPM.18L6.B1"             12708.67                    1       211.9244725293   1.483239697419e-08          221.8794122          28.21951656       211.5683824421   1.480747455976e-08
         "BPM.17L6.B1"             12762.12                    1       34.26947536012   1.483239697419e-08          32.53874537          28.31902836       34.21189342858   1.480747455976e-08
         "BPM.16L6.B1"             12815.57                    1       138.9049252125   1.483239697419e-08          134.2621539          28.48571205       138.6715275952   1.480747455976e-08
         "BPM.15L6.B1"             12869.03                    1       41.45919903489   1.483239697419e-08          36.92258691          28.61054008       41.38953643471   1.480747455976e-08
         "BPM.14L6.B1"             12922.48                    1       219.1256224507   1.483239697419e-08          221.8794122          28.71951656       218.7574324957   1.480747455976e-08
         "BPM.13L6.B1"             12975.93                    1       29.81759090714   1.483239697419e-08          32.53874537          28.81902836       29.76748933832   1.480747455976e-08
         "BPM.12L6.B1"             13029.38                    1       137.8252127363   1.483239697419e-08          134.2947993           28.9856803       137.5936293263   1.480747455976e-08
         "BPM.11L6.B1"             13082.83                    1       34.15502032539   1.483239697419e-08          32.01597285          29.12255496       34.09763070908   1.480747455976e-08
         "BPM.10L6.B1"             13134.67                    1       207.1362822811   1.483239697419e-08          216.1741275          29.23869486       206.7882376408   1.480747455976e-08
          "BPM.9L6.B1"             13173.74                    1       16.45554967654   1.483239697419e-08          14.52071708          29.34615847        16.4278999292   1.480747455976e-08
          "BPM.8L6.B1"              13214.2                    1       142.6022359588   1.483239697419e-08          147.0165951          29.61214559       142.3626258655   1.480747455976e-08
        "BPMYA.5L6.B1"             13311.29                    1       158.0661174319   1.483239697419e-08          170.8769797          29.70761382       157.8005238604   1.480747455976e-08
        "BPMYB.4L6.B1"             13347.69                    1       529.1896735112   1.483239697419e-08          581.3489789          29.72707803       528.3004925934   1.480747455976e-08
       "BPMSX.B4L6.B1"             13383.23                    1       421.1962592665   1.483239697419e-08          498.5774075          29.73716106       420.4885363175   1.480747455976e-08
       "BPMSX.A4L6.B1"             13383.82                    1       450.3114795092   1.483239697419e-08          496.4842521          29.73734819       449.5548351628   1.480747455976e-08
        "BPMSE.4L6.B1"             13476.94                    1       196.7179133184   1.483239697419e-08          236.9580154          29.78110887       196.3873743388   1.480747455976e-08
        "BPMSA.4R6.B1"             13568.51                    1       122.1437667275   1.483239697419e-08          124.5561266          29.87057837       121.9385323625   1.480747455976e-08
       "BPMSI.A4R6.B1"             13661.77                    1       152.7043900694   1.483239697419e-08          155.6121691          29.98740365       152.4478056414   1.480747455976e-08
       "BPMSI.B4R6.B1"             13662.41                    1        139.597635289   1.483239697419e-08          156.3270212          29.98805162       139.3630737326   1.480747455976e-08
        "BPMYA.4R6.B1"             13691.29                    1       183.0512512938   1.483239697419e-08           196.042679          30.01443213       182.7436759805   1.480747455976e-08
        "BPMYB.5R6.B1"             13727.69                    1       615.6623960598   1.483239697419e-08          657.0735012          30.03139334       614.6279177211   1.480747455976e-08
          "BPM.9R6.B1"             13862.49                    1       119.1678896651   1.483239697419e-08          108.9468703          30.32959756       118.9676555736   1.480747455976e-08
         "BPM.10R6.B1"             13902.95                    1       27.16334877636   1.483239697419e-08          29.75705645          30.43629833       27.11770704788   1.480747455976e-08
         "BPM.11R6.B1"             13954.79                    1       199.1293836517   1.483239697419e-08          192.0685537          30.57246176       198.7947927536   1.480747455976e-08
         "BPM.12R6.B1"             14009.52                    1       39.21524756598   1.483239697419e-08          36.24426759          30.67738712       39.14935540753   1.480747455976e-08
         "BPM.13R6.B1"             14062.97                    1       161.6717899544   1.483239697419e-08          158.6743884           30.8135595       161.4001378838   1.480747455976e-08
         "BPM.14R6.B1"             14116.42                    1       32.90136089166   1.483239697419e-08          31.77730727          30.93691782       32.84607776023   1.480747455976e-08
         "BPM.15R6.B1"             14169.87                    1       197.5914856139   1.483239697419e-08          188.4941717          31.06954662        197.259478798   1.480747455976e-08
         "BPM.16R6.B1"             14223.33                    1       29.89545327071   1.483239697419e-08          30.69610811          31.18274838       29.84522087219   1.480747455976e-08
         "BPM.17R6.B1"             14276.78                    1       170.0445808956   1.483239697419e-08          159.7694364          31.33520716       169.7588602853   1.480747455976e-08
         "BPM.18R6.B1"             14330.23                    1       28.62819531767   1.483239697419e-08           32.4608085          31.45629423       28.58009225319   1.480747455976e-08
         "BPM.20R6.B1"             14437.13                    1       28.23182353909   1.483239697419e-08          30.04014949          31.70324806       28.18438648576   1.480747455976e-08
         "BPM.21R6.B1"             14490.58                    1       159.1691020228   1.483239697419e-08           161.956284          31.85661842       158.9016551407   1.480747455976e-08
         "BPM.22R6.B1"             14544.04                    1       31.37388500977   1.483239697419e-08          33.07898663          31.97528373       31.32116844846   1.480747455976e-08
         "BPM.23R6.B1"             14597.49                    1       189.1678659945   1.483239697419e-08          182.7015947           32.1071029       188.8500131241   1.480747455976e-08
         "BPM.24R6.B1"             14650.94                    1       31.75373917672   1.483239697419e-08          31.13264758          32.22151708        31.7003843583   1.480747455976e-08
         "BPM.25R6.B1"             14704.39                    1       158.6884734456   1.483239697419e-08          163.1131138          32.37009525       158.4218341488   1.480747455976e-08
         "BPM.26R6.B1"             14757.84                    1        34.1181884824   1.483239697419e-08          33.39917783          32.48757194       34.06086075349   1.480747455976e-08
         "BPM.27R6.B1"             14811.29                    1       185.3198729965   1.483239697419e-08          181.4934268          32.61913157       185.0084857889   1.480747455976e-08
         "BPM.28R6.B1"             14864.74                    1       32.04190787266   1.483239697419e-08          30.82693071          32.73470344       31.98806885335   1.480747455976e-08
         "BPM.29R6.B1"              14918.2                    1       167.1799472502   1.483239697419e-08          164.4386605          32.88347262       166.8990399945   1.480747455976e-08
         "BPM.30R6.B1"             14971.65                    1       34.13695275038   1.483239697419e-08          33.68846803          32.99974827       34.07959349245   1.480747455976e-08
         "BPM.31R6.B1"              15025.1                    1       177.8385859863   1.483239697419e-08          180.0589664          33.13124835       177.5397693521   1.480747455976e-08
         "BPM.32R6.B1"             15078.55                    1       31.09154128934   1.483239697419e-08          30.55591463          33.24801395       31.03929914139   1.480747455976e-08
         "BPM.33R6.B1"                15132                    1        169.771221785   1.483239697419e-08           165.972874          33.39673397       169.4859604914   1.480747455976e-08
         "BPM.34R6.B1"             15185.45                    1       37.20586365217   1.483239697419e-08          33.93947925           33.5118271       37.14334779889   1.480747455976e-08
         "BPM.32L7.B1"             15292.36                    1       31.56202091967   1.483239697419e-08          30.32651124          33.76143408       31.50898823946   1.480747455976e-08
         "BPM.31L7.B1"             15345.81                    1       173.3099492564   1.483239697419e-08          167.6766263          33.90986635       173.0187419494   1.480747455976e-08
         "BPM.30L7.B1"             15399.26                    1        32.4322235915   1.483239697419e-08           34.1458098          34.02382461       32.37772873686   1.480747455976e-08
         "BPM.29L7.B1"             15452.71                    1        173.160613842   1.483239697419e-08          176.6623422          34.15580629       172.8696574587   1.480747455976e-08
         "BPM.28L7.B1"             15506.16                    1       31.57921250742   1.483239697419e-08          30.14457118          34.27494569       31.52615094072   1.480747455976e-08
         "BPM.27L7.B1"             15559.61                    1       173.6872308554   1.483239697419e-08          169.5064654          34.42286083       173.3953896139   1.480747455976e-08
         "BPM.26L7.B1"             15613.06                    1       37.24342861426   1.483239697419e-08          34.30219748           34.5357584       37.18084964175   1.480747455976e-08
         "BPM.25L7.B1"             15666.52                    1       189.5598003154   1.483239697419e-08          174.7868048          34.66827218         189.24128889   1.480747455976e-08
         "BPM.24L7.B1"             15719.97                    1       27.90589373768   1.483239697419e-08           30.0147346          34.78852747       27.85900433404   1.480747455976e-08
         "BPM.23L7.B1"             15773.42                    1        173.273376182   1.483239697419e-08          171.4157236          34.93571248       172.9822303275   1.480747455976e-08
         "BPM.22L7.B1"             15826.87                    1       37.25925859688   1.483239697419e-08          34.40465382          35.04764713       37.19665302573   1.480747455976e-08
         "BPM.21L7.B1"             15880.32                    1       168.7500627557   1.483239697419e-08          172.8560185          35.18087486       168.4665172839   1.480747455976e-08
         "BPM.20L7.B1"             15933.77                    1       27.71068936583   1.483239697419e-08          28.40455429          35.30622227       27.66412795801   1.480747455976e-08
         "BPM.19L7.B1"             15987.23                    1       185.0837496724   1.483239697419e-08          176.9074139          35.45597932       184.7727592154   1.480747455976e-08
         "BPM.18L7.B1"             16040.68                    1       37.85327628336   1.483239697419e-08          34.43983731          35.56571758       37.78967260281   1.480747455976e-08
         "BPM.17L7.B1"             16094.13                    1       167.7719144437   1.483239697419e-08          168.7536841          35.70103391       167.4900125239   1.480747455976e-08
         "BPM.16L7.B1"             16147.58                    1       27.34369247478   1.483239697419e-08           28.4761101          35.82811878       27.29774772041   1.480747455976e-08
         "BPM.15L7.B1"             16201.03                    1       181.6317007342   1.483239697419e-08          180.8824888          35.97522195       181.3265106475   1.480747455976e-08
         "BPM.14L7.B1"             16254.48                    1       36.40703553174   1.483239697419e-08           34.2752025          36.08382494       36.34586192445   1.480747455976e-08
         "BPM.13L7.B1"             16307.93                    1       168.0139197098   1.483239697419e-08          164.9679097          36.22167195       167.7316111562   1.480747455976e-08
         "BPM.12L7.B1"             16361.39                    1       33.81348141037   1.483239697419e-08          33.88059839           36.3373888       33.75666567126   1.480747455976e-08
         "BPM.10L7.B1"             16467.62                    1       52.16127494605   1.483239697419e-08          50.82300856          36.55503997       52.07362998121   1.480747455976e-08
          "BPM.9L7.B1"             16506.69                    1       182.7894356033   1.483239697419e-08          174.1254473          36.62984833       182.4823002107   1.480747455976e-08
          "BPM.8L7.B1"             16547.15                    1        59.5088418484   1.483239697419e-08          60.39806507          36.69025745       59.40885099587   1.480747455976e-08
          "BPM.7L7.B1"             16586.22                    1       121.3214705219   1.483239697419e-08          126.8540198          36.76878644       121.1176178356   1.480747455976e-08
          "BPM.6L7.B1"             16621.04                    1       47.47268291453   1.483239697419e-08          46.58783478          36.83917325       47.39291604478   1.480747455976e-08
        "BPMWC.6L7.B1"             16633.14                    1       43.02189527896   1.483239697419e-08          47.44706555          36.88327252       42.94960692897   1.480747455976e-08
        "BPMWE.5L7.B1"             16710.19                    1       311.5474157245   1.483239697419e-08          327.2039188          36.98938526       311.0239323104   1.480747455976e-08
         "BPMW.5L7.B1"              16733.4                    1       272.4516066728   1.483239697419e-08          299.7740494          37.00031456       271.9938147282   1.480747455976e-08
        "BPMWE.4L7.B1"             16768.48                    1       93.91469877865   1.483239697419e-08          99.49460192          37.03287411       93.75689683687   1.480747455976e-08
         "BPMW.4L7.B1"             16796.59                    1       56.54113798429   1.483239697419e-08          57.96080567          37.09903301       56.44613367207   1.480747455976e-08
         "BPMW.4R7.B1"             16912.63                    1       327.9262137222   1.483239697419e-08          357.5284686          37.24825707       327.3752095242   1.480747455976e-08
        "BPMWE.4R7.B1"             16940.74                    1       275.5762114363   1.483239697419e-08          300.2812777          37.26091663       275.1131693158   1.480747455976e-08
         "BPMW.5R7.B1"             16975.82                    1       84.31111048519   1.483239697419e-08          86.83567815          37.29577493       84.16944515355   1.480747455976e-08
        "BPMWE.5R7.B1"             16999.03                    1       38.53031289954   1.483239697419e-08          44.86342862          37.36129226       38.46557161546   1.480747455976e-08
         "BPMR.6R7.B1"             17078.24                    1       177.8407372704   1.483239697419e-08          180.3248922          37.53276127       177.5419170214   1.480747455976e-08
        "BPM_A.7R7.B1"             17116.28                    1       57.07364549531   1.483239697419e-08          61.25421933          37.58556192       56.97774642732   1.480747455976e-08
          "BPM.8R7.B1"             17155.35                    1       145.0512706615   1.483239697419e-08          136.1253134          37.66304706       144.8075455315   1.480747455976e-08
          "BPM.9R7.B1"             17194.41                    1       42.31845152521   1.483239697419e-08          42.55643018          37.74327375       42.24734514984   1.480747455976e-08
         "BPM.10R7.B1"             17234.88                    1       166.9552184451   1.483239697419e-08          163.1615331          37.83428425       166.6746887942   1.480747455976e-08
         "BPM.11R7.B1"             17287.66                    1       34.07744214288   1.483239697419e-08           34.6405383          37.94746465       34.02018287877   1.480747455976e-08
         "BPM.12R7.B1"             17342.39                    1       196.7236955292   1.483239697419e-08          184.3818777           38.0776461       196.3931468339   1.480747455976e-08
         "BPM.13R7.B1"             17395.84                    1       33.92785393015   1.483239697419e-08          31.88640395          38.18985352       33.87084601446   1.480747455976e-08
         "BPM.14R7.B1"             17449.29                    1       171.4010641156   1.483239697419e-08          163.0213528          38.33601522       171.1130642488   1.480747455976e-08
         "BPM.15R7.B1"             17502.74                    1       31.90681289718   1.483239697419e-08          31.02342401          38.45903013       31.85320087375   1.480747455976e-08
         "BPM.16R7.B1"             17556.19                    1       183.9491467835   1.483239697419e-08          183.6946154          38.59614646       183.6400627644   1.480747455976e-08
         "BPM.17R7.B1"             17609.65                    1       32.88338136166   1.483239697419e-08          31.42075784          38.70951706       32.82812844068   1.480747455976e-08
         "BPM.18R7.B1"              17663.1                    1       164.3734277401   1.483239697419e-08          163.1378398          38.85713321       164.0972361917   1.480747455976e-08
         "BPM.19R7.B1"             17716.55                    1       30.90397796367   1.483239697419e-08          31.48995718          38.97894333       30.85205097253   1.480747455976e-08
         "BPM.20R7.B1"                17770                    1       177.4276905602   1.483239697419e-08          183.2572881          39.11490522       177.1295643408   1.480747455976e-08
         "BPM.21R7.B1"             17823.45                    1       33.56522904661   1.483239697419e-08           30.9553047          39.22947433       33.50883043821   1.480747455976e-08
         "BPM.22R7.B1"              17876.9                    1        181.126695067   1.483239697419e-08          163.8891819          39.37819488       180.8223535256   1.480747455976e-08
         "BPM.24R7.B1"             17983.81                    1       180.0601013717   1.483239697419e-08          180.6492182          39.62644473       179.7575519944   1.480747455976e-08
         "BPM.25R7.B1"             18037.26                    1       32.55272531768   1.483239697419e-08          30.65847761          39.74273655       32.49802798774   1.480747455976e-08
         "BPM.26R7.B1"             18090.71                    1       162.2475394311   1.483239697419e-08          165.3452336          39.89150374       161.9749199466   1.480747455976e-08
         "BPM.28R7.B1"             18197.61                    1       195.1027380669   1.483239697419e-08          179.0954335          40.13862254        194.774913016   1.480747455976e-08
         "BPM.29R7.B1"             18251.06                    1       29.62356454203   1.483239697419e-08          30.41190848           40.2561153       29.57378898966   1.480747455976e-08
         "BPM.30R7.B1"             18304.51                    1        171.855205997   1.483239697419e-08          166.9868287          40.40468829       171.5664430497   1.480747455976e-08
         "BPM.31R7.B1"             18357.97                    1       34.64398704276   1.483239697419e-08          34.06980608          40.51908748       34.58577583091   1.480747455976e-08
         "BPM.32R7.B1"             18411.42                    1        178.500838745   1.483239697419e-08          177.3765115           40.6509124       178.2009093481   1.480747455976e-08
         "BPM.33R7.B1"             18464.87                    1       31.64939704644   1.483239697419e-08          30.21062428          40.76959309       31.59621755085   1.480747455976e-08
         "BPM.34R7.B1"             18518.32                    1       168.7542539531   1.483239697419e-08          168.7721005            40.917738       168.4707014389   1.480747455976e-08
         "BPM.33L8.B1"             18571.77                    1       34.39460152941   1.483239697419e-08           34.2464451          41.03104434       34.33680935226   1.480747455976e-08
         "BPM.32L8.B1"             18625.22                    1       166.5612657531   1.483239697419e-08          175.5362909          41.16332647       166.2813980486   1.480747455976e-08
         "BPM.31L8.B1"             18678.68                    1       30.64203506022   1.483239697419e-08          30.05975849          41.28314979       30.59054820358   1.480747455976e-08
         "BPM.30L8.B1"             18732.13                    1       169.2515125416   1.483239697419e-08           170.655518          41.43064637       168.9671244993   1.480747455976e-08
         "BPM.29L8.B1"             18785.58                    1        34.3474397725   1.483239697419e-08          34.37057421          41.54294867       34.28972683979   1.480747455976e-08
         "BPM.28L8.B1"             18839.03                    1       164.8131057668   1.483239697419e-08          173.6217042          41.67587435       164.5361754411   1.480747455976e-08
         "BPM.27L8.B1"             18892.48                    1       30.10067167319   1.483239697419e-08          29.96315875          41.79676248       30.05009445257   1.480747455976e-08
         "BPM.26L8.B1"             18945.93                    1       179.4153666381   1.483239697419e-08          172.5890471          41.94341089       179.1139005885   1.480747455976e-08
         "BPM.25L8.B1"             18999.38                    1       35.71195196062   1.483239697419e-08          34.43902768          42.05481961        35.6519462806   1.480747455976e-08
         "BPM.24L8.B1"             19052.84                    1       167.7895596028   1.483239697419e-08          171.6815804           42.1885626       167.5076280345   1.480747455976e-08
         "BPM.23L8.B1"             19106.29                    1       30.20083520918   1.483239697419e-08          29.92328871          42.31040626        30.1500896869   1.480747455976e-08
         "BPM.22L8.B1"             19159.74                    1       182.3743090497   1.483239697419e-08          174.5233757          42.45603286       182.0678711814   1.480747455976e-08
         "BPM.21L8.B1"             19213.19                    1       36.86443101246   1.483239697419e-08          34.45005968          42.56667681        36.8024888578   1.480747455976e-08
         "BPM.20L8.B1"             19266.64                    1       175.6634047493   1.483239697419e-08          171.1643305          42.70069161       175.3682430044   1.480747455976e-08
         "BPM.19L8.B1"             19320.09                    1       26.65881581598   1.483239697419e-08          28.41024697          42.82681281       26.61402183851   1.480747455976e-08
         "BPM.18L8.B1"             19373.54                    1       192.9308959231   1.483239697419e-08          178.5640127          42.97553743       192.6067201508   1.480747455976e-08
         "BPM.17L8.B1"                19427                    1       33.71912685858   1.483239697419e-08          34.39598576          43.08474952       33.66246966048   1.480747455976e-08
         "BPM.16L8.B1"             19480.45                    1       171.5578559507   1.483239697419e-08          167.1597298          43.22104746       171.2695926314   1.480747455976e-08
         "BPM.15L8.B1"              19533.9                    1       28.62249888769   1.483239697419e-08          28.55774343           43.3486756       28.57440539474   1.480747455976e-08
         "BPM.14L8.B1"             19587.35                    1       184.7678532881   1.483239697419e-08          182.3906208          43.49461042       184.4573936219   1.480747455976e-08
         "BPM.13L8.B1"              19640.8                    1        35.1082577222   1.483239697419e-08          34.15736881          43.60289982        35.0492664108   1.480747455976e-08
         "BPM.12L8.B1"             19694.25                    1       161.2153864737   1.483239697419e-08          161.9900504          43.74275925       160.9445012836   1.480747455976e-08
         "BPM.11L8.B1"              19747.7                    1       30.93020964606   1.483239697419e-08           32.9285301          43.86183247       30.87823857865   1.480747455976e-08
         "BPM.10L8.B1"             19799.55                    1       182.4689667322   1.483239697419e-08          175.2907345          43.99151785       182.1623698135   1.480747455976e-08
          "BPM.9L8.B1"             19838.61                    1       45.93688101042   1.483239697419e-08          45.96341599          44.05690732       45.85969470075   1.480747455976e-08
          "BPM.8L8.B1"             19879.08                    1       124.5278891003   1.483239697419e-08           126.956318          44.15953752       124.3186487688   1.480747455976e-08
          "BPM.7L8.B1"             19918.15                    1       29.52637005219   1.483239697419e-08          29.88869511          44.25747915        29.4767578127   1.480747455976e-08
         "BPMR.6L8.B1"             19950.61                    1        90.5211891564   1.483239697419e-08          93.03710312          44.36060978       90.36908922309   1.480747455976e-08
        "BPMYB.4L8.B1"              20031.8                    1       200.9323186746   1.483239697419e-08          216.4111559           44.7047916        200.594698361   1.480747455976e-08
        "BPMWB.4L8.B1"             20056.19                    1         244.51259951   1.483239697419e-08          277.6697556          44.71946685       244.1017526086   1.480747455976e-08
        "BPMSX.4L8.B1"             20106.42                    1       284.2881598684   1.483239697419e-08           317.564358          44.74652029       283.8104793324   1.480747455976e-08
         "BPMS.2L8.B1"             20144.34                    1         459.08617091   1.483239697419e-08          496.7388463          44.76080878       458.3147827231   1.480747455976e-08
        "BPMSW.1L8.B1"             20154.27                    1       146.0964690885   1.483239697419e-08          149.2354108          44.76732903       145.8509877442   1.480747455976e-08
        "BPMSW.1R8.B1"             20197.46                    1       103.5848791682   1.483239697419e-08          153.6626923          45.22129754       103.4108287236   1.480747455976e-08
         "BPMS.2R8.B1"             20207.39                    1       174.3357989067   1.483239697419e-08          188.8796261          45.22951093       174.0428678965   1.480747455976e-08
        "BPMSX.4R8.B1"             20245.31                    1       493.5730781865   1.483239697419e-08          541.3359638          45.24565689        492.743742724   1.480747455976e-08
        "BPMWB.4R8.B1"             20295.46                    1       175.0496000206   1.483239697419e-08          214.0285621          45.26919473       174.7554696326   1.480747455976e-08
        "BPMYB.4R8.B1"             20319.93                    1       117.0865374283   1.483239697419e-08          139.0984814          45.29355192       116.8898005681   1.480747455976e-08
        "BPMYB.5R8.B1"             20340.51                    1       175.6721947467   1.483239697419e-08          188.8586737          45.31381223       175.3770182321   1.480747455976e-08
          "BPM.6R8.B1"             20424.62                    1       47.11070891045   1.483239697419e-08          46.67608528          45.52501849       47.03155025433   1.480747455976e-08
        "BPM_A.7R8.B1"             20446.86                    1       155.8618068382   1.483239697419e-08          160.5193853          45.56637486       155.5999171012   1.480747455976e-08
          "BPM.8R8.B1"             20488.29                    1       13.95493236608   1.483239697419e-08          13.25827847           45.7020593        13.9314843281   1.480747455976e-08
          "BPM.9R8.B1"             20527.36                    1       140.6128299981   1.483239697419e-08          145.7652599           45.9252294       140.3765626417   1.480747455976e-08
         "BPM.10R8.B1"             20567.82                    1        29.7263032153   1.483239697419e-08          28.45700027          46.01584262       29.67635503434   1.480747455976e-08
         "BPM.11R8.B1"             20619.66                    1        139.583658319   1.483239697419e-08           144.474791          46.19170239       139.3491202477   1.480747455976e-08
         "BPM.12R8.B1"             20674.38                    1       44.03245388269   1.483239697419e-08          44.24734707          46.30225866       43.95846752257   1.480747455976e-08
         "BPM.13R8.B1"             20727.83                    1       214.7981658505   1.483239697419e-08          221.3359225          46.40034757       214.4372471859   1.480747455976e-08
         "BPM.14R8.B1"             20781.28                    1       34.77866257124   1.483239697419e-08          36.58585782          46.49364695        34.7202250683   1.480747455976e-08
         "BPM.16R8.B1"             20888.18                    1       36.70638514611   1.483239697419e-08          32.54750983          46.78236136         36.644708551   1.480747455976e-08
         "BPM.17R8.B1"             20941.63                    1       220.6278374456   1.483239697419e-08          220.8615945          46.90031896       220.2571233655   1.480747455976e-08
         "BPM.18R8.B1"             20995.07                    1       35.37865426849   1.483239697419e-08          36.58962548          46.99361395       35.31920861819   1.480747455976e-08
         "BPM.19R8.B1"             21048.52                    1       135.1930214488   1.483239697419e-08          133.5527301          47.14630833       134.9658608277   1.480747455976e-08
         "BPM.20R8.B1"             21101.97                    1       33.58981366696   1.483239697419e-08          32.54374238          47.28232425       33.53337374978   1.480747455976e-08
         "BPM.21R8.B1"             21155.42                    1       211.7442051451   1.483239697419e-08          220.8596405          47.40029093       211.3884179556   1.480747455976e-08
         "BPM.23R8.B1"             21262.32                    1       131.2517581771   1.483239697419e-08          133.5546886          47.64626197        131.031219938   1.480747455976e-08
         "BPM.24R8.B1"             21315.76                    1       31.72885667893   1.483239697419e-08          32.53997534          47.78228714       31.67554366979   1.480747455976e-08
         "BPM.25R8.B1"             21369.21                    1       226.6386302366   1.483239697419e-08          220.8576776           47.9002629       226.2578164087   1.480747455976e-08
         "BPM.26R8.B1"             21422.66                    1       35.94300598718   1.483239697419e-08          36.59715956          47.99354794       35.88261207428   1.480747455976e-08
         "BPM.27R8.B1"             21476.11                    1       133.2274116167   1.483239697419e-08           133.556656          48.14621562       133.0035537486   1.480747455976e-08
         "BPM.28R8.B1"             21529.56                    1       30.99778349842   1.483239697419e-08          32.53620871          48.28225003       30.94569888877   1.480747455976e-08
         "BPM.29R8.B1"             21583.01                    1       220.5205563167   1.483239697419e-08          220.8557057          48.40023487       220.1500224978   1.480747455976e-08
         "BPM.30R8.B1"             21636.46                    1       36.19336089659   1.483239697419e-08          36.60092598          48.49351495       36.13254632013   1.480747455976e-08
         "BPM.31R8.B1"              21689.9                    1        131.599028116   1.483239697419e-08          133.5586323          48.64616927         131.37790637   1.480747455976e-08
         "BPM.32R8.B1"             21743.35                    1        33.0044704178   1.483239697419e-08          32.53244251          48.78221291       32.94901403465   1.480747455976e-08
         "BPM.33R8.B1"              21796.8                    1        220.298357106   1.483239697419e-08          220.8537249          48.90020684       219.9281966415   1.480747455976e-08
         "BPM.34R8.B1"             21850.25                    1        36.4857259673   1.483239697419e-08          36.60469198          48.99348196       36.42442013893   1.480747455976e-08
         "BPM.33L1.B1"              21903.7                    1       127.5416109021   1.483239697419e-08          133.5606176          49.14612292       127.3273067078   1.480747455976e-08
         "BPM.32L1.B1"             21957.15                    1       32.42809979847   1.483239697419e-08          32.52867672          49.28217579       32.37361187291   1.480747455976e-08
         "BPM.31L1.B1"              22010.6                    1       229.4390024178   1.483239697419e-08          220.8517351          49.40017881       229.0534832119   1.480747455976e-08
         "BPM.30L1.B1"             22064.04                    1       36.56399194255   1.483239697419e-08          36.60845756          49.49344897        36.5025546063   1.480747455976e-08
         "BPM.29L1.B1"             22117.49                    1       135.2980803756   1.483239697419e-08          133.5626119          49.64607656       135.0707432273   1.480747455976e-08
         "BPM.28L1.B1"             22170.94                    1       34.51231051957   1.483239697419e-08          32.52491135          49.78213866       34.45432055968   1.480747455976e-08
         "BPM.27L1.B1"             22224.39                    1       233.7123540725   1.483239697419e-08          220.8497363          49.90015078       233.3196544869   1.480747455976e-08
         "BPM.26L1.B1"             22277.84                    1       37.28307007217   1.483239697419e-08          36.61222272          49.99341598       37.22042449135   1.480747455976e-08
         "BPM.25L1.B1"             22331.29                    1       137.6960397049   1.483239697419e-08          133.5646152          50.14603021       137.4646733403   1.480747455976e-08
         "BPM.24L1.B1"             22384.74                    1       33.31420821981   1.483239697419e-08           32.5211464          50.28210153       33.25823139388   1.480747455976e-08
         "BPM.23L1.B1"             22438.18                    1       221.1222530486   1.483239697419e-08          220.8477286          50.40012274       220.7507082174   1.480747455976e-08
         "BPM.22L1.B1"             22491.63                    1       37.12218443711   1.483239697419e-08          36.61598746            50.493383        37.0598091874   1.480747455976e-08
         "BPM.21L1.B1"             22545.08                    1       134.4897218952   1.483239697419e-08          133.5666274          50.64598386       134.2637430064   1.480747455976e-08
         "BPM.20L1.B1"             22598.53                    1       31.53470730714   1.483239697419e-08          32.51738187          50.78206439       31.48172052114   1.480747455976e-08
         "BPM.19L1.B1"             22651.98                    1       223.2631695288   1.483239697419e-08          220.8457119          50.90009471       222.8880273824   1.480747455976e-08
         "BPM.18L1.B1"             22705.43                    1       37.49677170189   1.483239697419e-08          36.61975178          50.99335002       37.43376704487   1.480747455976e-08
         "BPM.17L1.B1"             22758.87                    1       132.1700385895   1.483239697419e-08          133.5686485          51.14593752       131.9479573924   1.480747455976e-08
         "BPM.16L1.B1"             22812.32                    1       35.98560512713   1.483239697419e-08          32.51361776          51.28202725       35.92513963622   1.480747455976e-08
         "BPM.15L1.B1"             22865.77                    1       230.6498699715   1.483239697419e-08          220.8436862          51.40006668       230.2623161825   1.480747455976e-08
         "BPM.14L1.B1"             22919.22                    1       38.76832128139   1.483239697419e-08          36.62351568          51.49331704       38.70318007924   1.480747455976e-08
         "BPM.13L1.B1"             22972.67                    1       133.8703694304   1.483239697419e-08          133.5706787          51.64589117       133.6454312204   1.480747455976e-08
         "BPM.12L1.B1"             23026.12                    1       33.07601424996   1.483239697419e-08          35.45360779          51.77450987       33.02043765393   1.480747455976e-08
         "BPM.11L1.B1"             23079.57                    1       212.5449063213   1.483239697419e-08          216.6366194          51.88771897       212.1877737386   1.480747455976e-08
         "BPM.10L1.B1"             23132.35                    1       75.65890300342   1.483239697419e-08          72.05765637          51.95372571        75.5317757064   1.480747455976e-08
          "BPM.9L1.B1"             23171.41                    1       229.8410027238   1.483239697419e-08          229.4661306          52.00774203       229.4548080493   1.480747455976e-08
          "BPM.8L1.B1"             23211.87                    1       7.768982951091   1.483239697419e-08          8.597597774          52.15348542       7.755928971136   1.480747455976e-08
         "BPMR.7L1.B1"             23250.94                    1       236.1101165313   1.483239697419e-08           220.479463          52.41639997       235.7133880602   1.480747455976e-08
          "BPM.6L1.B1"             23294.12                    1       5.012066644233   1.483239697419e-08          5.681521679          52.69145312       5.003645024837   1.480747455976e-08
        "BPMYA.4L1.B1"             23347.14                    1       441.6062976567   1.483239697419e-08          468.7647893          52.88210491       440.8642803561   1.480747455976e-08
        "BPMWB.4L1.B1"             23368.28                    1       1021.091666097   1.483239697419e-08          1042.270592          52.88700814        1019.37595759   1.480747455976e-08
        "BPMSY.4L1.B1"             23461.06                    1       6630.395773572   1.483239697419e-08          6603.490041          52.89263787       6619.254926171   1.480747455976e-08
         "BPMS.2L1.B1"             23487.84                    1       1911.931950338   1.483239697419e-08          1880.821953           52.8939305       1908.719390662   1.480747455976e-08
        "BPMSW.1L1.B1"             23497.79                    1       1506.090575531   1.483239697419e-08          1494.238456          52.89476686        1503.55993847   1.480747455976e-08
        "BPMSW.1R1.B1"             23540.93                    1       1479.222718217   1.483239697419e-08          1487.248086          53.39016016       1476.737226379   1.480747455976e-08
         "BPMS.2R1.B1"              23550.9                    1       5022.809202455   1.483239697419e-08          4977.457135          53.39081417       5014.369532674   1.480747455976e-08
        "BPMSY.4R1.B1"             23577.68                    1       3140.811190794   1.483239697419e-08          3182.058065          53.39170643       3135.533783624   1.480747455976e-08
        "BPMWB.4R1.B1"             23670.46                    1       1716.228363283   1.483239697419e-08          1691.277749          53.39807334       1713.344638245   1.480747455976e-08
        "BPMYA.4R1.B1"              23691.6                    1       1389.834571568   1.483239697419e-08          1355.923228          53.40025278       1387.499275847   1.480747455976e-08
          "BPM.5R1.B1"                23719                    1       602.4244126632   1.483239697419e-08           589.971406          53.40520897       601.4121776954   1.480747455976e-08
         "BPMR.6R1.B1"              23750.9                    1        180.948951835   1.483239697419e-08          194.2717011          53.42016311         180.64490895   1.480747455976e-08
        "BPMSX.7R1.B1"             23757.12                    1       133.6267996766   1.483239697419e-08          139.7282316          53.42616865       133.4022707292   1.480747455976e-08
        "BPM_A.7R1.B1"             23778.63                    1       23.84909587901   1.483239697419e-08          23.80984144          53.48698654       23.80902298639   1.480747455976e-08
          "BPM.8R1.B1"             23820.07                    1       110.9113452345   1.483239697419e-08          103.4210414          53.72919015       110.7249843573   1.480747455976e-08
          "BPM.9R1.B1"             23859.13                    1        47.5644868821   1.483239697419e-08          46.17868438          53.81393367         47.484565757   1.480747455976e-08
         "BPM.10R1.B1"              23899.6                    1       211.9244725293   1.483239697419e-08          212.7503441          53.89039895       211.5683824421   1.480747455976e-08
         "BPM.11R1.B1"             23952.38                    1       35.73342090577   1.483239697419e-08          35.14375964          53.98466693       35.67337915215   1.480747455976e-08
         "BPM.12R1.B1"             24007.11                    1       131.5385825107   1.483239697419e-08          132.5711779          54.14679319       131.3175623295   1.480747455976e-08
         "BPM.13R1.B1"             24060.56                    1       29.59416808015   1.483239697419e-08          32.62471968          54.28324946       29.54444192174   1.480747455976e-08
         "BPM.14R1.B1"             24114.01                    1       229.1087022818   1.483239697419e-08          220.9237099          54.40099922       228.7237380689   1.480747455976e-08
         "BPM.15R1.B1"             24167.46                    1       39.42044164991   1.483239697419e-08          36.49433388          54.49442311       39.35420471023   1.480747455976e-08
         "BPM.16R1.B1"             24220.91                    1       134.8377081454   1.483239697419e-08          133.5176177           54.6474568       134.6111445463   1.480747455976e-08
         "BPM.17R1.B1"             24274.37                    1        32.5794121899   1.483239697419e-08          32.63538634          54.78325008       32.52467001884   1.480747455976e-08
         "BPM.18R1.B1"             24327.82                    1        224.873542573   1.483239697419e-08          220.9237099          54.90099922       224.4956945669   1.480747455976e-08
         "BPM.19R1.B1"             24381.27                    1       34.94264600857   1.483239697419e-08          36.49433388          54.99442311       34.88393296937   1.480747455976e-08
         "BPM.20R1.B1"             24434.72                    1       134.4593750296   1.483239697419e-08          133.5176177           55.1474568       134.2334471318   1.480747455976e-08
         "BPM.21R1.B1"             24488.17                    1        32.3761155557   1.483239697419e-08          32.63538634          55.28325008       32.32171497764   1.480747455976e-08
         "BPM.22R1.B1"             24541.62                    1       229.2715156712   1.483239697419e-08          220.9237099          55.40099922        228.886277888   1.480747455976e-08
         "BPM.23R1.B1"             24595.08                    1       37.27082415853   1.483239697419e-08          36.49433388          55.49442311       37.20819915414   1.480747455976e-08
         "BPM.24R1.B1"             24648.53                    1       132.4591017338   1.483239697419e-08          133.5176177           55.6474568       132.2365348328   1.480747455976e-08
         "BPM.25R1.B1"             24701.98                    1       33.33351590625   1.483239697419e-08          32.63538634          55.78325008       33.27750663821   1.480747455976e-08
         "BPM.26R1.B1"             24755.43                    1       226.0911840349   1.483239697419e-08          220.9237099          55.90099922       225.7112900638   1.480747455976e-08
         "BPM.27R1.B1"             24808.88                    1       35.55979774138   1.483239697419e-08          36.49433388          55.99442311       35.50004772136   1.480747455976e-08
         "BPM.28R1.B1"             24862.33                    1       129.7330999861   1.483239697419e-08          133.5176177           56.1474568       129.5151135009   1.480747455976e-08
         "BPM.29R1.B1"             24915.78                    1       32.65712100586   1.483239697419e-08          32.63538634          56.28325008        32.6022482631   1.480747455976e-08
         "BPM.30R1.B1"             24969.24                    1       227.2623914959   1.483239697419e-08          220.9237099          56.40099922       226.8805295815   1.480747455976e-08
         "BPM.31R1.B1"             25022.69                    1       39.20730099671   1.483239697419e-08          36.49433388          56.49442311       39.14142219063   1.480747455976e-08
         "BPM.32R1.B1"             25076.14                    1       134.3982759781   1.483239697419e-08          133.5176177           56.6474568       134.1724507431   1.480747455976e-08
         "BPM.33R1.B1"             25129.59                    1       34.95857276331   1.483239697419e-08          32.63538634          56.78325008       34.89983296288   1.480747455976e-08
         "BPM.34R1.B1"             25183.04                    1       231.6756381349   1.483239697419e-08          220.9237099          56.90099922       231.2863607797   1.480747455976e-08
         "BPM.33L2.B1"             25236.49                    1       37.97857951515   1.483239697419e-08          36.49433388          56.99442311       37.91476529148   1.480747455976e-08
         "BPM.32L2.B1"             25289.94                    1       134.0952721675   1.483239697419e-08          133.5176177           57.1474568       133.8699560603   1.480747455976e-08
         "BPM.31L2.B1"              25343.4                    1       33.18815275065   1.483239697419e-08          32.63538634          57.28325008        33.1323877318   1.480747455976e-08
         "BPM.30L2.B1"             25396.85                    1       218.4363055647   1.483239697419e-08          220.9237099          57.40099922       218.0692738474   1.480747455976e-08
         "BPM.29L2.B1"              25450.3                    1       39.14086419462   1.483239697419e-08          36.49433389          57.49442311       39.07509702023   1.480747455976e-08
         "BPM.28L2.B1"             25503.75                    1       134.3567199331   1.483239697419e-08          133.5176177           57.6474568       134.1309645234   1.480747455976e-08
         "BPM.27L2.B1"              25557.2                    1       32.72244292794   1.483239697419e-08          32.63538634          57.78325008       32.66746042679   1.480747455976e-08
         "BPM.26L2.B1"             25610.65                    1       231.7834157871   1.483239697419e-08          220.9237099          57.90099922       231.3939573364   1.480747455976e-08
         "BPM.25L2.B1"              25664.1                    1       36.08363690162   1.483239697419e-08          36.49433389          57.99442311       36.02300669097   1.480747455976e-08
         "BPM.24L2.B1"             25717.56                    1       136.7012982198   1.483239697419e-08          133.5176177           58.1474568       136.4716032883   1.480747455976e-08
         "BPM.23L2.B1"             25771.01                    1       32.00449989566   1.483239697419e-08          32.63538634          58.28325008       31.95072373182   1.480747455976e-08
         "BPM.22L2.B1"             25824.46                    1       221.5350444705   1.483239697419e-08          220.9237099          58.40099922       221.1628060388   1.480747455976e-08
         "BPM.21L2.B1"             25877.91                    1       38.94012454166   1.483239697419e-08          36.49433389          58.49442311       38.87469466385   1.480747455976e-08
         "BPM.20L2.B1"             25931.36                    1       134.0182777518   1.483239697419e-08          133.5176177           58.6474568        133.793091016   1.480747455976e-08
         "BPM.19L2.B1"             25984.81                    1       33.05971844223   1.483239697419e-08          32.63538634          58.78325008       33.00416922754   1.480747455976e-08
         "BPM.18L2.B1"             26038.27                    1       235.5076031862   1.483239697419e-08          220.9237099          58.90099922       235.1118870995   1.480747455976e-08
         "BPM.16L2.B1"             26145.17                    1       139.8268726563   1.483239697419e-08          133.5176177           59.1474568       139.5919259195   1.480747455976e-08
         "BPM.15L2.B1"             26198.62                    1       34.07706546012   1.483239697419e-08          32.63538634          59.28325008       34.01980682894   1.480747455976e-08
         "BPM.14L2.B1"             26252.07                    1       229.9184553477   1.483239697419e-08          220.9237099          59.40099922       229.5321305319   1.480747455976e-08
         "BPM.13L2.B1"             26305.52                    1       38.81746488955   1.483239697419e-08          36.49433389          59.49442311       38.75224111293   1.480747455976e-08
         "BPM.12L2.B1"             26358.97                    1       138.6686353792   1.483239697419e-08          135.9910765          59.64548043       138.4356347924   1.480747455976e-08
         "BPM.11L2.B1"             26412.43                    1       29.15068497563   1.483239697419e-08          29.30609236          59.78975231       29.10170398806   1.480747455976e-08
         "BPM.10L2.B1"             26464.27                    1         227.40319378   1.483239697419e-08          216.0857532          59.91249462       227.0210952799   1.480747455976e-08
          "BPM.9L2.B1"             26503.33                    1       42.81330258611   1.483239697419e-08          43.34693163          59.97248606       42.74136472793   1.480747455976e-08
          "BPM.8L2.B1"              26543.8                    1       81.84066279716   1.483239697419e-08          89.40334096          60.10486212       81.70314848179   1.480747455976e-08
          "BPM.7L2.B1"             26582.87                    1       48.53625512912   1.483239697419e-08          46.86100754          60.19915553       48.45470117212   1.480747455976e-08
         "BPMR.6L2.B1"             26614.97                    1       190.4495050055   1.483239697419e-08          187.8207666          60.25539204       190.1294986371   1.480747455976e-08