@ GetLLMVersion %s "V3.0.0 Dev"
@ Command %s "/afs/cern.ch/work/o/omc/anaconda/bin/python '/afs/cern.ch/eng/sl/lintrack/Beta-Beat.src/GetLLM/GetLLM.py' '--accel=LHCB1' '--model=/afs/cern.ch/user/t/thpugnat/public/Outputs/2018-09-04/models/LHCB1/b1_squeeze_collQ/twiss.dat' '--files=/afs/cern.ch/user/t/thpugnat/public/Outputs/2018-09-04/LHCB1/Measurements/Beam1@Turn@2018_06_16@17_26_04_577/Beam1@Turn@2018_06_16@17_26_04_577.sdds.clean' '--output=/afs/cern.ch/user/t/thpugnat/public/Outputs/2018-09-04/LHCB1/Results/15-18-22_NORMALANALYSIS_SUSSIX_11' '--tbtana=SUSSIX' '--bpmu=mm' '--lhcphase=1' '--errordefs=/afs/cern.ch/user/t/thpugnat/public/Outputs/2018-09-04/models/LHCB1/b1_squeeze_collQ/error_deff.txt' '--calibration=/afs/cern.ch/eng/sl/lintrack/LHC_commissioning2017/Calibration_factors_2017/Calibration_factors_2017_beam1'"
@ CWD %s "/afs/cern.ch/user/t/thpugnat"
@ Date %s "04. September 2018, 15:18:26"
@ TABLE %s "ORBIT"
@ TYPE %s "ORBIT"
@ SEQUENCE %s "LHCB1"
@ Q1 %le 0.3024323215264188
@ Q2 %le 0.32982104428857717
@ FILES %s "/afs/cern.ch/user/t/thpugnat/public/Outputs/2018-09-04/LHCB1/Measurements/Beam1@Turn@2018_06_16@17_26_04_577/Beam1@Turn@2018_06_16@17_26_04_577.sdds.clean_linx"
*                 NAME                    S                COUNT                    X                 STDX                 XMDL               MUXMDL
$                   %s                  %le                  %le                  %le                  %le                  %le                  %le
        "BPMYB.5L2.B1"               28.288                    1           -0.3138987   1.483239697419e-08                    0        0.03008760323
        "BPMYB.4L2.B1"               48.858                    1            0.7476287   1.483239697419e-08                    0        0.05703314752
        "BPMWI.4L2.B1"              73.3255                    1           -0.5349244   1.483239697419e-08                    0         0.1082906377
        "BPMSX.4L2.B1"             123.4825                    1              1.08174   1.483239697419e-08                    0         0.1773529471
         "BPMS.2L2.B1"              161.394                    1            0.7924568   1.483239697419e-08                    0         0.2277577856
        "BPMSW.1L2.B1"              171.328                    1             2.641501   1.483239697419e-08                    0         0.2511837138
        "BPMSW.1R2.B1"              214.518                    1             1.594515   1.483239697419e-08                    0         0.6131399547
         "BPMS.2R2.B1"              224.452                    1           -0.3362813   1.483239697419e-08                    0         0.6310855851
        "BPMSX.4R2.B1"             262.3635                    1           -0.0835796   1.483239697419e-08                    0         0.6746144702
        "BPMWB.4R2.B1"             312.5965                    1            0.6798621   1.483239697419e-08                    0         0.7560887008
        "BPMYB.4R2.B1"              336.988                    1           -0.7871558   1.483239697419e-08                    0         0.7909346559
         "BPMR.5R2.B1"              366.522                    1           -0.3042615   1.483239697419e-08                    0         0.8902212213
          "BPM.6R2.B1"              439.818                    1         -0.003120096   1.483239697419e-08                    0           1.04825584
        "BPM_A.7R2.B1"              452.693                    1            0.5987346   1.483239697419e-08                    0          1.065286235
          "BPM.8R2.B1"               494.13                    1           -0.2903674   1.483239697419e-08                    0          1.148178441
          "BPM.9R2.B1"              533.195                    1            0.2726973   1.483239697419e-08                    0          1.298192799
         "BPM.10R2.B1"              573.658                    1          -0.08418691   1.483239697419e-08                    0          1.468484388
         "BPM.11R2.B1"             625.4967                    1            0.1111794   1.483239697419e-08                    0          1.577738419
         "BPM.12R2.B1"             680.2203                    1          -0.02436728   1.483239697419e-08                    0           1.71460023
         "BPM.13R2.B1"             733.6688                    1           -0.3821959   1.483239697419e-08                    0          1.828106115
         "BPM.14R2.B1"             787.1173                    1            0.3023617   1.483239697419e-08                    0          1.965797982
         "BPM.15R2.B1"             840.5658                    1          -0.07652609   1.483239697419e-08                    0          2.078018154
         "BPM.16R2.B1"             894.0143                    1           0.01922921   1.483239697419e-08                    0          2.212610901
         "BPM.17R2.B1"             947.4628                    1            0.3118138   1.483239697419e-08                    0          2.328416144
         "BPM.18R2.B1"             1000.911                    1            0.1325938   1.483239697419e-08                    0          2.466102649
         "BPM.19R2.B1"              1054.36                    1           -0.5863221   1.483239697419e-08                    0          2.578317778
         "BPM.20R2.B1"             1107.808                    1           0.05132559   1.483239697419e-08                    0           2.71291833
         "BPM.21R2.B1"             1161.257                    1           -0.1594801   1.483239697419e-08                    0           2.82872887
         "BPM.22R2.B1"             1214.705                    1            0.3646007   1.483239697419e-08                    0          2.966407292
         "BPM.23R2.B1"             1268.154                    1           -0.5005798   1.483239697419e-08                    0          3.081507963
         "BPM.24R2.B1"             1321.602                    1            0.3762543   1.483239697419e-08                    0          3.219188942
         "BPM.25R2.B1"             1375.051                    1           -0.5336437   1.483239697419e-08                    0          3.334301333
         "BPM.26R2.B1"             1428.499                    1            0.1406983   1.483239697419e-08                    0          3.471978469
         "BPM.27R2.B1"             1481.948                    1              0.16096   1.483239697419e-08                    0          3.587079258
         "BPM.28R2.B1"             1535.397                    1          -0.04970015   1.483239697419e-08                    0          3.724760703
         "BPM.29R2.B1"             1588.845                    1           -0.3988197   1.483239697419e-08                    0          3.839872963
         "BPM.30R2.B1"             1642.294                    1            0.3848529   1.483239697419e-08                    0          3.977549638
         "BPM.31R2.B1"             1695.742                    1           -0.4128574   1.483239697419e-08                    0          4.092650571
         "BPM.32R2.B1"             1749.191                    1            0.1639139   1.483239697419e-08                    0          4.230332473
         "BPM.33R2.B1"             1802.639                    1           0.02284494   1.483239697419e-08                    0          4.345444574
         "BPM.34R2.B1"             1856.088                    1            0.0673858   1.483239697419e-08                    0          4.483120799
         "BPM.33L3.B1"             1909.536                    1           -0.2138537   1.483239697419e-08                    0          4.598221905
         "BPM.32L3.B1"             1962.985                    1            0.1281666   1.483239697419e-08                    0           4.73590425
         "BPM.31L3.B1"             2016.433                    1           -0.4668844   1.483239697419e-08                    0          4.851016164
         "BPM.30L3.B1"             2069.882                    1            0.1817526   1.483239697419e-08                    0          4.988691954
         "BPM.29L3.B1"              2123.33                    1         -0.008710447   1.483239697419e-08                    0           5.10379326
         "BPM.28L3.B1"             2176.779                    1            0.1729333   1.483239697419e-08                    0          5.241476032
         "BPM.27L3.B1"             2230.227                    1          -0.04542083   1.483239697419e-08                    0          5.356587733
         "BPM.26L3.B1"             2283.676                    1           -0.1511642   1.483239697419e-08                    0          5.494263105
         "BPM.25L3.B1"             2337.124                    1            0.3076879   1.483239697419e-08                    0          5.609364636
         "BPM.24L3.B1"             2390.573                    1            0.1362609   1.483239697419e-08                    0          5.747047817
         "BPM.23L3.B1"             2444.021                    1           -0.2057776   1.483239697419e-08                    0          5.862159281
         "BPM.22L3.B1"              2497.47                    1           0.06510972   1.483239697419e-08                    0          5.999834253
         "BPM.21L3.B1"             2550.918                    1           0.05889283   1.483239697419e-08                    0          6.114936034
         "BPM.20L3.B1"             2604.367                    1            0.1707996   1.483239697419e-08                    0          6.253463578
         "BPM.19L3.B1"             2657.815                    1           -0.1808645   1.483239697419e-08                    0          6.366348893
         "BPM.18L3.B1"             2711.264                    1           0.06640448   1.483239697419e-08                    0          6.500138913
         "BPM.17L3.B1"             2764.712                    1           -0.4198038   1.483239697419e-08                    0          6.615248613
         "BPM.16L3.B1"             2818.161                    1           0.04613298   1.483239697419e-08                    0          6.753771111
         "BPM.15L3.B1"             2871.609                    1            0.4709309   1.483239697419e-08                    0          6.866648636
         "BPM.14L3.B1"             2925.058                    1           -0.2470794   1.483239697419e-08                    0          7.000443465
         "BPM.13L3.B1"             2978.506                    1            0.4181379   1.483239697419e-08                    0          7.115561203
         "BPM.12L3.B1"             3031.955                    1            0.2362366   1.483239697419e-08                    0           7.25265399
         "BPM.11L3.B1"             3085.403                    1           -0.4863066   1.483239697419e-08                    0          7.379114427
         "BPM.10L3.B1"             3138.184                    1            0.2419889   1.483239697419e-08                    0          7.528189798
          "BPM.8L3.B1"             3217.712                    1           0.05949544   1.483239697419e-08                    0          7.665816619
          "BPM.7L3.B1"             3256.776                    1           -0.2560627   1.483239697419e-08                    0          7.724765676
          "BPM.6L3.B1"             3329.415                    1          -0.06198512   1.483239697419e-08                    0          7.836916105
       "BPMWG.A5L3.B1"              3371.12                    1            0.1293009   1.483239697419e-08                    0          7.894000493
         "BPMW.5L3.B1"              3400.09                    1           0.07709086   1.483239697419e-08                    0          7.977356182
        "BPMWE.4L3.B1"             3475.218                    1          -0.05428462   1.483239697419e-08                    0          8.080725057
         "BPMW.4L3.B1"             3502.763                    1            0.1359034   1.483239697419e-08                    0          8.095927968
         "BPMW.4R3.B1"             3547.728                    1            0.7717388   1.483239697419e-08                    0          8.166079117
        "BPMWE.4R3.B1"             3575.273                    1           -0.9288241   1.483239697419e-08                    0          8.313727367
         "BPMW.5R3.B1"             3650.401                    1             0.525251   1.483239697419e-08                    0          8.443255435
       "BPMWJ.A5R3.B1"             3679.119                    1            -0.609371   1.483239697419e-08                    0          8.455881914
        "BPMWC.6R3.B1"             3718.937                    1            0.1687497   1.483239697419e-08                    0           8.50177358
         "BPMR.6R3.B1"             3731.015                    1             0.142116   1.483239697419e-08                    0          8.541882981
          "BPM.8R3.B1"             3825.903                    1          -0.06037124   1.483239697419e-08                    0          8.841362482
          "BPM.9R3.B1"             3864.968                    1           -0.1788236   1.483239697419e-08                    0          8.945493369
         "BPM.10R3.B1"             3905.431                    1            0.7108272   1.483239697419e-08                    0          9.020223924
         "BPM.11R3.B1"             3958.212                    1           -0.2288221   1.483239697419e-08                    0           9.11327646
         "BPM.12R3.B1"             4012.935                    1            0.3238938   1.483239697419e-08                    0          9.214061253
         "BPM.13R3.B1"             4066.384                    1           0.03471106   1.483239697419e-08                    0          9.330878034
         "BPM.14R3.B1"             4119.833                    1          -0.08312603   1.483239697419e-08                    0          9.445968437
         "BPM.15R3.B1"             4173.281                    1         -0.007688349   1.483239697419e-08                    0          9.584495698
         "BPM.17R3.B1"             4280.178                    1           -0.1473445   1.483239697419e-08                    0          9.831181885
         "BPM.18R3.B1"             4333.627                    1            0.5518919   1.483239697419e-08                    0          9.946280992
         "BPM.19R3.B1"             4387.075                    1           0.05901935   1.483239697419e-08                    0          10.08480325
         "BPM.20R3.B1"             4440.524                    1           -0.3532232   1.483239697419e-08                    0          10.19769121
         "BPM.21R3.B1"             4493.972                    1            0.2569171   1.483239697419e-08                    0          10.33148642
         "BPM.22R3.B1"             4547.421                    1          0.005041062   1.483239697419e-08                    0          10.44659356
         "BPM.23R3.B1"             4600.869                    1           -0.1768115   1.483239697419e-08                    0          10.58426689
         "BPM.24R3.B1"             4654.318                    1            0.2620099   1.483239697419e-08                    0          10.69937291
         "BPM.25R3.B1"             4707.766                    1          -0.07101614   1.483239697419e-08                    0          10.83705795
         "BPM.26R3.B1"             4761.215                    1            0.1085919   1.483239697419e-08                    0          10.95216487
         "BPM.27R3.B1"             4814.663                    1            0.1317763   1.483239697419e-08                    0          11.08983816
         "BPM.28R3.B1"             4868.112                    1           -0.1467527   1.483239697419e-08                    0          11.20494454
         "BPM.29R3.B1"              4921.56                    1            0.1990559   1.483239697419e-08                    0           11.3426296
         "BPM.30R3.B1"             4975.009                    1           -0.1407368   1.483239697419e-08                    0          11.45773616
         "BPM.31R3.B1"             5028.457                    1           -0.1074817   1.483239697419e-08                    0          11.59540945
         "BPM.32R3.B1"             5081.906                    1            0.1105445   1.483239697419e-08                    0          11.71051619
         "BPM.33R3.B1"             5135.354                    1            0.1755713   1.483239697419e-08                    0          11.84820124
         "BPM.34R3.B1"             5188.803                    1            -0.411698   1.483239697419e-08                    0          11.96330744
         "BPM.33L4.B1"             5242.251                    1            0.3603084   1.483239697419e-08                    0          12.10098075
         "BPM.32L4.B1"               5295.7                    1           -0.1026915   1.483239697419e-08                    0          12.21608785
         "BPM.31L4.B1"             5349.148                    1           0.01631365   1.483239697419e-08                    0          12.35377287
         "BPM.30L4.B1"             5402.597                    1            0.1303177   1.483239697419e-08                    0          12.46887871
         "BPM.29L4.B1"             5456.045                    1          -0.03294102   1.483239697419e-08                    0          12.60655207
         "BPM.28L4.B1"             5509.494                    1          -0.07798898   1.483239697419e-08                    0          12.72165952
         "BPM.27L4.B1"             5562.942                    1           0.03706941   1.483239697419e-08                    0          12.85934448
         "BPM.26L4.B1"             5616.391                    1           0.06871322   1.483239697419e-08                    0          12.97444997
         "BPM.25L4.B1"             5669.839                    1            0.2666561   1.483239697419e-08                    0          13.11212341
         "BPM.24L4.B1"             5723.288                    1           -0.1858215   1.483239697419e-08                    0          13.22723121
         "BPM.22L4.B1"             5830.185                    1          -0.07058385   1.483239697419e-08                    0          13.48002121
         "BPM.21L4.B1"             5883.634                    1            0.1861775   1.483239697419e-08                    0          13.61769476
         "BPM.19L4.B1"             5990.531                    1            0.2146349   1.483239697419e-08                    0          13.86452467
         "BPM.18L4.B1"             6043.979                    1           -0.2120358   1.483239697419e-08                    0           13.9803331
         "BPM.17L4.B1"             6097.428                    1            0.1276579   1.483239697419e-08                    0          14.11799939
         "BPM.16L4.B1"             6150.876                    1            0.3688961   1.483239697419e-08                    0          14.23021177
         "BPM.15L4.B1"             6204.325                    1            -0.140879   1.483239697419e-08                    0          14.36483214
         "BPM.14L4.B1"             6257.773                    1           0.04009053   1.483239697419e-08                    0           14.4806458
         "BPM.13L4.B1"             6311.222                    1          -0.05897822   1.483239697419e-08                    0          14.61830399
         "BPM.12L4.B1"              6364.67                    1           0.04197861   1.483239697419e-08                    0          14.73146549
         "BPM.11L4.B1"             6418.119                    1           -0.1155437   1.483239697419e-08                    0          14.86841285
         "BPM.10L4.B1"             6469.957                    1            0.2248278   1.483239697419e-08                    0          14.98561057
          "BPM.9L4.B1"             6509.022                    1           0.04716294   1.483239697419e-08                    0          15.11301982
          "BPM.8L4.B1"             6549.485                    1          -0.07307629   1.483239697419e-08                    0          15.24116306
          "BPM.7L4.B1"             6588.549                    1           -0.0656108   1.483239697419e-08                    0          15.41413017
        "BPMYB.6L4.B1"             6685.153                    1           0.09986857   1.483239697419e-08                    0          15.55748641
        "BPMYA.5L4.B1"             6722.153                    1          0.005353367   1.483239697419e-08                    0          15.58320741
       "BPMWI.A5L4.B1"             6798.756                    1           -0.5357542   1.483239697419e-08                    0          15.61515556
       "BPMWA.B5L4.B1"              6824.62                    1           -0.3565807   1.483239697419e-08                    0          15.62907922
       "BPMWA.A5L4.B1"             6833.505                    1          -0.05670882   1.483239697419e-08                    0          15.63428175
       "BPMWA.A5R4.B1"             6881.554                    1            0.4124775   1.483239697419e-08                    0          15.66619892
       "BPMWA.B5R4.B1"             6890.439                    1            0.2943937   1.483239697419e-08                    0          15.67276396
        "BPMYB.5R4.B1"             6992.829                    1           -0.1686605   1.483239697419e-08                    0           15.7552851
        "BPMYA.6R4.B1"             7024.393                    1           -0.1309079   1.483239697419e-08                    0          15.77023562
          "BPM.7R4.B1"             7120.909                    1           -0.1395344   1.483239697419e-08                    0          15.90050809
          "BPM.8R4.B1"             7158.698                    1            0.3820861   1.483239697419e-08                    0          16.04555253
          "BPM.9R4.B1"             7197.763                    1           -0.2267566   1.483239697419e-08                    0          16.22660498
         "BPM.11R4.B1"             7290.065                    1            0.3672018   1.483239697419e-08                    0          16.45593723
         "BPM.12R4.B1"             7344.789                    1           -0.1069697   1.483239697419e-08                    0          16.61113625
         "BPM.13R4.B1"             7398.237                    1            0.1103653   1.483239697419e-08                    0          16.75051458
         "BPM.14R4.B1"             7451.686                    1            0.1529538   1.483239697419e-08                    0          16.86927316
         "BPM.15R4.B1"             7505.134                    1           -0.2806126   1.483239697419e-08                    0          16.95841427
         "BPM.16R4.B1"             7558.583                    1           0.06333262   1.483239697419e-08                    0          17.10820059
         "BPM.17R4.B1"             7612.031                    1            0.7352302   1.483239697419e-08                    0          17.25047317
         "BPM.18R4.B1"              7665.48                    1           0.04636133   1.483239697419e-08                    0          17.36924594
         "BPM.19R4.B1"             7718.928                    1           -0.5433159   1.483239697419e-08                    0          17.45838292
         "BPM.20R4.B1"             7772.377                    1            0.1400147   1.483239697419e-08                    0          17.60815306
         "BPM.21R4.B1"             7825.825                    1          -0.04456224   1.483239697419e-08                    0          17.75043454
         "BPM.22R4.B1"             7879.274                    1          -0.06180004   1.483239697419e-08                    0          17.86921873
         "BPM.23R4.B1"             7932.722                    1            0.2700782   1.483239697419e-08                    0          17.95835158
         "BPM.24R4.B1"             7986.171                    1             0.218773   1.483239697419e-08                    0          18.10810553
         "BPM.26R4.B1"             8093.068                    1           0.01241033   1.483239697419e-08                    0          18.36919152
         "BPM.27R4.B1"             8146.516                    1            0.4664328   1.483239697419e-08                    0          18.45832024
         "BPM.28R4.B1"             8199.965                    1           0.06435027   1.483239697419e-08                    0          18.60805799
         "BPM.29R4.B1"             8253.413                    1           -0.5729535   1.483239697419e-08                    0          18.75035724
         "BPM.32R4.B1"             8413.759                    1            0.2433274   1.483239697419e-08                    0          19.10801046
         "BPM.33R4.B1"             8467.208                    1           -0.2422712   1.483239697419e-08                    0          19.25031859
         "BPM.34R4.B1"             8520.656                    1            0.2933613   1.483239697419e-08                    0          19.36913709
         "BPM.33L5.B1"             8574.105                    1           -0.2314838   1.483239697419e-08                    0          19.45825757
         "BPM.32L5.B1"             8627.553                    1          -0.01758454   1.483239697419e-08                    0          19.60796294
         "BPM.31L5.B1"             8681.002                    1           0.08541746   1.483239697419e-08                    0          19.75027993
         "BPM.30L5.B1"              8734.45                    1           0.04228345   1.483239697419e-08                    0          19.86910987
         "BPM.29L5.B1"             8787.899                    1           -0.1459705   1.483239697419e-08                    0          19.95822624
         "BPM.28L5.B1"             8841.347                    1            0.2148125   1.483239697419e-08                    0          20.10791541
         "BPM.26L5.B1"             8948.244                    1            0.2225411   1.483239697419e-08                    0          20.36908265
         "BPM.25L5.B1"             9001.693                    1           -0.1966673   1.483239697419e-08                    0          20.45819492
         "BPM.24L5.B1"             9055.141                    1          -0.03088754   1.483239697419e-08                    0          20.60786789
         "BPM.23L5.B1"              9108.59                    1            0.4655755   1.483239697419e-08                    0          20.75020259
         "BPM.22L5.B1"             9162.038                    1            -0.108012   1.483239697419e-08                    0          20.86905544
         "BPM.21L5.B1"             9215.487                    1           -0.1032976   1.483239697419e-08                    0          20.95816359
         "BPM.20L5.B1"             9268.935                    1            0.1433067   1.483239697419e-08                    0          21.10782037
         "BPM.19L5.B1"             9322.384                    1          -0.02144433   1.483239697419e-08                    0          21.25016392
         "BPM.18L5.B1"             9375.832                    1            -0.105313   1.483239697419e-08                    0          21.36902822
         "BPM.17L5.B1"             9429.281                    1            0.4663469   1.483239697419e-08                    0          21.45813227
         "BPM.16L5.B1"             9482.729                    1           0.07577437   1.483239697419e-08                    0          21.60777285
         "BPM.15L5.B1"             9536.178                    1           -0.3425325   1.483239697419e-08                    0          21.75012524
         "BPM.14L5.B1"             9589.626                    1            0.2579409   1.483239697419e-08                    0            21.869001
         "BPM.13L5.B1"             9643.075                    1           -0.3370791   1.483239697419e-08                    0          21.95810096
         "BPM.12L5.B1"             9696.523                    1             0.290997   1.483239697419e-08                    0          22.11014943
         "BPM.11L5.B1"             9749.972                    1         -0.006693918   1.483239697419e-08                    0          22.24546531
         "BPM.10L5.B1"             9802.753                    1         -0.005091876   1.483239697419e-08                    0          22.36218824
          "BPM.9L5.B1"             9841.818                    1           -0.2368214   1.483239697419e-08                    0          22.44516916
          "BPM.8L5.B1"             9882.281                    1          0.005692999   1.483239697419e-08                    0          22.65133643
         "BPMR.7L5.B1"             9921.347                    1            0.3185744   1.483239697419e-08                    0          22.76878799
          "BPM.6L5.B1"             9958.241                    1           -0.2116925   1.483239697419e-08                    0          22.85792439
         "BPMR.5L5.B1"             9990.141                    1            0.1030548   1.483239697419e-08                    0          22.87136228
        "BPMYA.4L5.B1"             10017.55                    1           -0.2169454   1.483239697419e-08                    0          22.87615711
        "BPMWB.4L5.B1"             10038.68                    1           -0.6649217   1.483239697419e-08                    0          22.87826192
        "BPMSY.4L5.B1"             10131.46                    1           -0.2243554   1.483239697419e-08                    0          22.88439072
         "BPMS.2L5.B1"             10158.25                    1            0.6826772   1.483239697419e-08                    0          22.88524737
        "BPMSW.1L5.B1"             10168.21                    1            0.4956753   1.483239697419e-08                    0          22.88587493
         "BPMS.2R5.B1"              10221.3                    1           -0.8450331   1.483239697419e-08                    0          23.38225305
        "BPMWB.4R5.B1"             10340.87                    1            0.1768647   1.483239697419e-08                    0          23.38889541
        "BPMYA.4R5.B1"                10362                    1            0.1171144   1.483239697419e-08                    0          23.39358117
          "BPM.5R5.B1"             10383.12                    1            -0.544647   1.483239697419e-08                    0          23.40376887
         "BPMR.6R5.B1"             10415.02                    1           0.00763379   1.483239697419e-08                    0          23.54837538
        "BPM_A.7R5.B1"             10449.03                    1            0.1942684   1.483239697419e-08                    0          23.85017839
          "BPM.8R5.B1"             10490.47                    1           -0.2100859   1.483239697419e-08                    0          23.93852656
          "BPM.9R5.B1"             10529.54                    1           -0.0866858   1.483239697419e-08                    0          24.16513852
         "BPM.10R5.B1"             10570.01                    1            0.4097185   1.483239697419e-08                    0          24.27209527
         "BPM.11R5.B1"             10622.79                    1           0.03637157   1.483239697419e-08                    0          24.37386241
         "BPM.12R5.B1"             10677.51                    1            0.1468635   1.483239697419e-08                    0          24.46198826
         "BPM.13R5.B1"             10730.97                    1           0.04725277   1.483239697419e-08                    0          24.60908089
         "BPM.14R5.B1"             10784.42                    1           -0.1765768   1.483239697419e-08                    0          24.75119566
         "BPM.16R5.B1"             10891.32                    1           -0.1863965   1.483239697419e-08                    0          24.95898605
         "BPM.17R5.B1"             10944.77                    1            0.1706759   1.483239697419e-08                    0          25.10908074
         "BPM.18R5.B1"             10998.22                    1           0.09675541   1.483239697419e-08                    0          25.25119566
         "BPM.19R5.B1"             11051.68                    1           0.04941298   1.483239697419e-08                    0           25.3697631
         "BPM.20R5.B1"             11105.13                    1            0.1169868   1.483239697419e-08                    0          25.45898605
         "BPM.22R5.B1"             11212.03                    1           -0.2944574   1.483239697419e-08                    0          25.75119566
         "BPM.23R5.B1"             11265.48                    1           0.05582248   1.483239697419e-08                    0           25.8697631
         "BPM.24R5.B1"             11318.93                    1           0.03588306   1.483239697419e-08                    0          25.95898605
         "BPM.25R5.B1"             11372.38                    1            0.1556246   1.483239697419e-08                    0          26.10908074
         "BPM.26R5.B1"             11425.84                    1          -0.08267261   1.483239697419e-08                    0          26.25119566
         "BPM.27R5.B1"             11479.29                    1            0.1968263   1.483239697419e-08                    0           26.3697631
         "BPM.28R5.B1"             11532.74                    1           -0.2245978   1.483239697419e-08                    0          26.45898605
         "BPM.29R5.B1"             11586.19                    1           0.01736044   1.483239697419e-08                    0          26.60908074
         "BPM.30R5.B1"             11639.64                    1            0.2259681   1.483239697419e-08                    0          26.75119566
         "BPM.31R5.B1"             11693.09                    1          -0.03109144   1.483239697419e-08                    0           26.8697631
         "BPM.32R5.B1"             11746.54                    1           -0.1001689   1.483239697419e-08                    0          26.95898605
         "BPM.33R5.B1"                11800                    1           0.05966073   1.483239697419e-08                    0          27.10908074
         "BPM.34R5.B1"             11853.45                    1            0.2566706   1.483239697419e-08                    0          27.25119566
         "BPM.33L6.B1"              11906.9                    1           -0.1125648   1.483239697419e-08                    0           27.3697631
         "BPM.32L6.B1"             11960.35                    1            0.3118679   1.483239697419e-08                    0          27.45898605
         "BPM.30L6.B1"             12067.25                    1          -0.04760304   1.483239697419e-08                    0          27.75119566
         "BPM.29L6.B1"              12120.7                    1           0.01744618   1.483239697419e-08                    0           27.8697631
         "BPM.28L6.B1"             12174.16                    1            0.1184013   1.483239697419e-08                    0          27.95898605
         "BPM.27L6.B1"             12227.61                    1         -0.004473339   1.483239697419e-08                    0          28.10908074
         "BPM.26L6.B1"             12281.06                    1            0.1519304   1.483239697419e-08                    0          28.25119566
         "BPM.25L6.B1"             12334.51                    1           -0.0225441   1.483239697419e-08                    0           28.3697631
         "BPM.24L6.B1"             12387.96                    1            0.1498998   1.483239697419e-08                    0          28.45898605
         "BPM.22L6.B1"             12494.87                    1           -0.3306693   1.483239697419e-08                    0          28.75119566
         "BPM.21L6.B1"             12548.32                    1            0.1624631   1.483239697419e-08                    0           28.8697631
         "BPM.20L6.B1"             12601.77                    1          -0.02344348   1.483239697419e-08                    0          28.95898605
         "BPM.19L6.B1"             12655.22                    1           0.08954414   1.483239697419e-08                    0          29.10908074
         "BPM.18L6.B1"             12708.67                    1            0.1276292   1.483239697419e-08                    0          29.25119566
         "BPM.17L6.B1"             12762.12                    1           0.08048326   1.483239697419e-08                    0           29.3697631
         "BPM.16L6.B1"             12815.57                    1           -0.1133131   1.483239697419e-08                    0          29.45898605
         "BPM.15L6.B1"             12869.03                    1           0.04949412   1.483239697419e-08                    0          29.60908074
         "BPM.14L6.B1"             12922.48                    1           -0.1267783   1.483239697419e-08                    0          29.75119566
         "BPM.13L6.B1"             12975.93                    1            0.0601899   1.483239697419e-08                    0           29.8697631
         "BPM.12L6.B1"             13029.38                    1            0.1326615   1.483239697419e-08                    0          29.95907631
         "BPM.11L6.B1"             13082.83                    1            0.1401785   1.483239697419e-08                    0          30.10555845
         "BPM.10L6.B1"             13134.67                    1           -0.1860855   1.483239697419e-08                    0          30.24933488
          "BPM.9L6.B1"             13173.74                    1          -0.07426603   1.483239697419e-08                    0          30.35462855
          "BPM.8L6.B1"              13214.2                    1             0.370138   1.483239697419e-08                    0          30.44930571
        "BPMYB.4L6.B1"             13347.69                    1           -0.1909803   1.483239697419e-08                    0           30.7463281
       "BPMSX.B4L6.B1"             13383.23                    1            0.3869226   1.483239697419e-08                    0          30.78047084
       "BPMSX.A4L6.B1"             13383.82                    1           0.04491819   1.483239697419e-08                    0          30.78108746
        "BPMSA.4R6.B1"             13568.51                    1           -0.6578742   1.483239697419e-08                    0          30.95719137
       "BPMSI.A4R6.B1"             13661.77                    1            0.1756429   1.483239697419e-08                    0          30.99558269
       "BPMSI.B4R6.B1"             13662.41                    1            0.1247204   1.483239697419e-08                    0          30.99576993
        "BPMYA.4R6.B1"             13691.29                    1          -0.09976636   1.483239697419e-08                    0          31.00355012
        "BPMYB.5R6.B1"             13727.69                    1           -0.1535745   1.483239697419e-08                    0          31.02223801
          "BPM.9R6.B1"             13862.49                    1           -0.5584486   1.483239697419e-08                    0          31.50300649
         "BPM.11R6.B1"             13954.79                    1           -0.3499254   1.483239697419e-08                    0          31.76030647
         "BPM.12R6.B1"             14009.52                    1            0.1527235   1.483239697419e-08                    0          31.89835843
         "BPM.13R6.B1"             14062.97                    1            0.3284809   1.483239697419e-08                    0          32.01469404
         "BPM.14R6.B1"             14116.42                    1          -0.06370454   1.483239697419e-08                    0          32.15161978
         "BPM.15R6.B1"             14169.87                    1           -0.1474877   1.483239697419e-08                    0          32.26879442
         "BPM.16R6.B1"             14223.33                    1           0.06644098   1.483239697419e-08                    0          32.40964547
         "BPM.17R6.B1"             14276.78                    1            0.3320934   1.483239697419e-08                    0          32.52361628
         "BPM.18R6.B1"             14330.23                    1          -0.01922878   1.483239697419e-08                    0            32.660747
         "BPM.19R6.B1"             14383.68                    1          -0.03048285   1.483239697419e-08                    0          32.77811055
         "BPM.20R6.B1"             14437.13                    1            0.1266841   1.483239697419e-08                    0          32.91873335
         "BPM.21R6.B1"             14490.58                    1           -0.2966092   1.483239697419e-08                    0          33.03253493
         "BPM.22R6.B1"             14544.04                    1            0.3590036   1.483239697419e-08                    0          33.16989692
         "BPM.23R6.B1"             14597.49                    1           -0.6481883   1.483239697419e-08                    0          33.28440631
         "BPM.24R6.B1"             14650.94                    1            0.3604696   1.483239697419e-08                    0          33.42177225
         "BPM.25R6.B1"             14704.39                    1             -0.55766   1.483239697419e-08                    0          33.53626772
         "BPM.26R6.B1"             14757.84                    1              0.30873   1.483239697419e-08                    0          33.67363092
         "BPM.27R6.B1"             14811.29                    1           -0.2547238   1.483239697419e-08                    0          33.78814037
         "BPM.28R6.B1"             14864.74                    1             0.106516   1.483239697419e-08                    0          33.92550593
         "BPM.29R6.B1"              14918.2                    1           -0.2373757   1.483239697419e-08                    0          34.04000135
         "BPM.30R6.B1"             14971.65                    1            0.2240002   1.483239697419e-08                    0          34.17736494
         "BPM.31R6.B1"              15025.1                    1          -0.05492705   1.483239697419e-08                    0          34.29187442
         "BPM.32R6.B1"             15078.55                    1           0.05931299   1.483239697419e-08                    0          34.42923961
         "BPM.33R6.B1"                15132                    1           -0.1431477   1.483239697419e-08                    0          34.54373499
         "BPM.34R6.B1"             15185.45                    1           0.06509753   1.483239697419e-08                    0          34.68109896
         "BPM.33L7.B1"              15238.9                    1           -0.0215884   1.483239697419e-08                    0          34.79560847
         "BPM.32L7.B1"             15292.36                    1           0.02016403   1.483239697419e-08                    0          34.93297327
         "BPM.31L7.B1"             15345.81                    1            -0.172131   1.483239697419e-08                    0          35.04746864
         "BPM.30L7.B1"             15399.26                    1            0.1501768   1.483239697419e-08                    0          35.18483299
         "BPM.29L7.B1"             15452.71                    1           0.02773237   1.483239697419e-08                    0          35.29934251
         "BPM.28L7.B1"             15506.16                    1           0.06372705   1.483239697419e-08                    0          35.43670693
         "BPM.27L7.B1"             15559.61                    1           -0.0185391   1.483239697419e-08                    0          35.55120229
         "BPM.26L7.B1"             15613.06                    1          -0.03039543   1.483239697419e-08                    0          35.68856702
         "BPM.25L7.B1"             15666.52                    1           0.03442718   1.483239697419e-08                    0          35.80307654
         "BPM.24L7.B1"             15719.97                    1            0.1233389   1.483239697419e-08                    0          35.94044057
         "BPM.23L7.B1"             15773.42                    1           -0.3421026   1.483239697419e-08                    0          36.05493596
         "BPM.22L7.B1"             15826.87                    1          -0.00625731   1.483239697419e-08                    0          36.19230107
         "BPM.21L7.B1"             15880.32                    1             0.490631   1.483239697419e-08                    0          36.30681056
         "BPM.20L7.B1"             15933.77                    1           -0.1816479   1.483239697419e-08                    0          36.44333174
         "BPM.19L7.B1"             15987.23                    1            0.2321087   1.483239697419e-08                    0          36.56016257
         "BPM.18L7.B1"             16040.68                    1            0.1243459   1.483239697419e-08                    0          36.70145394
         "BPM.17L7.B1"             16094.13                    1           -0.6268922   1.483239697419e-08                    0          36.81573074
         "BPM.16L7.B1"             16147.58                    1            0.3511355   1.483239697419e-08                    0          36.95241666
         "BPM.15L7.B1"             16201.03                    1           -0.4897383   1.483239697419e-08                    0          37.06948033
         "BPM.13L7.B1"             16307.93                    1           0.06683434   1.483239697419e-08                    0          37.32464521
         "BPM.12L7.B1"             16361.39                    1          -0.08953931   1.483239697419e-08                    0          37.46433798
         "BPM.11L7.B1"             16414.84                    1            0.3580361   1.483239697419e-08                    0          37.58407347
         "BPM.10L7.B1"             16467.62                    1           0.02275107   1.483239697419e-08                    0          37.72786237
          "BPM.9L7.B1"             16506.69                    1           -0.5327947   1.483239697419e-08                    0          37.82152543
          "BPM.8L7.B1"             16547.15                    1            0.2827611   1.483239697419e-08                    0          38.01425717
          "BPM.7L7.B1"             16586.22                    1           -0.1465732   1.483239697419e-08                    0          38.09681258
          "BPM.6L7.B1"             16621.04                    1            0.4040176   1.483239697419e-08                    0          38.14350429
        "BPMWC.6L7.B1"             16633.14                    1           -0.1989797   1.483239697419e-08                    0          38.15106391
        "BPMWE.5L7.B1"             16710.19                    1           -0.2079744   1.483239697419e-08                    0          38.34019733
         "BPMW.5L7.B1"              16733.4                    1           -0.6942459   1.483239697419e-08                    0          38.43728745
        "BPMWE.4L7.B1"             16768.48                    1           -0.2866049   1.483239697419e-08                    0           38.4790751
         "BPMW.4L7.B1"             16796.59                    1            0.5835105   1.483239697419e-08                    0          38.49235012
         "BPMW.4R7.B1"             16912.63                    1           -0.1362644   1.483239697419e-08                    0          38.68039376
        "BPMWE.4R7.B1"             16940.74                    1            0.5764789   1.483239697419e-08                    0          38.75656868
         "BPMW.5R7.B1"             16975.82                    1            -0.129632   1.483239697419e-08                    0           38.7895351
        "BPMWE.5R7.B1"             16999.03                    1           -0.2002269   1.483239697419e-08                    0          38.79995118
         "BPMR.6R7.B1"             17078.24                    1          -0.04850338   1.483239697419e-08                    0          38.89262826
        "BPM_A.7R7.B1"             17116.28                    1           0.07617033   1.483239697419e-08                    0          38.97272152
          "BPM.8R7.B1"             17155.35                    1           -0.1694896   1.483239697419e-08                    0          39.10305062
          "BPM.9R7.B1"             17194.41                    1           0.09931261   1.483239697419e-08                    0          39.29051441
         "BPM.10R7.B1"             17234.88                    1           -0.3496331   1.483239697419e-08                    0          39.39015481
         "BPM.11R7.B1"             17287.66                    1            0.1837717   1.483239697419e-08                    0          39.51704581
         "BPM.12R7.B1"             17342.39                    1           -0.3038128   1.483239697419e-08                    0          39.63740537
         "BPM.13R7.B1"             17395.84                    1            0.2871151   1.483239697419e-08                    0          39.78099532
         "BPM.14R7.B1"             17449.29                    1           -0.5265408   1.483239697419e-08                    0          39.89600467
         "BPM.15R7.B1"             17502.74                    1            0.2544147   1.483239697419e-08                    0          40.03229004
         "BPM.16R7.B1"             17556.19                    1          -0.03233719   1.483239697419e-08                    0          40.14862024
         "BPM.17R7.B1"             17609.65                    1          0.009175015   1.483239697419e-08                    0          40.29019362
         "BPM.18R7.B1"              17663.1                    1           0.08757953   1.483239697419e-08                    0          40.40494306
         "BPM.19R7.B1"             17716.55                    1            0.0575687   1.483239697419e-08                    0          40.54133011
         "BPM.20R7.B1"                17770                    1           -0.1885454   1.483239697419e-08                    0          40.65792077
         "BPM.21R7.B1"             17823.45                    1            0.2027282   1.483239697419e-08                    0          40.79936931
         "BPM.22R7.B1"              17876.9                    1           -0.2494762   1.483239697419e-08                    0          40.91387091
         "BPM.23R7.B1"             17930.35                    1            0.2274527   1.483239697419e-08                    0          41.05123502
         "BPM.24R7.B1"             17983.81                    1            -0.153009   1.483239697419e-08                    0          41.16573844
         "BPM.25R7.B1"             18037.26                    1            0.2665495   1.483239697419e-08                    0          41.30310327
         "BPM.26R7.B1"             18090.71                    1           -0.5930722   1.483239697419e-08                    0          41.41760472
         "BPM.27R7.B1"             18144.16                    1            0.1675949   1.483239697419e-08                    0          41.55496888
         "BPM.28R7.B1"             18197.61                    1          -0.06607827   1.483239697419e-08                    0          41.66947232
         "BPM.29R7.B1"             18251.06                    1            0.3701624   1.483239697419e-08                    0          41.80683709
         "BPM.30R7.B1"             18304.51                    1            0.3973532   1.483239697419e-08                    0          41.92133853
         "BPM.31R7.B1"             18357.97                    1           0.03267306   1.483239697419e-08                    0          42.05870274
         "BPM.32R7.B1"             18411.42                    1           -0.1041378   1.483239697419e-08                    0          42.17320619
         "BPM.33R7.B1"             18464.87                    1            0.6234049   1.483239697419e-08                    0          42.31057092
         "BPM.33L8.B1"             18571.77                    1            0.2398516   1.483239697419e-08                    0          42.56243661
         "BPM.32L8.B1"             18625.22                    1           -0.4324462   1.483239697419e-08                    0          42.67694007
         "BPM.31L8.B1"             18678.68                    1            0.1634568   1.483239697419e-08                    0          42.81430474
         "BPM.30L8.B1"             18732.13                    1           0.09623127   1.483239697419e-08                    0          42.92880616
         "BPM.29L8.B1"             18785.58                    1          -0.03287439   1.483239697419e-08                    0          43.06617048
         "BPM.28L8.B1"             18839.03                    1            0.1936307   1.483239697419e-08                    0          43.18067395
         "BPM.27L8.B1"             18892.48                    1            0.2855554   1.483239697419e-08                    0          43.31803856
         "BPM.26L8.B1"             18945.93                    1           -0.7838454   1.483239697419e-08                    0          43.43253997
         "BPM.25L8.B1"             18999.38                    1            0.1879352   1.483239697419e-08                    0          43.56990435
         "BPM.24L8.B1"             19052.84                    1            0.2223362   1.483239697419e-08                    0          43.68440782
         "BPM.23L8.B1"             19106.29                    1           -0.1292186   1.483239697419e-08                    0          43.82177238
         "BPM.22L8.B1"             19159.74                    1            0.1783421   1.483239697419e-08                    0          43.93627379
         "BPM.21L8.B1"             19213.19                    1             2.599697   1.483239697419e-08                    0          44.07363822
         "BPM.20L8.B1"             19266.64                    1           -0.2020346   1.483239697419e-08                    0          44.19116168
         "BPM.19L8.B1"             19320.09                    1            0.2467602   1.483239697419e-08                    0           44.3315332
         "BPM.18L8.B1"             19373.54                    1           -0.4139834   1.483239697419e-08                    0          44.44519517
         "BPM.17L8.B1"                19427                    1             0.186913   1.483239697419e-08                    0          44.58281012
         "BPM.16L8.B1"             19480.45                    1          -0.07036887   1.483239697419e-08                    0          44.70047417
         "BPM.15L8.B1"              19533.9                    1           0.01442108   1.483239697419e-08                    0          44.84057779
         "BPM.14L8.B1"             19587.35                    1            0.1444088   1.483239697419e-08                    0          44.95411964
         "BPM.13L8.B1"              19640.8                    1           0.01836399   1.483239697419e-08                    0          45.09200363
         "BPM.12L8.B1"             19694.25                    1          -0.02823498   1.483239697419e-08                    0          45.20616482
         "BPM.11L8.B1"              19747.7                    1            0.0594644   1.483239697419e-08                    0          45.34358272
         "BPM.10L8.B1"             19799.55                    1            0.2177959   1.483239697419e-08                    0          45.45337919
          "BPM.9L8.B1"             19838.61                    1           -0.2764224   1.483239697419e-08                    0          45.57054847
          "BPM.8L8.B1"             19879.08                    1            0.1997287   1.483239697419e-08                    0          45.71643888
          "BPM.7L8.B1"             19918.15                    1          -0.05908683   1.483239697419e-08                    0          45.89273715
         "BPMR.6L8.B1"             19950.61                    1           -0.4803686   1.483239697419e-08                    0          46.01945481
          "BPM.5L8.B1"             20011.03                    1            0.1874671   1.483239697419e-08                    0          46.24807829
        "BPMYB.4L8.B1"              20031.8                    1          0.002768162   1.483239697419e-08                    0          46.26685456
        "BPMWB.4L8.B1"             20056.19                    1            -2.528576   1.483239697419e-08                    0          46.28960573
        "BPMSX.4L8.B1"             20106.42                    1            -2.015995   1.483239697419e-08                    0          46.31194061
         "BPMS.2L8.B1"             20144.34                    1           -0.4065729   1.483239697419e-08                    0          46.32741179
        "BPMSW.1L8.B1"             20154.27                    1           -0.1665186   1.483239697419e-08                    0          46.33535157
        "BPMSW.1R8.B1"             20197.46                    1            0.7291675   1.483239697419e-08                    0          46.79141481
         "BPMS.2R8.B1"             20207.39                    1             1.746232   1.483239697419e-08                    0          46.79756518
        "BPMSX.4R8.B1"             20245.31                    1           -0.2662088   1.483239697419e-08                    0          46.81111797
        "BPMWB.4R8.B1"             20295.46                    1            0.1528346   1.483239697419e-08                    0          46.83708543
        "BPMYB.4R8.B1"             20319.93                    1           -0.1866721   1.483239697419e-08                    0          46.85145546
        "BPMYB.5R8.B1"             20340.51                    1           0.02822912   1.483239697419e-08                    0          46.88003985
          "BPM.6R8.B1"             20424.62                    1           -0.1780752   1.483239697419e-08                    0          47.24940315
        "BPM_A.7R8.B1"             20446.86                    1            0.2542972   1.483239697419e-08                    0           47.2841446
          "BPM.8R8.B1"             20488.29                    1           -0.3124632   1.483239697419e-08                    0          47.38028103
          "BPM.9R8.B1"             20527.36                    1          -0.05842447   1.483239697419e-08                    0          47.55876661
         "BPM.10R8.B1"             20567.82                    1            0.2447156   1.483239697419e-08                    0           47.7340522
         "BPM.11R8.B1"             20619.66                    1           -0.3334807   1.483239697419e-08                    0          47.81224593
         "BPM.12R8.B1"             20674.38                    1            0.1119947   1.483239697419e-08                    0          47.95749689
         "BPM.13R8.B1"             20727.83                    1           -0.2293034   1.483239697419e-08                    0          48.10421078
         "BPM.14R8.B1"             20781.28                    1           0.04775215   1.483239697419e-08                    0          48.22297265
         "BPM.16R8.B1"             20888.18                    1           0.09909611   1.483239697419e-08                    0          48.46190011
         "BPM.17R8.B1"             20941.63                    1           -0.3708794   1.483239697419e-08                    0          48.60417627
         "BPM.18R8.B1"             20995.07                    1            0.1791886   1.483239697419e-08                    0          48.72294544
         "BPM.19R8.B1"             21048.52                    1           0.02805596   1.483239697419e-08                    0          48.81207951
         "BPM.20R8.B1"             21101.97                    1         -0.009695367   1.483239697419e-08                    0          48.96185257
         "BPM.21R8.B1"             21155.42                    1            -0.258768   1.483239697419e-08                    0          49.10413763
         "BPM.23R8.B1"             21262.32                    1            0.2464251   1.483239697419e-08                    0          49.31204817
         "BPM.24R8.B1"             21315.76                    1            0.2502943   1.483239697419e-08                    0          49.46180504
         "BPM.25R8.B1"             21369.21                    1           -0.5316473   1.483239697419e-08                    0          49.60409898
         "BPM.26R8.B1"             21422.66                    1            0.1286251   1.483239697419e-08                    0          49.72289101
         "BPM.27R8.B1"             21476.11                    1            0.2345468   1.483239697419e-08                    0          49.81201683
         "BPM.28R8.B1"             21529.56                    1           -0.1711453   1.483239697419e-08                    0           49.9617575
         "BPM.29R8.B1"             21583.01                    1              0.19305   1.483239697419e-08                    0          50.10406033
         "BPM.30R8.B1"             21636.46                    1           0.05563514   1.483239697419e-08                    0           50.2228638
         "BPM.31R8.B1"              21689.9                    1          -0.05028739   1.483239697419e-08                    0          50.31198549
         "BPM.32R8.B1"             21743.35                    1           0.06710398   1.483239697419e-08                    0          50.46170997
         "BPM.33R8.B1"              21796.8                    1            0.1901156   1.483239697419e-08                    0          50.60402168
         "BPM.34R8.B1"             21850.25                    1            0.0378467   1.483239697419e-08                    0          50.72283659
         "BPM.33L1.B1"              21903.7                    1           -0.1852431   1.483239697419e-08                    0          50.81195416
         "BPM.32L1.B1"             21957.15                    1           0.02692046   1.483239697419e-08                    0          50.96166244
         "BPM.31L1.B1"              22010.6                    1           0.07855057   1.483239697419e-08                    0          51.10398302
         "BPM.30L1.B1"             22064.04                    1            0.1800529   1.483239697419e-08                    0          51.22280937
         "BPM.29L1.B1"             22117.49                    1           -0.2983703   1.483239697419e-08                    0          51.31192283
         "BPM.28L1.B1"             22170.94                    1          0.004080964   1.483239697419e-08                    0          51.46161491
         "BPM.27L1.B1"             22224.39                    1            0.3205802   1.483239697419e-08                    0          51.60394435
         "BPM.26L1.B1"             22277.84                    1          0.001522819   1.483239697419e-08                    0          51.72278216
         "BPM.25L1.B1"             22331.29                    1           -0.1395085   1.483239697419e-08                    0          51.81189151
         "BPM.24L1.B1"             22384.74                    1          -0.05464955   1.483239697419e-08                    0          51.96156739
         "BPM.23L1.B1"             22438.18                    1            0.3135407   1.483239697419e-08                    0          52.10390569
         "BPM.22L1.B1"             22491.63                    1          -0.02214281   1.483239697419e-08                    0          52.22275494
         "BPM.21L1.B1"             22545.08                    1            0.2044957   1.483239697419e-08                    0          52.31186018
         "BPM.20L1.B1"             22598.53                    1           -0.1408099   1.483239697419e-08                    0          52.46151987
         "BPM.19L1.B1"             22651.98                    1            0.2400115   1.483239697419e-08                    0          52.60386701
         "BPM.18L1.B1"             22705.43                    1            0.1516774   1.483239697419e-08                    0          52.72272772
         "BPM.17L1.B1"             22758.87                    1            0.0697977   1.483239697419e-08                    0          52.81182887
         "BPM.16L1.B1"             22812.32                    1          -0.03083196   1.483239697419e-08                    0          52.96147234
         "BPM.15L1.B1"             22865.77                    1            0.1204918   1.483239697419e-08                    0          53.10382833
         "BPM.14L1.B1"             22919.22                    1           0.04811367   1.483239697419e-08                    0           53.2227005
         "BPM.13L1.B1"             22972.67                    1           0.00415743   1.483239697419e-08                    0          53.31179755
         "BPM.12L1.B1"             23026.12                    1          -0.06267526   1.483239697419e-08                    0          53.46384903
         "BPM.11L1.B1"             23079.57                    1             0.230394   1.483239697419e-08                    0          53.59916843
         "BPM.10L1.B1"             23132.35                    1          -0.06971702   1.483239697419e-08                    0          53.71588804
          "BPM.9L1.B1"             23171.41                    1         -0.007328422   1.483239697419e-08                    0            53.798866
          "BPM.8L1.B1"             23211.87                    1           -0.1482434   1.483239697419e-08                    0          54.00503772
         "BPMR.7L1.B1"             23250.94                    1            0.2066272   1.483239697419e-08                    0          54.12249088
          "BPM.6L1.B1"             23294.12                    1             0.150242   1.483239697419e-08                    0          54.21545627
         "BPMR.5L1.B1"             23326.02                    1          -0.08052693   1.483239697419e-08                    0          54.22656015
        "BPMYA.4L1.B1"             23347.14                    1           -0.2508494   1.483239697419e-08                    0          54.22985654
        "BPMWB.4L1.B1"             23368.28                    1           -0.1956363   1.483239697419e-08                    0          54.23196103
        "BPMSY.4L1.B1"             23461.06                    1            -1.281343   1.483239697419e-08                    0          54.23808958
         "BPMS.2L1.B1"             23487.84                    1                0.431   1.483239697419e-08                    0          54.23894619
        "BPMSW.1L1.B1"             23497.79                    1            0.8629783   1.483239697419e-08                    0          54.23957218
        "BPMSW.1R1.B1"             23540.93                    1           -0.9227766   1.483239697419e-08                    0          54.73514573
         "BPMS.2R1.B1"              23550.9                    1            0.3195862   1.483239697419e-08                    0            54.735952
        "BPMSY.4R1.B1"             23577.68                    1           -0.1158947   1.483239697419e-08                    0          54.73719477
        "BPMWB.4R1.B1"             23670.46                    1          -0.06405245   1.483239697419e-08                    0          54.74259409
        "BPMYA.4R1.B1"              23691.6                    1           -0.3496674   1.483239697419e-08                    0          54.74727966
          "BPM.5R1.B1"                23719                    1           -0.1544228   1.483239697419e-08                    0          54.76280935
         "BPMR.6R1.B1"              23750.9                    1            0.1635984   1.483239697419e-08                    0          55.06824448
        "BPMSX.7R1.B1"             23757.12                    1           -0.3353877   1.483239697419e-08                    0          55.14879703
        "BPM_A.7R1.B1"             23778.63                    1             3.407375   1.483239697419e-08                    0           55.2038787
          "BPM.8R1.B1"             23820.07                    1            0.3245777   1.483239697419e-08                    0          55.29222355
          "BPM.9R1.B1"             23859.13                    1          -0.01716452   1.483239697419e-08                    0          55.51884031
         "BPM.10R1.B1"              23899.6                    1          -0.09999962   1.483239697419e-08                    0           55.6257981
         "BPM.11R1.B1"             23952.38                    1            0.2394682   1.483239697419e-08                    0          55.72756171
         "BPM.12R1.B1"             24007.11                    1           0.07874718   1.483239697419e-08                    0          55.81568479
         "BPM.13R1.B1"             24060.56                    1          -0.01146661   1.483239697419e-08                    0          55.96278045
         "BPM.14R1.B1"             24114.01                    1           -0.1479174   1.483239697419e-08                    0          56.10489874
         "BPM.15R1.B1"             24167.46                    1            0.1928301   1.483239697419e-08                    0          56.22346258
         "BPM.16R1.B1"             24220.91                    1           -0.3167825   1.483239697419e-08                    0          56.31268263
         "BPM.17R1.B1"             24274.37                    1            0.1839867   1.483239697419e-08                    0          56.46278029
         "BPM.18R1.B1"             24327.82                    1          -0.06579663   1.483239697419e-08                    0          56.60489874
         "BPM.19R1.B1"             24381.27                    1            0.1857593   1.483239697419e-08                    0          56.72346258
         "BPM.20R1.B1"             24434.72                    1          -0.08611274   1.483239697419e-08                    0          56.81268263
         "BPM.21R1.B1"             24488.17                    1            0.4635459   1.483239697419e-08                    0          56.96278029
         "BPM.22R1.B1"             24541.62                    1           -0.1094077   1.483239697419e-08                    0          57.10489874
         "BPM.23R1.B1"             24595.08                    1            0.1996609   1.483239697419e-08                    0          57.22346258
         "BPM.24R1.B1"             24648.53                    1           -0.2013202   1.483239697419e-08                    0          57.31268263
         "BPM.25R1.B1"             24701.98                    1             0.196866   1.483239697419e-08                    0          57.46278029
         "BPM.26R1.B1"             24755.43                    1           -0.3296392   1.483239697419e-08                    0          57.60489874
         "BPM.27R1.B1"             24808.88                    1            0.1438286   1.483239697419e-08                    0          57.72346258
         "BPM.28R1.B1"             24862.33                    1           -0.1786622   1.483239697419e-08                    0          57.81268263
         "BPM.29R1.B1"             24915.78                    1           0.07939544   1.483239697419e-08                    0          57.96278029
         "BPM.30R1.B1"             24969.24                    1           -0.1152376   1.483239697419e-08                    0          58.10489874
         "BPM.31R1.B1"             25022.69                    1            0.1868669   1.483239697419e-08                    0          58.22346258
         "BPM.32R1.B1"             25076.14                    1          -0.00608424   1.483239697419e-08                    0          58.31268263
         "BPM.33R1.B1"             25129.59                    1           0.04129172   1.483239697419e-08                    0          58.46278029
         "BPM.34R1.B1"             25183.04                    1            0.1151409   1.483239697419e-08                    0          58.60489874
         "BPM.33L2.B1"             25236.49                    1          -0.03381963   1.483239697419e-08                    0          58.72346258
         "BPM.32L2.B1"             25289.94                    1           0.03381336   1.483239697419e-08                    0          58.81268263
         "BPM.31L2.B1"              25343.4                    1           -0.0813675   1.483239697419e-08                    0          58.96278029
         "BPM.30L2.B1"             25396.85                    1          -0.08907667   1.483239697419e-08                    0          59.10489874
         "BPM.29L2.B1"              25450.3                    1            0.1398266   1.483239697419e-08                    0          59.22346258
         "BPM.28L2.B1"             25503.75                    1            0.1946291   1.483239697419e-08                    0          59.31268263
         "BPM.27L2.B1"              25557.2                    1          -0.01524464   1.483239697419e-08                    0          59.46278029
         "BPM.26L2.B1"             25610.65                    1            0.3041902   1.483239697419e-08                    0          59.60489874
         "BPM.25L2.B1"              25664.1                    1          -0.09877111   1.483239697419e-08                    0          59.72346257
         "BPM.24L2.B1"             25717.56                    1           -0.1305706   1.483239697419e-08                    0          59.81268263
         "BPM.23L2.B1"             25771.01                    1           -0.3588834   1.483239697419e-08                    0          59.96278029
         "BPM.22L2.B1"             25824.46                    1           -0.2188844   1.483239697419e-08                    0          60.10489874
         "BPM.21L2.B1"             25877.91                    1            -0.116255   1.483239697419e-08                    0          60.22346257
         "BPM.20L2.B1"             25931.36                    1            0.1284901   1.483239697419e-08                    0          60.31268263
         "BPM.19L2.B1"             25984.81                    1           -0.1614653   1.483239697419e-08                    0          60.46278029
         "BPM.18L2.B1"             26038.27                    1            -0.255464   1.483239697419e-08                    0          60.60489874
         "BPM.17L2.B1"             26091.72                    1            0.0276494   1.483239697419e-08                    0          60.72346257
         "BPM.16L2.B1"             26145.17                    1            0.4027912   1.483239697419e-08                    0          60.81268263
         "BPM.15L2.B1"             26198.62                    1            -0.245265   1.483239697419e-08                    0          60.96278029
         "BPM.14L2.B1"             26252.07                    1           0.07680304   1.483239697419e-08                    0          61.10489874
         "BPM.13L2.B1"             26305.52                    1             0.115137   1.483239697419e-08                    0          61.22346257
         "BPM.12L2.B1"             26358.97                    1          -0.01755852   1.483239697419e-08                    0          61.31865056
         "BPM.11L2.B1"             26412.43                    1           -0.2114083   1.483239697419e-08                    0          61.48016792
         "BPM.10L2.B1"             26464.27                    1            0.3562888   1.483239697419e-08                    0          61.61361536
          "BPM.9L2.B1"             26503.33                    1          -0.02803653   1.483239697419e-08                    0          61.71678875
          "BPM.8L2.B1"              26543.8                    1           -0.1128138   1.483239697419e-08                    0          61.83592381
          "BPM.7L2.B1"             26582.87                    1           -0.1644859   1.483239697419e-08                    0          62.06429394
         "BPMR.6L2.B1"             26614.97                    1           -0.6041953   1.483239697419e-08                    0          62.15955699