@ GetLLMVersion %s "V3.0.0 Dev"
@ Command %s "/afs/cern.ch/work/o/omc/anaconda/bin/python '/afs/cern.ch/eng/sl/lintrack/Beta-Beat.src/GetLLM/GetLLM.py' '--accel=LHCB1' '--model=/afs/cern.ch/user/t/thpugnat/public/Outputs/2018-09-04/models/LHCB1/b1_squeeze_collQ/twiss.dat' '--files=/afs/cern.ch/user/t/thpugnat/public/Outputs/2018-09-04/LHCB1/Measurements/Beam1@Turn@2018_06_16@17_26_04_577/Beam1@Turn@2018_06_16@17_26_04_577.sdds.clean' '--output=/afs/cern.ch/user/t/thpugnat/public/Outputs/2018-09-04/LHCB1/Results/15-18-22_NORMALANALYSIS_SUSSIX_11' '--tbtana=SUSSIX' '--bpmu=mm' '--lhcphase=1' '--errordefs=/afs/cern.ch/user/t/thpugnat/public/Outputs/2018-09-04/models/LHCB1/b1_squeeze_collQ/error_deff.txt' '--calibration=/afs/cern.ch/eng/sl/lintrack/LHC_commissioning2017/Calibration_factors_2017/Calibration_factors_2017_beam1'"
@ CWD %s "/afs/cern.ch/user/t/thpugnat"
@ Date %s "04. September 2018, 15:18:26"
@ PLANE %s "Y"
@ FILES %s "/afs/cern.ch/user/t/thpugnat/public/Outputs/2018-09-04/LHCB1/Measurements/Beam1@Turn@2018_06_16@17_26_04_577/Beam1@Turn@2018_06_16@17_26_04_577.sdds.clean"
*                   IP             BETASTAR            EBETASTAR             PHASEADV            EPHASEADV             MDLPHADV                LSTAR
$                   %s                  %le                  %le                  %le                  %le                  %le                  %le
                   IP1      0.2872006241075                    0        0.49576230689                    0           0.49557358              21.5715
                   IP2      -15.87875603731                    0      0.7018164609739                    0         0.3619560687               21.595
                   IP8     -0.4494269173847                    0      0.5066235879833                    0             0.456061               21.595