@ GetLLMVersion %s "V3.0.0 Dev"
@ Command %s "/afs/cern.ch/work/o/omc/anaconda/bin/python '/afs/cern.ch/eng/sl/lintrack/Beta-Beat.src/GetLLM/GetLLM.py' '--accel=LHCB1' '--model=/afs/cern.ch/user/t/thpugnat/public/Outputs/2018-09-04/models/LHCB1/b1_squeeze_collQ/twiss.dat' '--files=/afs/cern.ch/user/t/thpugnat/public/Outputs/2018-09-04/LHCB1/Measurements/Beam1@Turn@2018_06_16@17_42_26_736/Beam1@Turn@2018_06_16@17_42_26_736.sdds.clean' '--output=/afs/cern.ch/user/t/thpugnat/public/Outputs/2018-09-04/LHCB1/Results/15-50-13_NORMALANALYSIS_SUSSIX_27' '--tbtana=SUSSIX' '--bpmu=mm' '--lhcphase=1' '--errordefs=/afs/cern.ch/user/t/thpugnat/public/Outputs/2018-09-04/models/LHCB1/b1_squeeze_collQ/error_deff.txt' '--calibration=/afs/cern.ch/eng/sl/lintrack/LHC_commissioning2017/Calibration_factors_2017/Calibration_factors_2017_beam1'"
@ CWD %s "/afs/cern.ch/user/t/thpugnat"
@ Date %s "04. September 2018, 15:50:22"
@ Q1 %le 0.31043224148727544
@ Q2 %le 0.31982104151696095
@ RMSbetabeat %le 0.0735300442194
@ RescalingFactor %le 1.0108973797227012
@ FILES %s "/afs/cern.ch/user/t/thpugnat/public/Outputs/2018-09-04/LHCB1/Measurements/Beam1@Turn@2018_06_16@17_42_26_736/Beam1@Turn@2018_06_16@17_42_26_736.sdds.clean_liny"
*                 NAME                    S                COUNT                 BETY              BETYSTD              BETYMDL               MUYMDL              BETYRES           BETYSTDRES
$                   %s                  %le                  %le                  %le                  %le                  %le                  %le                  %le                  %le
        "BPMYB.5L2.B1"               28.288                    1       34.77883076739                    0          38.00955988         0.1210674621       35.15782889257                    0
        "BPMYB.4L2.B1"               48.858                    1       91.39496268938                    0          101.0072825          0.174925738       92.39092830255                    0
        "BPMWI.4L2.B1"              73.3255                    1        107.943608062                    0          104.8860687         0.2098764858       109.1199105477                    0
        "BPMSX.4L2.B1"             123.4825                    1       102.3602881717                    0           100.217427          0.291235075       103.4757471004                    0
         "BPMS.2L2.B1"              161.394                    1        184.859732778                    0          173.4226844         0.3347648488       186.8742194815                    0
        "BPMSW.1L2.B1"              171.328                    1       55.37964541767                    0          56.63322992         0.3527111328       55.98313844269                    0
        "BPMSW.1R2.B1"              214.518                    1        50.2352158189                    0          56.63402872         0.7146672015       50.78264804113                    0
         "BPMS.2R2.B1"              224.452                    1       58.77974560184                    0          63.40281502         0.7380923577       59.42029080967                    0
        "BPMSX.4R2.B1"             262.3635                    1        157.528597236                    0          170.5353283         0.7884966317       159.2452461772                    0
        "BPMWB.4R2.B1"             312.5965                    1       76.70507556604                    0          83.37000165         0.8577072008       77.54095990114                    0
        "BPMYB.4R2.B1"              336.988                    1       78.06910484269                    0          84.69240742         0.9088117746       78.91985352277                    0
         "BPMR.5R2.B1"              366.522                    1       169.7363916655                    0          182.9366191         0.9431551469       171.5860735782                    0
          "BPM.6R2.B1"              439.818                    1       39.53026762613                    0          41.40005642          1.164742328         39.961043963                    0
        "BPM_A.7R2.B1"              452.693                    1        87.5304695959                    0          94.16783789          1.197797728        88.4843223604                    0
          "BPM.8R2.B1"               494.13                    1       26.76443632818                    0          27.29377184          1.317986634       27.05609855391                    0
          "BPM.9R2.B1"              533.195                    1       135.6352106878                    0          128.9416426          1.445679332       137.1132790825                    0
         "BPM.10R2.B1"              573.658                    1       37.71343182938                    0          36.62593676          1.532975257       38.12440941667                    0
         "BPM.11R2.B1"             625.4967                    1       183.6302069246                    0           180.228567          1.657266631       185.6312950181                    0
         "BPM.12R2.B1"             680.2203                    1        32.4086120796                    0           31.0677293          1.776791765       32.76178103172                    0
         "BPM.13R2.B1"             733.6688                    1       170.7836761661                    0          169.8992657          1.921205946       172.6447707358                    0
         "BPM.14R2.B1"             787.1173                    1       36.46509575094                    0            34.911457          2.033027887       36.86246974596                    0
         "BPM.15R2.B1"             840.5658                    1       164.4791160602                    0          173.3066398           2.16466605       166.2715074443                    0
         "BPM.16R2.B1"             894.0143                    1       37.87136839144                    0          36.76694083          2.271897556       38.28406707342                    0
         "BPM.17R2.B1"             947.4628                    1        172.797933957                    0          171.2864749          2.400143777       174.6809786586                    0
         "BPM.18R2.B1"             1000.911                    1       34.71076208663                    0          34.88786385          2.511563811       35.08901844155                    0
         "BPM.19R2.B1"              1054.36                    1       164.2471288962                    0          172.1368481          2.643848989       166.0369922282                    0
         "BPM.20R2.B1"             1107.808                    1       37.73806418527                    0          36.75814205          2.751527279       38.14931020069                    0
         "BPM.21R2.B1"             1161.257                    1       175.2747492658                    0          172.4709256          2.879224016       177.1847847644                    0
         "BPM.22R2.B1"             1214.705                    1       34.33692679497                    0          34.92890287          2.990105129       34.71110932476                    0
         "BPM.23R2.B1"             1268.154                    1       174.3081969733                    0           172.397215          3.122187522       176.2076995845                    0
         "BPM.24R2.B1"             1321.602                    1       34.98751930454                    0          34.92856161          3.233068179       35.36879158795                    0
         "BPM.25R2.B1"             1375.051                    1       173.3215738189                    0          172.3937534          3.365153169        175.210324823                    0
         "BPM.26R2.B1"             1428.499                    1       36.58551621811                    0          34.92883668          3.476034637       36.98420248069                    0
         "BPM.27R2.B1"             1481.948                    1       168.6611398824                    0          172.3973781          3.608117113       170.4991043682                    0
         "BPM.28R2.B1"             1535.397                    1       35.79691317542                    0          34.92862995          3.718997576       36.18700573119                    0
         "BPM.29R2.B1"             1588.845                    1       179.8101960514                    0          172.3936186          3.851082464       181.7696560358                    0
         "BPM.30R2.B1"             1642.294                    1        34.4150793908                    0          34.92876673          3.961964118       34.79011357911                    0
         "BPM.31R2.B1"             1695.742                    1       164.8638904563                    0          172.3974834          4.094046715       166.6604748732                    0
         "BPM.32R2.B1"             1749.191                    1       33.21747641572                    0          34.92870097          4.204927002       33.57945986965                    0
         "BPM.33R2.B1"             1802.639                    1       172.5573621843                    0          172.3935434           4.33701175       174.4377852839                    0
         "BPM.34R2.B1"             1856.088                    1        37.4130510197                    0          34.92869519           4.44789357       37.82075524325                    0
         "BPM.33L3.B1"             1909.536                    1        166.838473079                    0          172.3975279          4.579976323       168.6565752725                    0
         "BPM.32L3.B1"             1962.985                    1       34.49668780178                    0          34.92877247          4.690856456       34.87261130794                    0
         "BPM.31L3.B1"             2016.433                    1       170.1417633739                    0          172.3935301          4.822941034       171.9958627761                    0
         "BPM.30L3.B1"             2069.882                    1       35.73826506461                    0           34.9286243          4.933822993       36.12771850965                    0
         "BPM.29L3.B1"              2123.33                    1       177.7957057796                    0            172.39751          5.065905931       179.7332130986                    0
         "BPM.27L3.B1"             2230.227                    1       178.6142421575                    0          172.3935791          5.308870318       180.5606693782                    0
         "BPM.26L3.B1"             2283.676                    1       36.84454509984                    0          34.92855627          5.419752388        37.2460540985                    0
         "BPM.25L3.B1"             2337.124                    1       176.5179088967                    0          172.3974302          5.551835536       178.4414915778                    0
         "BPM.24L3.B1"             2390.573                    1       32.96611459074                    0          34.92890799          5.662715449       33.32535885941                    0
         "BPM.23L3.B1"             2444.021                    1       163.3618879817                    0          172.3936889          5.794799609       165.1421045073                    0
         "BPM.22L3.B1"              2497.47                    1       35.21137320922                    0          34.92849322          5.905681757       35.59508491363                    0
         "BPM.21L3.B1"             2550.918                    1       171.4968769306                    0          172.3972912          6.037765132       173.3657435198                    0
         "BPM.20L3.B1"             2604.367                    1       36.57572785615                    0          36.73652247          6.145384431       36.97430745123                    0
         "BPM.19L3.B1"             2657.815                    1       166.5100548601                    0           172.185339           6.27326624       168.3245781556                    0
         "BPM.18L3.B1"             2711.264                    1       34.53107314028                    0          34.94095956          6.384234759       34.90737135652                    0
         "BPM.17L3.B1"             2764.712                    1       172.3546994374                    0          171.2496683          6.516838617       174.2329140442                    0
         "BPM.16L3.B1"             2818.161                    1       37.47158667049                    0          36.68030659          6.624983946       37.87992877925                    0
         "BPM.14L3.B1"             2925.058                    1         36.627275017                    0          35.02715866          6.862822765       37.02641634107                    0
         "BPM.13L3.B1"             2978.506                    1       172.3162058326                    0          170.1538088          6.995773789       174.1940009599                    0
         "BPM.12L3.B1"             3031.955                    1       35.98951323208                    0          33.59236659          7.110180918       36.38170462381                    0
         "BPM.11L3.B1"             3085.403                    1       177.5765528045                    0          179.5535762          7.242234687       179.5116719302                    0
         "BPM.10L3.B1"             3138.184                    1       32.05537121129                    0           34.5061827          7.350060984       32.40469076353                    0
          "BPM.8L3.B1"             3217.712                    1       15.84745327276                    0          15.18695108           7.63419384       16.02014898871                    0
          "BPM.7L3.B1"             3256.776                    1       140.0137782644                    0          145.3511287          7.807370251       141.5395615726                    0
          "BPM.6L3.B1"             3329.415                    1       74.03411428647                    0          80.20837408          7.926729283       74.84089214229                    0
       "BPMWG.A5L3.B1"              3371.12                    1         235.22378252                    0          258.4037708          7.973504276       237.7871053979                    0
         "BPMW.5L3.B1"              3400.09                    1        266.096451944                    0          293.3987275          7.989104128       268.9962060237                    0
        "BPMWE.4L3.B1"             3475.218                    1       82.92237596067                    0          97.07843871          8.062529851       83.82601257902                    0
         "BPMW.4L3.B1"             3502.763                    1       104.7832194091                    0          118.3502725          8.108156365       105.9250819395                    0
         "BPMW.4R3.B1"             3547.728                    1        317.165431961                    0          356.1493744          8.143298549        320.621704108                    0
        "BPMWE.4R3.B1"             3575.273                    1       331.3206643041                    0          367.4801797          8.154587111        334.931191393                    0
         "BPMW.5R3.B1"             3650.401                    1       71.06545117756                    0          77.59132006          8.227970396       71.83987838421                    0
       "BPMWJ.A5R3.B1"             3679.119                    1       87.65830952475                    0          87.49910504           8.29133065       88.61355540949                    0
        "BPMWC.6R3.B1"             3718.937                    1       226.1838163242                    0          233.2182605          8.336288707       228.6486272578                    0
         "BPMR.6R3.B1"             3731.015                    1       249.5779151493                    0          244.9705048          8.343963785       252.2976604611                    0
        "BPM_A.7R3.B1"             3786.839                    1       108.5311308283                    0          67.42144794          8.415479183       109.7138357727                    0
          "BPM.8R3.B1"             3825.903                    1       185.1066332936                    0          179.4960427          8.477497493       187.1238105658                    0
         "BPM.10R3.B1"             3905.431                    1       161.4795169623                    0           170.373737          8.593477418       163.2392205761                    0
         "BPM.11R3.B1"             3958.212                    1       41.75803190654                    0          41.73657539          8.695173073        42.2130850367                    0
         "BPM.12R3.B1"             4012.935                    1       168.7856109157                    0          162.4906867          8.817242681       170.6249318096                    0
         "BPM.13R3.B1"             4066.384                    1       38.14823936789                    0          34.98754763          8.932217292       38.56395521804                    0
         "BPM.14R3.B1"             4119.833                    1       167.4159239165                    0          174.5312187          9.062910094       169.2403188111                    0
         "BPM.15R3.B1"             4173.281                    1       36.04184512077                    0          36.66183575          9.169876588       36.43460679296                    0
         "BPM.17R3.B1"             4280.178                    1       36.35259948726                    0           34.9536578          9.410819729       36.74874756778                    0
         "BPM.19R3.B1"             4387.075                    1       35.18546275474                    0          36.72974517          9.649469044       35.56889210309                    0
         "BPM.20R3.B1"             4440.524                    1       166.9881605957                    0          171.0435575          9.777917062       168.8078939909                    0
         "BPM.21R3.B1"             4493.972                    1       35.13626787315                    0          34.91636495          9.889377503       35.51916112621                    0
         "BPM.22R3.B1"             4547.421                    1       162.3865208822                    0          172.3953343          10.02146085       164.1561084621                    0
         "BPM.23R3.B1"             4600.869                    1       34.70150943327                    0          34.92827132          10.13234278       35.07966495852                    0
         "BPM.24R3.B1"             4654.318                    1       169.7778241911                    0           172.395528           10.2644276       171.6279576098                    0
         "BPM.25R3.B1"             4707.766                    1        34.2075619448                    0          34.92915542          10.37530777        34.5803347367                    0
         "BPM.26R3.B1"             4761.215                    1       179.1385356272                    0          172.3957234          10.50739029       181.0906762729                    0
         "BPM.27R3.B1"             4814.663                    1       38.68553747295                    0          34.92828525          10.61827205       39.10710846457                    0
         "BPM.28R3.B1"             4868.112                    1       182.2102852628                    0          172.3951404          10.75035703       184.1958999307                    0
         "BPM.29R3.B1"              4921.56                    1       34.51751045231                    0           34.9291347          10.86123739       34.89366087079                    0
         "BPM.30R3.B1"             4975.009                    1        170.601659184                    0          172.3961064          10.99331977       172.4607702455                    0
         "BPM.31R3.B1"             5028.457                    1       33.06936296492                    0          34.92831261          11.10420133       33.42973237033                    0
         "BPM.32R3.B1"             5081.906                    1       168.7815148887                    0          172.3947649          11.23628643       170.6207911466                    0
         "BPM.33R3.B1"             5135.354                    1       35.85223039726                    0          34.92910092            11.347167        36.2429257658                    0
         "BPM.34R3.B1"             5188.803                    1       172.1510468954                    0          172.3964714          11.47924928       174.0270422231                    0
         "BPM.33L4.B1"             5242.251                    1       33.81674916013                    0          34.92835255          11.59013062       34.18526311672                    0
         "BPM.32L4.B1"               5295.7                    1       174.4101145083                    0          172.3944133           11.7222158       176.3107277536                    0
         "BPM.31L4.B1"             5349.148                    1       34.28701003628                    0          34.92905513          11.83309659        34.6606486042                    0
         "BPM.30L4.B1"             5402.597                    1         181.84627763                    0           172.396807          11.96517881       183.8279255685                    0
         "BPM.29L4.B1"             5456.045                    1       35.19931959873                    0          34.92840382          12.07605993       35.58289995038                    0
         "BPM.27L4.B1"             5562.942                    1       32.51441845755                    0          34.92899877          12.31902617       32.86874042195                    0
         "BPM.26L4.B1"             5616.391                    1       179.1632425961                    0          172.3971028          12.45110838        181.115652483                    0
         "BPM.25L4.B1"             5669.839                    1       35.41253978232                    0          34.92846483          12.56198926       35.79844367528                    0
         "BPM.24L4.B1"             5723.288                    1       171.8865965496                    0          172.3938241          12.69407446       173.7597100614                    0
         "BPM.23L4.B1"             5776.736                    1       34.01932316449                    0          34.92893359          12.80495571       34.39004464692                    0
         "BPM.22L4.B1"             5830.185                    1       172.9468263699                    0          172.3973494          12.93703796       174.8314936087                    0
         "BPM.21L4.B1"             5883.634                    1       34.97711516825                    0          34.92853367          13.04791862       35.35827407385                    0
         "BPM.20L4.B1"             5937.082                    1       163.6673251919                    0          170.9545954          13.18070485       165.4508701827                    0
         "BPM.19L4.B1"             5990.531                    1       33.77124306279                    0           36.6858649          13.28895137       34.13926112216                    0
         "BPM.18L4.B1"             6043.979                    1       177.5402886527                    0          173.6274939          13.41626088       179.4750125943                    0
         "BPM.17L4.B1"             6097.428                    1       33.10636154524                    0          35.03160414          13.52650416       33.46713413824                    0
         "BPM.15L4.B1"             6204.325                    1       36.14206936197                    0          36.55427793          13.76850137       36.53592321577                    0
         "BPM.14L4.B1"             6257.773                    1       173.1152740927                    0          174.6694187          13.89561536       175.0017769703                    0
         "BPM.13L4.B1"             6311.222                    1       35.03711648967                    0          35.18943927          14.00516972       35.41892925245                    0
         "BPM.12L4.B1"              6364.67                    1       165.2733989133                    0          169.3663166          14.13813277       167.0744458993                    0
         "BPM.11L4.B1"             6418.119                    1       39.84878021568                    0          38.54153072           14.2438779       40.28302750518                    0
         "BPM.10L4.B1"             6469.957                    1        172.505442797                    0          175.2847804          14.36151651       174.3853001114                    0
          "BPM.9L4.B1"             6509.022                    1       51.01020849445                    0          53.92053711          14.42203041       51.56608610615                    0
          "BPM.8L4.B1"             6549.485                    1       149.3191441562                    0          149.8477103          14.50689283       150.9463315699                    0
          "BPM.7L4.B1"             6588.549                    1       83.58387883427                    0          84.46084772          14.55961858       84.49472410062                    0
        "BPMYB.6L4.B1"             6685.153                    1       509.9322469721                    0          568.4392156          14.63689835       515.4891723002                    0
        "BPMYA.5L4.B1"             6722.153                    1       227.1295577083                    0           246.805415          14.65196272       229.6046747449                    0
       "BPMWI.A5L4.B1"             6798.756                    1       194.4081533622                    0          215.0648809          14.70814889       196.5266928305                    0
       "BPMWA.B5L4.B1"              6824.62                    1       194.7462365766                    0          223.2761865           14.7269777       196.8684602662                    0
       "BPMWA.A5L4.B1"             6833.505                    1       196.2022535179                    0          227.5461038          14.73325299        198.340343977                    0
       "BPMWA.A5R4.B1"             6881.554                    1       234.2895522098                    0          263.4794384          14.76468875       236.8426944253                    0
       "BPMWA.B5R4.B1"             6890.439                    1       233.6610597185                    0           272.498775          14.76996714       236.2073530127                    0
        "BPMYB.5R4.B1"             6992.829                    1        347.862042429                    0          392.8823104          14.81837127       351.6528271965                    0
        "BPMYA.6R4.B1"             7024.393                    1       115.4404870711                    0          118.7003435          14.84171732       116.6984858941                    0
          "BPM.7R4.B1"             7120.909                    1        97.4317904085                    0          99.39261545           15.0343468       98.49354162564                    0
          "BPM.8R4.B1"             7158.698                    1       31.65245899753                    0          30.20001668          15.14729534       31.99738786239                    0
          "BPM.9R4.B1"             7197.763                    1       177.8754331615                    0          180.1702237          15.24809222          179.8138093                    0
         "BPM.10R4.B1"             7238.226                    1       40.85120764549                    0          47.22784581           15.3117016       41.29637876733                    0
         "BPM.11R4.B1"             7290.065                    1       135.2088805834                    0          140.5637563          15.43524419        136.682303097                    0
         "BPM.12R4.B1"             7344.789                    1       30.27292980066                    0          27.92981687           15.5878806       30.60282541201                    0
         "BPM.13R4.B1"             7398.237                    1       214.1842791908                    0          228.1881896          15.71513053       216.5183266118                    0
         "BPM.14R4.B1"             7451.686                    1       32.06563541366                    0          35.01621479             15.80895       32.41506681881                    0
         "BPM.15R4.B1"             7505.134                    1       134.4199398292                    0           129.172079          15.97098848       135.8847649558                    0
         "BPM.16R4.B1"             7558.583                    1       34.93354774595                    0          34.75593557          16.10409495        35.3142318808                    0
         "BPM.17R4.B1"             7612.031                    1       217.0614260281                    0          228.5190311          16.21510382       219.4268268107                    0
         "BPM.18R4.B1"              7665.48                    1        34.8835312214                    0          35.02064043          16.30891552       35.26367030719                    0
         "BPM.19R4.B1"             7718.928                    1       130.9862426703                    0           129.169213          16.47094056       132.4136494951                    0
         "BPM.20R4.B1"             7772.377                    1       36.72577692495                    0          34.75150994           16.6040602       37.12599166171                    0
         "BPM.21R4.B1"             7825.825                    1       227.0278154957                    0           228.521892          16.71507673       229.5018238087                    0
         "BPM.22R4.B1"             7879.274                    1       33.06245807098                    0          35.02506605          16.80888104       33.42275223114                    0
         "BPM.23R4.B1"             7932.722                    1       138.1473113903                    0          129.1663572          16.97089263       139.6527551002                    0
         "BPM.24R4.B1"             7986.171                    1       34.29541137197                    0          34.74708434          17.10402545       34.66914149244                    0
         "BPM.26R4.B1"             8093.068                    1       35.43420464302                    0          35.02949164          17.30884656       35.82034462618                    0
         "BPM.27R4.B1"             8146.516                    1       132.0220192136                    0          129.1635116           17.4708447       133.4607132888                    0
         "BPM.28R4.B1"             8199.965                    1       32.72087108581                    0          34.74265877          17.60399069       33.07744284289                    0
         "BPM.29R4.B1"             8253.413                    1       213.7104772787                    0          228.5275832          17.71502255       216.0393615004                    0
         "BPM.30R4.B1"             8306.862                    1       34.50895334855                    0           35.0339172          17.80881209       34.88501051702                    0
         "BPM.32R4.B1"             8413.759                    1        33.2888247222                    0          34.73823322          18.10395593       33.65158568572                    0
         "BPM.33R4.B1"             8467.208                    1       223.5685089946                    0          228.5304135          18.21499546       226.0048199312                    0
         "BPM.34R4.B1"             8520.656                    1       34.30357769103                    0          35.03834273          18.30877762       34.67739680298                    0
         "BPM.33L5.B1"             8574.105                    1       131.7298931976                    0           129.157851          18.47074884       133.1654038646                    0
         "BPM.32L5.B1"             8627.553                    1       35.66026695258                    0          34.73380771          18.60392117       36.04887042258                    0
         "BPM.31L5.B1"             8681.002                    1       220.3109508014                    0          228.5332336          18.71496837       222.7117628894                    0
         "BPM.30L5.B1"              8734.45                    1       30.87377155641                    0          35.04276822          18.80874316       31.21021476853                    0
         "BPM.29L5.B1"             8787.899                    1       134.0868163843                    0           129.155036          18.97070091       135.5480113383                    0
         "BPM.28L5.B1"             8841.347                    1       34.39583510538                    0          34.72938223           19.1038864       34.77065958141                    0
         "BPM.27L5.B1"             8894.796                    1       225.9951452904                    0          228.5360435          19.21494128       228.4579002041                    0
         "BPM.26L5.B1"             8948.244                    1       33.26266397088                    0          35.04719369           19.3087087       33.62513985076                    0
         "BPM.25L5.B1"             9001.693                    1       115.3936323177                    0          129.1522312          19.47065297       116.6511205466                    0
         "BPM.24L5.B1"             9055.141                    1       35.28569705465                    0          34.72495678          19.60385162       35.67021869424                    0
         "BPM.22L5.B1"             9162.038                    1       33.58967854852                    0          35.05161912          19.80867424       33.95571803043                    0
         "BPM.21L5.B1"             9215.487                    1       129.0547914894                    0          129.1494366          19.97060504       130.4611505573                    0
         "BPM.20L5.B1"             9268.935                    1       34.17118223062                    0          34.72053136          20.10381684       34.54355857896                    0
         "BPM.19L5.B1"             9322.384                    1       234.6771486575                    0          228.5416328           20.2148871       237.2345146587                    0
         "BPM.18L5.B1"             9375.832                    1       34.13874705628                    0          35.05604452          20.30863979       34.51076994621                    0
         "BPM.17L5.B1"             9429.281                    1       129.0425922895                    0          129.1466522           20.4705571       130.4488184181                    0
         "BPM.16L5.B1"             9482.729                    1       37.05592803326                    0          34.71610598          20.60378206       37.45974055201                    0
         "BPM.15L5.B1"             9536.178                    1       217.1576047547                    0          228.5444121          20.71486001       219.5240536334                    0
         "BPM.14L5.B1"             9589.626                    1       34.29775164823                    0          35.06046989          20.80860535       34.67150727158                    0
         "BPM.13L5.B1"             9643.075                    1       126.5564766335                    0           129.143878          20.97050917       127.9356106157                    0
         "BPM.12L5.B1"             9696.523                    1       35.54714706667                    0          37.75535767           21.0967326       35.93451782631                    0
         "BPM.11L5.B1"             9749.972                    1       225.2563613511                    0          226.2044166          21.20298247       227.7110654557                    0
         "BPM.10L5.B1"             9802.753                    1       69.35856601662                    0          71.24026062          21.26788526       70.11439264753                    0
          "BPM.9L5.B1"             9841.818                    1       216.5914121924                    0          217.6010638           21.3237471       218.9516910558                    0
          "BPM.8L5.B1"             9882.281                    1       7.508358900847                    0           8.36392655          21.47833982       7.590180338884                    0
         "BPMR.7L5.B1"             9921.347                    1       214.5242773881                    0          225.2016261          21.73074503       216.8620298985                    0
         "BPMR.5L5.B1"             9990.141                    1       146.0004357996                    0           154.577394          22.18206903       147.5914579882                    0
        "BPMWB.4L5.B1"             10038.68                    1        1027.29427591                    0          1088.830751          22.20230188       1038.489091721                    0
        "BPMSY.4L5.B1"             10131.46                    1       6780.328684015                    0          6871.394671          22.20770139        6854.21650033                    0
         "BPMS.2L5.B1"             10158.25                    1       1957.393630605                    0          1955.303854           22.2089442       1978.724092264                    0
        "BPMSW.1L5.B1"             10168.21                    1       1518.641776711                    0          1550.309159          22.20975048       1535.190992814                    0
         "BPMS.2R5.B1"              10221.3                    1       4959.078300631                    0          5186.115841          22.70594993       5013.119259947                    0
        "BPMSY.4R5.B1"             10248.09                    1       2948.328400584                    0          3313.357748          22.70680656       2980.457454712                    0
        "BPMWB.4R5.B1"             10340.87                    1         1708.6197671                    0          1752.889281          22.71293529       1727.239245504                    0
        "BPMYA.4R5.B1"                10362                    1       1348.756595916                    0          1403.004868          22.71503985       1363.454508695                    0
          "BPM.5R5.B1"             10383.12                    1       713.0702928499                    0          741.0169386          22.71833641       720.8408906001                    0
         "BPMR.6R5.B1"             10415.02                    1        255.360068491                    0          262.4168529          22.73004919       258.1428241234                    0
          "BPM.8R5.B1"             10490.47                    1       114.0299148453                    0           107.285868          23.05367122       115.2725421272                    0
          "BPM.9R5.B1"             10529.54                    1       49.16514546584                    0          49.55063892          23.13356489       49.70091672511                    0
         "BPM.10R5.B1"             10570.01                    1       216.7988849904                    0           221.733807          23.20555147       219.1614247636                    0
         "BPM.11R5.B1"             10622.79                    1       31.40230503632                    0          33.85982511          23.29959809       31.74450787847                    0
         "BPM.12R5.B1"             10677.51                    1       135.9662956816                    0          128.2692914          23.47144178       137.4479720352                    0
         "BPM.14R5.B1"             10784.42                    1        220.221632452                    0             228.4645          23.71576146        222.621471204                    0
         "BPM.17R5.B1"             10944.77                    1        34.8179025815                    0          34.85930446          24.10492709       35.19732648708                    0
         "BPM.18R5.B1"             10998.22                    1       230.2990458097                    0             228.4645          24.21576146       232.8087019617                    0
         "BPM.19R5.B1"             11051.68                    1       37.68471187996                    0          34.90947629          24.30976117       38.09537649506                    0
         "BPM.20R5.B1"             11105.13                    1        132.275829313                    0          129.2534134          24.47212746       133.7172892532                    0
         "BPM.23R5.B1"             11265.48                    1       34.12108095966                    0          34.90947629          24.80976117       34.49291133543                    0
         "BPM.24R5.B1"             11318.93                    1       129.4893706434                    0          129.2534134          24.97212746       130.9004654853                    0
         "BPM.25R5.B1"             11372.38                    1       35.92326824802                    0          34.85930445          25.10492709         36.314737743                    0
         "BPM.26R5.B1"             11425.84                    1        232.833347685                    0             228.4645          25.21576146       235.3706210868                    0
         "BPM.27R5.B1"             11479.29                    1        33.2706661355                    0          34.90947629          25.30976117         33.633229218                    0
         "BPM.28R5.B1"             11532.74                    1       134.2559551251                    0          129.2534134          25.47212746       135.7189932481                    0
         "BPM.29R5.B1"             11586.19                    1       35.99726358033                    0          34.85930445          25.60492709       36.38953943054                    0
         "BPM.30R5.B1"             11639.64                    1       215.7085876793                    0             228.4645          25.71576146       218.0592460686                    0
         "BPM.31R5.B1"             11693.09                    1       34.24949638011                    0          34.90947629          25.80976117       34.62272614748                    0
         "BPM.32R5.B1"             11746.54                    1       132.9710448458                    0          129.2534134          25.97212746       134.4200808137                    0
         "BPM.33R5.B1"                11800                    1       32.00877218474                    0          34.85930445          26.10492709       32.35758392969                    0
         "BPM.34R5.B1"             11853.45                    1       203.3854087499                    0             228.4645          26.21576146       205.6017767791                    0
         "BPM.33L6.B1"              11906.9                    1       37.66099988908                    0          34.90947629          26.30976117       38.07140610561                    0
         "BPM.32L6.B1"             11960.35                    1       133.1276793329                    0          129.2534134          26.47212746       134.5784222062                    0
         "BPM.30L6.B1"             12067.25                    1       218.0969298972                    0             228.4645          26.71576146       220.4736149586                    0
         "BPM.29L6.B1"              12120.7                    1       34.44649090482                    0          34.90947629          26.80976117       34.82186739632                    0
         "BPM.28L6.B1"             12174.16                    1         142.43446154                    0          129.2534134          26.97212746        143.986623953                    0
         "BPM.27L6.B1"             12227.61                    1       34.77775350144                    0          34.85930445          27.10492709       35.15673988725                    0
         "BPM.26L6.B1"             12281.06                    1       216.2056729809                    0             228.4645          27.21576146       218.5617482976                    0
         "BPM.25L6.B1"             12334.51                    1        36.6782613071                    0          34.90947629          27.30976117       37.07795824814                    0
         "BPM.24L6.B1"             12387.96                    1       135.7876743643                    0          129.2534134          27.47212746       137.2674042135                    0
         "BPM.22L6.B1"             12494.87                    1       225.2335711222                    0             228.4645          27.71576146       227.6880268731                    0
         "BPM.21L6.B1"             12548.32                    1       35.91061400727                    0          34.90947629          27.80976117       36.30194560418                    0
         "BPM.20L6.B1"             12601.77                    1       136.9578398293                    0          129.2534134          27.97212746       138.4503214159                    0
         "BPM.19L6.B1"             12655.22                    1       30.91907814726                    0          34.85930445          28.10492709       31.25601508251                    0
         "BPM.18L6.B1"             12708.67                    1        213.271223386                    0             228.4645          28.21576146       215.5953208911                    0
         "BPM.17L6.B1"             12762.12                    1       36.73028719046                    0          34.90947629          28.30976117        37.1305510773                    0
         "BPM.16L6.B1"             12815.57                    1       134.3170989821                    0          129.2534134          28.47212746       135.7808034129                    0
         "BPM.15L6.B1"             12869.03                    1       37.79463180362                    0          34.85930445          28.60492709       38.20649425786                    0
         "BPM.14L6.B1"             12922.48                    1       224.9348676829                    0             228.4645          28.71576146       227.3860683489                    0
         "BPM.13L6.B1"             12975.93                    1       33.44525234657                    0          34.90947629          28.80976117       33.80971796132                    0
         "BPM.12L6.B1"             13029.38                    1       130.8611280575                    0          129.2879648          28.97209448       132.2871714609                    0
         "BPM.11L6.B1"             13082.83                    1       31.15521945449                    0          30.43915414          29.11761004       31.49472971122                    0
         "BPM.10L6.B1"             13134.67                    1       216.4560533431                    0          225.7800305          29.23425177       218.8148571497                    0
          "BPM.9L6.B1"             13173.74                    1       16.58630243939                    0          15.49410785          29.33510209       16.76704967527                    0
          "BPM.8L6.B1"              13214.2                    1       132.4600100232                    0            138.92051          29.60662689       133.9034770505                    0
        "BPMYA.5L6.B1"             13311.29                    1       160.0620566083                    0          174.2382522          29.70414572       161.8063136183                    0
        "BPMYB.4L6.B1"             13347.69                    1       541.2635499126                    0          602.1232853          29.72308331       547.1619043461                    0
       "BPMSX.B4L6.B1"             13383.23                    1       440.5425200387                    0          520.1829591          29.73278245       445.3432791635                    0
       "BPMSX.A4L6.B1"             13383.82                    1       460.1771796322                    0           518.066232           29.7329618       465.1919050984                    0
        "BPMSA.4R6.B1"             13568.51                    1       121.9917593958                    0           131.456681          29.85810344       123.3211499209                    0
       "BPMSI.A4R6.B1"             13661.77                    1       145.3500847754                    0           149.615574          29.97388573       146.9340198419                    0
       "BPMSI.B4R6.B1"             13662.41                    1       136.6216930219                    0          150.2299969          29.97455984       138.1105114891                    0
        "BPMYA.4R6.B1"             13691.29                    1       175.1353516145                    0          185.1970098          30.00226014        177.043868044                    0
        "BPMYB.5R6.B1"             13727.69                    1       568.7240495877                    0          615.9559677          30.02028842       574.9216515135                    0
          "BPM.9R6.B1"             13862.49                    1        125.977533435                    0          116.7405354          30.31961775       127.3503584534                    0
         "BPM.10R6.B1"             13902.95                    1       25.46407289037                    0           29.8770343          30.42183754       25.74156456194                    0
         "BPM.11R6.B1"             13954.79                    1       182.7407766015                    0          179.0865891          30.56428843        184.732172235                    0
         "BPM.12R6.B1"             14009.52                    1       38.09662808179                    0          35.99300776          30.67410997       38.51178150415                    0
         "BPM.13R6.B1"             14062.97                    1       170.2432575139                    0          170.2666471          30.80466431       172.0984629363                    0
         "BPM.14R6.B1"             14116.42                    1       33.14017105381                    0          31.88797562          30.92245471       33.50131208186                    0
         "BPM.15R6.B1"             14169.87                    1       182.1907225826                    0           175.705118          31.06116151       184.1761240685                    0
         "BPM.16R6.B1"             14223.33                    1       30.54933649913                    0          30.62849599          31.17949587       30.88224421924                    0
         "BPM.17R6.B1"             14276.78                    1       180.7940235742                    0          171.0073216          31.32485564       182.7642047006                    0
         "BPM.18R6.B1"             14330.23                    1       30.44074958746                    0          32.02066399          31.44193046       30.77247399476                    0
         "BPM.20R6.B1"             14437.13                    1        27.8502145437                    0          30.51753591          31.69985625       28.15370890694                    0
         "BPM.21R6.B1"             14490.58                    1       166.8634163243                    0          172.1171943          31.84492386       168.6817903338                    0
         "BPM.22R6.B1"             14544.04                    1       30.17888437658                    0          32.10816396          31.96133897       30.50775513924                    0
         "BPM.23R6.B1"             14597.49                    1       178.8704747116                    0           172.189008          32.10128323       180.8196941957                    0
         "BPM.24R6.B1"             14650.94                    1       32.24259387169                    0          32.10731878          32.21770278       32.59395366036                    0
         "BPM.25R6.B1"             14704.39                    1       165.0245500996                    0          172.1958516          32.35764574       166.8228852856                    0
         "BPM.26R6.B1"             14757.84                    1       32.28565102206                    0          32.10807037          32.47406078       32.63748002084                    0
         "BPM.27R6.B1"             14811.29                    1       173.7730902473                    0          172.1887653          32.61400545       175.6667615973                    0
         "BPM.28R6.B1"             14864.74                    1       34.48681995207                    0          32.10741718          32.73042488       34.86263592452                    0
         "BPM.29R6.B1"              14918.2                    1       173.4938268294                    0          172.1960491          32.87036744       175.3844549399                    0
         "BPM.30R6.B1"             14971.65                    1       31.50614767193                    0           32.1079678          32.98678263       31.84948212671                    0
         "BPM.31R6.B1"              15025.1                    1       170.1632651775                    0          172.1886143          33.12672769        172.017598893                    0
         "BPM.32R6.B1"             15078.55                    1       32.49061899445                    0          32.10752326          33.24314695       32.84468160706                    0
         "BPM.33R6.B1"                15132                    1       177.3579803611                    0          172.1961526          33.38308913       179.2907176199                    0
         "BPM.34R6.B1"             15185.45                    1       35.10106821009                    0          32.10785888          33.49950451       35.48357787904                    0
         "BPM.32L7.B1"             15292.36                    1       33.92891313479                    0          32.10763432          33.75586897        34.2986493848                    0
         "BPM.31L7.B1"             15345.81                    1       178.0933222902                    0          172.1961594          33.89581082       180.0340728492                    0
         "BPM.30L7.B1"             15399.26                    1       32.77757453787                    0          32.10774639          34.01222645       33.13476421399                    0
         "BPM.29L7.B1"             15452.71                    1       169.0125785963                    0          172.1886007          34.15217218       170.8543728431                    0
         "BPM.28L7.B1"             15506.16                    1       32.29094348534                    0          32.10774753          34.26859094        32.6428301581                    0
         "BPM.27L7.B1"             15559.61                    1       173.9329807433                    0          172.1960694           34.4085325       175.8283944808                    0
         "BPM.26L7.B1"             15613.06                    1       32.94349448893                    0          32.10763318          34.52494842       33.30249225777                    0
         "BPM.25L7.B1"             15666.52                    1       183.6421495809                    0          172.1887384          34.66489442        185.643367818                    0
         "BPM.24L7.B1"             15719.97                    1       29.18300691342                    0          32.10786001          34.78131288        29.5010252212                    0
         "BPM.23L7.B1"             15773.42                    1       176.1425965588                    0          172.1958849           34.9212542       178.0620893188                    0
         "BPM.22L7.B1"             15826.87                    1       35.07896650505                    0          32.10752215          35.03767045       35.46123532333                    0
         "BPM.21L7.B1"             15880.32                    1       167.5808192017                    0          172.1889685          35.17761664       169.4070110228                    0
         "BPM.20L7.B1"             15933.77                    1       30.12493492187                    0          30.47239232          35.29782612       30.45321777683                    0
         "BPM.19L7.B1"             15987.23                    1       178.6305715213                    0          174.5568134          35.44161126       180.5771766893                    0
         "BPM.18L7.B1"             16040.68                    1       34.50138580487                    0           32.0964013          35.55705328       34.87736050694                    0
         "BPM.17L7.B1"             16094.13                    1         166.32772568                    0          171.1092917          35.69767466       168.1402620652                    0
         "BPM.16L7.B1"             16147.58                    1       29.81923431903                    0          30.52056209          35.81823786       30.14418583845                    0
         "BPM.15L7.B1"             16201.03                    1       173.3682553322                    0          175.5826829          35.96127533       175.2575150424                    0
         "BPM.14L7.B1"             16254.48                    1        32.6229428419                    0          32.02363659          36.07646446       32.97844743772                    0
         "BPM.13L7.B1"             16307.93                    1        168.735629433                    0          170.1532408          36.21785294       170.5744056597                    0
         "BPM.12L7.B1"             16361.39                    1       36.13274412888                    0          36.24481112          36.32689443       36.52649636208                    0
         "BPM.10L7.B1"             16467.62                    1       47.53034485438                    0          47.38087217          36.54559671       48.04830107061                    0
          "BPM.9L7.B1"             16506.69                    1       175.4761491973                    0          166.3522703          36.62526296       177.3883794274                    0
          "BPM.8L7.B1"             16547.15                    1       58.61604459435                    0          60.66701079          36.68699652       59.25480589014                    0
          "BPM.7L7.B1"             16586.22                    1       134.3976990585                    0          134.7727889          36.76280111        135.862281819                    0
          "BPM.6L7.B1"             16621.04                    1       48.66382545111                    0          49.81577397          36.82856286       49.19413363581                    0
        "BPMWC.6L7.B1"             16633.14                    1       44.22208672074                    0          49.69188912          36.87017637       44.70399159186                    0
        "BPMWE.5L7.B1"             16710.19                    1       295.5088609577                    0          314.1312743          36.97594829        298.729133227                    0
         "BPMW.5L7.B1"              16733.4                    1       254.0361875207                    0          285.6029677           36.9873769       256.8045163194                    0
        "BPMWE.4L7.B1"             16768.48                    1       84.94420045883                    0          93.21907416          37.02186845       85.86986966647                    0
         "BPMW.4L7.B1"             16796.59                    1       54.67734911954                    0          54.42588881          37.09270446       55.27318895512                    0
         "BPMW.4R7.B1"             16912.63                    1       339.6766356216                    0          375.7396518           37.2433783       343.3782209029                    0
        "BPMWE.4R7.B1"             16940.74                    1       283.6402832628                    0          317.8336787          37.25538016       286.7312191341                    0
         "BPMW.5R7.B1"             16975.82                    1       90.98310072365                    0          93.03608186           37.2880823       91.97457812059                    0
        "BPMWE.5R7.B1"             16999.03                    1        42.1766153957                    0          47.57667453           37.3493264       42.63622998908                    0
         "BPMR.6R7.B1"             17078.24                    1       167.3290702541                    0          168.9577601          37.52174802       169.1525186713                    0
        "BPM_A.7R7.B1"             17116.28                    1       53.75584459678                    0          57.25573785          37.57832316       54.34164244767                    0
          "BPM.8R7.B1"             17155.35                    1       141.1333000797                    0          133.4960374           37.6595784       142.6712832422                    0
          "BPM.9R7.B1"             17194.41                    1       45.32765849795                    0          44.58339884          37.73862911       45.82161120454                    0
         "BPM.10R7.B1"             17234.88                    1       179.6476743081                    0          174.6739861          37.82399346       181.6053632313                    0
         "BPM.11R7.B1"             17287.66                    1       35.52699912893                    0          34.43785566          37.93301419       35.91415032884                    0
         "BPM.12R7.B1"             17342.39                    1       179.1027700355                    0          172.0469254          38.06984667         181.05452093                    0
         "BPM.13R7.B1"             17395.84                    1       31.87006153417                    0           32.0169722          38.18659432        32.2173616965                    0
         "BPM.14R7.B1"             17449.29                    1       180.2869176278                    0            174.45528          38.32561066       182.2515726282                    0
         "BPM.15R7.B1"             17502.74                    1        31.0324711875                    0          30.52977851          38.44470728       31.37064380977                    0
         "BPM.16R7.B1"             17556.19                    1       167.8959753929                    0          172.2936461          38.58962864       169.7256015906                    0
         "BPM.17R7.B1"             17609.65                    1       32.34178246722                    0          32.09010466          38.70601075       32.69422315168                    0
         "BPM.18R7.B1"              17663.1                    1       176.5428196964                    0          173.3338971          38.84540832       178.4666738399                    0
         "BPM.19R7.B1"             17716.55                    1       30.91461420399                    0          30.47565364          38.96511482       31.25150249396                    0
         "BPM.20R7.B1"                17770                    1       165.5777071343                    0          173.4312647          39.10954513       167.3820702826                    0
         "BPM.21R7.B1"             17823.45                    1       33.16408476213                    0          32.11903195          39.22539486       33.52548638694                    0
         "BPM.22R7.B1"              17876.9                    1        186.933513324                    0          172.1977981            39.365336       188.9705988016                    0
         "BPM.24R7.B1"             17983.81                    1        172.301319044                    0          172.1868595          39.62169618       174.1789519443                    0
         "BPM.25R7.B1"             18037.26                    1       33.02611606448                    0          32.10748724          39.73811625         33.386014192                    0
         "BPM.26R7.B1"             18090.71                    1       167.8285862759                    0          172.1979022          39.87805756       169.6574781089                    0
         "BPM.28R7.B1"             18197.61                    1       186.7777867433                    0          172.1868259          40.13441856       188.8131752092                    0
         "BPM.29R7.B1"             18251.06                    1        31.4488097126                    0          32.10765054          40.25083827       31.79151933387                    0
         "BPM.30R7.B1"             18304.51                    1       173.9248904058                    0          172.1978651          40.39077912       175.8202159798                    0
         "BPM.31R7.B1"             18357.97                    1       32.20318642342                    0          32.10770414          40.50719414       32.55411677416                    0
         "BPM.32R7.B1"             18411.42                    1       172.0824004486                    0          172.1869335          40.64714093       173.9576477098                    0
         "BPM.33R7.B1"             18464.87                    1       32.24763126814                    0          32.10781557          40.76356023       32.59904595123                    0
         "BPM.34R7.B1"             18518.32                    1       173.5025973717                    0          172.1976877          40.90350069       175.3933210581                    0
         "BPM.33L8.B1"             18571.77                    1       32.60928455042                    0          32.10753982          41.01991614       32.96464030665                    0
         "BPM.32L8.B1"             18625.22                    1       161.1619953058                    0          172.1871796          41.15986329       162.9182387655                    0
         "BPM.31L8.B1"             18678.68                    1       30.84089021798                    0          32.10797813          41.27628213       31.17697510968                    0
         "BPM.30L8.B1"             18732.13                    1       169.7486537666                    0          172.1973745          41.41622227       171.5984693041                    0
         "BPM.29L8.B1"             18785.58                    1       32.32271618209                    0          32.10738006          41.53263821       32.67494909399                    0
         "BPM.28L8.B1"             18839.03                    1       161.3283442547                    0          172.1875579          41.67258562        163.086400482                    0
         "BPM.27L8.B1"             18892.48                    1       31.79821747008                    0          32.10813407          41.78900396       32.14473472036                    0
         "BPM.26L8.B1"             18945.93                    1       176.7860292397                    0          172.1969335          41.92894388         178.71253373                    0
         "BPM.25L8.B1"             18999.38                    1       32.74205138307                    0          32.10722893          42.04536034       33.09885394989                    0
         "BPM.24L8.B1"             19052.84                    1       165.3894380363                    0          172.1880587          42.18530792       167.1917495447                    0
         "BPM.23L8.B1"             19106.29                    1        31.4967451059                    0          32.10827942          42.30172573       31.83997709735                    0
         "BPM.22L8.B1"             19159.74                    1       176.7103705556                    0           172.196376          42.44166553       178.6360505645                    0
         "BPM.21L8.B1"             19213.19                    1       34.00376050674                    0          32.10709029          42.55808253       34.37431239698                    0
         "BPM.20L8.B1"             19266.64                    1       175.2251400508                    0          173.5023019          42.69733701       177.1346349389                    0
         "BPM.19L8.B1"             19320.09                    1       28.00882569477                    0          30.45590222          42.81701949       28.31404850396                    0
         "BPM.18L8.B1"             19373.54                    1       184.2749982119                    0          173.2875789          42.96160037       186.2831128408                    0
         "BPM.17L8.B1"                19427                    1       32.62943272353                    0          32.14392627          43.07745393       32.98500804206                    0
         "BPM.16L8.B1"             19480.45                    1        176.379473954                    0          172.3293764          43.21724733       178.3015480569                    0
         "BPM.15L8.B1"              19533.9                    1       29.17124626638                    0          30.44541212           43.3374621       29.48913641393                    0
         "BPM.14L8.B1"             19587.35                    1       175.4149955791                    0          174.4455493          43.48140125        177.326559395                    0
         "BPM.13L8.B1"              19640.8                    1        30.9303753127                    0          32.12790678          43.59681903       31.26743535745                    0
         "BPM.12L8.B1"             19694.25                    1       167.0866416844                    0          169.6486951          43.73813792       168.9074482654                    0
         "BPM.11L8.B1"              19747.7                    1       32.25382800267                    0          34.91094461          43.84983587       32.60531021393                    0
         "BPM.10L8.B1"             19799.55                    1       173.9169242493                    0          168.0252469          43.97817137       175.8121630131                    0
          "BPM.9L8.B1"             19838.61                    1       44.64725230041                    0          42.84365931          44.04759988        45.1337903623                    0
          "BPM.8L8.B1"             19879.08                    1       121.5803442328                    0           124.131152          44.15599436       122.9052514107                    0
          "BPM.7L8.B1"             19918.15                    1       30.13326532788                    0          31.57873831          44.25212961       30.46163896244                    0
         "BPMR.6L8.B1"             19950.61                    1       94.01493536476                    0           98.6956819          44.34868295       95.03945181503                    0
        "BPMYB.4L8.B1"              20031.8                    1       200.5351116297                    0          220.1405553          44.70137464       202.7204188889                    0
        "BPMWB.4L8.B1"             20056.19                    1       245.2466386215                    0          285.8993305          44.71571318       247.9191843683                    0
        "BPMSX.4L8.B1"             20106.42                    1       297.7737317769                    0          333.3806412          44.74172481       301.0186852036                    0
         "BPMS.2L8.B1"             20144.34                    1       484.9585104337                    0          525.7458539          44.75527826       490.2432874717                    0
        "BPMSW.1L8.B1"             20154.27                    1       149.0633974289                    0          158.4480073          44.76142889       150.6877978735                    0
        "BPMSW.1R8.B1"             20197.46                    1       135.3427465057                    0          158.4460924          45.21748989       136.8176278071                    0
         "BPMS.2R8.B1"             20207.39                    1       178.8038116374                    0          195.9856444          45.22543013       180.7523046687                    0
        "BPMSX.4R8.B1"             20245.31                    1       502.6446108414                    0          567.9881647          45.24090215       508.1221200313                    0
        "BPMWB.4R8.B1"             20295.46                    1       183.5922825229                    0          227.4298785          45.26318538       185.5929573397                    0
        "BPMYB.4R8.B1"             20319.93                    1       123.3993875194                    0          148.9678884          45.28600702       124.7441175028                    0
        "BPMYB.5R8.B1"             20340.51                    1       185.4195021594                    0          202.6557593          45.30489984       187.4400888825                    0
          "BPM.6R8.B1"             20424.62                    1       42.04987348169                    0          43.86707388          45.51349645       42.50810692032                    0
        "BPM_A.7R8.B1"             20446.86                    1       146.9562490026                    0          149.6004828          45.55775854       148.5576870506                    0
          "BPM.8R8.B1"             20488.29                    1       14.40699810248                    0          13.45523179          45.69868548       14.56399663146                    0
          "BPM.9R8.B1"             20527.36                    1       143.7232947031                    0          147.7767089          45.91086645       145.2895020205                    0
         "BPM.10R8.B1"             20567.82                    1       29.75139304173                    0          26.86251727           46.0037538       30.07560526898                    0
         "BPM.11R8.B1"             20619.66                    1       140.4124229295                    0          145.3031234          46.18843414       141.9425504199                    0
         "BPM.12R8.B1"             20674.38                    1       47.36809647659                    0          47.45137046          46.29413086       47.88428461064                    0
         "BPM.13R8.B1"             20727.83                    1       221.5526171452                    0          229.0114321          46.38657686       223.9669601428                    0
         "BPM.14R8.B1"             20781.28                    1       32.07114372585                    0          35.01596199          46.48039424       32.42063515717                    0
         "BPM.16R8.B1"             20888.18                    1       37.29472988612                    0          34.75678741          46.77554391       37.70114471935                    0
         "BPM.17R8.B1"             20941.63                    1       225.8844791634                    0           228.525642          46.88654921       228.3460281063                    0
         "BPM.18R8.B1"             20995.07                    1       33.58896837648                    0          35.02038812          46.98035975       33.95500011937                    0
         "BPM.19R8.B1"             21048.52                    1       126.8985094984                    0          129.1656734          47.14238925       128.2813707427                    0
         "BPM.20R8.B1"             21101.97                    1       35.16070322612                    0          34.75236129          47.27550916       35.54386276049                    0
         "BPM.21R8.B1"             21155.42                    1       217.8973313969                    0          228.5285046          47.38652212       220.2718413577                    0
         "BPM.23R8.B1"             21262.32                    1       125.7165801533                    0           129.162816          47.64234133       127.0865614647                    0
         "BPM.24R8.B1"             21315.76                    1       32.64152844519                    0           34.7479352          47.77547441       32.99723557539                    0
         "BPM.25R8.B1"             21369.21                    1       232.6247399455                    0          228.5313569          47.88649503       235.1597400696                    0
         "BPM.26R8.B1"             21422.66                    1       34.46959203288                    0           35.0292403          47.98029079       34.84522026614                    0
         "BPM.27R8.B1"             21476.11                    1       125.5564028024                    0          129.1599688           48.1422934       126.9246386003                    0
         "BPM.28R8.B1"             21529.56                    1       33.48320465085                    0          34.74350914          48.27543965       33.84808384627                    0
         "BPM.29R8.B1"             21583.01                    1       225.8720147484                    0           228.534199          48.38646794       228.3334278618                    0
         "BPM.30R8.B1"             21636.46                    1       34.46217524881                    0          35.03366635          48.48025632       34.83772265856                    0
         "BPM.31R8.B1"              21689.9                    1       122.4694059293                    0          129.1571317          48.64224546       123.8040015501                    0
         "BPM.32R8.B1"             21743.35                    1       34.98787876633                    0           34.7390831          48.77540489       35.36915496694                    0
         "BPM.33R8.B1"              21796.8                    1       229.3483703158                    0          228.5370309          48.88644085       231.8476665959                    0
         "BPM.34R8.B1"             21850.25                    1       35.32340555417                    0          35.03809237          48.98022185       35.70833811759                    0
         "BPM.33L1.B1"              21903.7                    1       119.3984264953                    0          129.1543049          49.14219753       120.6995564871                    0
         "BPM.32L1.B1"             21957.15                    1       34.44234625141                    0           34.7346571          49.27537013       34.81767757706                    0
         "BPM.31L1.B1"              22010.6                    1       235.5673688771                    0          228.5398527          49.38641376        238.134435946                    0
         "BPM.30L1.B1"             22064.04                    1       34.80148155299                    0          35.04251835          49.48018739       35.18072651238                    0
         "BPM.29L1.B1"             22117.49                    1       127.6582172676                    0          129.1514883           49.6421496       129.0493573359                    0
         "BPM.28L1.B1"             22170.94                    1       35.56555095408                    0          34.73023113          49.77533536       35.95312226787                    0
         "BPM.27L1.B1"             22224.39                    1       239.0525305265                    0          228.5426642          49.88638667       241.6575767254                    0
         "BPM.26L1.B1"             22277.84                    1       36.25048604571                    0          35.04694431          49.98015293       36.64552135728                    0
         "BPM.25L1.B1"             22331.29                    1       129.0387329802                    0          129.1486819          50.14210166       130.4449170525                    0
         "BPM.24L1.B1"             22384.74                    1       34.91361609569                    0          34.72580519          50.27530058       35.29408302778                    0
         "BPM.23L1.B1"             22438.18                    1       226.5034329584                    0          228.5454655          50.38635959       228.9717268758                    0
         "BPM.22L1.B1"             22491.63                    1        34.5426416209                    0          35.05137023          50.48011847       34.91906590327                    0
         "BPM.21L1.B1"             22545.08                    1       125.8036694044                    0          129.1458857          50.64205373       127.1745997605                    0
         "BPM.20L1.B1"             22598.53                    1       33.51243603937                    0          34.72137929           50.7752658       33.87763378032                    0
         "BPM.19L1.B1"             22651.98                    1       227.1178175527                    0          228.5482566           50.8863325       229.5928066524                    0
         "BPM.18L1.B1"             22705.43                    1        34.7375143562                    0          35.05579612          50.98008402       35.11606224076                    0
         "BPM.17L1.B1"             22758.87                    1       124.7432949266                    0          129.1430996          51.14200579       126.1026699793                    0
         "BPM.16L1.B1"             22812.32                    1       37.17062118787                    0          34.71695341          51.27523102       37.57568356148                    0
         "BPM.15L1.B1"             22865.77                    1       238.2514468507                    0          228.5510375          51.38630541       240.8477633366                    0
         "BPM.14L1.B1"             22919.22                    1        36.1864447173                    0          35.06022197          51.48004958        36.5807821462                    0
         "BPM.13L1.B1"             22972.67                    1       127.3337846613                    0          129.1403238          51.64195786       128.7213892643                    0
         "BPM.12L1.B1"             23026.12                    1       34.93469708849                    0          37.75619176          51.76818173       35.31539374816                    0
         "BPM.11L1.B1"             23079.57                    1       223.6662303384                    0          226.2115628          51.87442823       226.1036061816                    0
         "BPM.10L1.B1"             23132.35                    1       74.28598849181                    0           71.2410182          51.93932956       75.09551111648                    0
          "BPM.9L1.B1"             23171.41                    1       217.7778384151                    0          217.5981409          51.99519148       220.1510462155                    0
          "BPM.8L1.B1"             23211.87                    1       6.569764042072                    0          8.363715288          52.14978871       6.641357255527                    0
         "BPMR.7L1.B1"             23250.94                    1       237.8362523514                    0           225.207147             52.40219       240.4280443051                    0
          "BPM.6L1.B1"             23294.12                    1       5.204952380482                    0          5.712841464          52.68818627       5.261672723011                    0
        "BPMYA.4L1.B1"             23347.14                    1       464.6747030925                    0          491.3156936          52.86906193       469.7384397796                    0
        "BPMWB.4L1.B1"             23368.28                    1       1069.704164624                    0          1088.865289          52.87374766       1081.361137097                    0
        "BPMSY.4L1.B1"             23461.06                    1       6868.519776979                    0          6871.605206            52.879147       6943.368645122                    0
         "BPMS.2L1.B1"             23487.84                    1       2011.188322381                    0          1955.363237          52.88038977       2033.105005224                    0
        "BPMSW.1L1.B1"             23497.79                    1       1567.146723402                    0          1552.513166          52.88119449       1584.224516328                    0
        "BPMSW.1R1.B1"             23540.93                    1       1525.171212994                    0           1550.35578          53.37676807       1541.791582844                    0
         "BPMS.2R1.B1"              23550.9                    1       5170.557108693                    0           5186.27664          53.37739559       5226.902632885                    0
        "BPMSY.4R1.B1"             23577.68                    1       3260.158487797                    0          3313.459893           53.3782522       3295.685672794                    0
        "BPMWB.4R1.B1"             23670.46                    1       1779.337446735                    0          1752.940916          53.38438074       1798.727562547                    0
        "BPMYA.4R1.B1"              23691.6                    1         1423.1204766                    0          1403.045479          53.38648524       1438.628760825                    0
          "BPM.5R1.B1"                23719                    1       613.8586400765                    0          608.1330114          53.39128415       620.5480907735                    0
         "BPMR.6R1.B1"              23750.9                    1       182.5600381982                    0          197.8090276          53.40587998       184.5494642566                    0
        "BPMSX.7R1.B1"             23757.12                    1       135.9136021121                    0          141.5413844           53.4117933       137.3947042438                    0
        "BPM_A.7R1.B1"             23778.63                    1       22.20438655354                    0          22.89949669          53.47345198       22.44635618532                    0
          "BPM.8R1.B1"             23820.07                    1       114.0803798129                    0          107.2863972          53.72512095       115.3235570307                    0
          "BPM.9R1.B1"             23859.13                    1        51.2950917943                    0          49.55221988          53.80501301       51.85407388749                    0
         "BPM.10R1.B1"              23899.6                    1       217.8508753101                    0             221.7407          53.87699715       220.2248790212                    0
         "BPM.11R1.B1"             23952.38                    1       33.59332909461                    0          33.85971842          53.97104227        33.9594083579                    0
         "BPM.12R1.B1"             24007.11                    1       125.1136615887                    0          128.2657941          54.14289049       126.4770726676                    0
         "BPM.13R1.B1"             24060.56                    1       33.08070836868                    0          34.84876759          54.27637544       33.44120140927                    0
         "BPM.14R1.B1"             24114.01                    1        227.542094851                    0          228.4710718          54.38720683       230.0217074615                    0
         "BPM.15R1.B1"             24167.46                    1       35.92616112954                    0          34.90921207          54.48120541       36.31766214934                    0
         "BPM.16R1.B1"             24220.91                    1       127.8673816364                    0          129.2499139          54.64357619       129.2608010482                    0
         "BPM.17R1.B1"             24274.37                    1        34.4558659491                    0          34.86016791          54.77637602       34.83134460402                    0
         "BPM.18R1.B1"             24327.82                    1       230.7479963237                    0          228.4710718          54.88720683       233.2625448599                    0
         "BPM.19R1.B1"             24381.27                    1       34.07581962594                    0          34.90921207          54.98120541       34.44715677177                    0
         "BPM.20R1.B1"             24434.72                    1       129.5447476236                    0          129.2499139          55.14357619       130.9564459295                    0
         "BPM.21R1.B1"             24488.17                    1       37.17930913241                    0          34.86016791          55.27637602       37.58446618185                    0
         "BPM.22R1.B1"             24541.62                    1       233.5344928612                    0          228.4710718          55.38720683       236.0794069082                    0
         "BPM.23R1.B1"             24595.08                    1       36.41710990304                    0          34.90921207          55.48120541       36.81396097806                    0
         "BPM.24R1.B1"             24648.53                    1       125.6939991545                    0          129.2499139          55.64357619       127.0637343921                    0
         "BPM.25R1.B1"             24701.98                    1       34.25178625153                    0           34.8601679          55.77637602        34.6250409725                    0
         "BPM.26R1.B1"             24755.43                    1       231.4180251859                    0          228.4710718          55.88720683       233.9398752811                    0
         "BPM.27R1.B1"             24808.88                    1        34.0469410877                    0          34.90921207          55.98120541       34.41796353313                    0
         "BPM.28R1.B1"             24862.33                    1       127.1864573601                    0          129.2499139          56.14357619       128.5724564815                    0
         "BPM.29R1.B1"             24915.78                    1       33.79803978126                    0           34.8601679          56.27637602       34.16634985464                    0
         "BPM.30R1.B1"             24969.24                    1       234.0533470824                    0          228.4710718          56.38720683       236.6039152809                    0
         "BPM.31R1.B1"             25022.69                    1       36.18035936176                    0          34.90921207          56.48120541       36.57463047622                    0
         "BPM.32R1.B1"             25076.14                    1       127.2642767495                    0          129.2499139          56.64357619       128.6511238984                    0
         "BPM.33R1.B1"             25129.59                    1       38.22730694067                    0           34.8601679          56.77637602       38.64388442017                    0
         "BPM.34R1.B1"             25183.04                    1       236.8549109968                    0          228.4710718          56.88720683       239.4360089011                    0
         "BPM.33L2.B1"             25236.49                    1       36.79162606408                    0          34.90921207          56.98120541       37.19255838392                    0
         "BPM.32L2.B1"             25289.94                    1       125.4777443099                    0          129.2499139          57.14357619       126.8451229364                    0
         "BPM.31L2.B1"              25343.4                    1       33.86743897059                    0           34.8601679          57.27637602       34.23650531329                    0
         "BPM.30L2.B1"             25396.85                    1       223.1488939745                    0          228.4710718          57.38720683       225.5806322068                    0
         "BPM.29L2.B1"              25450.3                    1       35.78310070986                    0          34.90921207          57.48120541       36.17304274595                    0
         "BPM.28L2.B1"             25503.75                    1       130.3432814165                    0          129.2499139          57.64357619       131.7636816484                    0
         "BPM.27L2.B1"              25557.2                    1       34.67196010491                    0           34.8601679          57.77637602       35.04979361991                    0
         "BPM.26L2.B1"             25610.65                    1        239.660944482                    0          228.4710718          57.88720683       242.2726207987                    0
         "BPM.25L2.B1"              25664.1                    1       34.47831465306                    0          34.90921207          57.98120541       34.85403794003                    0
         "BPM.24L2.B1"             25717.56                    1       130.3780617578                    0          129.2499139          58.14357619       131.7988410043                    0
         "BPM.23L2.B1"             25771.01                    1       34.19664337719                    0           34.8601679          58.27637602       34.56929718532                    0
         "BPM.22L2.B1"             25824.46                    1       228.8930005025                    0          228.4710718          58.38720683       231.3873344448                    0
         "BPM.21L2.B1"             25877.91                    1       36.70966826027                    0          34.90921207          58.48120541        37.1097074548                    0
         "BPM.20L2.B1"             25931.36                    1       127.4177855522                    0          129.2499139          58.64357619       128.8063055448                    0
         "BPM.19L2.B1"             25984.81                    1       32.97597087741                    0           34.8601679          58.77637602       33.33532255378                    0
         "BPM.18L2.B1"             26038.27                    1       241.2293332973                    0          228.4710718          58.88720683       243.8581009425                    0
         "BPM.16L2.B1"             26145.17                    1       131.3674774013                    0          129.2499139          59.14357619       132.7990386857                    0
         "BPM.15L2.B1"             26198.62                    1        34.3237758345                    0           34.8601679          59.27637602       34.69781505329                    0
         "BPM.14L2.B1"             26252.07                    1       234.9350682265                    0          228.4710718          59.38720683       237.4952448751                    0
         "BPM.13L2.B1"             26305.52                    1       37.37212915072                    0          34.90921207          59.48120541       37.77938743312                    0
         "BPM.12L2.B1"             26358.97                    1       128.0380433852                    0          131.4377576          59.64153296       129.4333225629                    0
         "BPM.11L2.B1"             26412.43                    1       30.44061328613                    0          31.35921712           59.7824577        30.7723362081                    0
         "BPM.10L2.B1"             26464.27                    1        234.588868674                    0          221.4348832          59.89837284       237.1452726547                    0
          "BPM.9L2.B1"             26503.33                    1       43.48528919689                    0          42.17157279          59.95846002       43.95916490562                    0
          "BPM.8L2.B1"              26543.8                    1       74.62132133012                    0          84.16782201          60.09890435       75.43449820406                    0
          "BPM.7L2.B1"             26582.87                    1       48.34369916432                    0          47.43796821          60.19582063       48.87051881131                    0
         "BPMR.6L2.B1"             26614.97                    1       202.0035440189                    0          198.2140669          60.25015307       204.2048533434                    0