@ GetLLMVersion %s "V3.0.0 Dev"
@ Command %s "/afs/cern.ch/work/o/omc/anaconda/bin/python '/afs/cern.ch/eng/sl/lintrack/Beta-Beat.src/GetLLM/GetLLM.py' '--accel=LHCB1' '--model=/afs/cern.ch/user/t/thpugnat/public/Outputs/2018-09-04/models/LHCB1/b1_squeeze_collQ/twiss.dat' '--files=/afs/cern.ch/user/t/thpugnat/public/Outputs/2018-09-04/LHCB1/Measurements/Beam1@Turn@2018_06_16@17_42_26_736/Beam1@Turn@2018_06_16@17_42_26_736.sdds.clean' '--output=/afs/cern.ch/user/t/thpugnat/public/Outputs/2018-09-04/LHCB1/Results/15-50-13_NORMALANALYSIS_SUSSIX_27' '--tbtana=SUSSIX' '--bpmu=mm' '--lhcphase=1' '--errordefs=/afs/cern.ch/user/t/thpugnat/public/Outputs/2018-09-04/models/LHCB1/b1_squeeze_collQ/error_deff.txt' '--calibration=/afs/cern.ch/eng/sl/lintrack/LHC_commissioning2017/Calibration_factors_2017/Calibration_factors_2017_beam1'"
@ CWD %s "/afs/cern.ch/user/t/thpugnat"
@ Date %s "04. September 2018, 15:50:22"
@ FILES %s ""
*                 NAME                    S                X1010             X1010RMS           X1010PHASE        X1010PHASERMS               X1010M          X1010MPHASE
$                   %s                  %le                  %le                  %le                  %le                  %le                  %le                  %le
        "BPMYB.5L2.B1"               28.288     0.01746326427298   1.483239697419e-08           -0.2448797   1.483239697419e-08                    0                    0
        "BPMYB.4L2.B1"               48.858     0.01934454219585   1.483239697419e-08           -0.2136728   1.483239697419e-08                    0                    0
        "BPMWI.4L2.B1"              73.3255     0.02392191622798   1.483239697419e-08           -0.1680525   1.483239697419e-08                    0                    0
        "BPMSX.4L2.B1"             123.4825     0.01581603466639   1.483239697419e-08           -0.1205039   1.483239697419e-08                    0                    0
         "BPMS.2L2.B1"              161.394    0.008708723099519   1.483239697419e-08           -0.0057787   1.483239697419e-08                    0                    0
        "BPMSW.1L2.B1"              171.328    0.008941924530706   1.483239697419e-08           -0.0479413   1.483239697419e-08                    0                    0
        "BPMSW.1R2.B1"              214.518     0.01367198339243   1.483239697419e-08           -0.1757426   1.483239697419e-08                    0                    0
         "BPMS.2R2.B1"              224.452     0.01286438792704   1.483239697419e-08           -0.2304394   1.483239697419e-08                    0                    0
        "BPMSX.4R2.B1"             262.3635     0.02871081272369   1.483239697419e-08           -0.2554667   1.483239697419e-08                    0                    0
        "BPMWB.4R2.B1"             312.5965     0.00512841217136   1.483239697419e-08            0.6354783   1.483239697419e-08                    0                    0
        "BPMYB.4R2.B1"              336.988     0.01062567690276   1.483239697419e-08            0.5840458   1.483239697419e-08                    0                    0
         "BPMR.5R2.B1"              366.522     0.01853079538124   1.483239697419e-08            0.5858423   1.483239697419e-08                    0                    0
          "BPM.6R2.B1"              439.818     0.02517727855008   1.483239697419e-08            -0.244523   1.483239697419e-08                    0                    0
        "BPM_A.7R2.B1"              452.693     0.01804021802995   1.483239697419e-08           -0.3075352   1.483239697419e-08                    0                    0
          "BPM.8R2.B1"               494.13    0.007977304472944   1.483239697419e-08          -0.26862869   1.483239697419e-08                    0                    0
          "BPM.9R2.B1"              533.195     0.01372035471257   1.483239697419e-08           -0.4086985   1.483239697419e-08                    0                    0
         "BPM.10R2.B1"              573.658     0.02125349607877   1.483239697419e-08         -0.316694604   1.483239697419e-08                    0                    0
         "BPM.11R2.B1"             625.4967     0.01868956273901   1.483239697419e-08           -0.2841189   1.483239697419e-08                    0                    0
         "BPM.12R2.B1"             680.2203    0.008263723792683   1.483239697419e-08            0.6978407   1.483239697419e-08                    0                    0
         "BPM.13R2.B1"             733.6688     0.01293948638434   1.483239697419e-08            0.5977123   1.483239697419e-08                    0                    0
         "BPM.14R2.B1"             787.1173     0.01904136419608   1.483239697419e-08            0.6670191   1.483239697419e-08                    0                    0
         "BPM.15R2.B1"             840.5658     0.01716247642071   1.483239697419e-08           -0.2898338   1.483239697419e-08                    0                    0
         "BPM.16R2.B1"             894.0143    0.009550387424774   1.483239697419e-08          -0.30976072   1.483239697419e-08                    0                    0
         "BPM.17R2.B1"             947.4628    0.009127054991311   1.483239697419e-08           -0.3827073   1.483239697419e-08                    0                    0
         "BPM.18R2.B1"             1000.911     0.01609698943373   1.483239697419e-08        -0.3381506784   1.483239697419e-08                    0                    0
         "BPM.19R2.B1"              1054.36     0.01773463749834   1.483239697419e-08           -0.2641937   1.483239697419e-08                    0                    0
         "BPM.20R2.B1"             1107.808    0.009213497528197   1.483239697419e-08            0.7113068   1.483239697419e-08                    0                    0
         "BPM.21R2.B1"             1161.257     0.01193562816533   1.483239697419e-08            0.6377036   1.483239697419e-08                    0                    0
         "BPM.22R2.B1"             1214.705     0.01436853387344   1.483239697419e-08              -0.3158   1.483239697419e-08                    0                    0
         "BPM.23R2.B1"             1268.154     0.01678932163692   1.483239697419e-08           -0.2275114   1.483239697419e-08                    0                    0
         "BPM.24R2.B1"             1321.602     0.01110495152267   1.483239697419e-08           -0.3723846   1.483239697419e-08                    0                    0
         "BPM.25R2.B1"             1375.051     0.01033827458957   1.483239697419e-08           -0.4034925   1.483239697419e-08                    0                    0
         "BPM.26R2.B1"             1428.499     0.01502465769727   1.483239697419e-08         -0.346417602   1.483239697419e-08                    0                    0
         "BPM.27R2.B1"             1481.948     0.01588663867109   1.483239697419e-08           -0.3170488   1.483239697419e-08                    0                    0
         "BPM.28R2.B1"             1535.397      0.0102465856467   1.483239697419e-08            0.6029271   1.483239697419e-08                    0                    0
         "BPM.29R2.B1"             1588.845     0.01268393783904   1.483239697419e-08            0.5653344   1.483239697419e-08                    0                    0
         "BPM.30R2.B1"             1642.294     0.01743204662649   1.483239697419e-08           -0.3309395   1.483239697419e-08                    0                    0
         "BPM.31R2.B1"             1695.742     0.01853589450563   1.483239697419e-08           -0.2534124   1.483239697419e-08                    0                    0
         "BPM.32R2.B1"             1749.191     0.01138934551075   1.483239697419e-08           -0.4033792   1.483239697419e-08                    0                    0
         "BPM.33R2.B1"             1802.639     0.01177237835376   1.483239697419e-08           -0.4204261   1.483239697419e-08                    0                    0
         "BPM.34R2.B1"             1856.088     0.01494577115227   1.483239697419e-08           -0.3699187   1.483239697419e-08                    0                    0
         "BPM.33L3.B1"             1909.536     0.01777909892954   1.483239697419e-08           -0.2796473   1.483239697419e-08                    0                    0
         "BPM.32L3.B1"             1962.985     0.01212144336133   1.483239697419e-08            0.5483069   1.483239697419e-08                    0                    0
         "BPM.31L3.B1"             2016.433     0.01136810878757   1.483239697419e-08            0.5653429   1.483239697419e-08                    0                    0
         "BPM.30L3.B1"             2069.882     0.01183802637552   1.483239697419e-08           -0.3407486   1.483239697419e-08                    0                    0
         "BPM.29L3.B1"              2123.33      0.0168056607926   1.483239697419e-08         -0.357260968   1.483239697419e-08                    0                    0
         "BPM.27L3.B1"             2230.227     0.01210615667905   1.483239697419e-08           -0.4389218   1.483239697419e-08                    0                    0
         "BPM.26L3.B1"             2283.676     0.01273995960781   1.483239697419e-08          -0.35146463   1.483239697419e-08                    0                    0
         "BPM.25L3.B1"             2337.124     0.01375037334878   1.483239697419e-08            0.5978672   1.483239697419e-08                    0                    0
         "BPM.24L3.B1"             2390.573     0.01229670866368   1.483239697419e-08            0.5870469   1.483239697419e-08                    0                    0
         "BPM.23L3.B1"             2444.021     0.01318195199984   1.483239697419e-08            0.5775876   1.483239697419e-08                    0                    0
         "BPM.22L3.B1"              2497.47     0.01214213075084   1.483239697419e-08           -0.3224832   1.483239697419e-08                    0                    0
         "BPM.21L3.B1"             2550.918     0.01631421238012   1.483239697419e-08           -0.2594722   1.483239697419e-08                    0                    0
         "BPM.20L3.B1"             2604.367     0.01023093112384   1.483239697419e-08           -0.3851538   1.483239697419e-08                    0                    0
         "BPM.19L3.B1"             2657.815     0.01182052299051   1.483239697419e-08           -0.4515898   1.483239697419e-08                    0                    0
         "BPM.18L3.B1"             2711.264    0.008458697046427   1.483239697419e-08          -0.33058033   1.483239697419e-08                    0                    0
         "BPM.17L3.B1"             2764.712     0.01408106731706   1.483239697419e-08            -0.338811   1.483239697419e-08                    0                    0
         "BPM.16L3.B1"             2818.161     0.01326379274543   1.483239697419e-08            0.5856996   1.483239697419e-08                    0                    0
         "BPM.14L3.B1"             2925.058     0.00731667940949   1.483239697419e-08           -0.3622853   1.483239697419e-08                    0                    0
         "BPM.13L3.B1"             2978.506     0.01091188064769   1.483239697419e-08          -0.30578463   1.483239697419e-08                    0                    0
         "BPM.12L3.B1"             3031.955     0.01052296118071   1.483239697419e-08           -0.4160469   1.483239697419e-08                    0                    0
         "BPM.11L3.B1"             3085.403      0.0151777167098   1.483239697419e-08          -0.39374047   1.483239697419e-08                    0                    0
         "BPM.10L3.B1"             3138.184    0.008933036302132   1.483239697419e-08          -0.32653301   1.483239697419e-08                    0                    0
          "BPM.8L3.B1"             3217.712     0.01351276728633   1.483239697419e-08            0.6504149   1.483239697419e-08                    0                    0
          "BPM.7L3.B1"             3256.776    0.008844247010719   1.483239697419e-08            0.6406952   1.483239697419e-08                    0                    0
          "BPM.6L3.B1"             3329.415    0.005677205651635   1.483239697419e-08            0.7365748   1.483239697419e-08                    0                    0
       "BPMWG.A5L3.B1"              3371.12    0.007090910617047   1.483239697419e-08             0.820019   1.483239697419e-08                    0                    0
         "BPMW.5L3.B1"              3400.09    0.007928608302769   1.483239697419e-08           -0.0673117   1.483239697419e-08                    0                    0
        "BPMWE.4L3.B1"             3475.218     0.02015264941361   1.483239697419e-08           -0.3423051   1.483239697419e-08                    0                    0
         "BPMW.4L3.B1"             3502.763     0.02619283501609   1.483239697419e-08          -0.34242841   1.483239697419e-08                    0                    0
         "BPMW.4R3.B1"             3547.728     0.01599915675331   1.483239697419e-08          -0.39664011   1.483239697419e-08                    0                    0
        "BPMWE.4R3.B1"             3575.273    0.009323732797635   1.483239697419e-08           -0.2667859   1.483239697419e-08                    0                    0
         "BPMW.5R3.B1"             3650.401     0.01664254941343   1.483239697419e-08          -0.43877766   1.483239697419e-08                    0                    0
       "BPMWJ.A5R3.B1"             3679.119     0.01064869298605   1.483239697419e-08          -0.31390359   1.483239697419e-08                    0                    0
        "BPMWC.6R3.B1"             3718.937     0.01165703049602   1.483239697419e-08          -0.35791169   1.483239697419e-08                    0                    0
         "BPMR.6R3.B1"             3731.015     0.01030559955265   1.483239697419e-08          -0.35416136   1.483239697419e-08                    0                    0
          "BPM.8R3.B1"             3825.903     0.01057273199047   1.483239697419e-08            0.5485756   1.483239697419e-08                    0                    0
         "BPM.10R3.B1"             3905.431     0.01716360977657   1.483239697419e-08          -0.38021937   1.483239697419e-08                    0                    0
         "BPM.11R3.B1"             3958.212     0.01445509483703   1.483239697419e-08          -0.31422313   1.483239697419e-08                    0                    0
         "BPM.12R3.B1"             4012.935    0.009504409642273   1.483239697419e-08           -0.3643847   1.483239697419e-08                    0                    0
         "BPM.13R3.B1"             4066.384    0.008670665504735   1.483239697419e-08           -0.4201554   1.483239697419e-08                    0                    0
         "BPM.14R3.B1"             4119.833     0.01595628833655   1.483239697419e-08          -0.36509451   1.483239697419e-08                    0                    0
         "BPM.15R3.B1"             4173.281     0.01736118096434   1.483239697419e-08           -0.3031155   1.483239697419e-08                    0                    0
         "BPM.17R3.B1"             4280.178     0.01033752982657   1.483239697419e-08            0.5777971   1.483239697419e-08                    0                    0
         "BPM.19R3.B1"             4387.075     0.01809920471639   1.483239697419e-08           -0.2898169   1.483239697419e-08                    0                    0
         "BPM.20R3.B1"             4440.524     0.01026610347811   1.483239697419e-08           -0.4772586   1.483239697419e-08                    0                    0
         "BPM.21R3.B1"             4493.972    0.007411873281201   1.483239697419e-08           -0.4071355   1.483239697419e-08                    0                    0
         "BPM.22R3.B1"             4547.421      0.0195984280825   1.483239697419e-08          -0.31720553   1.483239697419e-08                    0                    0
         "BPM.23R3.B1"             4600.869     0.01514527125432   1.483239697419e-08           -0.3075607   1.483239697419e-08                    0                    0
         "BPM.24R3.B1"             4654.318     0.00979745885665   1.483239697419e-08            0.6046746   1.483239697419e-08                    0                    0
         "BPM.25R3.B1"             4707.766    0.008811679446798   1.483239697419e-08            0.5719765   1.483239697419e-08                    0                    0
         "BPM.26R3.B1"             4761.215     0.01929572367801   1.483239697419e-08            0.6378193   1.483239697419e-08                    0                    0
         "BPM.27R3.B1"             4814.663     0.01394063515086   1.483239697419e-08           -0.3193915   1.483239697419e-08                    0                    0
         "BPM.28R3.B1"             4868.112     0.01125973098354   1.483239697419e-08            -0.445419   1.483239697419e-08                    0                    0
         "BPM.29R3.B1"              4921.56     0.01217812214385   1.483239697419e-08           -0.4153232   1.483239697419e-08                    0                    0
         "BPM.30R3.B1"             4975.009     0.01980125925683   1.483239697419e-08          -0.34197698   1.483239697419e-08                    0                    0
         "BPM.31R3.B1"             5028.457     0.01527770007149   1.483239697419e-08           -0.3345838   1.483239697419e-08                    0                    0
         "BPM.32R3.B1"             5081.906    0.009345283115227   1.483239697419e-08             0.551909   1.483239697419e-08                    0                    0
         "BPM.33R3.B1"             5135.354      0.0128118652901   1.483239697419e-08            0.5800976   1.483239697419e-08                    0                    0
         "BPM.34R3.B1"             5188.803     0.01636130786791   1.483239697419e-08             0.641275   1.483239697419e-08                    0                    0
         "BPM.33L4.B1"             5242.251      0.0120758575207   1.483239697419e-08          -0.31147977   1.483239697419e-08                    0                    0
         "BPM.32L4.B1"               5295.7     0.01197004912759   1.483239697419e-08           -0.4476913   1.483239697419e-08                    0                    0
         "BPM.31L4.B1"             5349.148     0.01569050706765   1.483239697419e-08           -0.4114199   1.483239697419e-08                    0                    0
         "BPM.30L4.B1"             5402.597     0.01983410280983   1.483239697419e-08         -0.338143104   1.483239697419e-08                    0                    0
         "BPM.29L4.B1"             5456.045     0.01279393519665   1.483239697419e-08           -0.2736418   1.483239697419e-08                    0                    0
         "BPM.27L4.B1"             5562.942     0.01222448759951   1.483239697419e-08            0.5774112   1.483239697419e-08                    0                    0
         "BPM.26L4.B1"             5616.391     0.01796006625415   1.483239697419e-08           -0.3331306   1.483239697419e-08                    0                    0
         "BPM.25L4.B1"             5669.839     0.01215533787382   1.483239697419e-08           -0.3105141   1.483239697419e-08                    0                    0
         "BPM.24L4.B1"             5723.288    0.006408384526144   1.483239697419e-08           -0.4652684   1.483239697419e-08                    0                    0
         "BPM.22L4.B1"             5830.185     0.01907072105726   1.483239697419e-08         -0.330520884   1.483239697419e-08                    0                    0
         "BPM.21L4.B1"             5883.634     0.01447369493197   1.483239697419e-08           -0.2089803   1.483239697419e-08                    0                    0
         "BPM.19L4.B1"             5990.531     0.01156006478865   1.483239697419e-08            0.5790483   1.483239697419e-08                    0                    0
         "BPM.18L4.B1"             6043.979     0.01945532271512   1.483239697419e-08            -0.335781   1.483239697419e-08                    0                    0
         "BPM.17L4.B1"             6097.428     0.01157773697119   1.483239697419e-08           -0.2359145   1.483239697419e-08                    0                    0
         "BPM.15L4.B1"             6204.325     0.01376077202039   1.483239697419e-08          -0.42018665   1.483239697419e-08                    0                    0
         "BPM.14L4.B1"             6257.773     0.02009926068986   1.483239697419e-08          -0.31210408   1.483239697419e-08                    0                    0
         "BPM.13L4.B1"             6311.222      0.0138929882664   1.483239697419e-08           -0.2183553   1.483239697419e-08                    0                    0
         "BPM.12L4.B1"              6364.67     0.01097058728626   1.483239697419e-08            0.5553085   1.483239697419e-08                    0                    0
         "BPM.11L4.B1"             6418.119     0.01297079617166   1.483239697419e-08            0.5979863   1.483239697419e-08                    0                    0
         "BPM.10L4.B1"             6469.957     0.01986112773516   1.483239697419e-08           -0.3298553   1.483239697419e-08                    0                    0
          "BPM.9L4.B1"             6509.022     0.01476648753153   1.483239697419e-08           -0.1859352   1.483239697419e-08                    0                    0
          "BPM.8L4.B1"             6549.485     0.01042457876725   1.483239697419e-08           -0.5859167   1.483239697419e-08                    0                    0
          "BPM.7L4.B1"             6588.549     0.01994487354363   1.483239697419e-08          -0.37521403   1.483239697419e-08                    0                    0
        "BPMYB.6L4.B1"             6685.153     0.01666888874824   1.483239697419e-08          -0.20242313   1.483239697419e-08                    0                    0
        "BPMYA.5L4.B1"             6722.153     0.01285066889899   1.483239697419e-08           -0.2122895   1.483239697419e-08                    0                    0
       "BPMWI.A5L4.B1"             6798.756     0.01404537214251   1.483239697419e-08           -0.1936248   1.483239697419e-08                    0                    0
       "BPMWA.B5L4.B1"              6824.62    0.008865059824395   1.483239697419e-08           -0.1746356   1.483239697419e-08                    0                    0
       "BPMWA.A5L4.B1"             6833.505    0.007932095519508   1.483239697419e-08           -0.1698779   1.483239697419e-08                    0                    0
       "BPMWA.A5R4.B1"             6881.554    0.005338537695849   1.483239697419e-08            -0.195439   1.483239697419e-08                    0                    0
       "BPMWA.B5R4.B1"             6890.439    0.008902902661592   1.483239697419e-08           -0.1751986   1.483239697419e-08                    0                    0
        "BPMYB.5R4.B1"             6992.829     0.01118402470603   1.483239697419e-08              0.44507   1.483239697419e-08                    0                    0
        "BPMYA.6R4.B1"             7024.393     0.01391210606587   1.483239697419e-08            0.4866406   1.483239697419e-08                    0                    0
          "BPM.7R4.B1"             7120.909     0.02317423758536   1.483239697419e-08            0.5887179   1.483239697419e-08                    0                    0
          "BPM.8R4.B1"             7158.698     0.01573389617542   1.483239697419e-08           -0.2407948   1.483239697419e-08                    0                    0
          "BPM.9R4.B1"             7197.763    0.006829877708062   1.483239697419e-08           -0.6620829   1.483239697419e-08                    0                    0
         "BPM.11R4.B1"             7290.065     0.02054518823993   1.483239697419e-08          -0.35605173   1.483239697419e-08                    0                    0
         "BPM.12R4.B1"             7344.789      0.0153710185545   1.483239697419e-08           -0.1857263   1.483239697419e-08                    0                    0
         "BPM.13R4.B1"             7398.237    0.006770533859918   1.483239697419e-08            0.4882999   1.483239697419e-08                    0                    0
         "BPM.14R4.B1"             7451.686     0.01631229723314   1.483239697419e-08             0.565263   1.483239697419e-08                    0                    0
         "BPM.15R4.B1"             7505.134     0.02019097542571   1.483239697419e-08            0.6511748   1.483239697419e-08                    0                    0
         "BPM.16R4.B1"             7558.583     0.01207297016268   1.483239697419e-08           -0.2246007   1.483239697419e-08                    0                    0
         "BPM.17R4.B1"             7612.031    0.008086139734406   1.483239697419e-08           -0.4279675   1.483239697419e-08                    0                    0
         "BPM.18R4.B1"              7665.48     0.01509923547551   1.483239697419e-08           -0.4322947   1.483239697419e-08                    0                    0
         "BPM.19R4.B1"             7718.928     0.02136639422952   1.483239697419e-08          -0.36243214   1.483239697419e-08                    0                    0
         "BPM.20R4.B1"             7772.377     0.01224760361332   1.483239697419e-08           -0.2250589   1.483239697419e-08                    0                    0
         "BPM.21R4.B1"             7825.825    0.007565476868209   1.483239697419e-08            0.4892128   1.483239697419e-08                    0                    0
         "BPM.22R4.B1"             7879.274     0.01302141100499   1.483239697419e-08            0.5690502   1.483239697419e-08                    0                    0
         "BPM.23R4.B1"             7932.722     0.01854183871958   1.483239697419e-08             0.636165   1.483239697419e-08                    0                    0
         "BPM.24R4.B1"             7986.171    0.008013769983023   1.483239697419e-08           -0.2162794   1.483239697419e-08                    0                    0
         "BPM.26R4.B1"             8093.068     0.01156219448933   1.483239697419e-08            -0.451226   1.483239697419e-08                    0                    0
         "BPM.27R4.B1"             8146.516     0.01563208662905   1.483239697419e-08           -0.3801211   1.483239697419e-08                    0                    0
         "BPM.28R4.B1"             8199.965    0.006929217011088   1.483239697419e-08           -0.2488618   1.483239697419e-08                    0                    0
         "BPM.29R4.B1"             8253.413    0.005888744948232   1.483239697419e-08            0.3801816   1.483239697419e-08                    0                    0
         "BPM.32R4.B1"             8413.759    0.008176395918068   1.483239697419e-08           -0.2594817   1.483239697419e-08                    0                    0
         "BPM.33R4.B1"             8467.208    0.004542992239692   1.483239697419e-08           -0.5401817   1.483239697419e-08                    0                    0
         "BPM.34R4.B1"             8520.656     0.01399556655832   1.483239697419e-08           -0.4628335   1.483239697419e-08                    0                    0
         "BPM.33L5.B1"             8574.105     0.01619760291957   1.483239697419e-08          -0.40286377   1.483239697419e-08                    0                    0
         "BPM.32L5.B1"             8627.553    0.009468998804424   1.483239697419e-08           -0.3100774   1.483239697419e-08                    0                    0
         "BPM.31L5.B1"             8681.002    0.003203585528605   1.483239697419e-08            0.4612569   1.483239697419e-08                    0                    0
         "BPM.30L5.B1"              8734.45     0.01241509263283   1.483239697419e-08            0.5339108   1.483239697419e-08                    0                    0
         "BPM.29L5.B1"             8787.899     0.01562438240111   1.483239697419e-08            0.6362988   1.483239697419e-08                    0                    0
         "BPM.28L5.B1"             8841.347    0.006850306518653   1.483239697419e-08          -0.31345358   1.483239697419e-08                    0                    0
         "BPM.26L5.B1"             8948.244     0.01247981488309   1.483239697419e-08           -0.4595731   1.483239697419e-08                    0                    0
         "BPM.25L5.B1"             9001.693     0.01130925305583   1.483239697419e-08           -0.3378618   1.483239697419e-08                    0                    0
         "BPM.24L5.B1"             9055.141     0.01109982065634   1.483239697419e-08           -0.2145065   1.483239697419e-08                    0                    0
         "BPM.22L5.B1"             9162.038     0.01677478506543   1.483239697419e-08            0.5661611   1.483239697419e-08                    0                    0
         "BPM.21L5.B1"             9215.487     0.02213008548432   1.483239697419e-08            0.6464811   1.483239697419e-08                    0                    0
         "BPM.20L5.B1"             9268.935     0.01550767871158   1.483239697419e-08            -0.239318   1.483239697419e-08                    0                    0
         "BPM.19L5.B1"             9322.384    0.004790340301912   1.483239697419e-08           -0.5721049   1.483239697419e-08                    0                    0
         "BPM.18L5.B1"             9375.832     0.01814955802839   1.483239697419e-08           -0.4380777   1.483239697419e-08                    0                    0
         "BPM.17L5.B1"             9429.281     0.02225647845883   1.483239697419e-08          -0.34102653   1.483239697419e-08                    0                    0
         "BPM.16L5.B1"             9482.729     0.01272218352069   1.483239697419e-08           -0.2167878   1.483239697419e-08                    0                    0
         "BPM.15L5.B1"             9536.178    0.006026859183123   1.483239697419e-08            0.4928042   1.483239697419e-08                    0                    0
         "BPM.14L5.B1"             9589.626     0.01666475412788   1.483239697419e-08            0.5711727   1.483239697419e-08                    0                    0
         "BPM.13L5.B1"             9643.075     0.02063443553197   1.483239697419e-08            0.6384539   1.483239697419e-08                    0                    0
         "BPM.12L5.B1"             9696.523     0.01186212350742   1.483239697419e-08           -0.2009696   1.483239697419e-08                    0                    0
         "BPM.11L5.B1"             9749.972    0.006491490025143   1.483239697419e-08           -0.5450133   1.483239697419e-08                    0                    0
         "BPM.10L5.B1"             9802.753     0.01034351440426   1.483239697419e-08            -0.426152   1.483239697419e-08                    0                    0
          "BPM.9L5.B1"             9841.818     0.01616617415065   1.483239697419e-08          -0.35647467   1.483239697419e-08                    0                    0
          "BPM.8L5.B1"             9882.281    0.009461896714345   1.483239697419e-08            -0.159733   1.483239697419e-08                    0                    0
         "BPMR.7L5.B1"             9921.347    0.005038031084827   1.483239697419e-08            0.4916773   1.483239697419e-08                    0                    0
         "BPMR.5L5.B1"             9990.141     0.01148017308611   1.483239697419e-08            0.5843955   1.483239697419e-08                    0                    0
        "BPMWB.4L5.B1"             10038.68    0.009596795158164   1.483239697419e-08            0.5828263   1.483239697419e-08                    0                    0
        "BPMSY.4L5.B1"             10131.46    0.008872802322597   1.483239697419e-08            0.6214534   1.483239697419e-08                    0                    0
         "BPMS.2L5.B1"             10158.25    0.009146006325731   1.483239697419e-08            0.5917387   1.483239697419e-08                    0                    0
        "BPMSW.1L5.B1"             10168.21    0.009811481308085   1.483239697419e-08            0.5935802   1.483239697419e-08                    0                    0
         "BPMS.2R5.B1"              10221.3    0.009985481089648   1.483239697419e-08          -0.36212172   1.483239697419e-08                    0                    0
        "BPMWB.4R5.B1"             10340.87    0.009336383286001   1.483239697419e-08          -0.40542078   1.483239697419e-08                    0                    0
        "BPMYA.4R5.B1"                10362    0.009429793987493   1.483239697419e-08          -0.40837302   1.483239697419e-08                    0                    0
          "BPM.5R5.B1"             10383.12    0.009016745329414   1.483239697419e-08          -0.40786837   1.483239697419e-08                    0                    0
         "BPMR.6R5.B1"             10415.02    0.006409715928203   1.483239697419e-08           0.50482576   1.483239697419e-08                    0                    0
          "BPM.8R5.B1"             10490.47     0.01910885184098   1.483239697419e-08            0.5917798   1.483239697419e-08                    0                    0
          "BPM.9R5.B1"             10529.54     0.01280799695354   1.483239697419e-08           -0.5010188   1.483239697419e-08                    0                    0
         "BPM.10R5.B1"             10570.01     0.01085801675755   1.483239697419e-08           -0.4839257   1.483239697419e-08                    0                    0
         "BPM.11R5.B1"             10622.79     0.01323749082617   1.483239697419e-08           -0.4177147   1.483239697419e-08                    0                    0
         "BPM.12R5.B1"             10677.51     0.01754343136255   1.483239697419e-08          -0.40109022   1.483239697419e-08                    0                    0
         "BPM.14R5.B1"             10784.42     0.00908199219378   1.483239697419e-08            0.5056916   1.483239697419e-08                    0                    0
         "BPM.17R5.B1"             10944.77     0.01279232612796   1.483239697419e-08           -0.5189016   1.483239697419e-08                    0                    0
         "BPM.18R5.B1"             10998.22    0.009839673412517   1.483239697419e-08           -0.4986277   1.483239697419e-08                    0                    0
         "BPM.19R5.B1"             11051.68     0.01319448567492   1.483239697419e-08           -0.4404826   1.483239697419e-08                    0                    0
         "BPM.20R5.B1"             11105.13     0.01901754138827   1.483239697419e-08          -0.43411767   1.483239697419e-08                    0                    0
         "BPM.23R5.B1"             11265.48     0.01529197306148   1.483239697419e-08            0.5505035   1.483239697419e-08                    0                    0
         "BPM.24R5.B1"             11318.93     0.01628132844598   1.483239697419e-08              0.61209   1.483239697419e-08                    0                    0
         "BPM.25R5.B1"             11372.38     0.01438090996152   1.483239697419e-08           -0.5193215   1.483239697419e-08                    0                    0
         "BPM.26R5.B1"             11425.84    0.008824870881592   1.483239697419e-08           -0.4815335   1.483239697419e-08                    0                    0
         "BPM.27R5.B1"             11479.29     0.01361256993545   1.483239697419e-08           -0.4555539   1.483239697419e-08                    0                    0
         "BPM.28R5.B1"             11532.74     0.01668455568992   1.483239697419e-08          -0.46280675   1.483239697419e-08                    0                    0
         "BPM.29R5.B1"             11586.19     0.01217065846071   1.483239697419e-08            0.4499892   1.483239697419e-08                    0                    0
         "BPM.30R5.B1"             11639.64    0.007485672678613   1.483239697419e-08            0.4968289   1.483239697419e-08                    0                    0
         "BPM.31R5.B1"             11693.09     0.01127010757498   1.483239697419e-08             0.551976   1.483239697419e-08                    0                    0
         "BPM.32R5.B1"             11746.54     0.01756861798116   1.483239697419e-08            0.6487107   1.483239697419e-08                    0                    0
         "BPM.33R5.B1"                11800     0.01440327343403   1.483239697419e-08           -0.5225729   1.483239697419e-08                    0                    0
         "BPM.34R5.B1"             11853.45    0.007821220759063   1.483239697419e-08           -0.5074339   1.483239697419e-08                    0                    0
         "BPM.33L6.B1"              11906.9     0.01012732621041   1.483239697419e-08           -0.4599716   1.483239697419e-08                    0                    0
         "BPM.32L6.B1"             11960.35     0.01597669715172   1.483239697419e-08          -0.41374827   1.483239697419e-08                    0                    0
         "BPM.30L6.B1"             12067.25    0.009787084747464   1.483239697419e-08            0.5014454   1.483239697419e-08                    0                    0
         "BPM.29L6.B1"              12120.7      0.0121832846194   1.483239697419e-08            0.5708178   1.483239697419e-08                    0                    0
         "BPM.28L6.B1"             12174.16     0.01723530936295   1.483239697419e-08            0.6256958   1.483239697419e-08                    0                    0
         "BPM.27L6.B1"             12227.61     0.01398079154272   1.483239697419e-08           -0.5423409   1.483239697419e-08                    0                    0
         "BPM.26L6.B1"             12281.06    0.009434469580383   1.483239697419e-08           -0.4926501   1.483239697419e-08                    0                    0
         "BPM.25L6.B1"             12334.51     0.01318517399468   1.483239697419e-08           -0.4477074   1.483239697419e-08                    0                    0
         "BPM.24L6.B1"             12387.96     0.01847223797535   1.483239697419e-08          -0.41691931   1.483239697419e-08                    0                    0
         "BPM.22L6.B1"             12494.87     0.01019854331587   1.483239697419e-08              0.50988   1.483239697419e-08                    0                    0
         "BPM.21L6.B1"             12548.32     0.01631080420423   1.483239697419e-08            0.5521268   1.483239697419e-08                    0                    0
         "BPM.20L6.B1"             12601.77     0.02013334085049   1.483239697419e-08           0.57395189   1.483239697419e-08                    0                    0
         "BPM.19L6.B1"             12655.22     0.01618714372431   1.483239697419e-08            -0.542217   1.483239697419e-08                    0                    0
         "BPM.18L6.B1"             12708.67     0.00856632613276   1.483239697419e-08           -0.5122712   1.483239697419e-08                    0                    0
         "BPM.17L6.B1"             12762.12     0.01468102233985   1.483239697419e-08           -0.4523135   1.483239697419e-08                    0                    0
         "BPM.16L6.B1"             12815.57     0.01892226733772   1.483239697419e-08          -0.40089954   1.483239697419e-08                    0                    0
         "BPM.15L6.B1"             12869.03     0.01234554070517   1.483239697419e-08             0.461915   1.483239697419e-08                    0                    0
         "BPM.14L6.B1"             12922.48    0.009593047950728   1.483239697419e-08            0.5039039   1.483239697419e-08                    0                    0
         "BPM.13L6.B1"             12975.93     0.01684370557996   1.483239697419e-08            0.5448419   1.483239697419e-08                    0                    0
         "BPM.12L6.B1"             13029.38     0.01653927920227   1.483239697419e-08           0.56931603   1.483239697419e-08                    0                    0
         "BPM.11L6.B1"             13082.83     0.01468470842131   1.483239697419e-08           -0.5362352   1.483239697419e-08                    0                    0
         "BPM.10L6.B1"             13134.67    0.007170326177204   1.483239697419e-08           -0.5376974   1.483239697419e-08                    0                    0
          "BPM.9L6.B1"             13173.74     0.01580102017001   1.483239697419e-08           -0.4719398   1.483239697419e-08                    0                    0
          "BPM.8L6.B1"              13214.2     0.01517697112988   1.483239697419e-08          -0.50250441   1.483239697419e-08                    0                    0
        "BPMYB.4L6.B1"             13347.69    0.008816743467244   1.483239697419e-08            0.5059769   1.483239697419e-08                    0                    0
       "BPMSX.B4L6.B1"             13383.23     0.00507294775869   1.483239697419e-08            0.5076452   1.483239697419e-08                    0                    0
       "BPMSX.A4L6.B1"             13383.82    0.006049513102978   1.483239697419e-08            0.5207461   1.483239697419e-08                    0                    0
        "BPMSA.4R6.B1"             13568.51     0.02050256380087   1.483239697419e-08            0.3574901   1.483239697419e-08                    0                    0
       "BPMSI.A4R6.B1"             13661.77     0.02634206236897   1.483239697419e-08           -0.6579879   1.483239697419e-08                    0                    0
       "BPMSI.B4R6.B1"             13662.41      0.0233009350223   1.483239697419e-08           -0.6697438   1.483239697419e-08                    0                    0
        "BPMYA.4R6.B1"             13691.29     0.01850017792801   1.483239697419e-08           -0.5781846   1.483239697419e-08                    0                    0
        "BPMYB.5R6.B1"             13727.69      0.0200177438372   1.483239697419e-08           -0.6294733   1.483239697419e-08                    0                    0
          "BPM.9R6.B1"             13862.49     0.01546086795823   1.483239697419e-08           0.41473291   1.483239697419e-08                    0                    0
         "BPM.10R6.B1"             13902.95     0.01629763906921   1.483239697419e-08            0.4808619   1.483239697419e-08                    0                    0
         "BPM.11R6.B1"             13954.79     0.02071298627707   1.483239697419e-08            0.5243418   1.483239697419e-08                    0                    0
         "BPM.12R6.B1"             14009.52     0.01195888017541   1.483239697419e-08            0.5325424   1.483239697419e-08                    0                    0
         "BPM.13R6.B1"             14062.97     0.01021160551871   1.483239697419e-08          -0.53828254   1.483239697419e-08                    0                    0
         "BPM.14R6.B1"             14116.42      0.0234922624119   1.483239697419e-08           -0.5267553   1.483239697419e-08                    0                    0
         "BPM.15R6.B1"             14169.87     0.02157582621557   1.483239697419e-08           -0.4794994   1.483239697419e-08                    0                    0
         "BPM.16R6.B1"             14223.33     0.00969521267269   1.483239697419e-08          -0.50362313   1.483239697419e-08                    0                    0
         "BPM.17R6.B1"             14276.78     0.01570001964193   1.483239697419e-08           0.41666896   1.483239697419e-08                    0                    0
         "BPM.18R6.B1"             14330.23     0.02315195877215   1.483239697419e-08            0.4576387   1.483239697419e-08                    0                    0
         "BPM.20R6.B1"             14437.13    0.006447907562667   1.483239697419e-08            0.5445874   1.483239697419e-08                    0                    0
         "BPM.21R6.B1"             14490.58     0.01781237509794   1.483239697419e-08           -0.6013695   1.483239697419e-08                    0                    0
         "BPM.22R6.B1"             14544.04     0.02532564643478   1.483239697419e-08            -0.544091   1.483239697419e-08                    0                    0
         "BPM.23R6.B1"             14597.49     0.02007790298369   1.483239697419e-08           -0.5072918   1.483239697419e-08                    0                    0
         "BPM.24R6.B1"             14650.94    0.006744828632541   1.483239697419e-08          -0.48442113   1.483239697419e-08                    0                    0
         "BPM.25R6.B1"             14704.39     0.01687973842959   1.483239697419e-08           0.41680158   1.483239697419e-08                    0                    0
         "BPM.26R6.B1"             14757.84     0.02362429354579   1.483239697419e-08            0.4758576   1.483239697419e-08                    0                    0
         "BPM.27R6.B1"             14811.29     0.02343518115358   1.483239697419e-08             0.516779   1.483239697419e-08                    0                    0
         "BPM.28R6.B1"             14864.74     0.01471482809884   1.483239697419e-08             0.558759   1.483239697419e-08                    0                    0
         "BPM.29R6.B1"              14918.2     0.01449101150274   1.483239697419e-08          -0.51524929   1.483239697419e-08                    0                    0
         "BPM.30R6.B1"             14971.65     0.02221774134378   1.483239697419e-08           -0.5113942   1.483239697419e-08                    0                    0
         "BPM.31R6.B1"              15025.1     0.02072534494925   1.483239697419e-08           -0.4579514   1.483239697419e-08                    0                    0
         "BPM.32R6.B1"             15078.55    0.007526146481166   1.483239697419e-08          -0.44149533   1.483239697419e-08                    0                    0
         "BPM.33R6.B1"                15132     0.01298474757575   1.483239697419e-08           0.49786787   1.483239697419e-08                    0                    0
         "BPM.34R6.B1"             15185.45     0.02272002648115   1.483239697419e-08            0.4799986   1.483239697419e-08                    0                    0
         "BPM.32L7.B1"             15292.36    0.007942418403264   1.483239697419e-08            0.5586096   1.483239697419e-08                    0                    0
         "BPM.31L7.B1"             15345.81      0.0169613198417   1.483239697419e-08          -0.52092942   1.483239697419e-08                    0                    0
         "BPM.30L7.B1"             15399.26     0.02468413373932   1.483239697419e-08           -0.5015224   1.483239697419e-08                    0                    0
         "BPM.29L7.B1"             15452.71     0.02007990665112   1.483239697419e-08           -0.4567895   1.483239697419e-08                    0                    0
         "BPM.28L7.B1"             15506.16     0.01084620785373   1.483239697419e-08          -0.43566008   1.483239697419e-08                    0                    0
         "BPM.27L7.B1"             15559.61     0.01675392563649   1.483239697419e-08            0.5320451   1.483239697419e-08                    0                    0
         "BPM.26L7.B1"             15613.06     0.02080141816521   1.483239697419e-08            0.4728145   1.483239697419e-08                    0                    0
         "BPM.25L7.B1"             15666.52     0.01860402647805   1.483239697419e-08            0.5214113   1.483239697419e-08                    0                    0
         "BPM.24L7.B1"             15719.97     0.01059731104119   1.483239697419e-08           0.55590538   1.483239697419e-08                    0                    0
         "BPM.23L7.B1"             15773.42     0.01765976910189   1.483239697419e-08           -0.5384662   1.483239697419e-08                    0                    0
         "BPM.22L7.B1"             15826.87     0.01746329173845   1.483239697419e-08           -0.5370323   1.483239697419e-08                    0                    0
         "BPM.21L7.B1"             15880.32     0.01527737698734   1.483239697419e-08           -0.5292157   1.483239697419e-08                    0                    0
         "BPM.20L7.B1"             15933.77     0.01611615301187   1.483239697419e-08          -0.50439922   1.483239697419e-08                    0                    0
         "BPM.19L7.B1"             15987.23     0.02005040666104   1.483239697419e-08           0.47220008   1.483239697419e-08                    0                    0
         "BPM.18L7.B1"             16040.68     0.01956443393076   1.483239697419e-08            0.4465221   1.483239697419e-08                    0                    0
         "BPM.17L7.B1"             16094.13     0.01263640152459   1.483239697419e-08            0.4472609   1.483239697419e-08                    0                    0
         "BPM.16L7.B1"             16147.58     0.01635193507968   1.483239697419e-08           0.50033193   1.483239697419e-08                    0                    0
         "BPM.15L7.B1"             16201.03     0.01692727909428   1.483239697419e-08           -0.5228778   1.483239697419e-08                    0                    0
         "BPM.13L7.B1"             16307.93     0.01442822348603   1.483239697419e-08           -0.5120906   1.483239697419e-08                    0                    0
         "BPM.12L7.B1"             16361.39     0.01611253541285   1.483239697419e-08          -0.50065248   1.483239697419e-08                    0                    0
         "BPM.10L7.B1"             16467.62     0.01852643059433   1.483239697419e-08             0.460774   1.483239697419e-08                    0                    0
          "BPM.9L7.B1"             16506.69     0.01761656934545   1.483239697419e-08            0.5165417   1.483239697419e-08                    0                    0
          "BPM.8L7.B1"             16547.15     0.01064946697849   1.483239697419e-08          -0.53968838   1.483239697419e-08                    0                    0
          "BPM.7L7.B1"             16586.22     0.01548017307303   1.483239697419e-08           -0.5107876   1.483239697419e-08                    0                    0
          "BPM.6L7.B1"             16621.04     0.02053670250267   1.483239697419e-08           -0.5582241   1.483239697419e-08                    0                    0
        "BPMWC.6L7.B1"             16633.14      0.0229516893696   1.483239697419e-08           -0.5509724   1.483239697419e-08                    0                    0
        "BPMWE.5L7.B1"             16710.19     0.01869068702558   1.483239697419e-08           -0.5527767   1.483239697419e-08                    0                    0
         "BPMW.5L7.B1"              16733.4     0.02860105895944   1.483239697419e-08            0.2476509   1.483239697419e-08                    0                    0
        "BPMWE.4L7.B1"             16768.48     0.02043788644055   1.483239697419e-08         0.4078039716   1.483239697419e-08                    0                    0
         "BPMW.4L7.B1"             16796.59     0.01858570367995   1.483239697419e-08            0.4227357   1.483239697419e-08                    0                    0
         "BPMW.4R7.B1"             16912.63     0.01026210356756   1.483239697419e-08            0.4404086   1.483239697419e-08                    0                    0
        "BPMWE.4R7.B1"             16940.74     0.01287461775708   1.483239697419e-08            0.4509149   1.483239697419e-08                    0                    0
         "BPMW.5R7.B1"             16975.82     0.01483597170326   1.483239697419e-08            0.4491026   1.483239697419e-08                    0                    0
        "BPMWE.5R7.B1"             16999.03     0.02006493830817   1.483239697419e-08            0.4891914   1.483239697419e-08                    0                    0
         "BPMR.6R7.B1"             17078.24     0.02131330663823   1.483239697419e-08           0.47782294   1.483239697419e-08                    0                    0
        "BPM_A.7R7.B1"             17116.28     0.01778169066558   1.483239697419e-08           0.46861049   1.483239697419e-08                    0                    0
          "BPM.9R7.B1"             17194.41     0.01296943130906   1.483239697419e-08           -0.4999444   1.483239697419e-08                    0                    0
         "BPM.10R7.B1"             17234.88      0.0183585870193   1.483239697419e-08          -0.48922966   1.483239697419e-08                    0                    0
         "BPM.11R7.B1"             17287.66     0.01923622972434   1.483239697419e-08           0.45856236   1.483239697419e-08                    0                    0
         "BPM.12R7.B1"             17342.39     0.01811537073655   1.483239697419e-08            0.4898334   1.483239697419e-08                    0                    0
         "BPM.13R7.B1"             17395.84     0.01516529201334   1.483239697419e-08            0.4750094   1.483239697419e-08                    0                    0
         "BPM.14R7.B1"             17449.29      0.0173656992048   1.483239697419e-08           0.47836145   1.483239697419e-08                    0                    0
         "BPM.15R7.B1"             17502.74     0.01730401402618   1.483239697419e-08          -0.54164242   1.483239697419e-08                    0                    0
         "BPM.16R7.B1"             17556.19     0.01656739860102   1.483239697419e-08           -0.5824191   1.483239697419e-08                    0                    0
         "BPM.17R7.B1"             17609.65     0.01244294240236   1.483239697419e-08           -0.5207951   1.483239697419e-08                    0                    0
         "BPM.18R7.B1"              17663.1     0.01971891755397   1.483239697419e-08          -0.53176455   1.483239697419e-08                    0                    0
         "BPM.19R7.B1"             17716.55     0.01793306794086   1.483239697419e-08           0.49180153   1.483239697419e-08                    0                    0
         "BPM.20R7.B1"                17770      0.0143483028457   1.483239697419e-08            0.4756237   1.483239697419e-08                    0                    0
         "BPM.21R7.B1"             17823.45     0.01533566723499   1.483239697419e-08            0.4774623   1.483239697419e-08                    0                    0
         "BPM.22R7.B1"              17876.9     0.01647493120889   1.483239697419e-08           0.49768099   1.483239697419e-08                    0                    0
         "BPM.24R7.B1"             17983.81     0.01348693006766   1.483239697419e-08           -0.5562351   1.483239697419e-08                    0                    0
         "BPM.25R7.B1"             18037.26    0.007226719457319   1.483239697419e-08           -0.5222796   1.483239697419e-08                    0                    0
         "BPM.26R7.B1"             18090.71     0.01658967685902   1.483239697419e-08          -0.53011684   1.483239697419e-08                    0                    0
         "BPM.28R7.B1"             18197.61     0.01260908160118   1.483239697419e-08            0.5344068   1.483239697419e-08                    0                    0
         "BPM.29R7.B1"             18251.06    0.008652614667725   1.483239697419e-08             0.496789   1.483239697419e-08                    0                    0
         "BPM.30R7.B1"             18304.51     0.01502492062225   1.483239697419e-08           0.49454659   1.483239697419e-08                    0                    0
         "BPM.31R7.B1"             18357.97     0.01689952787843   1.483239697419e-08           -0.5327653   1.483239697419e-08                    0                    0
         "BPM.32R7.B1"             18411.42     0.01354955716912   1.483239697419e-08           -0.4983411   1.483239697419e-08                    0                    0
         "BPM.33R7.B1"             18464.87     0.00945362539393   1.483239697419e-08           -0.4922003   1.483239697419e-08                    0                    0
         "BPM.33L8.B1"             18571.77      0.0153536027852   1.483239697419e-08           0.45022554   1.483239697419e-08                    0                    0
         "BPM.32L8.B1"             18625.22     0.01282834210409   1.483239697419e-08            0.4764267   1.483239697419e-08                    0                    0
         "BPM.31L8.B1"             18678.68    0.002028951136475   1.483239697419e-08            0.4960413   1.483239697419e-08                    0                    0
         "BPM.30L8.B1"             18732.13     0.01425349283284   1.483239697419e-08           0.50929336   1.483239697419e-08                    0                    0
         "BPM.29L8.B1"             18785.58     0.01459983376927   1.483239697419e-08           -0.5149812   1.483239697419e-08                    0                    0
         "BPM.28L8.B1"             18839.03     0.01100486734194   1.483239697419e-08           -0.5679326   1.483239697419e-08                    0                    0
         "BPM.27L8.B1"             18892.48    0.008685422283631   1.483239697419e-08           -0.4803426   1.483239697419e-08                    0                    0
         "BPM.26L8.B1"             18945.93     0.01551018742995   1.483239697419e-08           0.41557477   1.483239697419e-08                    0                    0
         "BPM.25L8.B1"             18999.38     0.01707613438531   1.483239697419e-08           0.46121446   1.483239697419e-08                    0                    0
         "BPM.24L8.B1"             19052.84     0.01180352089345   1.483239697419e-08              0.50866   1.483239697419e-08                    0                    0
         "BPM.23L8.B1"             19106.29     0.01286663083451   1.483239697419e-08            0.5066266   1.483239697419e-08                    0                    0
         "BPM.22L8.B1"             19159.74      0.0224570211415   1.483239697419e-08          0.455447314   1.483239697419e-08                    0                    0
         "BPM.21L8.B1"             19213.19     0.02666170481365   1.483239697419e-08           -0.5449083   1.483239697419e-08                    0                    0
         "BPM.20L8.B1"             19266.64     0.01763720064614   1.483239697419e-08           -0.5371159   1.483239697419e-08                    0                    0
         "BPM.19L8.B1"             19320.09     0.01337425772768   1.483239697419e-08           -0.5232218   1.483239697419e-08                    0                    0
         "BPM.18L8.B1"             19373.54     0.02187025841257   1.483239697419e-08            0.3898121   1.483239697419e-08                    0                    0
         "BPM.17L8.B1"                19427     0.02532600303258   1.483239697419e-08            0.4250415   1.483239697419e-08                    0                    0
         "BPM.16L8.B1"             19480.45     0.01534448435491   1.483239697419e-08            0.4714447   1.483239697419e-08                    0                    0
         "BPM.15L8.B1"              19533.9     0.01576218291449   1.483239697419e-08            0.4884729   1.483239697419e-08                    0                    0
         "BPM.14L8.B1"             19587.35     0.02056662937643   1.483239697419e-08            0.4625624   1.483239697419e-08                    0                    0
         "BPM.13L8.B1"              19640.8     0.02452413537047   1.483239697419e-08           -0.5723039   1.483239697419e-08                    0                    0
         "BPM.12L8.B1"             19694.25      0.0112432587301   1.483239697419e-08           -0.5139145   1.483239697419e-08                    0                    0
         "BPM.11L8.B1"              19747.7     0.01537941378958   1.483239697419e-08           -0.5001197   1.483239697419e-08                    0                    0
         "BPM.10L8.B1"             19799.55     0.02140728759408   1.483239697419e-08          -0.52023327   1.483239697419e-08                    0                    0
          "BPM.9L8.B1"             19838.61     0.01962785609883   1.483239697419e-08           0.44734708   1.483239697419e-08                    0                    0
          "BPM.8L8.B1"             19879.08     0.01578805954582   1.483239697419e-08            0.4501184   1.483239697419e-08                    0                    0
          "BPM.7L8.B1"             19918.15     0.00997781882031   1.483239697419e-08           0.49923993   1.483239697419e-08                    0                    0
         "BPMR.6L8.B1"             19950.61     0.02707452175173   1.483239697419e-08           -0.5921478   1.483239697419e-08                    0                    0
        "BPMYB.4L8.B1"              20031.8     0.01591227854663   1.483239697419e-08           -0.5069995   1.483239697419e-08                    0                    0
        "BPMWB.4L8.B1"             20056.19     0.01125288245368   1.483239697419e-08           -0.5019659   1.483239697419e-08                    0                    0
        "BPMSX.4L8.B1"             20106.42     0.01132221807442   1.483239697419e-08           -0.5041649   1.483239697419e-08                    0                    0
         "BPMS.2L8.B1"             20144.34    0.009901969159389   1.483239697419e-08           -0.5563924   1.483239697419e-08                    0                    0
        "BPMSW.1L8.B1"             20154.27      0.0114677787966   1.483239697419e-08           -0.5986462   1.483239697419e-08                    0                    0
        "BPMSW.1R8.B1"             20197.46     0.01029375443814   1.483239697419e-08            0.4909771   1.483239697419e-08                    0                    0
         "BPMS.2R8.B1"             20207.39     0.01272294676888   1.483239697419e-08            0.5026072   1.483239697419e-08                    0                    0
        "BPMSX.4R8.B1"             20245.31     0.01100598969961   1.483239697419e-08            0.4521228   1.483239697419e-08                    0                    0
        "BPMWB.4R8.B1"             20295.46     0.01232151608304   1.483239697419e-08            0.5293848   1.483239697419e-08                    0                    0
        "BPMYB.4R8.B1"             20319.93    0.008966890463745   1.483239697419e-08            0.5059264   1.483239697419e-08                    0                    0
        "BPMYB.5R8.B1"             20340.51     0.01518694794799   1.483239697419e-08            0.4994284   1.483239697419e-08                    0                    0
          "BPM.6R8.B1"             20424.62     0.02087830363036   1.483239697419e-08           -0.4431374   1.483239697419e-08                    0                    0
        "BPM_A.7R8.B1"             20446.86     0.02232398408147   1.483239697419e-08           -0.4812589   1.483239697419e-08                    0                    0
          "BPM.8R8.B1"             20488.29     0.01394648299696   1.483239697419e-08           -0.4665981   1.483239697419e-08                    0                    0
          "BPM.9R8.B1"             20527.36     0.01095169550704   1.483239697419e-08            0.4581198   1.483239697419e-08                    0                    0
         "BPM.10R8.B1"             20567.82     0.02149524755782   1.483239697419e-08            0.4802958   1.483239697419e-08                    0                    0
         "BPM.11R8.B1"             20619.66     0.01443823773597   1.483239697419e-08            0.5060632   1.483239697419e-08                    0                    0
         "BPM.12R8.B1"             20674.38     0.01081909145169   1.483239697419e-08           0.54265737   1.483239697419e-08                    0                    0
         "BPM.13R8.B1"             20727.83     0.01670463492517   1.483239697419e-08           -0.5426916   1.483239697419e-08                    0                    0
         "BPM.14R8.B1"             20781.28     0.02230980717084   1.483239697419e-08           -0.5091729   1.483239697419e-08                    0                    0
         "BPM.16R8.B1"             20888.18     0.01103796530608   1.483239697419e-08          -0.50501432   1.483239697419e-08                    0                    0
         "BPM.17R8.B1"             20941.63     0.01633385593233   1.483239697419e-08            0.4824431   1.483239697419e-08                    0                    0
         "BPM.18R8.B1"             20995.07     0.01941221715034   1.483239697419e-08             0.477381   1.483239697419e-08                    0                    0
         "BPM.19R8.B1"             21048.52     0.01753437291326   1.483239697419e-08            0.5001774   1.483239697419e-08                    0                    0
         "BPM.20R8.B1"             21101.97     0.01355607956555   1.483239697419e-08           0.55807279   1.483239697419e-08                    0                    0
         "BPM.21R8.B1"             21155.42     0.01324858227368   1.483239697419e-08           -0.4880353   1.483239697419e-08                    0                    0
         "BPM.23R8.B1"             21262.32     0.01634046356315   1.483239697419e-08           -0.5156445   1.483239697419e-08                    0                    0
         "BPM.24R8.B1"             21315.76     0.01082071890822   1.483239697419e-08          0.472276354   1.483239697419e-08                    0                    0
         "BPM.25R8.B1"             21369.21     0.01977545083524   1.483239697419e-08            0.4479462   1.483239697419e-08                    0                    0
         "BPM.26R8.B1"             21422.66     0.02182967471379   1.483239697419e-08            0.4328174   1.483239697419e-08                    0                    0
         "BPM.27R8.B1"             21476.11     0.01639933028893   1.483239697419e-08             0.500509   1.483239697419e-08                    0                    0
         "BPM.28R8.B1"             21529.56     0.01119902122732   1.483239697419e-08            0.4236146   1.483239697419e-08                    0                    0
         "BPM.29R8.B1"             21583.01     0.02336008045658   1.483239697419e-08           -0.5676372   1.483239697419e-08                    0                    0
         "BPM.30R8.B1"             21636.46     0.02446144258926   1.483239697419e-08           -0.5354362   1.483239697419e-08                    0                    0
         "BPM.31R8.B1"              21689.9     0.01481098968265   1.483239697419e-08           -0.5589973   1.483239697419e-08                    0                    0
         "BPM.32R8.B1"             21743.35      0.0117256504568   1.483239697419e-08          0.416798864   1.483239697419e-08                    0                    0
         "BPM.33R8.B1"              21796.8     0.02256647628177   1.483239697419e-08            0.4075854   1.483239697419e-08                    0                    0
         "BPM.34R8.B1"             21850.25     0.02496248067191   1.483239697419e-08            0.4611291   1.483239697419e-08                    0                    0
         "BPM.33L1.B1"              21903.7     0.01742182513356   1.483239697419e-08           0.43725859   1.483239697419e-08                    0                    0
         "BPM.32L1.B1"             21957.15     0.01379568770833   1.483239697419e-08           0.41326411   1.483239697419e-08                    0                    0
         "BPM.31L1.B1"              22010.6     0.02411038679912   1.483239697419e-08            -0.574397   1.483239697419e-08                    0                    0
         "BPM.30L1.B1"             22064.04     0.02608148965252   1.483239697419e-08           -0.5394557   1.483239697419e-08                    0                    0
         "BPM.29L1.B1"             22117.49      0.0198057144611   1.483239697419e-08           -0.5380025   1.483239697419e-08                    0                    0
         "BPM.28L1.B1"             22170.94     0.01748938431352   1.483239697419e-08           0.42249087   1.483239697419e-08                    0                    0
         "BPM.27L1.B1"             22224.39     0.02497911376753   1.483239697419e-08            0.4386967   1.483239697419e-08                    0                    0
         "BPM.26L1.B1"             22277.84     0.02327709539994   1.483239697419e-08            0.4451675   1.483239697419e-08                    0                    0
         "BPM.25L1.B1"             22331.29     0.02015331118899   1.483239697419e-08            0.4645775   1.483239697419e-08                    0                    0
         "BPM.24L1.B1"             22384.74     0.01287983349259   1.483239697419e-08            0.4489958   1.483239697419e-08                    0                    0
         "BPM.23L1.B1"             22438.18     0.01930394529605   1.483239697419e-08           -0.5645381   1.483239697419e-08                    0                    0
         "BPM.22L1.B1"             22491.63     0.02479562766225   1.483239697419e-08           -0.5113842   1.483239697419e-08                    0                    0
         "BPM.21L1.B1"             22545.08     0.01537621322278   1.483239697419e-08           -0.4846316   1.483239697419e-08                    0                    0
         "BPM.20L1.B1"             22598.53    0.007271669071949   1.483239697419e-08           0.46813177   1.483239697419e-08                    0                    0
         "BPM.19L1.B1"             22651.98     0.02042137025333   1.483239697419e-08            0.4267702   1.483239697419e-08                    0                    0
         "BPM.18L1.B1"             22705.43     0.02248863295387   1.483239697419e-08             0.463448   1.483239697419e-08                    0                    0
         "BPM.17L1.B1"             22758.87     0.01741964404004   1.483239697419e-08              0.49606   1.483239697419e-08                    0                    0
         "BPM.16L1.B1"             22812.32    0.009544717688593   1.483239697419e-08           0.51548323   1.483239697419e-08                    0                    0
         "BPM.15L1.B1"             22865.77     0.01778636964998   1.483239697419e-08              -0.5106   1.483239697419e-08                    0                    0
         "BPM.14L1.B1"             22919.22     0.02161274702287   1.483239697419e-08           -0.5264598   1.483239697419e-08                    0                    0
         "BPM.13L1.B1"             22972.67     0.01928381531103   1.483239697419e-08           -0.5111535   1.483239697419e-08                    0                    0
         "BPM.12L1.B1"             23026.12     0.01306235901338   1.483239697419e-08           0.44428125   1.483239697419e-08                    0                    0
         "BPM.11L1.B1"             23079.57     0.01704563986785   1.483239697419e-08            0.4354099   1.483239697419e-08                    0                    0
         "BPM.10L1.B1"             23132.35     0.02056209222373   1.483239697419e-08            0.4509054   1.483239697419e-08                    0                    0
          "BPM.9L1.B1"             23171.41     0.02074886900949   1.483239697419e-08            0.4826088   1.483239697419e-08                    0                    0
          "BPM.8L1.B1"             23211.87     0.01613943891234   1.483239697419e-08          -0.55051397   1.483239697419e-08                    0                    0
         "BPMR.7L1.B1"             23250.94     0.02675049260883   1.483239697419e-08           -0.5926837   1.483239697419e-08                    0                    0
          "BPM.6L1.B1"             23294.12     0.01531947093139   1.483239697419e-08           -0.5352753   1.483239697419e-08                    0                    0
        "BPMYA.4L1.B1"             23347.14     0.01979325127905   1.483239697419e-08           -0.5316368   1.483239697419e-08                    0                    0
        "BPMWB.4L1.B1"             23368.28     0.01879338605389   1.483239697419e-08           -0.5568363   1.483239697419e-08                    0                    0
        "BPMSY.4L1.B1"             23461.06     0.02279517048802   1.483239697419e-08           -0.4961692   1.483239697419e-08                    0                    0
         "BPMS.2L1.B1"             23487.84     0.01963743123478   1.483239697419e-08            -0.518224   1.483239697419e-08                    0                    0
        "BPMSW.1L1.B1"             23497.79     0.01939220053184   1.483239697419e-08           -0.5254123   1.483239697419e-08                    0                    0
        "BPMSW.1R1.B1"             23540.93     0.01992399942156   1.483239697419e-08            0.4543809   1.483239697419e-08                    0                    0
         "BPMS.2R1.B1"              23550.9     0.01916810945955   1.483239697419e-08            0.4114621   1.483239697419e-08                    0                    0
        "BPMSY.4R1.B1"             23577.68     0.02137147322615   1.483239697419e-08            0.3907187   1.483239697419e-08                    0                    0
        "BPMWB.4R1.B1"             23670.46     0.02025385327862   1.483239697419e-08            0.4519064   1.483239697419e-08                    0                    0
        "BPMYA.4R1.B1"              23691.6     0.01971925755111   1.483239697419e-08            0.4616844   1.483239697419e-08                    0                    0
          "BPM.5R1.B1"                23719     0.02148335133348   1.483239697419e-08             0.440337   1.483239697419e-08                    0                    0
         "BPMR.6R1.B1"              23750.9     0.02275079857767   1.483239697419e-08           -0.6153418   1.483239697419e-08                    0                    0
        "BPMSX.7R1.B1"             23757.12     0.01495734065409   1.483239697419e-08           -0.5764058   1.483239697419e-08                    0                    0
        "BPM_A.7R1.B1"             23778.63     0.01946269472144   1.483239697419e-08           -0.5718982   1.483239697419e-08                    0                    0
          "BPM.8R1.B1"             23820.07     0.01022740096386   1.483239697419e-08           -0.5260892   1.483239697419e-08                    0                    0
          "BPM.9R1.B1"             23859.13      0.0140867580564   1.483239697419e-08           0.45773328   1.483239697419e-08                    0                    0
         "BPM.10R1.B1"              23899.6      0.0188954893383   1.483239697419e-08            0.4256679   1.483239697419e-08                    0                    0
         "BPM.11R1.B1"             23952.38     0.02003765907727   1.483239697419e-08            0.4461848   1.483239697419e-08                    0                    0
         "BPM.12R1.B1"             24007.11     0.01330409279729   1.483239697419e-08            0.4843389   1.483239697419e-08                    0                    0
         "BPM.13R1.B1"             24060.56     0.01253498118632   1.483239697419e-08          0.476974748   1.483239697419e-08                    0                    0
         "BPM.14R1.B1"             24114.01     0.01927109866865   1.483239697419e-08           -0.5543594   1.483239697419e-08                    0                    0
         "BPM.15R1.B1"             24167.46     0.01874023509926   1.483239697419e-08           -0.5377408   1.483239697419e-08                    0                    0
         "BPM.16R1.B1"             24220.91     0.01201910483494   1.483239697419e-08           -0.5105451   1.483239697419e-08                    0                    0
         "BPM.17R1.B1"             24274.37     0.01142588327632   1.483239697419e-08          -0.49334374   1.483239697419e-08                    0                    0
         "BPM.18R1.B1"             24327.82     0.01537935236507   1.483239697419e-08            0.4560758   1.483239697419e-08                    0                    0
         "BPM.19R1.B1"             24381.27     0.01751852855684   1.483239697419e-08            0.4280991   1.483239697419e-08                    0                    0
         "BPM.20R1.B1"             24434.72     0.01294959616103   1.483239697419e-08            0.4445656   1.483239697419e-08                    0                    0
         "BPM.21R1.B1"             24488.17     0.01377504939478   1.483239697419e-08           0.50145917   1.483239697419e-08                    0                    0
         "BPM.22R1.B1"             24541.62     0.01569776241724   1.483239697419e-08           -0.5180786   1.483239697419e-08                    0                    0
         "BPM.23R1.B1"             24595.08     0.01623119260917   1.483239697419e-08           -0.5606339   1.483239697419e-08                    0                    0
         "BPM.24R1.B1"             24648.53    0.008376485200846   1.483239697419e-08           -0.5265523   1.483239697419e-08                    0                    0
         "BPM.25R1.B1"             24701.98     0.01170124527031   1.483239697419e-08           0.46738418   1.483239697419e-08                    0                    0
         "BPM.26R1.B1"             24755.43     0.01409674562604   1.483239697419e-08            0.4313633   1.483239697419e-08                    0                    0
         "BPM.27R1.B1"             24808.88     0.01600692380076   1.483239697419e-08            0.4213649   1.483239697419e-08                    0                    0
         "BPM.28R1.B1"             24862.33    0.004386951008996   1.483239697419e-08            0.4412894   1.483239697419e-08                    0                    0
         "BPM.29R1.B1"             24915.78    0.009864130799427   1.483239697419e-08           0.51957117   1.483239697419e-08                    0                    0
         "BPM.30R1.B1"             24969.24     0.01697102261439   1.483239697419e-08           -0.6131787   1.483239697419e-08                    0                    0
         "BPM.31R1.B1"             25022.69     0.01454184247781   1.483239697419e-08           -0.5861515   1.483239697419e-08                    0                    0
         "BPM.32R1.B1"             25076.14    0.002316077083382   1.483239697419e-08           -0.6188668   1.483239697419e-08                    0                    0
         "BPM.33R1.B1"             25129.59     0.01364314424571   1.483239697419e-08           0.43923916   1.483239697419e-08                    0                    0
         "BPM.34R1.B1"             25183.04     0.01341467330128   1.483239697419e-08            0.4524743   1.483239697419e-08                    0                    0
         "BPM.33L2.B1"             25236.49     0.01402431112285   1.483239697419e-08            0.4021904   1.483239697419e-08                    0                    0
         "BPM.32L2.B1"             25289.94     0.00739435385665   1.483239697419e-08            0.4418377   1.483239697419e-08                    0                    0
         "BPM.31L2.B1"              25343.4    0.009901341869211   1.483239697419e-08           0.46405531   1.483239697419e-08                    0                    0
         "BPM.30L2.B1"             25396.85     0.01196416100587   1.483239697419e-08           -0.5175496   1.483239697419e-08                    0                    0
         "BPM.29L2.B1"              25450.3     0.01188164112964   1.483239697419e-08           -0.6241111   1.483239697419e-08                    0                    0
         "BPM.28L2.B1"             25503.75    0.007602341964282   1.483239697419e-08           -0.6312737   1.483239697419e-08                    0                    0
         "BPM.27L2.B1"              25557.2     0.01319841347855   1.483239697419e-08            0.4282075   1.483239697419e-08                    0                    0
         "BPM.26L2.B1"             25610.65     0.01372665821438   1.483239697419e-08            0.4475664   1.483239697419e-08                    0                    0
         "BPM.25L2.B1"              25664.1     0.01620260366095   1.483239697419e-08            0.4075218   1.483239697419e-08                    0                    0
         "BPM.24L2.B1"             25717.56    0.008684078636271   1.483239697419e-08           0.41506889   1.483239697419e-08                    0                    0
         "BPM.23L2.B1"             25771.01     0.01450268186172   1.483239697419e-08          0.490801625   1.483239697419e-08                    0                    0
         "BPM.22L2.B1"             25824.46     0.02119905613782   1.483239697419e-08           -0.5867474   1.483239697419e-08                    0                    0
         "BPM.21L2.B1"             25877.91     0.02091066112007   1.483239697419e-08           -0.5622141   1.483239697419e-08                    0                    0
         "BPM.20L2.B1"             25931.36    0.009942722227426   1.483239697419e-08           -0.5553146   1.483239697419e-08                    0                    0
         "BPM.19L2.B1"             25984.81     0.01451529193784   1.483239697419e-08          0.459560865   1.483239697419e-08                    0                    0
         "BPM.18L2.B1"             26038.27     0.02027034304026   1.483239697419e-08            0.4035064   1.483239697419e-08                    0                    0
         "BPM.16L2.B1"             26145.17     0.01323680929041   1.483239697419e-08            0.4625649   1.483239697419e-08                    0                    0
         "BPM.15L2.B1"             26198.62     0.01464556231218   1.483239697419e-08           0.44294564   1.483239697419e-08                    0                    0
         "BPM.14L2.B1"             26252.07     0.01956663131541   1.483239697419e-08           -0.5649603   1.483239697419e-08                    0                    0
         "BPM.13L2.B1"             26305.52     0.01958043786639   1.483239697419e-08           -0.5658367   1.483239697419e-08                    0                    0
         "BPM.12L2.B1"             26358.97     0.01230062226509   1.483239697419e-08           -0.5613639   1.483239697419e-08                    0                    0
         "BPM.11L2.B1"             26412.43     0.01394211970035   1.483239697419e-08           0.43874518   1.483239697419e-08                    0                    0
         "BPM.10L2.B1"             26464.27     0.01552308165615   1.483239697419e-08            0.4185036   1.483239697419e-08                    0                    0
          "BPM.9L2.B1"             26503.33     0.01760199273065   1.483239697419e-08            0.4236046   1.483239697419e-08                    0                    0
          "BPM.8L2.B1"              26543.8     0.01388046273498   1.483239697419e-08           0.43239002   1.483239697419e-08                    0                    0