@ GetLLMVersion %s "V3.0.0 Dev"
@ Command %s "/afs/cern.ch/work/o/omc/anaconda/bin/python '/afs/cern.ch/eng/sl/lintrack/Beta-Beat.src/GetLLM/GetLLM.py' '--accel=LHCB1' '--model=/afs/cern.ch/user/t/thpugnat/public/Outputs/2018-09-04/models/LHCB1/b1_squeeze_collQ/twiss.dat' '--files=/afs/cern.ch/user/t/thpugnat/public/Outputs/2018-09-04/LHCB1/Measurements/Beam1@Turn@2018_06_16@17_42_26_736/Beam1@Turn@2018_06_16@17_42_26_736.sdds.clean' '--output=/afs/cern.ch/user/t/thpugnat/public/Outputs/2018-09-04/LHCB1/Results/15-50-13_NORMALANALYSIS_SUSSIX_27' '--tbtana=SUSSIX' '--bpmu=mm' '--lhcphase=1' '--errordefs=/afs/cern.ch/user/t/thpugnat/public/Outputs/2018-09-04/models/LHCB1/b1_squeeze_collQ/error_deff.txt' '--calibration=/afs/cern.ch/eng/sl/lintrack/LHC_commissioning2017/Calibration_factors_2017/Calibration_factors_2017_beam1'"
@ CWD %s "/afs/cern.ch/user/t/thpugnat"
@ Date %s "04. September 2018, 15:50:22"
@ PLANE %s "X"
@ FILES %s "/afs/cern.ch/user/t/thpugnat/public/Outputs/2018-09-04/LHCB1/Measurements/Beam1@Turn@2018_06_16@17_42_26_736/Beam1@Turn@2018_06_16@17_42_26_736.sdds.clean"
*                   IP             BETASTAR            EBETASTAR             PHASEADV            EPHASEADV             MDLPHADV                LSTAR
$                   %s                  %le                  %le                  %le                  %le                  %le                  %le
                   IP1      0.3054615802978                    0       0.495492898372                    0           0.49557355              21.5715
                   IP2      -11.53188281321                    0      0.6561251804348                    0         0.3619562409               21.595
                   IP8       2.955961840203                    0      0.4566982835642                    0           0.45606324               21.595