@ GetLLMVersion %s "V3.0.0 Dev"
@ Command %s "/afs/cern.ch/work/o/omc/anaconda/bin/python '/afs/cern.ch/eng/sl/lintrack/Beta-Beat.src/GetLLM/GetLLM.py' '--accel=LHCB1' '--model=/afs/cern.ch/user/t/thpugnat/public/Outputs/2018-09-04/models/LHCB1/b1_squeeze_collQ/twiss.dat' '--files=/afs/cern.ch/user/t/thpugnat/public/Outputs/2018-09-04/LHCB1/Measurements/Beam1@Turn@2018_06_16@17_42_26_736/Beam1@Turn@2018_06_16@17_42_26_736.sdds.clean' '--output=/afs/cern.ch/user/t/thpugnat/public/Outputs/2018-09-04/LHCB1/Results/15-50-13_NORMALANALYSIS_SUSSIX_27' '--tbtana=SUSSIX' '--bpmu=mm' '--lhcphase=1' '--errordefs=/afs/cern.ch/user/t/thpugnat/public/Outputs/2018-09-04/models/LHCB1/b1_squeeze_collQ/error_deff.txt' '--calibration=/afs/cern.ch/eng/sl/lintrack/LHC_commissioning2017/Calibration_factors_2017/Calibration_factors_2017_beam1'"
@ CWD %s "/afs/cern.ch/user/t/thpugnat"
@ Date %s "04. September 2018, 15:50:22"
@ Q1 %le 0.3024322414872799
@ MUX %le 0.0
@ Q2 %le 0.32982104151696606
@ MUY %le 0.0
@ FILES %s "/afs/cern.ch/user/t/thpugnat/public/Outputs/2018-09-04/LHCB1/Measurements/Beam1@Turn@2018_06_16@17_42_26_736/Beam1@Turn@2018_06_16@17_42_26_736.sdds.clean_linx"
*                 NAME                NAME2                    S                   S1                COUNT               PHASEX               STDPHX               PHXMDL               MUXMDL
$                   %s                   %s                  %le                  %le                  %le                  %le                  %le                  %le                  %le
        "BPMYB.5L2.B1"       "BPMYB.5L2.B1"               28.288               28.288                    1                    0                    0                    0        0.02944669578
        "BPMYB.4L2.B1"       "BPMYB.5L2.B1"               48.858               28.288                    1            0.0287876                    0         0.0268598601        0.05630655588
        "BPMWI.4L2.B1"       "BPMYB.5L2.B1"              73.3255               28.288                    1             0.080605                    0        0.07926788382         0.1087145796
        "BPMSX.4L2.B1"       "BPMYB.5L2.B1"             123.4825               28.288                    1            0.1567796                    0        0.15175803282         0.1812047286
         "BPMS.2L2.B1"       "BPMYB.5L2.B1"              161.394               28.288                    1            0.2118282                    0        0.20466470622          0.234111402
        "BPMSW.1L2.B1"       "BPMYB.5L2.B1"              171.328               28.288                    1            0.2373195                    0        0.22890353362         0.2583502294
        "BPMSW.1R2.B1"       "BPMYB.5L2.B1"              214.518               28.288                    1      0.8930633414873                    0        0.58430576192         0.6137524577
         "BPMS.2R2.B1"       "BPMYB.5L2.B1"              224.452               28.288                    1      0.9104995414873                    0        0.60304253272         0.6324892285
        "BPMSX.4R2.B1"       "BPMYB.5L2.B1"             262.3635               28.288                    1      0.9587799414873                    0        0.64886902602         0.6783157218
        "BPMWB.4R2.B1"       "BPMYB.5L2.B1"             312.5965               28.288                    1     0.04390734148728                    0        0.73393898472         0.7633856805
        "BPMYB.4R2.B1"       "BPMYB.5L2.B1"              336.988               28.288                    1     0.07842414148728                    0        0.76926468332         0.7987113791
         "BPMR.5R2.B1"       "BPMYB.5L2.B1"              366.522               28.288                    1      0.1732893414873                    0        0.86586887772         0.8953155735
          "BPM.6R2.B1"       "BPMYB.5L2.B1"              439.818               28.288                    1      0.3238453414873                    0        0.01805708422           1.04750378
        "BPM_A.7R2.B1"       "BPMYB.5L2.B1"              452.693               28.288                    1      0.3403955414873                    0        0.03518433822          1.064631034
          "BPM.8R2.B1"       "BPMYB.5L2.B1"               494.13               28.288                    1      0.4281102414873                    0        0.12099609822          1.150442794
          "BPM.9R2.B1"       "BPMYB.5L2.B1"              533.195               28.288                    1      0.5833101414873                    0        0.27652047522          1.305967171
         "BPM.10R2.B1"       "BPMYB.5L2.B1"              573.658               28.288                    1      0.7448454374873                    0        0.44021630922          1.469663005
         "BPM.11R2.B1"       "BPMYB.5L2.B1"             625.4967               28.288                    1      0.8514042414873                    0        0.54783023222          1.577276928
         "BPM.12R2.B1"       "BPMYB.5L2.B1"             680.2203               28.288                    1      0.9942320414873                    0        0.69093137422           1.72037807
         "BPM.13R2.B1"       "BPMYB.5L2.B1"             733.6688               28.288                    1      0.1091611414873                    0        0.80605955222          1.835506248
         "BPM.14R2.B1"       "BPMYB.5L2.B1"             787.1173               28.288                    1      0.2417383414873                    0        0.93764899522          1.967095691
         "BPM.15R2.B1"       "BPMYB.5L2.B1"             840.5658               28.288                    1      0.3524659414873                    0        0.04811548622          2.077562182
         "BPM.16R2.B1"       "BPMYB.5L2.B1"             894.0143               28.288                    1      0.4945616414873                    0        0.18884881022          2.218295506
         "BPM.17R2.B1"       "BPMYB.5L2.B1"             947.4628               28.288                    1      0.6131206414873                    0        0.30636277022          2.335809466
         "BPM.18R2.B1"       "BPMYB.5L2.B1"             1000.911               28.288                    1      0.7449669630873                    0        0.43794003522          2.467386731
         "BPM.19R2.B1"       "BPMYB.5L2.B1"              1054.36               28.288                    1      0.8561501414873                    0        0.54842107722          2.577867773
         "BPM.20R2.B1"       "BPMYB.5L2.B1"             1107.808               28.288                    1      0.9977020414873                    0        0.68917074322          2.718617439
         "BPM.21R2.B1"       "BPMYB.5L2.B1"             1161.257               28.288                    1      0.1154184414873                    0        0.80666856922          2.836115265
         "BPM.22R2.B1"       "BPMYB.5L2.B1"             1214.705               28.288                    1      0.2451849414873                    0        0.93823108222          2.967677778
         "BPM.23R2.B1"       "BPMYB.5L2.B1"             1268.154               28.288                    1      0.3576496414873                    0        0.05167837622          3.081125072
         "BPM.24R2.B1"       "BPMYB.5L2.B1"             1321.602               28.288                    1      0.5020865414873                    0        0.19572927122          3.225175967
         "BPM.25R2.B1"       "BPMYB.5L2.B1"             1375.051               28.288                    1      0.6194727414873                    0        0.31210801022          3.341554706
         "BPM.26R2.B1"       "BPMYB.5L2.B1"             1428.499               28.288                    1      0.7507293394873                    0        0.44355923522          3.473005931
         "BPM.27R2.B1"       "BPMYB.5L2.B1"             1481.948               28.288                    1      0.8638026414873                    0        0.55738233622          3.586829032
         "BPM.28R2.B1"       "BPMYB.5L2.B1"             1535.397               28.288                    1     0.00598044148728                    0        0.70154316322          3.730989859
         "BPM.29R2.B1"       "BPMYB.5L2.B1"             1588.845               28.288                    1      0.1216225414873                    0        0.81752900422            3.8469757
         "BPM.30R2.B1"       "BPMYB.5L2.B1"             1642.294               28.288                    1      0.2553112414873                    0        0.94889879622          3.978345492
         "BPM.31R2.B1"       "BPMYB.5L2.B1"             1695.742               28.288                    1      0.3678224414873                    0        0.06310547422           4.09255217
         "BPM.32R2.B1"       "BPMYB.5L2.B1"             1749.191               28.288                    1      0.5115096414873                    0        0.20734290422            4.2367896
         "BPM.33R2.B1"       "BPMYB.5L2.B1"             1802.639               28.288                    1      0.6276142414873                    0        0.32293313622          4.352379832
         "BPM.34R2.B1"       "BPMYB.5L2.B1"             1856.088               28.288                    1      0.7598492414873                    0        0.45425087222          4.483697568
         "BPM.33L3.B1"       "BPMYB.5L2.B1"             1909.536               28.288                    1      0.8734499414873                    0        0.56884710922          4.598293805
         "BPM.32L3.B1"       "BPMYB.5L2.B1"             1962.985               28.288                    1     0.01677304148728                    0        0.71312736222          4.742574058
         "BPM.31L3.B1"       "BPMYB.5L2.B1"             2016.433               28.288                    1      0.1327710414873                    0        0.82832126522          4.857767961
         "BPM.30L3.B1"       "BPMYB.5L2.B1"             2069.882               28.288                    1      0.2652559414873                    0        0.95961652322          4.989063219
         "BPM.29L3.B1"       "BPMYB.5L2.B1"              2123.33               28.288                    1      0.3787666414873                    0        0.07460645522          5.104053151
         "BPM.28L3.B1"       "BPMYB.5L2.B1"             2176.779               28.288                    1      0.5205884414873                    0        0.21889549822          5.248342194
         "BPM.27L3.B1"       "BPMYB.5L2.B1"             2230.227               28.288                    1      0.6354462414873                    0        0.33369431222          5.363141008
         "BPM.26L3.B1"       "BPMYB.5L2.B1"             2283.676               28.288                    1      0.7677489114873                    0        0.46499675722          5.494443453
         "BPM.25L3.B1"       "BPMYB.5L2.B1"             2337.124               28.288                    1      0.8815337414873                    0        0.58038262122          5.609829317
         "BPM.24L3.B1"       "BPMYB.5L2.B1"             2390.573               28.288                    1     0.02347574148728                    0        0.72464636922          5.754093065
         "BPM.23L3.B1"       "BPMYB.5L2.B1"             2444.021               28.288                    1      0.1379756414873                    0        0.83905325722          5.868499953
         "BPM.22L3.B1"       "BPMYB.5L2.B1"              2497.47               28.288                    1      0.2709853414873                    0        0.97039252722          5.999839223
         "BPM.21L3.B1"       "BPMYB.5L2.B1"             2550.918               28.288                    1      0.3844376414873                    0        0.08617461922          6.115621315
         "BPM.20L3.B1"       "BPMYB.5L2.B1"             2604.367               28.288                    1      0.5288400414873                    0        0.23124586622          6.260692562
         "BPM.19L3.B1"       "BPMYB.5L2.B1"             2657.815               28.288                    1      0.6426053414873                    0        0.34307434722          6.372521043
         "BPM.18L3.B1"       "BPMYB.5L2.B1"             2711.264               28.288                    1      0.7716846114873                    0        0.47068806222          6.500134758
         "BPM.17L3.B1"       "BPMYB.5L2.B1"             2764.712               28.288                    1      0.8862305414873                    0        0.58650002222          6.615946718
         "BPM.16L3.B1"       "BPMYB.5L2.B1"             2818.161               28.288                    1     0.03079474148728                    0        0.73156158322          6.761008279
         "BPM.15L3.B1"       "BPMYB.5L2.B1"             2871.609               28.288                    1      0.1445532414873                    0        0.84336176322          6.872808459
         "BPM.14L3.B1"       "BPMYB.5L2.B1"             2925.058               28.288                    1      0.2744436414873                    0        0.97098354322          7.000430239
         "BPM.13L3.B1"       "BPMYB.5L2.B1"             2978.506               28.288                    1      0.3894841414873                    0        0.08682548122          7.116272177
         "BPM.12L3.B1"       "BPMYB.5L2.B1"             3031.955               28.288                    1      0.5304179414873                    0        0.23041445622          7.259861152
         "BPM.11L3.B1"       "BPMYB.5L2.B1"             3085.403               28.288                    1      0.6576854714873                    0        0.35528574522          7.384732441
         "BPM.10L3.B1"       "BPMYB.5L2.B1"             3138.184               28.288                    1      0.8019736314873                    0        0.49812628922          7.527572985
          "BPM.8L3.B1"       "BPMYB.5L2.B1"             3217.712               28.288                    1      0.9410343414873                    0        0.63958690922          7.669033605
          "BPM.7L3.B1"       "BPMYB.5L2.B1"             3256.776               28.288                    1     0.00174794148728                    0        0.70154834622          7.730995042
          "BPM.6L3.B1"       "BPMYB.5L2.B1"             3329.415               28.288                    1      0.1162168414873                    0        0.81465423822          7.844100934
       "BPMWG.A5L3.B1"       "BPMYB.5L2.B1"              3371.12               28.288                    1      0.1723338414873                    0        0.86946295922          7.898909655
         "BPMW.5L3.B1"       "BPMYB.5L2.B1"              3400.09               28.288                    1      0.2503339414873                    0        0.94871317922          7.978159875
        "BPMWE.4L3.B1"       "BPMYB.5L2.B1"             3475.218               28.288                    1      0.3518787414873                    0        0.05087839622          8.080325092
         "BPMW.4L3.B1"       "BPMYB.5L2.B1"             3502.763               28.288                    1      0.3663774414873                    0        0.06648086222          8.095927558
         "BPMW.4R3.B1"       "BPMYB.5L2.B1"             3547.728               28.288                    1      0.4390259414873                    0        0.13986383222          8.169310528
        "BPMWE.4R3.B1"       "BPMYB.5L2.B1"             3575.273               28.288                    1      0.5910105414873                    0        0.29193218622          8.321378882
         "BPMW.5R3.B1"       "BPMYB.5L2.B1"             3650.401               28.288                    1      0.7179322814873                    0        0.41618562522          8.445632321
       "BPMWJ.A5R3.B1"       "BPMYB.5L2.B1"             3679.119               28.288                    1      0.7301555514873                    0        0.42819191022          8.457638606
        "BPMWC.6R3.B1"       "BPMYB.5L2.B1"             3718.937               28.288                    1      0.7744073514873                    0        0.47227461622          8.501721312
         "BPMR.6R3.B1"       "BPMYB.5L2.B1"             3731.015               28.288                    1      0.8109408814873                    0        0.51169825922          8.541144955
          "BPM.8R3.B1"       "BPMYB.5L2.B1"             3825.903               28.288                    1      0.1172242414873                    0        0.81897536422           8.84842206
          "BPM.9R3.B1"       "BPMYB.5L2.B1"             3864.968               28.288                    1      0.2189128414873                    0        0.91831128022          8.947757976
         "BPM.10R3.B1"       "BPMYB.5L2.B1"             3905.431               28.288                    1      0.2910164414873                    0        0.99028644122          9.019733137
         "BPM.11R3.B1"       "BPMYB.5L2.B1"             3958.212               28.288                    1      0.3850660414873                    0        0.08444774422           9.11389444
         "BPM.12R3.B1"       "BPMYB.5L2.B1"             4012.935               28.288                    1      0.4888138414873                    0        0.19036728422           9.21981398
         "BPM.13R3.B1"       "BPMYB.5L2.B1"             4066.384               28.288                    1      0.6066272414873                    0        0.30876856722          9.338215263
         "BPM.14R3.B1"       "BPMYB.5L2.B1"             4119.833               28.288                    1      0.7178158314873                    0        0.41876262922          9.448209325
         "BPM.15R3.B1"       "BPMYB.5L2.B1"             4173.281               28.288                    1      0.8518642414873                    0        0.55473483622          9.584181532
         "BPM.17R3.B1"       "BPMYB.5L2.B1"             4280.178               28.288                    1      0.1088058414873                    0        0.80906524822          9.838511944
         "BPM.18R3.B1"       "BPMYB.5L2.B1"             4333.627               28.288                    1      0.2188566414873                    0        0.91905960122          9.948506297
         "BPM.19R3.B1"       "BPMYB.5L2.B1"             4387.075               28.288                    1      0.3538573414873                    0        0.05504978422          10.08449648
         "BPM.20R3.B1"       "BPMYB.5L2.B1"             4440.524               28.288                    1      0.4726718414873                    0        0.17318791422          10.20263461
         "BPM.21R3.B1"       "BPMYB.5L2.B1"             4493.972               28.288                    1      0.6108820414873                    0        0.30936254422          10.33880924
         "BPM.22R3.B1"       "BPMYB.5L2.B1"             4547.421               28.288                    1      0.7220468114873                    0        0.41935660422           10.4488033
         "BPM.23R3.B1"       "BPMYB.5L2.B1"             4600.869               28.288                    1      0.8583093414873                    0        0.55450056422          10.58394726
         "BPM.24R3.B1"       "BPMYB.5L2.B1"             4654.318               28.288                    1      0.9764872414873                    0        0.67495639422          10.70440309
         "BPM.25R3.B1"       "BPMYB.5L2.B1"             4707.766               28.288                    1      0.1146583414873                    0        0.81479225422          10.84423895
         "BPM.26R3.B1"       "BPMYB.5L2.B1"             4761.215               28.288                    1      0.2273264414873                    0        0.92465381422          10.95410051
         "BPM.27R3.B1"       "BPMYB.5L2.B1"             4814.663               28.288                    1      0.3639134414873                    0        0.06021407422          11.08966077
         "BPM.28R3.B1"       "BPMYB.5L2.B1"             4868.112               28.288                    1      0.4822260414873                    0        0.18081010422           11.2102568
         "BPM.29R3.B1"       "BPMYB.5L2.B1"              4921.56               28.288                    1      0.6204060414873                    0        0.32020483422          11.34965153
         "BPM.30R3.B1"       "BPMYB.5L2.B1"             4975.009               28.288                    1      0.7323124614873                    0        0.42995819422          11.45940489
         "BPM.31R3.B1"       "BPMYB.5L2.B1"             5028.457               28.288                    1      0.8676728414873                    0        0.56594642422          11.59539312
         "BPM.32R3.B1"       "BPMYB.5L2.B1"             5081.906               28.288                    1      0.9863703414873                    0        0.68665435422          11.71610105
         "BPM.33R3.B1"       "BPMYB.5L2.B1"             5135.354               28.288                    1      0.1251679414873                    0        0.82560097422          11.85504767
         "BPM.34R3.B1"       "BPMYB.5L2.B1"             5188.803               28.288                    1      0.2363112414873                    0        0.93527097422          11.96471767
         "BPM.33L4.B1"       "BPMYB.5L2.B1"             5242.251               28.288                    1      0.3712441414873                    0        0.07169689422          12.10114359
         "BPM.32L4.B1"       "BPMYB.5L2.B1"               5295.7               28.288                    1      0.4910311414873                    0        0.19248772422          12.22193442
         "BPM.31L4.B1"       "BPMYB.5L2.B1"             5349.148               28.288                    1      0.6312450414873                    0        0.33098156422          12.36042826
         "BPM.30L4.B1"       "BPMYB.5L2.B1"             5402.597               28.288                    1      0.7398844374873                    0        0.44059335422          12.47004005
         "BPM.29L4.B1"       "BPMYB.5L2.B1"             5456.045               28.288                    1      0.8772927414873                    0        0.57746463422          12.60691133
         "BPM.28L4.B1"       "BPMYB.5L2.B1"             5509.494               28.288                    1      0.9973829414873                    0        0.69830888422          12.72775558
         "BPM.27L4.B1"       "BPMYB.5L2.B1"             5562.942               28.288                    1      0.1364730414873                    0        0.83634755422          12.86579425
         "BPM.26L4.B1"       "BPMYB.5L2.B1"             5616.391               28.288                    1      0.2454370414873                    0        0.94592651422          12.97537321
         "BPM.25L4.B1"       "BPMYB.5L2.B1"             5669.839               28.288                    1      0.3807672414873                    0        0.08324871422          13.11269541
         "BPM.24L4.B1"       "BPMYB.5L2.B1"             5723.288               28.288                    1      0.5019523414873                    0        0.20411656422          13.23356326
         "BPM.22L4.B1"       "BPMYB.5L2.B1"             5830.185               28.288                    1      0.7517947574873                    0        0.45127156422          13.48071826
         "BPM.21L4.B1"       "BPMYB.5L2.B1"             5883.634               28.288                    1      0.8862029414873                    0        0.58904809422          13.61849479
         "BPM.19L4.B1"       "BPMYB.5L2.B1"             5990.531               28.288                    1      0.1445843414873                    0        0.84132438422          13.87077108
         "BPM.18L4.B1"       "BPMYB.5L2.B1"             6043.979               28.288                    1      0.2537285414873                    0        0.95157116422          13.98101786
         "BPM.17L4.B1"       "BPMYB.5L2.B1"             6097.428               28.288                    1      0.3881556414873                    0        0.08936561422          14.11881231
         "BPM.16L4.B1"       "BPMYB.5L2.B1"             6150.876               28.288                    1      0.5083084414873                    0        0.20721742422          14.23666412
         "BPM.15L4.B1"       "BPMYB.5L2.B1"             6204.325               28.288                    1      0.6462855914873                    0        0.34161942422          14.37106612
         "BPM.14L4.B1"       "BPMYB.5L2.B1"             6257.773               28.288                    1      0.7551809614873                    0        0.45187158422          14.48131828
         "BPM.13L4.B1"       "BPMYB.5L2.B1"             6311.222               28.288                    1      0.8908933414873                    0        0.58968314422          14.61912984
         "BPM.12L4.B1"       "BPMYB.5L2.B1"              6364.67               28.288                    1     0.01033564148728                    0        0.70852043422          14.73796713
         "BPM.11L4.B1"       "BPMYB.5L2.B1"             6418.119               28.288                    1      0.1474205414873                    0        0.84505271422          14.87449941
         "BPM.10L4.B1"       "BPMYB.5L2.B1"             6469.957               28.288                    1      0.2589863414873                    0        0.95664706422          14.98609376
          "BPM.9L4.B1"       "BPMYB.5L2.B1"             6509.022               28.288                    1      0.3843589414873                    0        0.08418081422          15.11362751
          "BPM.8L4.B1"       "BPMYB.5L2.B1"             6549.485               28.288                    1      0.5135056414873                    0        0.21857194422          15.24801864
          "BPM.7L4.B1"       "BPMYB.5L2.B1"             6588.549               28.288                    1      0.6785321114873                    0        0.38856680422           15.4180135
        "BPMYB.6L4.B1"       "BPMYB.5L2.B1"             6685.153               28.288                    1      0.8268975114873                    0        0.52731584422          15.55676254
        "BPMYA.5L4.B1"       "BPMYB.5L2.B1"             6722.153               28.288                    1      0.8537357414873                    0        0.55338669422          15.58283339
       "BPMWI.A5L4.B1"       "BPMYB.5L2.B1"             6798.756               28.288                    1      0.8858540414873                    0        0.58545143422          15.61489813
       "BPMWA.B5L4.B1"       "BPMYB.5L2.B1"              6824.62               28.288                    1      0.9006064414873                    0        0.59921357422          15.62866027
       "BPMWA.A5L4.B1"       "BPMYB.5L2.B1"             6833.505               28.288                    1      0.9055141414873                    0        0.60432417422          15.63377087
       "BPMWA.A5R4.B1"       "BPMYB.5L2.B1"             6881.554               28.288                    1      0.9378793414873                    0        0.63533813422          15.66478483
       "BPMWA.B5R4.B1"       "BPMYB.5L2.B1"             6890.439               28.288                    1      0.9442569414873                    0        0.64165381422          15.67110051
        "BPMYB.5R4.B1"       "BPMYB.5L2.B1"             6992.829               28.288                    1     0.02325374148728                    0        0.72013844422          15.74958514
        "BPMYA.6R4.B1"       "BPMYB.5L2.B1"             7024.393               28.288                    1     0.03709664148728                    0        0.73436385422          15.76381055
          "BPM.7R4.B1"       "BPMYB.5L2.B1"             7120.909               28.288                    1      0.1626295414873                    0        0.86288863422          15.89233533
          "BPM.8R4.B1"       "BPMYB.5L2.B1"             7158.698               28.288                    1      0.3151279414873                    0        0.01474416422          16.04419086
          "BPM.9R4.B1"       "BPMYB.5L2.B1"             7197.763               28.288                    1      0.4945644414873                    0        0.19293880422           16.2223855
         "BPM.11R4.B1"       "BPMYB.5L2.B1"             7290.065               28.288                    1      0.7191184114873                    0        0.42061153422          16.45005823
         "BPM.12R4.B1"       "BPMYB.5L2.B1"             7344.789               28.288                    1      0.8813496414873                    0        0.58145517422          16.61090187
         "BPM.13R4.B1"       "BPMYB.5L2.B1"             7398.237               28.288                    1     0.01520634148728                    0        0.71560881422          16.74505551
         "BPM.14R4.B1"       "BPMYB.5L2.B1"             7451.686               28.288                    1      0.1279822414873                    0        0.83111110422           16.8605578
         "BPM.15R4.B1"       "BPMYB.5L2.B1"             7505.134               28.288                    1      0.2208298414873                    0        0.92321803422          16.95266473
         "BPM.16R4.B1"       "BPMYB.5L2.B1"             7558.583               28.288                    1      0.3821656414873                    0        0.07852955422          17.10797625
         "BPM.17R4.B1"       "BPMYB.5L2.B1"             7612.031               28.288                    1      0.5185545414873                    0        0.21556952422          17.24501622
         "BPM.18R4.B1"       "BPMYB.5L2.B1"              7665.48               28.288                    1      0.6312151414873                    0        0.33108369422          17.36053039
         "BPM.19R4.B1"       "BPMYB.5L2.B1"             7718.928               28.288                    1      0.7244313014873                    0        0.42318504422          17.45263174
         "BPM.20R4.B1"       "BPMYB.5L2.B1"             7772.377               28.288                    1      0.8871875414873                    0        0.57848212422          17.60792882
         "BPM.21R4.B1"       "BPMYB.5L2.B1"             7825.825               28.288                    1     0.02124164148728                    0        0.71553284422          17.74497954
         "BPM.22R4.B1"       "BPMYB.5L2.B1"             7879.274               28.288                    1      0.1335690414873                    0        0.83105629422          17.86050299
         "BPM.23R4.B1"       "BPMYB.5L2.B1"             7932.722               28.288                    1      0.2259781414873                    0        0.92315205422          17.95259875
         "BPM.24R4.B1"       "BPMYB.5L2.B1"             7986.171               28.288                    1      0.3846426414873                    0        0.07843471422          18.10788141
         "BPM.26R4.B1"       "BPMYB.5L2.B1"             8093.068               28.288                    1      0.6325316414873                    0        0.33102888422          18.36047558
         "BPM.27R4.B1"       "BPMYB.5L2.B1"             8146.516               28.288                    1      0.7243059414873                    0        0.42311907422          18.45256577
         "BPM.28R4.B1"       "BPMYB.5L2.B1"             8199.965               28.288                    1      0.8798846414873                    0        0.57838729422          18.60783399
         "BPM.29R4.B1"       "BPMYB.5L2.B1"             8253.413               28.288                    1     0.01738764148728                    0        0.71545948422          18.74490618
         "BPM.32R4.B1"       "BPMYB.5L2.B1"             8413.759               28.288                    1      0.3753580414873                    0        0.07833987422          19.10778657
         "BPM.33R4.B1"       "BPMYB.5L2.B1"             8467.208               28.288                    1      0.5141049414873                    0        0.21542280422           19.2448695
         "BPM.34R4.B1"       "BPMYB.5L2.B1"             8520.656               28.288                    1      0.6296828414873                    0        0.33097408422          19.36042078
         "BPM.33L5.B1"       "BPMYB.5L2.B1"             8574.105               28.288                    1      0.7201956714873                    0        0.42305311422          19.45249981
         "BPM.32L5.B1"       "BPMYB.5L2.B1"             8627.553               28.288                    1      0.8705504414873                    0        0.57829245422          19.60773915
         "BPM.31L5.B1"       "BPMYB.5L2.B1"             8681.002               28.288                    1     0.00994874148728                    0        0.71538610422           19.7448328
         "BPM.30L5.B1"       "BPMYB.5L2.B1"              8734.45               28.288                    1      0.1262671414873                    0        0.83094667422          19.86039337
         "BPM.29L5.B1"       "BPMYB.5L2.B1"             8787.899               28.288                    1      0.2165245414873                    0        0.92302013422          19.95246683
         "BPM.28L5.B1"       "BPMYB.5L2.B1"             8841.347               28.288                    1      0.3668578414873                    0        0.07824503422          20.10769173
         "BPM.26L5.B1"       "BPMYB.5L2.B1"             8948.244               28.288                    1      0.6238225414873                    0        0.33091926422          20.36036596
         "BPM.25L5.B1"       "BPMYB.5L2.B1"             9001.693               28.288                    1      0.7139346414873                    0        0.42298716422          20.45243386
         "BPM.24L5.B1"       "BPMYB.5L2.B1"             9055.141               28.288                    1      0.8654820414873                    0        0.57819761422          20.60764431
         "BPM.23L5.B1"       "BPMYB.5L2.B1"              9108.59               28.288                    1     0.00689934148728                    0        0.71531270422           20.7447594
         "BPM.22L5.B1"       "BPMYB.5L2.B1"             9162.038               28.288                    1      0.1236940414873                    0        0.83089186422          20.86033856
         "BPM.21L5.B1"       "BPMYB.5L2.B1"             9215.487               28.288                    1      0.2134373414873                    0        0.92295419422          20.95240089
         "BPM.20L5.B1"       "BPMYB.5L2.B1"             9268.935               28.288                    1      0.3661839414873                    0        0.07815020422           21.1075969
         "BPM.19L5.B1"       "BPMYB.5L2.B1"             9322.384               28.288                    1      0.5085976414873                    0        0.21527600422           21.2447227
         "BPM.18L5.B1"       "BPMYB.5L2.B1"             9375.832               28.288                    1      0.6273212414873                    0        0.33086445422          21.36031115
         "BPM.17L5.B1"       "BPMYB.5L2.B1"             9429.281               28.288                    1      0.7175275114873                    0        0.42292123422          21.45236793
         "BPM.16L5.B1"       "BPMYB.5L2.B1"             9482.729               28.288                    1      0.8714947414873                    0        0.57810278422          21.60754948
         "BPM.15L5.B1"       "BPMYB.5L2.B1"             9536.178               28.288                    1     0.01237924148728                    0        0.71523929422          21.74468599
         "BPM.14L5.B1"       "BPMYB.5L2.B1"             9589.626               28.288                    1      0.1300660414873                    0        0.83083705422          21.86028375
         "BPM.13L5.B1"       "BPMYB.5L2.B1"             9643.075               28.288                    1      0.2203444414873                    0        0.92288827422          21.95233497
         "BPM.12L5.B1"       "BPMYB.5L2.B1"             9696.523               28.288                    1      0.3775788414873                    0        0.08047236422          22.10991906
         "BPM.11L5.B1"       "BPMYB.5L2.B1"             9749.972               28.288                    1      0.5087404414873                    0        0.21081802422          22.24026472
         "BPM.10L5.B1"       "BPMYB.5L2.B1"             9802.753               28.288                    1      0.6218451414873                    0        0.32399325422          22.35343995
          "BPM.9L5.B1"       "BPMYB.5L2.B1"             9841.818               28.288                    1      0.7093896714873                    0        0.40929927422          22.43874597
          "BPM.8L5.B1"       "BPMYB.5L2.B1"             9882.281               28.288                    1      0.9309024414873                    0        0.62096469422          22.65041139
         "BPMR.7L5.B1"       "BPMYB.5L2.B1"             9921.347               28.288                    1     0.03715814148728                    0        0.73298402422          22.76243072
          "BPM.6L5.B1"       "BPMYB.5L2.B1"             9958.241               28.288                    1      0.1245071414873                    0        0.81972591422          22.84917261
         "BPMR.5L5.B1"       "BPMYB.5L2.B1"             9990.141               28.288                    1      0.1374141414873                    0        0.83321640422           22.8626631
        "BPMYA.4L5.B1"       "BPMYB.5L2.B1"             10017.55               28.288                    1      0.1427585414873                    0        0.83805950422           22.8675062
        "BPMWB.4L5.B1"       "BPMYB.5L2.B1"             10038.68               28.288                    1      0.1449255414873                    0        0.84019035422          22.86963705
        "BPMSY.4L5.B1"       "BPMYB.5L2.B1"             10131.46               28.288                    1      0.1517062414873                    0        0.84641178422          22.87585848
         "BPMS.2L5.B1"       "BPMYB.5L2.B1"             10158.25               28.288                    1      0.1524219414873                    0        0.84728334422          22.87673004
        "BPMSW.1L5.B1"       "BPMYB.5L2.B1"             10168.21               28.288                    1      0.1529553414873                    0        0.84792213422          22.87736883
         "BPMS.2R5.B1"       "BPMYB.5L2.B1"              10221.3               28.288                    1      0.6489359214873                    0        0.34423898422          23.37368568
        "BPMWB.4R5.B1"       "BPMYB.5L2.B1"             10340.87               28.288                    1      0.6565353614873                    0        0.35100027422          23.38044697
        "BPMYA.4R5.B1"       "BPMYB.5L2.B1"                10362               28.288                    1      0.6606759214873                    0        0.35578706422          23.38523376
          "BPM.5R5.B1"       "BPMYB.5L2.B1"             10383.12               28.288                    1      0.6716133714873                    0        0.36624177422          23.39568847
         "BPMR.6R5.B1"       "BPMYB.5L2.B1"             10415.02               28.288                    1      0.8232889014873                    0        0.51766987422          23.54711657
        "BPM_A.7R5.B1"       "BPMYB.5L2.B1"             10449.03               28.288                    1      0.1170938414873                    0        0.81200485422          23.84145155
          "BPM.8R5.B1"       "BPMYB.5L2.B1"             10490.47               28.288                    1      0.2063472414873                    0        0.90233930422            23.931786
          "BPM.9R5.B1"       "BPMYB.5L2.B1"             10529.54               28.288                    1      0.4326661414873                    0        0.13431620422           24.1637629
         "BPM.10R5.B1"       "BPMYB.5L2.B1"             10570.01               28.288                    1      0.5370393414873                    0        0.23613727422          24.26558397
         "BPM.11R5.B1"       "BPMYB.5L2.B1"             10622.79               28.288                    1      0.6387344414873                    0        0.33573977422          24.36518647
         "BPM.12R5.B1"       "BPMYB.5L2.B1"             10677.51               28.288                    1      0.7307735214873                    0        0.42698112422          24.45642782
         "BPM.13R5.B1"       "BPMYB.5L2.B1"             10730.97               28.288                    1      0.8819380414873                    0        0.57940744422          24.60885414
         "BPM.14R5.B1"       "BPMYB.5L2.B1"             10784.42               28.288                    1     0.01817534148728                    0        0.71625529422          24.74570199
         "BPM.16R5.B1"       "BPMYB.5L2.B1"             10891.32               28.288                    1      0.2248323414873                    0        0.92381989422          24.95326659
         "BPM.17R5.B1"       "BPMYB.5L2.B1"             10944.77               28.288                    1      0.3780326414873                    0        0.07940729422          25.10885399
         "BPM.18R5.B1"       "BPMYB.5L2.B1"             10998.22               28.288                    1      0.5151968414873                    0        0.21625529422          25.24570199
         "BPM.19R5.B1"       "BPMYB.5L2.B1"             11051.68               28.288                    1      0.6310422414873                    0        0.33160457422          25.36105127
         "BPM.20R5.B1"       "BPMYB.5L2.B1"             11105.13               28.288                    1      0.7227421714873                    0        0.42381989422          25.45326659
         "BPM.22R5.B1"       "BPMYB.5L2.B1"             11212.03               28.288                    1     0.01319114148728                    0        0.71625529422          25.74570199
         "BPM.23R5.B1"       "BPMYB.5L2.B1"             11265.48               28.288                    1      0.1284197414873                    0        0.83160457422          25.86105127
         "BPM.24R5.B1"       "BPMYB.5L2.B1"             11318.93               28.288                    1      0.2207038414873                    0        0.92381989422          25.95326659
         "BPM.25R5.B1"       "BPMYB.5L2.B1"             11372.38               28.288                    1      0.3774659414873                    0        0.07940729422          26.10885399
         "BPM.26R5.B1"       "BPMYB.5L2.B1"             11425.84               28.288                    1      0.5136204414873                    0        0.21625529422          26.24570199
         "BPM.27R5.B1"       "BPMYB.5L2.B1"             11479.29               28.288                    1      0.6292208414873                    0        0.33160457422          26.36105127
         "BPM.28R5.B1"       "BPMYB.5L2.B1"             11532.74               28.288                    1      0.7229353914873                    0        0.42381989422          26.45326659
         "BPM.29R5.B1"       "BPMYB.5L2.B1"             11586.19               28.288                    1      0.8812421414873                    0        0.57940729422          26.60885399
         "BPM.30R5.B1"       "BPMYB.5L2.B1"             11639.64               28.288                    1     0.01637444148728                    0        0.71625529422          26.74570199
         "BPM.31R5.B1"       "BPMYB.5L2.B1"             11693.09               28.288                    1      0.1298578414873                    0        0.83160457422          26.86105127
         "BPM.32R5.B1"       "BPMYB.5L2.B1"             11746.54               28.288                    1      0.2251713414873                    0        0.92381989422          26.95326659
         "BPM.33R5.B1"       "BPMYB.5L2.B1"                11800               28.288                    1      0.3859998414873                    0        0.07940729422          27.10885399
         "BPM.34R5.B1"       "BPMYB.5L2.B1"             11853.45               28.288                    1      0.5177207414873                    0        0.21625529422          27.24570199
         "BPM.33L6.B1"       "BPMYB.5L2.B1"              11906.9               28.288                    1      0.6299997414873                    0        0.33160457422          27.36105127
         "BPM.32L6.B1"       "BPMYB.5L2.B1"             11960.35               28.288                    1      0.7255458714873                    0        0.42381989422          27.45326659
         "BPM.30L6.B1"       "BPMYB.5L2.B1"             12067.25               28.288                    1     0.01852794148728                    0        0.71625529422          27.74570199
         "BPM.29L6.B1"       "BPMYB.5L2.B1"              12120.7               28.288                    1      0.1304940414873                    0        0.83160457422          27.86105127
         "BPM.28L6.B1"       "BPMYB.5L2.B1"             12174.16               28.288                    1      0.2256963414873                    0        0.92381989422          27.95326659
         "BPM.27L6.B1"       "BPMYB.5L2.B1"             12227.61               28.288                    1      0.3892816414873                    0        0.07940729422          28.10885399
         "BPM.26L6.B1"       "BPMYB.5L2.B1"             12281.06               28.288                    1      0.5194421414873                    0        0.21625529422          28.24570199
         "BPM.25L6.B1"       "BPMYB.5L2.B1"             12334.51               28.288                    1      0.6307436414873                    0        0.33160457422          28.36105127
         "BPM.24L6.B1"       "BPMYB.5L2.B1"             12387.96               28.288                    1      0.7264362314873                    0        0.42381989422          28.45326659
         "BPM.22L6.B1"       "BPMYB.5L2.B1"             12494.87               28.288                    1     0.01985854148728                    0        0.71625529422          28.74570199
         "BPM.21L6.B1"       "BPMYB.5L2.B1"             12548.32               28.288                    1      0.1326808414873                    0        0.83160457422          28.86105127
         "BPM.20L6.B1"       "BPMYB.5L2.B1"             12601.77               28.288                    1      0.2263211414873                    0        0.92381989422          28.95326659
         "BPM.19L6.B1"       "BPMYB.5L2.B1"             12655.22               28.288                    1      0.3803090414873                    0        0.07940729422          29.10885399
         "BPM.18L6.B1"       "BPMYB.5L2.B1"             12708.67               28.288                    1      0.5154580414873                    0        0.21625529422          29.24570199
         "BPM.17L6.B1"       "BPMYB.5L2.B1"             12762.12               28.288                    1      0.6302835414873                    0        0.33160457422          29.36105127
         "BPM.16L6.B1"       "BPMYB.5L2.B1"             12815.57               28.288                    1      0.7221931014873                    0        0.42381989422          29.45326659
         "BPM.15L6.B1"       "BPMYB.5L2.B1"             12869.03               28.288                    1      0.8745762414873                    0        0.57940729422          29.60885399
         "BPM.14L6.B1"       "BPMYB.5L2.B1"             12922.48               28.288                    1     0.01137784148728                    0        0.71625529422          29.74570199
         "BPM.13L6.B1"       "BPMYB.5L2.B1"             12975.93               28.288                    1      0.1279025414873                    0        0.83160457422          29.86105127
         "BPM.12L6.B1"       "BPMYB.5L2.B1"             13029.38               28.288                    1      0.2210031414873                    0        0.92391491422          29.95336161
         "BPM.11L6.B1"       "BPMYB.5L2.B1"             13082.83               28.288                    1      0.3742586414873                    0        0.07589149422          30.10533819
         "BPM.10L6.B1"       "BPMYB.5L2.B1"             13134.67               28.288                    1      0.5119736414873                    0        0.21448922422          30.24393592
          "BPM.9L6.B1"       "BPMYB.5L2.B1"             13173.74               28.288                    1      0.6131866414873                    0        0.31643577422          30.34588247
          "BPM.8L6.B1"       "BPMYB.5L2.B1"              13214.2               28.288                    1      0.7110467314873                    0        0.41364092422          30.44308762
        "BPMYB.4L6.B1"       "BPMYB.5L2.B1"             13347.69               28.288                    1     0.01103884148728                    0        0.71163643422          30.74108313
       "BPMSX.B4L6.B1"       "BPMYB.5L2.B1"             13383.23               28.288                    1     0.04269714148728                    0        0.74413792422          30.77358462
       "BPMSX.A4L6.B1"       "BPMYB.5L2.B1"             13383.82               28.288                    1     0.04291714148728                    0        0.74472788422          30.77417458
        "BPMSA.4R6.B1"       "BPMYB.5L2.B1"             13568.51               28.288                    1      0.2243655414873                    0        0.92193104422          30.95137774
       "BPMSI.A4R6.B1"       "BPMYB.5L2.B1"             13661.77               28.288                    1      0.2657111414873                    0        0.96240969422          30.99185639
       "BPMSI.B4R6.B1"       "BPMYB.5L2.B1"             13662.41               28.288                    1      0.2665639414873                    0        0.96260708422          30.99205378
        "BPMYA.4R6.B1"       "BPMYB.5L2.B1"             13691.29               28.288                    1      0.2742976414873                    0        0.97080386422          31.00025056
        "BPMYB.5R6.B1"       "BPMYB.5L2.B1"             13727.69               28.288                    1      0.2932519414873                    0        0.99043454422          31.01988124
          "BPM.9R6.B1"       "BPMYB.5L2.B1"             13862.49               28.288                    1      0.7722407514873                    0        0.47023147422          31.49967817
         "BPM.10R6.B1"       "BPMYB.5L2.B1"             13902.95               28.288                    1      0.9287175414873                    0        0.62426958422          31.65371628
         "BPM.11R6.B1"       "BPMYB.5L2.B1"             13954.79               28.288                    1     0.03100474148728                    0        0.72491063422          31.75435733
         "BPM.12R6.B1"       "BPMYB.5L2.B1"             14009.52               28.288                    1      0.1668189414873                    0        0.86068160422           31.8901283
         "BPM.13R6.B1"       "BPMYB.5L2.B1"             14062.97               28.288                    1      0.2882147414873                    0        0.98252212422          32.01196882
         "BPM.14R6.B1"       "BPMYB.5L2.B1"             14116.42               28.288                    1      0.4288182414873                    0        0.12123978422          32.15068648
         "BPM.15R6.B1"       "BPMYB.5L2.B1"             14169.87               28.288                    1      0.5391519414873                    0        0.23299014422          32.26243684
         "BPM.16R6.B1"       "BPMYB.5L2.B1"             14223.33               28.288                    1      0.6730507114873                    0        0.37230063422          32.40174733
         "BPM.17R6.B1"       "BPMYB.5L2.B1"             14276.78               28.288                    1      0.7946657014873                    0        0.49187802422          32.52132472
         "BPM.18R6.B1"       "BPMYB.5L2.B1"             14330.23               28.288                    1      0.9321805414873                    0        0.63007835422          32.65952505
         "BPM.19R6.B1"       "BPMYB.5L2.B1"             14383.68               28.288                    1     0.04235904148728                    0        0.74188094422          32.77132764
         "BPM.20R6.B1"       "BPMYB.5L2.B1"             14437.13               28.288                    1      0.1789571414873                    0        0.88170843422          32.91115513
         "BPM.21R6.B1"       "BPMYB.5L2.B1"             14490.58               28.288                    1      0.2989705414873                    0    0.001200634219998          33.03064733
         "BPM.22R6.B1"       "BPMYB.5L2.B1"             14544.04               28.288                    1      0.4366931414873                    0        0.13889800422           33.1683447
         "BPM.23R6.B1"       "BPMYB.5L2.B1"             14597.49               28.288                    1      0.5448352414873                    0        0.24790558422          33.27735228
         "BPM.24R6.B1"       "BPMYB.5L2.B1"             14650.94               28.288                    1      0.6819541114873                    0        0.38486404422          33.41431074
         "BPM.25R6.B1"       "BPMYB.5L2.B1"             14704.39               28.288                    1      0.8037077214873                    0        0.50509246422          33.53453916
         "BPM.26R6.B1"       "BPMYB.5L2.B1"             14757.84               28.288                    1      0.9421280414873                    0        0.64248645422          33.67193315
         "BPM.27R6.B1"       "BPMYB.5L2.B1"             14811.29               28.288                    1     0.05009714148728                    0        0.75148585422          33.78093255
         "BPM.28R6.B1"       "BPMYB.5L2.B1"             14864.74               28.288                    1      0.1863391414873                    0        0.88874738422          33.91819408
         "BPM.29R6.B1"       "BPMYB.5L2.B1"              14918.2               28.288                    1      0.3081090414873                    0        0.00897872422          34.03842542
         "BPM.30R6.B1"       "BPMYB.5L2.B1"             14971.65               28.288                    1      0.4460305414873                    0        0.14606914422          34.17551584
         "BPM.31R6.B1"       "BPMYB.5L2.B1"              15025.1               28.288                    1      0.5535074414873                    0        0.25507175422          34.28451845
         "BPM.32R6.B1"       "BPMYB.5L2.B1"             15078.55               28.288                    1      0.6914319114873                    0        0.39263732422          34.42208402
         "BPM.33R6.B1"       "BPMYB.5L2.B1"                15132               28.288                    1      0.8136648114873                    0        0.51285819422          34.54230489
         "BPM.34R6.B1"       "BPMYB.5L2.B1"             15185.45               28.288                    1      0.9507119414873                    0        0.64964639422          34.67909309
         "BPM.33L7.B1"       "BPMYB.5L2.B1"              15238.9               28.288                    1     0.05875184148728                    0        0.75866361422          34.78811031
         "BPM.32L7.B1"       "BPMYB.5L2.B1"             15292.36               28.288                    1      0.1965490414873                    0        0.89653350422           34.9259802
         "BPM.31L7.B1"       "BPMYB.5L2.B1"             15345.81               28.288                    1      0.3176002414873                    0        0.01673055422          35.04617725
         "BPM.30L7.B1"       "BPMYB.5L2.B1"             15399.26               28.288                    1      0.4543650414873                    0        0.15321852422          35.18266522
         "BPM.29L7.B1"       "BPMYB.5L2.B1"             15452.71               28.288                    1      0.5637440414873                    0        0.26226171422          35.29170841
         "BPM.28L7.B1"       "BPMYB.5L2.B1"             15506.16               28.288                    1      0.7018328614873                    0        0.40043557422          35.42988227
         "BPM.27L7.B1"       "BPMYB.5L2.B1"             15559.61               28.288                    1      0.8225289414873                    0        0.52059550422           35.5500422
         "BPM.26L7.B1"       "BPMYB.5L2.B1"             15613.06               28.288                    1      0.9605986414873                    0        0.65678590422           35.6862326
         "BPM.25L7.B1"       "BPMYB.5L2.B1"             15666.52               28.288                    1     0.06868034148728                    0        0.76586638422          35.79531308
         "BPM.24L7.B1"       "BPMYB.5L2.B1"             15719.97               28.288                    1      0.2053001414873                    0        0.90434314422          35.93378984
         "BPM.23L7.B1"       "BPMYB.5L2.B1"             15773.42               28.288                    1      0.3271173414873                    0     0.02445276421999          36.05389946
         "BPM.22L7.B1"       "BPMYB.5L2.B1"             15826.87               28.288                    1      0.4655020414873                    0        0.16034886422          36.18979556
         "BPM.21L7.B1"       "BPMYB.5L2.B1"             15880.32               28.288                    1      0.5728681414873                    0        0.26947790422           36.2989246
         "BPM.20L7.B1"       "BPMYB.5L2.B1"             15933.77               28.288                    1      0.7098730214873                    0        0.40737251422          36.43681921
         "BPM.19L7.B1"       "BPMYB.5L2.B1"             15987.23               28.288                    1      0.8316853214873                    0        0.52983897422          36.55928567
         "BPM.18L7.B1"       "BPMYB.5L2.B1"             16040.68               28.288                    1      0.9719113414873                    0        0.66906594422          36.69851264
         "BPM.17L7.B1"       "BPMYB.5L2.B1"             16094.13               28.288                    1     0.07938244148728                    0        0.77813479422          36.80758149
         "BPM.16L7.B1"       "BPMYB.5L2.B1"             16147.58               28.288                    1      0.2167381414873                    0        0.91690948422          36.94635618
         "BPM.15L7.B1"       "BPMYB.5L2.B1"             16201.03               28.288                    1      0.3392322414873                    0        0.03940056422          37.06884726
         "BPM.13L7.B1"       "BPMYB.5L2.B1"             16307.93               28.288                    1      0.5857469414873                    0        0.28683024422          37.31627694
         "BPM.12L7.B1"       "BPMYB.5L2.B1"             16361.39               28.288                    1      0.7265969614873                    0        0.42945647422          37.45890317
         "BPM.11L7.B1"       "BPMYB.5L2.B1"             16414.84               28.288                    1      0.8542809414873                    0        0.55426495422          37.58371165
         "BPM.10L7.B1"       "BPMYB.5L2.B1"             16467.62               28.288                    1      0.9950911414873                    0        0.69413064422          37.72357734
          "BPM.9L7.B1"       "BPMYB.5L2.B1"             16506.69               28.288                    1     0.08295524148728                    0        0.78378189422          37.81322859
          "BPM.8L7.B1"       "BPMYB.5L2.B1"             16547.15               28.288                    1      0.2810939414873                    0        0.98206336422          38.01151006
          "BPM.7L7.B1"       "BPMYB.5L2.B1"             16586.22               28.288                    1      0.3691025414873                    0     0.06712558421999          38.09657228
          "BPM.6L7.B1"       "BPMYB.5L2.B1"             16621.04               28.288                    1      0.4142505414873                    0        0.11334353422          38.14279023
        "BPMWC.6L7.B1"       "BPMYB.5L2.B1"             16633.14               28.288                    1      0.4219875414873                    0        0.12070008422          38.15014678
        "BPMWE.5L7.B1"       "BPMYB.5L2.B1"             16710.19               28.288                    1      0.6027575414873                    0        0.30211449422          38.33156119
         "BPMW.5L7.B1"       "BPMYB.5L2.B1"              16733.4               28.288                    1      0.7019092414873                    0        0.40104279422          38.43048949
        "BPMWE.4L7.B1"       "BPMYB.5L2.B1"             16768.48               28.288                    1      0.7441708130873                    0        0.44499710422           38.4744438
         "BPMW.4L7.B1"       "BPMYB.5L2.B1"             16796.59               28.288                    1      0.7587228414873                    0        0.45900138422          38.48844808
         "BPMW.4R7.B1"       "BPMYB.5L2.B1"             16912.63               28.288                    1      0.9470933414873                    0        0.64897120422           38.6784179
        "BPMWE.4R7.B1"       "BPMYB.5L2.B1"             16940.74               28.288                    1     0.01834794148728                    0        0.72135787422          38.75080457
         "BPMW.5R7.B1"       "BPMYB.5L2.B1"             16975.82               28.288                    1     0.04972244148728                    0        0.75282457422          38.78227127
        "BPMWE.5R7.B1"       "BPMYB.5L2.B1"             16999.03               28.288                    1     0.05996804148728                    0        0.76284885422          38.79229555
         "BPMR.6R7.B1"       "BPMYB.5L2.B1"             17078.24               28.288                    1      0.1520617414873                    0        0.85481247422          38.88425917
        "BPM_A.7R7.B1"       "BPMYB.5L2.B1"             17116.28               28.288                    1      0.2354992414873                    0        0.93829469422          38.96774139
          "BPM.9R7.B1"       "BPMYB.5L2.B1"             17194.41               28.288                    1      0.5506299414873                    0        0.25376503422          39.28321173
         "BPM.10R7.B1"       "BPMYB.5L2.B1"             17234.88               28.288                    1      0.6478397814873                    0        0.35228544422          39.38173214
         "BPM.11R7.B1"       "BPMYB.5L2.B1"             17287.66               28.288                    1      0.7796839014873                    0        0.48499075422          39.51443745
         "BPM.12R7.B1"       "BPMYB.5L2.B1"             17342.39               28.288                    1      0.9039408414873                    0        0.60738464422          39.63683134
         "BPM.13R7.B1"       "BPMYB.5L2.B1"             17395.84               28.288                    1     0.04291134148728                    0        0.74463971422          39.77408641
         "BPM.14R7.B1"       "BPMYB.5L2.B1"             17449.29               28.288                    1      0.1556527414873                    0        0.85826828422          39.88771498
         "BPM.15R7.B1"       "BPMYB.5L2.B1"             17502.74               28.288                    1      0.2984084414873                    0   0.0009450942200004          40.03039179
         "BPM.16R7.B1"       "BPMYB.5L2.B1"             17556.19               28.288                    1      0.4141636414873                    0        0.11832551422          40.14777221
         "BPM.17R7.B1"       "BPMYB.5L2.B1"             17609.65               28.288                    1      0.5479410414873                    0        0.25345692422          40.28290362
         "BPM.18R7.B1"       "BPMYB.5L2.B1"              17663.1               28.288                    1      0.6622079914873                    0        0.36745077422          40.39689747
         "BPM.19R7.B1"       "BPMYB.5L2.B1"             17716.55               28.288                    1      0.8062754714873                    0        0.51036017422          40.53980687
         "BPM.20R7.B1"       "BPMYB.5L2.B1"                17770               28.288                    1      0.9231736414873                    0        0.62734604422          40.65679274
         "BPM.21R7.B1"       "BPMYB.5L2.B1"             17823.45               28.288                    1     0.05625314148728                    0        0.76228757422          40.79173427
         "BPM.22R7.B1"       "BPMYB.5L2.B1"              17876.9               28.288                    1      0.1713332414873                    0        0.87666925422          40.90611595
         "BPM.23R7.B1"       "BPMYB.5L2.B1"             17930.35               28.288                    1      0.3153951414873                    0        0.02062934422          41.05007604
         "BPM.24R7.B1"       "BPMYB.5L2.B1"             17983.81               28.288                    1      0.4293417414873                    0        0.13489442422          41.16434112
         "BPM.25R7.B1"       "BPMYB.5L2.B1"             18037.26               28.288                    1      0.5624057414873                    0        0.26589221422          41.29533891
         "BPM.26R7.B1"       "BPMYB.5L2.B1"             18090.71               28.288                    1      0.6771404014873                    0        0.38053767422          41.40998437
         "BPM.27R7.B1"       "BPMYB.5L2.B1"             18144.16               28.288                    1      0.8213334614873                    0        0.52448674422          41.55393344
         "BPM.28R7.B1"       "BPMYB.5L2.B1"             18197.61               28.288                    1      0.9344979414873                    0        0.63848956422          41.66793626
         "BPM.29R7.B1"       "BPMYB.5L2.B1"             18251.06               28.288                    1     0.06493404148728                    0        0.76950359422          41.79895029
         "BPM.30R7.B1"       "BPMYB.5L2.B1"             18304.51               28.288                    1      0.1820448414873                    0        0.88441338422          41.91386008
         "BPM.31R7.B1"       "BPMYB.5L2.B1"             18357.97               28.288                    1      0.3270160414873                    0     0.02833617421999          42.05778287
         "BPM.32R7.B1"       "BPMYB.5L2.B1"             18411.42               28.288                    1      0.4396871414873                    0        0.14207858422          42.17152528
         "BPM.33R7.B1"       "BPMYB.5L2.B1"             18464.87               28.288                    1      0.5694599414873                    0        0.27312209422          42.30256879
         "BPM.33L8.B1"       "BPMYB.5L2.B1"             18571.77               28.288                    1      0.8319899814873                    0        0.53217740422           42.5616241
         "BPM.32L8.B1"       "BPMYB.5L2.B1"             18625.22               28.288                    1      0.9447024414873                    0        0.64566177422          42.67510847
         "BPM.31L8.B1"       "BPMYB.5L2.B1"             18678.68               28.288                    1     0.07575104148728                    0        0.77674799422          42.80619469
         "BPM.30L8.B1"       "BPMYB.5L2.B1"             18732.13               28.288                    1      0.1913161414873                    0        0.89218540422           42.9216321
         "BPM.29L8.B1"       "BPMYB.5L2.B1"             18785.58               28.288                    1      0.3357612414873                    0        0.03601021422          43.06545691
         "BPM.28L8.B1"       "BPMYB.5L2.B1"             18839.03               28.288                    1      0.4495332414873                    0        0.14923948422          43.17868618
         "BPM.27L8.B1"       "BPMYB.5L2.B1"             18892.48               28.288                    1      0.5805847414873                    0        0.28038154422          43.30982824
         "BPM.26L8.B1"       "BPMYB.5L2.B1"             18945.93               28.288                    1      0.6981028114873                    0        0.39608104422          43.42552774
         "BPM.25L8.B1"       "BPMYB.5L2.B1"             18999.38               28.288                    1      0.8422985014873                    0        0.53983439422          43.56928109
         "BPM.24L8.B1"       "BPMYB.5L2.B1"             19052.84               28.288                    1      0.9549341414873                    0        0.65281204422          43.68225874
         "BPM.23L8.B1"       "BPMYB.5L2.B1"             19106.29               28.288                    1     0.08736314148728                    0        0.78402297422          43.81346967
         "BPM.22L8.B1"       "BPMYB.5L2.B1"             19159.74               28.288                    1      0.2024105414873                    0        0.89998261422          43.92942931
         "BPM.21L8.B1"       "BPMYB.5L2.B1"             19213.19               28.288                    1      0.3469091414873                    0     0.04364978421999          44.07309648
         "BPM.20L8.B1"       "BPMYB.5L2.B1"             19266.64               28.288                    1      0.4589616414873                    0        0.15926212422          44.18870882
         "BPM.19L8.B1"       "BPMYB.5L2.B1"             19320.09               28.288                    1      0.5953133414873                    0        0.29358110422           44.3230278
         "BPM.18L8.B1"       "BPMYB.5L2.B1"             19373.54               28.288                    1      0.7107138414873                    0        0.40932656422          44.43877326
         "BPM.17L8.B1"       "BPMYB.5L2.B1"                19427               28.288                    1      0.8512575414873                    0        0.55298364422          44.58243034
         "BPM.16L8.B1"       "BPMYB.5L2.B1"             19480.45               28.288                    1      0.9683341414873                    0        0.66813382422          44.69758052
         "BPM.15L8.B1"       "BPMYB.5L2.B1"              19533.9               28.288                    1      0.1047779414873                    0        0.80249030422            44.831937
         "BPM.14L8.B1"       "BPMYB.5L2.B1"             19587.35               28.288                    1      0.2185838414873                    0        0.91869986422          44.94814656
         "BPM.13L8.B1"       "BPMYB.5L2.B1"              19640.8               28.288                    1      0.3603762414873                    0        0.06228358422          45.09173028
         "BPM.12L8.B1"       "BPMYB.5L2.B1"             19694.25               28.288                    1      0.4746793414873                    0        0.17354478422          45.20299148
         "BPM.11L8.B1"       "BPMYB.5L2.B1"              19747.7               28.288                    1      0.6102587414873                    0        0.30546181422          45.33490851
         "BPM.10L8.B1"       "BPMYB.5L2.B1"             19799.55               28.288                    1      0.7179554714873                    0        0.41792132422          45.44736802
          "BPM.9L8.B1"       "BPMYB.5L2.B1"             19838.61               28.288                    1      0.8383101214873                    0        0.54049321422          45.56993991
          "BPM.8L8.B1"       "BPMYB.5L2.B1"             19879.08               28.288                    1      0.9833753414873                    0        0.68329906422          45.71274576
          "BPM.7L8.B1"       "BPMYB.5L2.B1"             19918.15               28.288                    1      0.1564044414873                    0        0.85492381422          45.88437051
         "BPMR.6L8.B1"       "BPMYB.5L2.B1"             19950.61               28.288                    1      0.2888297414873                    0        0.98751762422          46.01696432
          "BPM.5L8.B1"       "BPMYB.5L2.B1"             20011.03               28.288                    1      0.5149472414873                    0        0.21329685422          46.24274355
        "BPMYB.4L8.B1"       "BPMYB.5L2.B1"              20031.8               28.288                    1      0.5324471414873                    0        0.23114205422          46.26058875
        "BPMWB.4L8.B1"       "BPMYB.5L2.B1"             20056.19               28.288                    1      0.5543677414873                    0        0.25289238422          46.28233908
        "BPMSX.4L8.B1"       "BPMYB.5L2.B1"             20106.42               28.288                    1      0.5749185414873                    0        0.27445133422          46.30389803
         "BPMS.2L8.B1"       "BPMYB.5L2.B1"             20144.34               28.288                    1      0.5895654414873                    0        0.28953829422          46.31898499
        "BPMSW.1L8.B1"       "BPMYB.5L2.B1"             20154.27               28.288                    1      0.5975577414873                    0        0.29733601422          46.32678271
        "BPMSW.1R8.B1"       "BPMYB.5L2.B1"             20197.46               28.288                    1     0.05546414148728                    0        0.75463007422          46.78407677
         "BPMS.2R8.B1"       "BPMYB.5L2.B1"             20207.39               28.288                    1     0.06219594148728                    0        0.76054829422          46.78999499
        "BPMSX.4R8.B1"       "BPMYB.5L2.B1"             20245.31               28.288                    1     0.07446864148728                    0        0.77365287422          46.80309957
        "BPMWB.4R8.B1"       "BPMYB.5L2.B1"             20295.46               28.288                    1     0.09858414148728                    0        0.79904408422          46.82849078
        "BPMYB.4R8.B1"       "BPMYB.5L2.B1"             20319.93               28.288                    1      0.1130116414873                    0        0.81327505422          46.84272175
        "BPMYB.5R8.B1"       "BPMYB.5L2.B1"             20340.51               28.288                    1      0.1412288414873                    0        0.84199259422          46.87143929
          "BPM.6R8.B1"       "BPMYB.5L2.B1"             20424.62               28.288                    1      0.5167483414873                    0        0.21455401422          47.24400071
        "BPM_A.7R8.B1"       "BPMYB.5L2.B1"             20446.86               28.288                    1      0.5495701414873                    0        0.24765485422          47.27710155
          "BPM.8R8.B1"       "BPMYB.5L2.B1"             20488.29               28.288                    1      0.6368764414873                    0        0.34223722422          47.37168392
          "BPM.9R8.B1"       "BPMYB.5L2.B1"             20527.36               28.288                    1      0.8209761414873                    0        0.52840195422          47.55784865
         "BPM.10R8.B1"       "BPMYB.5L2.B1"             20567.82               28.288                    1   0.0001515414872799                    0        0.69999743422          47.72944413
         "BPM.11R8.B1"       "BPMYB.5L2.B1"             20619.66               28.288                    1     0.07327734148728                    0        0.77474776422          47.80419446
         "BPM.12R8.B1"       "BPMYB.5L2.B1"             20674.38               28.288                    1      0.2151440414873                    0        0.92225255422          47.95169925
         "BPM.13R8.B1"       "BPMYB.5L2.B1"             20727.83               28.288                    1      0.3709518414873                    0     0.07454409421999          48.10399079
         "BPM.14R8.B1"       "BPMYB.5L2.B1"             20781.28               28.288                    1      0.4884767414873                    0        0.18949541422          48.21894211
         "BPM.16R8.B1"       "BPMYB.5L2.B1"             20888.18               28.288                    1      0.7331813214873                    0        0.42688828422          48.45633498
         "BPM.17R8.B1"       "BPMYB.5L2.B1"             20941.63               28.288                    1      0.8804704414873                    0        0.57450957422          48.60395627
         "BPM.18R8.B1"       "BPMYB.5L2.B1"             20995.07               28.288                    1      0.9939763414873                    0        0.68946961422          48.71891631
         "BPM.19R8.B1"       "BPMYB.5L2.B1"             21048.52               28.288                    1     0.08254364148728                    0        0.77458618422          48.80403288
         "BPM.20R8.B1"       "BPMYB.5L2.B1"             21101.97               28.288                    1      0.2432535414873                    0        0.92683821422          48.95628491
         "BPM.21R8.B1"       "BPMYB.5L2.B1"             21155.42               28.288                    1      0.3872350414873                    0     0.07447092421999          49.10391762
         "BPM.23R8.B1"       "BPMYB.5L2.B1"             21262.32               28.288                    1      0.5859576414873                    0        0.27455575422          49.30400245
         "BPM.24R8.B1"       "BPMYB.5L2.B1"             21315.76               28.288                    1      0.7402000954873                    0        0.42678814422          49.45623484
         "BPM.25R8.B1"       "BPMYB.5L2.B1"             21369.21               28.288                    1      0.8847596414873                    0        0.57443227422          49.60387897
         "BPM.26R8.B1"       "BPMYB.5L2.B1"             21422.66               28.288                    1      0.9983757414873                    0        0.68941801422          49.71886471
         "BPM.27R8.B1"       "BPMYB.5L2.B1"             21476.11               28.288                    1     0.08375124148728                    0        0.77452532422          49.80397202
         "BPM.28R8.B1"       "BPMYB.5L2.B1"             21529.56               28.288                    1      0.2385579414873                    0        0.92673808422          49.95618478
         "BPM.29R8.B1"       "BPMYB.5L2.B1"             21583.01               28.288                    1      0.3846026414873                    0        0.07439360422           50.1038403
         "BPM.30R8.B1"       "BPMYB.5L2.B1"             21636.46               28.288                    1      0.4974197414873                    0        0.18939221422          50.21883891
         "BPM.31R8.B1"       "BPMYB.5L2.B1"              21689.9               28.288                    1      0.5818750414873                    0        0.27449490422           50.3039416
         "BPM.32R8.B1"       "BPMYB.5L2.B1"             21743.35               28.288                    1      0.7354008054873                    0        0.42668802422          50.45613472
         "BPM.33R8.B1"       "BPMYB.5L2.B1"              21796.8               28.288                    1      0.8808907414873                    0        0.57435493422          50.60380163
         "BPM.34R8.B1"       "BPMYB.5L2.B1"             21850.25               28.288                    1      0.9960576414873                    0        0.68936641422          50.71881311
         "BPM.33L1.B1"       "BPMYB.5L2.B1"              21903.7               28.288                    1     0.08197024148728                    0        0.77446448422          50.80391118
         "BPM.32L1.B1"       "BPMYB.5L2.B1"             21957.15               28.288                    1      0.2331813414873                    0        0.92663796422          50.95608466
         "BPM.31L1.B1"       "BPMYB.5L2.B1"              22010.6               28.288                    1      0.3797956414873                    0     0.07431626421999          51.10376296
         "BPM.30L1.B1"       "BPMYB.5L2.B1"             22064.04               28.288                    1      0.4949038414873                    0        0.18934061422          51.21878731
         "BPM.29L1.B1"       "BPMYB.5L2.B1"             22117.49               28.288                    1      0.5804080414873                    0        0.27443407422          51.30388077
         "BPM.28L1.B1"       "BPMYB.5L2.B1"             22170.94               28.288                    1      0.7340478114873                    0        0.42658791422          51.45603461
         "BPM.27L1.B1"       "BPMYB.5L2.B1"             22224.39               28.288                    1      0.8794802414873                    0        0.57427758422          51.60372428
         "BPM.26L1.B1"       "BPMYB.5L2.B1"             22277.84               28.288                    1      0.9937318414873                    0        0.68931480422           51.7187615
         "BPM.25L1.B1"       "BPMYB.5L2.B1"             22331.29               28.288                    1     0.07869264148728                    0        0.77440366422          51.80385036
         "BPM.24L1.B1"       "BPMYB.5L2.B1"             22384.74               28.288                    1      0.2307131414873                    0        0.92653786422          51.95598456
         "BPM.23L1.B1"       "BPMYB.5L2.B1"             22438.18               28.288                    1      0.3764635414873                    0        0.07423889422          52.10368559
         "BPM.22L1.B1"       "BPMYB.5L2.B1"             22491.63               28.288                    1      0.4916764414873                    0        0.18928900422           52.2187357
         "BPM.21L1.B1"       "BPMYB.5L2.B1"             22545.08               28.288                    1      0.5769815414873                    0        0.27437325422          52.30381995
         "BPM.20L1.B1"       "BPMYB.5L2.B1"             22598.53               28.288                    1      0.7288074114873                    0        0.42648781422          52.45593451
         "BPM.19L1.B1"       "BPMYB.5L2.B1"             22651.98               28.288                    1      0.8756408414873                    0        0.57420020422           52.6036469
         "BPM.18L1.B1"       "BPMYB.5L2.B1"             22705.43               28.288                    1      0.9906595414873                    0        0.68926320422           52.7187099
         "BPM.17L1.B1"       "BPMYB.5L2.B1"             22758.87               28.288                    1     0.07685604148728                    0        0.77434285422          52.80378955
         "BPM.16L1.B1"       "BPMYB.5L2.B1"             22812.32               28.288                    1      0.2303021414873                    0        0.92643776422          52.95588446
         "BPM.15L1.B1"       "BPMYB.5L2.B1"             22865.77               28.288                    1      0.3765963414873                    0     0.07416150421999           53.1036082
         "BPM.14L1.B1"       "BPMYB.5L2.B1"             22919.22               28.288                    1      0.4914777414873                    0        0.18923739422          53.21868409
         "BPM.13L1.B1"       "BPMYB.5L2.B1"             22972.67               28.288                    1      0.5777805414873                    0        0.27431245422          53.30375915
         "BPM.12L1.B1"       "BPMYB.5L2.B1"             23026.12               28.288                    1      0.7321611914873                    0        0.42894130422            53.458388
         "BPM.11L1.B1"       "BPMYB.5L2.B1"             23079.57               28.288                    1      0.8707289414873                    0        0.56949191422          53.59893861
         "BPM.10L1.B1"       "BPMYB.5L2.B1"             23132.35               28.288                    1      0.9836879414873                    0        0.68277647422          53.71222317
          "BPM.9L1.B1"       "BPMYB.5L2.B1"             23171.41               28.288                    1     0.06167734148728                    0        0.76180219422          53.79124889
          "BPM.8L1.B1"       "BPMYB.5L2.B1"             23211.87               28.288                    1      0.2695070414873                    0        0.97236986422          54.00181656
         "BPMR.7L1.B1"       "BPMYB.5L2.B1"             23250.94               28.288                    1      0.3908438414873                    0        0.09271726422          54.12216396
          "BPM.6L1.B1"       "BPMYB.5L2.B1"             23294.12               28.288                    1      0.4779705414873                    0        0.18236682422          54.21181352
         "BPMR.5L1.B1"       "BPMYB.5L2.B1"             23326.02               28.288                    1      0.4886891414873                    0        0.19289630422            54.222343
        "BPMYA.4L1.B1"       "BPMYB.5L2.B1"             23347.14               28.288                    1      0.4918976414873                    0        0.19602078422          54.22546748
        "BPMWB.4L1.B1"       "BPMYB.5L2.B1"             23368.28               28.288                    1      0.4940494414873                    0        0.19801542422          54.22746212
        "BPMSY.4L1.B1"       "BPMYB.5L2.B1"             23461.06               28.288                    1      0.4993329414873                    0        0.20382436422          54.23327106
         "BPMS.2L1.B1"       "BPMYB.5L2.B1"             23487.84               28.288                    1      0.5004598414873                    0        0.20463641422          54.23408311
        "BPMSW.1L1.B1"       "BPMYB.5L2.B1"             23497.79               28.288                    1      0.5012337414873                    0        0.20522986422          54.23467656
        "BPMSW.1R1.B1"       "BPMYB.5L2.B1"             23540.93               28.288                    1      0.9969618414873                    0        0.70103391422          54.73048061
         "BPMS.2R1.B1"       "BPMYB.5L2.B1"              23550.9               28.288                    1      0.9979116414873                    0        0.70179813422          54.73124483
        "BPMSY.4R1.B1"       "BPMYB.5L2.B1"             23577.68               28.288                    1      0.9988620414873                    0        0.70297615422          54.73242285
        "BPMWB.4R1.B1"       "BPMYB.5L2.B1"             23670.46               28.288                    1     0.00412834148728                    0        0.70809502422          54.73754172
        "BPMYA.4R1.B1"       "BPMYB.5L2.B1"              23691.6               28.288                    1     0.00831554148728                    0        0.71253913422          54.74198583
          "BPM.5R1.B1"       "BPMYB.5L2.B1"                23719               28.288                    1     0.02401444148728                    0        0.72729128422          54.75673798
         "BPMR.6R1.B1"       "BPMYB.5L2.B1"              23750.9               28.288                    1      0.3397085414873                    0        0.03813545422          55.06758215
        "BPMSX.7R1.B1"       "BPMYB.5L2.B1"             23757.12               28.288                    1      0.4172511414873                    0        0.11849742422          55.14794412
        "BPM_A.7R1.B1"       "BPMYB.5L2.B1"             23778.63               28.288                    1      0.4663666414873                    0        0.17137184422          55.20081854
          "BPM.8R1.B1"       "BPMYB.5L2.B1"             23820.07               28.288                    1      0.5484026414873                    0        0.25540733422          55.28485403
          "BPM.9R1.B1"       "BPMYB.5L2.B1"             23859.13               28.288                    1      0.7748411214873                    0        0.48687323422          55.51631993
         "BPM.10R1.B1"       "BPMYB.5L2.B1"              23899.6               28.288                    1      0.8920525414873                    0        0.59598174422          55.62542844
         "BPM.11R1.B1"       "BPMYB.5L2.B1"             23952.38               28.288                    1      0.9948870414873                    0        0.69384566422          55.72329236
         "BPM.12R1.B1"       "BPMYB.5L2.B1"             24007.11               28.288                    1     0.07616894148728                    0        0.77809008422          55.80753678
         "BPM.13R1.B1"       "BPMYB.5L2.B1"             24060.56               28.288                    1      0.2145176414873                    0        0.92781556422          55.95726226
         "BPM.14R1.B1"       "BPMYB.5L2.B1"             24114.01               28.288                    1      0.3688225414873                    0        0.07523207422          56.10467877
         "BPM.15R1.B1"       "BPMYB.5L2.B1"             24167.46               28.288                    1      0.4918149414873                    0        0.18995989422          56.21940659
         "BPM.16R1.B1"       "BPMYB.5L2.B1"             24220.91               28.288                    1      0.5757919414873                    0        0.27517185422          56.30461855
         "BPM.17R1.B1"       "BPMYB.5L2.B1"             24274.37               28.288                    1      0.7197537014873                    0        0.42781539422          56.45726209
         "BPM.18R1.B1"       "BPMYB.5L2.B1"             24327.82               28.288                    1      0.8715498414873                    0        0.57523207422          56.60467877
         "BPM.19R1.B1"       "BPMYB.5L2.B1"             24381.27               28.288                    1      0.9926459414873                    0        0.68995989422          56.71940659
         "BPM.20R1.B1"       "BPMYB.5L2.B1"             24434.72               28.288                    1     0.07601744148728                    0        0.77517185422          56.80461855
         "BPM.21R1.B1"       "BPMYB.5L2.B1"             24488.17               28.288                    1      0.2232798414873                    0        0.92781539422          56.95726209
         "BPM.22R1.B1"       "BPMYB.5L2.B1"             24541.62               28.288                    1      0.3752456414873                    0        0.07523207422          57.10467877
         "BPM.23R1.B1"       "BPMYB.5L2.B1"             24595.08               28.288                    1      0.4943784414873                    0        0.18995989422          57.21940659
         "BPM.24R1.B1"       "BPMYB.5L2.B1"             24648.53               28.288                    1      0.5781628414873                    0        0.27517184422          57.30461854
         "BPM.25R1.B1"       "BPMYB.5L2.B1"             24701.98               28.288                    1      0.7278669214873                    0        0.42781539422          57.45726209
         "BPM.26R1.B1"       "BPMYB.5L2.B1"             24755.43               28.288                    1      0.8784135414873                    0        0.57523207422          57.60467877
         "BPM.27R1.B1"       "BPMYB.5L2.B1"             24808.88               28.288                    1      0.9946511414873                    0        0.68995989422          57.71940659
         "BPM.28R1.B1"       "BPMYB.5L2.B1"             24862.33               28.288                    1     0.07959224148728                    0        0.77517184422          57.80461854
         "BPM.29R1.B1"       "BPMYB.5L2.B1"             24915.78               28.288                    1      0.2316286414873                    0        0.92781539422          57.95726209
         "BPM.30R1.B1"       "BPMYB.5L2.B1"             24969.24               28.288                    1      0.3792698414873                    0        0.07523207422          58.10467877
         "BPM.31R1.B1"       "BPMYB.5L2.B1"             25022.69               28.288                    1      0.4944558414873                    0        0.18995989422          58.21940659
         "BPM.32R1.B1"       "BPMYB.5L2.B1"             25076.14               28.288                    1      0.5798206414873                    0        0.27517184422          58.30461854
         "BPM.33R1.B1"       "BPMYB.5L2.B1"             25129.59               28.288                    1      0.7327507014873                    0        0.42781539422          58.45726209
         "BPM.34R1.B1"       "BPMYB.5L2.B1"             25183.04               28.288                    1      0.8794525414873                    0        0.57523207422          58.60467877
         "BPM.33L2.B1"       "BPMYB.5L2.B1"             25236.49               28.288                    1      0.9943993414873                    0        0.68995989422          58.71940659
         "BPM.32L2.B1"       "BPMYB.5L2.B1"             25289.94               28.288                    1     0.07979824148728                    0        0.77517184422          58.80461854
         "BPM.31L2.B1"       "BPMYB.5L2.B1"              25343.4               28.288                    1      0.2335026414873                    0        0.92781539422          58.95726209
         "BPM.30L2.B1"       "BPMYB.5L2.B1"             25396.85               28.288                    1      0.3789931414873                    0        0.07523207422          59.10467877
         "BPM.29L2.B1"       "BPMYB.5L2.B1"              25450.3               28.288                    1      0.4935530414873                    0        0.18995989422          59.21940659
         "BPM.28L2.B1"       "BPMYB.5L2.B1"             25503.75               28.288                    1      0.5784759414873                    0        0.27517184422          59.30461854
         "BPM.27L2.B1"       "BPMYB.5L2.B1"              25557.2               28.288                    1      0.7309795414873                    0        0.42781539422          59.45726209
         "BPM.26L2.B1"       "BPMYB.5L2.B1"             25610.65               28.288                    1      0.8784490414873                    0        0.57523207422          59.60467877
         "BPM.25L2.B1"       "BPMYB.5L2.B1"              25664.1               28.288                    1      0.9929459414873                    0        0.68995989422          59.71940659
         "BPM.24L2.B1"       "BPMYB.5L2.B1"             25717.56               28.288                    1     0.07982204148728                    0        0.77517184422          59.80461854
         "BPM.23L2.B1"       "BPMYB.5L2.B1"             25771.01               28.288                    1      0.2337743414873                    0        0.92781539422          59.95726209
         "BPM.22L2.B1"       "BPMYB.5L2.B1"             25824.46               28.288                    1      0.3798478414873                    0        0.07523207422          60.10467877
         "BPM.21L2.B1"       "BPMYB.5L2.B1"             25877.91               28.288                    1      0.4936712414873                    0        0.18995989422          60.21940659
         "BPM.20L2.B1"       "BPMYB.5L2.B1"             25931.36               28.288                    1      0.5815064414873                    0        0.27517184422          60.30461854
         "BPM.19L2.B1"       "BPMYB.5L2.B1"             25984.81               28.288                    1      0.7382725064873                    0        0.42781539422          60.45726209
         "BPM.18L2.B1"       "BPMYB.5L2.B1"             26038.27               28.288                    1      0.8825309414873                    0        0.57523207422          60.60467877
         "BPM.17L2.B1"       "BPMYB.5L2.B1"             26091.72               28.288                    1      0.9949532414873                    0        0.68995989422          60.71940659
         "BPM.16L2.B1"       "BPMYB.5L2.B1"             26145.17               28.288                    1     0.08257904148728                    0        0.77517184422          60.80461854
         "BPM.15L2.B1"       "BPMYB.5L2.B1"             26198.62               28.288                    1      0.2393488414873                    0        0.92781539422          60.95726209
         "BPM.14L2.B1"       "BPMYB.5L2.B1"             26252.07               28.288                    1      0.3835791414873                    0        0.07523207422          61.10467877
         "BPM.13L2.B1"       "BPMYB.5L2.B1"             26305.52               28.288                    1      0.4965691414873                    0        0.18995989422          61.21940659
         "BPM.12L2.B1"       "BPMYB.5L2.B1"             26358.97               28.288                    1      0.5907387414873                    0        0.28097785422          61.31042455
         "BPM.11L2.B1"       "BPMYB.5L2.B1"             26412.43               28.288                    1      0.7594797214873                    0        0.44615009422          61.47559679
         "BPM.10L2.B1"       "BPMYB.5L2.B1"             26464.27               28.288                    1      0.8908779414873                    0        0.58392133422          61.61336803
          "BPM.9L2.B1"       "BPMYB.5L2.B1"             26503.33               28.288                    1      0.9884538414873                    0        0.68363097422          61.71307767
          "BPM.8L2.B1"       "BPMYB.5L2.B1"              26543.8               28.288                    1      0.1033783414873                    0        0.79789954422          61.82734624
          "BPM.7L2.B1"       "BPMYB.5L2.B1"             26582.87               28.288                    1      0.3425967414873                    0        0.03408501422          62.06353171
         "BPMR.6L2.B1"       "BPMYB.5L2.B1"             26614.97               28.288                    1      0.4327706414873                    0        0.12892836422          62.15837506