@ GetLLMVersion %s "V3.0.0 Dev"
@ Command %s "/afs/cern.ch/work/o/omc/anaconda/bin/python '/afs/cern.ch/eng/sl/lintrack/Beta-Beat.src/GetLLM/GetLLM.py' '--accel=LHCB1' '--model=/afs/cern.ch/user/t/thpugnat/public/Outputs/2018-09-04/models/LHCB1/b1_squeeze_collQ/twiss.dat' '--files=/afs/cern.ch/user/t/thpugnat/public/Outputs/2018-09-04/LHCB1/Measurements/Beam1@Turn@2018_06_16@17_42_26_736/Beam1@Turn@2018_06_16@17_42_26_736.sdds.clean' '--output=/afs/cern.ch/user/t/thpugnat/public/Outputs/2018-09-04/LHCB1/Results/15-50-13_NORMALANALYSIS_SUSSIX_27' '--tbtana=SUSSIX' '--bpmu=mm' '--lhcphase=1' '--errordefs=/afs/cern.ch/user/t/thpugnat/public/Outputs/2018-09-04/models/LHCB1/b1_squeeze_collQ/error_deff.txt' '--calibration=/afs/cern.ch/eng/sl/lintrack/LHC_commissioning2017/Calibration_factors_2017/Calibration_factors_2017_beam1'"
@ CWD %s "/afs/cern.ch/user/t/thpugnat"
@ Date %s "04. September 2018, 15:50:22"
@ Q1 %le 0.31043224148727544
@ MUX %le 63.31043224148727
@ Q2 %le 0.31982104151696095
@ MUY %le 63.31982104151694
@ FILES %s "/afs/cern.ch/user/t/thpugnat/public/Outputs/2018-09-04/LHCB1/Measurements/Beam1@Turn@2018_06_16@17_42_26_736/Beam1@Turn@2018_06_16@17_42_26_736.sdds.clean_liny"
*                 NAME                NAME2                    S                   S1                COUNT               PHASEY               STDPHY               PHYMDL               MUYMDL
$                   %s                   %s                  %le                  %le                  %le                  %le                  %le                  %le                  %le
        "BPMYB.5L2.B1"       "BPMYB.5L2.B1"               28.288               28.288                    1                    0                    0                    0         0.1210674621
        "BPMYB.4L2.B1"       "BPMYB.5L2.B1"               48.858               28.288                    1         0.0590280048                    0         0.0538582759          0.174925738
        "BPMWI.4L2.B1"       "BPMYB.5L2.B1"              73.3255               28.288                    1         0.0986938265                    0         0.0888090237         0.2098764858
        "BPMSX.4L2.B1"       "BPMYB.5L2.B1"             123.4825               28.288                    1         0.1799377511                    0         0.1701676129          0.291235075
         "BPMS.2L2.B1"       "BPMYB.5L2.B1"              161.394               28.288                    1         0.2167542712                    0         0.2136973867         0.3347648488
        "BPMSW.1L2.B1"       "BPMYB.5L2.B1"              171.328               28.288                    1         0.2343112235                    0         0.2316436707         0.3527111328
        "BPMSW.1R2.B1"       "BPMYB.5L2.B1"              214.518               28.288                    1       0.925498811017                    0         0.5935997394         0.7146672015
         "BPMS.2R2.B1"       "BPMYB.5L2.B1"              224.452               28.288                    1       0.951911458317                    0         0.6170248956         0.7380923577
        "BPMSX.4R2.B1"       "BPMYB.5L2.B1"             262.3635               28.288                    1       1.001109576017                    0         0.6674291696         0.7884966317
        "BPMWB.4R2.B1"       "BPMYB.5L2.B1"             312.5965               28.288                    1     0.07102182631697                    0         0.7366397387         0.8577072008
        "BPMYB.4R2.B1"       "BPMYB.5L2.B1"              336.988               28.288                    1       0.122556348917                    0         0.7877443125         0.9088117746
         "BPMR.5R2.B1"       "BPMYB.5L2.B1"              366.522               28.288                    1       0.157074074017                    0         0.8220876848         0.9431551469
          "BPM.6R2.B1"       "BPMYB.5L2.B1"              439.818               28.288                    1       0.372963621117                    0         0.0436748659          1.164742328
        "BPM_A.7R2.B1"       "BPMYB.5L2.B1"              452.693               28.288                    1       0.408558544117                    0         0.0767302659          1.197797728
          "BPM.8R2.B1"       "BPMYB.5L2.B1"               494.13               28.288                    1       0.530368264117                    0         0.1969191719          1.317986634
          "BPM.9R2.B1"       "BPMYB.5L2.B1"              533.195               28.288                    1       0.658321778117                    0         0.3246118699          1.445679332
         "BPM.10R2.B1"       "BPMYB.5L2.B1"              573.658               28.288                    1       0.742245701117                    0         0.4119077949          1.532975257
         "BPM.11R2.B1"       "BPMYB.5L2.B1"             625.4967               28.288                    1       0.872545489117                    0         0.5361991689          1.657266631
         "BPM.12R2.B1"       "BPMYB.5L2.B1"             680.2203               28.288                    1       0.995083320117                    0         0.6557243029          1.776791765
         "BPM.13R2.B1"       "BPMYB.5L2.B1"             733.6688               28.288                    1       0.135688193117                    0         0.8001384839          1.921205946
         "BPM.14R2.B1"       "BPMYB.5L2.B1"             787.1173               28.288                    1       0.246592162117                    0         0.9119604249          2.033027887
         "BPM.15R2.B1"       "BPMYB.5L2.B1"             840.5658               28.288                    1       0.379743943117                    0         0.0435985879           2.16466605
         "BPM.16R2.B1"       "BPMYB.5L2.B1"             894.0143               28.288                    1       0.488044572117                    0         0.1508300939          2.271897556
         "BPM.17R2.B1"       "BPMYB.5L2.B1"             947.4628               28.288                    1       0.613997030117                    0         0.2790763149          2.400143777
         "BPM.18R2.B1"       "BPMYB.5L2.B1"             1000.911               28.288                    1       0.722796776117                    0         0.3904963489          2.511563811
         "BPM.19R2.B1"       "BPMYB.5L2.B1"              1054.36               28.288                    1       0.855570972117                    0         0.5227815269          2.643848989
         "BPM.20R2.B1"       "BPMYB.5L2.B1"             1107.808               28.288                    1       0.964758691117                    0         0.6304598169          2.751527279
         "BPM.21R2.B1"       "BPMYB.5L2.B1"             1161.257               28.288                    1     0.09048766111697                    0         0.7581565539          2.879224016
         "BPM.22R2.B1"       "BPMYB.5L2.B1"             1214.705               28.288                    1       0.195907020117                    0         0.8690376669          2.990105129
         "BPM.23R2.B1"       "BPMYB.5L2.B1"             1268.154               28.288                    1       0.332101843117                    0         0.0011200599          3.122187522
         "BPM.24R2.B1"       "BPMYB.5L2.B1"             1321.602               28.288                    1       0.444311283117                    0         0.1120007169          3.233068179
         "BPM.25R2.B1"       "BPMYB.5L2.B1"             1375.051               28.288                    1       0.577289728117                    0         0.2440857069          3.365153169
         "BPM.26R2.B1"       "BPMYB.5L2.B1"             1428.499               28.288                    1       0.685910973117                    0         0.3549671749          3.476034637
         "BPM.27R2.B1"       "BPMYB.5L2.B1"             1481.948               28.288                    1       0.819472945117                    0         0.4870496509          3.608117113
         "BPM.28R2.B1"       "BPMYB.5L2.B1"             1535.397               28.288                    1       0.930328545117                    0         0.5979301139          3.718997576
         "BPM.29R2.B1"       "BPMYB.5L2.B1"             1588.845               28.288                    1     0.06280949711697                    0         0.7300150019          3.851082464
         "BPM.30R2.B1"       "BPMYB.5L2.B1"             1642.294               28.288                    1       0.172145001117                    0         0.8408966559          3.961964118
         "BPM.31R2.B1"       "BPMYB.5L2.B1"             1695.742               28.288                    1       0.304416445117                    0         0.9729792529          4.094046715
         "BPM.32R2.B1"       "BPMYB.5L2.B1"             1749.191               28.288                    1       0.417672638117                    0         0.0838595399          4.204927002
         "BPM.33R2.B1"       "BPMYB.5L2.B1"             1802.639               28.288                    1       0.550195586117                    0         0.2159442879           4.33701175
         "BPM.34R2.B1"       "BPMYB.5L2.B1"             1856.088               28.288                    1       0.657526159117                    0         0.3268261079           4.44789357
         "BPM.33L3.B1"       "BPMYB.5L2.B1"             1909.536               28.288                    1       0.788888159117                    0         0.4589088609          4.579976323
         "BPM.32L3.B1"       "BPMYB.5L2.B1"             1962.985               28.288                    1       0.901242909117                    0         0.5697889939          4.690856456
         "BPM.31L3.B1"       "BPMYB.5L2.B1"             2016.433               28.288                    1     0.03895507111697                    0         0.7018735719          4.822941034
         "BPM.30L3.B1"       "BPMYB.5L2.B1"             2069.882               28.288                    1       0.144235177117                    0         0.8127555309          4.933822993
         "BPM.29L3.B1"       "BPMYB.5L2.B1"              2123.33               28.288                    1       0.273156541117                    0         0.9448384689          5.065905931
         "BPM.27L3.B1"       "BPMYB.5L2.B1"             2230.227               28.288                    1       0.525189054117                    0         0.1878028559          5.308870318
         "BPM.26L3.B1"       "BPMYB.5L2.B1"             2283.676               28.288                    1       0.632711435117                    0         0.2986849259          5.419752388
         "BPM.25L3.B1"       "BPMYB.5L2.B1"             2337.124               28.288                    1       0.757166708117                    0         0.4307680739          5.551835536
         "BPM.24L3.B1"       "BPMYB.5L2.B1"             2390.573               28.288                    1       0.875566464117                    0         0.5416479869          5.662715449
         "BPM.23L3.B1"       "BPMYB.5L2.B1"             2444.021               28.288                    1     0.01225481911697                    0         0.6737321469          5.794799609
         "BPM.22L3.B1"       "BPMYB.5L2.B1"              2497.47               28.288                    1       0.120145562117                    0         0.7846142949          5.905681757
         "BPM.21L3.B1"       "BPMYB.5L2.B1"             2550.918               28.288                    1       0.249470988117                    0         0.9166976699          6.037765132
         "BPM.20L3.B1"       "BPMYB.5L2.B1"             2604.367               28.288                    1       0.360095841117                    0         0.0243169689          6.145384431
         "BPM.19L3.B1"       "BPMYB.5L2.B1"             2657.815               28.288                    1       0.492212855117                    0         0.1521987779           6.27326624
         "BPM.18L3.B1"       "BPMYB.5L2.B1"             2711.264               28.288                    1       0.602526105117                    0         0.2631672969          6.384234759
         "BPM.17L3.B1"       "BPMYB.5L2.B1"             2764.712               28.288                    1       0.728799113117                    0         0.3957711549          6.516838617
         "BPM.16L3.B1"       "BPMYB.5L2.B1"             2818.161               28.288                    1       0.836679252117                    0         0.5039164839          6.624983946
         "BPM.14L3.B1"       "BPMYB.5L2.B1"             2925.058               28.288                    1     0.08034276311697                    0         0.7417553029          6.862822765
         "BPM.13L3.B1"       "BPMYB.5L2.B1"             2978.506               28.288                    1       0.206926497117                    0         0.8747063269          6.995773789
         "BPM.12L3.B1"       "BPMYB.5L2.B1"             3031.955               28.288                    1       0.321200926117                    0         0.9891134559          7.110180918
         "BPM.11L3.B1"       "BPMYB.5L2.B1"             3085.403               28.288                    1       0.456926663117                    0         0.1211672249          7.242234687
         "BPM.10L3.B1"       "BPMYB.5L2.B1"             3138.184               28.288                    1       0.556507088117                    0         0.2289935219          7.350060984
          "BPM.8L3.B1"       "BPMYB.5L2.B1"             3217.712               28.288                    1       0.844286779117                    0         0.5131263779           7.63419384
          "BPM.7L3.B1"       "BPMYB.5L2.B1"             3256.776               28.288                    1     0.02198473911697                    0         0.6863027889          7.807370251
          "BPM.6L3.B1"       "BPMYB.5L2.B1"             3329.415               28.288                    1       0.141848885117                    0         0.8056618209          7.926729283
       "BPMWG.A5L3.B1"       "BPMYB.5L2.B1"              3371.12               28.288                    1       0.185529657117                    0         0.8524368139          7.973504276
         "BPMW.5L3.B1"       "BPMYB.5L2.B1"              3400.09               28.288                    1       0.199102670117                    0         0.8680366659          7.989104128
        "BPMWE.4L3.B1"       "BPMYB.5L2.B1"             3475.218               28.288                    1       0.270896938117                    0         0.9414623889          8.062529851
         "BPMW.4L3.B1"       "BPMYB.5L2.B1"             3502.763               28.288                    1       0.315759203117                    0         0.9870889029          8.108156365
         "BPMW.4R3.B1"       "BPMYB.5L2.B1"             3547.728               28.288                    1       0.354388221117                    0         0.0222310869          8.143298549
        "BPMWE.4R3.B1"       "BPMYB.5L2.B1"             3575.273               28.288                    1       0.363997062117                    0         0.0335196489          8.154587111
         "BPMW.5R3.B1"       "BPMYB.5L2.B1"             3650.401               28.288                    1       0.438204306117                    0         0.1069029339          8.227970396
       "BPMWJ.A5R3.B1"       "BPMYB.5L2.B1"             3679.119               28.288                    1       0.503546936117                    0         0.1702631879           8.29133065
        "BPMWC.6R3.B1"       "BPMYB.5L2.B1"             3718.937               28.288                    1       0.549108023117                    0         0.2152212449          8.336288707
         "BPMR.6R3.B1"       "BPMYB.5L2.B1"             3731.015               28.288                    1       0.555898448117                    0         0.2228963229          8.343963785
        "BPM_A.7R3.B1"       "BPMYB.5L2.B1"             3786.839               28.288                    1       0.623949569117                    0         0.2944117209          8.415479183
          "BPM.8R3.B1"       "BPMYB.5L2.B1"             3825.903               28.288                    1       0.683881132117                    0         0.3564300309          8.477497493
         "BPM.10R3.B1"       "BPMYB.5L2.B1"             3905.431               28.288                    1       0.799859985117                    0         0.4724099559          8.593477418
         "BPM.11R3.B1"       "BPMYB.5L2.B1"             3958.212               28.288                    1       0.904329589117                    0         0.5741056109          8.695173073
         "BPM.12R3.B1"       "BPMYB.5L2.B1"             4012.935               28.288                    1     0.02527958511697                    0         0.6961752189          8.817242681
         "BPM.13R3.B1"       "BPMYB.5L2.B1"             4066.384               28.288                    1       0.140476329117                    0         0.8111498299          8.932217292
         "BPM.14R3.B1"       "BPMYB.5L2.B1"             4119.833               28.288                    1       0.269950538117                    0         0.9418426319          9.062910094
         "BPM.15R3.B1"       "BPMYB.5L2.B1"             4173.281               28.288                    1       0.375662972117                    0         0.0488091259          9.169876588
         "BPM.17R3.B1"       "BPMYB.5L2.B1"             4280.178               28.288                    1       0.622024444117                    0         0.2897522669          9.410819729
         "BPM.19R3.B1"       "BPMYB.5L2.B1"             4387.075               28.288                    1       0.864331085117                    0         0.5284015819          9.649469044
         "BPM.20R3.B1"       "BPMYB.5L2.B1"             4440.524               28.288                    1       0.993693283117                    0         0.6568495999          9.777917062
         "BPM.21R3.B1"       "BPMYB.5L2.B1"             4493.972               28.288                    1       0.103605035117                    0         0.7683100409          9.889377503
         "BPM.22R3.B1"       "BPMYB.5L2.B1"             4547.421               28.288                    1       0.234034508117                    0         0.9003933879          10.02146085
         "BPM.23R3.B1"       "BPMYB.5L2.B1"             4600.869               28.288                    1       0.346461288117                    0         0.0112753179          10.13234278
         "BPM.24R3.B1"       "BPMYB.5L2.B1"             4654.318               28.288                    1       0.480554258117                    0         0.1433601379           10.2644276
         "BPM.25R3.B1"       "BPMYB.5L2.B1"             4707.766               28.288                    1       0.593213368117                    0         0.2542403079          10.37530777
         "BPM.26R3.B1"       "BPMYB.5L2.B1"             4761.215               28.288                    1       0.719378198117                    0         0.3863228279          10.50739029
         "BPM.27R3.B1"       "BPMYB.5L2.B1"             4814.663               28.288                    1       0.831512788117                    0         0.4972045879          10.61827205
         "BPM.28R3.B1"       "BPMYB.5L2.B1"             4868.112               28.288                    1       0.965862988117                    0         0.6292895679          10.75035703
         "BPM.29R3.B1"       "BPMYB.5L2.B1"              4921.56               28.288                    1     0.07451177811697                    0         0.7401699279          10.86123739
         "BPM.30R3.B1"       "BPMYB.5L2.B1"             4975.009               28.288                    1       0.206903218117                    0         0.8722523079          10.99331977
         "BPM.31R3.B1"       "BPMYB.5L2.B1"             5028.457               28.288                    1       0.320559648117                    0         0.9831338679          11.10420133
         "BPM.32R3.B1"       "BPMYB.5L2.B1"             5081.906               28.288                    1       0.452832078117                    0         0.1152189679          11.23628643
         "BPM.33R3.B1"       "BPMYB.5L2.B1"             5135.354               28.288                    1       0.563003208117                    0         0.2260995379            11.347167
         "BPM.34R3.B1"       "BPMYB.5L2.B1"             5188.803               28.288                    1       0.694805268117                    0         0.3581818179          11.47924928
         "BPM.33L4.B1"       "BPMYB.5L2.B1"             5242.251               28.288                    1       0.804278878117                    0         0.4690631579          11.59013062
         "BPM.32L4.B1"       "BPMYB.5L2.B1"               5295.7               28.288                    1       0.937166538117                    0         0.6011483379           11.7222158
         "BPM.31L4.B1"       "BPMYB.5L2.B1"             5349.148               28.288                    1     0.04718566811697                    0         0.7120291279          11.83309659
         "BPM.30L4.B1"       "BPMYB.5L2.B1"             5402.597               28.288                    1       0.179571228117                    0         0.8441113479          11.96517881
         "BPM.29L4.B1"       "BPMYB.5L2.B1"             5456.045               28.288                    1       0.286588638117                    0         0.9549924679          12.07605993
         "BPM.27L4.B1"       "BPMYB.5L2.B1"             5562.942               28.288                    1       0.534629838117                    0         0.1979587079          12.31902617
         "BPM.26L4.B1"       "BPMYB.5L2.B1"             5616.391               28.288                    1       0.665724998117                    0         0.3300409179          12.45110838
         "BPM.25L4.B1"       "BPMYB.5L2.B1"             5669.839               28.288                    1       0.773224348117                    0         0.4409217979          12.56198926
         "BPM.24L4.B1"       "BPMYB.5L2.B1"             5723.288               28.288                    1       0.908356648117                    0         0.5730069979          12.69407446
         "BPM.23L4.B1"       "BPMYB.5L2.B1"             5776.736               28.288                    1     0.01766077811697                    0         0.6838882479          12.80495571
         "BPM.22L4.B1"       "BPMYB.5L2.B1"             5830.185               28.288                    1       0.151177958117                    0         0.8159704979          12.93703796
         "BPM.21L4.B1"       "BPMYB.5L2.B1"             5883.634               28.288                    1       0.260902158117                    0         0.9268511579          13.04791862
         "BPM.20L4.B1"       "BPMYB.5L2.B1"             5937.082               28.288                    1       0.394999378117                    0         0.0596373879          13.18070485
         "BPM.19L4.B1"       "BPMYB.5L2.B1"             5990.531               28.288                    1       0.505978168117                    0         0.1678839079          13.28895137
         "BPM.18L4.B1"       "BPMYB.5L2.B1"             6043.979               28.288                    1       0.633952008117                    0         0.2951934179          13.41626088
         "BPM.17L4.B1"       "BPMYB.5L2.B1"             6097.428               28.288                    1       0.744407918117                    0         0.4054366979          13.52650416
         "BPM.15L4.B1"       "BPMYB.5L2.B1"             6204.325               28.288                    1       0.985076048117                    0         0.6474339079          13.76850137
         "BPM.14L4.B1"       "BPMYB.5L2.B1"             6257.773               28.288                    1       0.116090558117                    0         0.7745478979          13.89561536
         "BPM.13L4.B1"       "BPMYB.5L2.B1"             6311.222               28.288                    1       0.225430198117                    0         0.8841022579          14.00516972
         "BPM.12L4.B1"       "BPMYB.5L2.B1"              6364.67               28.288                    1       0.357191418117                    0         0.0170653079          14.13813277
         "BPM.11L4.B1"       "BPMYB.5L2.B1"             6418.119               28.288                    1       0.466024528117                    0         0.1228104379           14.2438779
         "BPM.10L4.B1"       "BPMYB.5L2.B1"             6469.957               28.288                    1       0.581952958117                    0         0.2404490479          14.36151651
          "BPM.9L4.B1"       "BPMYB.5L2.B1"             6509.022               28.288                    1       0.643316688117                    0         0.3009629479          14.42203041
          "BPM.8L4.B1"       "BPMYB.5L2.B1"             6549.485               28.288                    1       0.723862558117                    0         0.3858253679          14.50689283
          "BPM.7L4.B1"       "BPMYB.5L2.B1"             6588.549               28.288                    1       0.776433868117                    0         0.4385511179          14.55961858
        "BPMYB.6L4.B1"       "BPMYB.5L2.B1"             6685.153               28.288                    1       0.852135168117                    0         0.5158308879          14.63689835
        "BPMYA.5L4.B1"       "BPMYB.5L2.B1"             6722.153               28.288                    1       0.867995848117                    0         0.5308952579          14.65196272
       "BPMWI.A5L4.B1"       "BPMYB.5L2.B1"             6798.756               28.288                    1       0.921643628117                    0         0.5870814279          14.70814889
       "BPMWA.B5L4.B1"       "BPMYB.5L2.B1"              6824.62               28.288                    1       0.945176098117                    0         0.6059102379           14.7269777
       "BPMWA.A5L4.B1"       "BPMYB.5L2.B1"             6833.505               28.288                    1       0.949858088117                    0         0.6121855279          14.73325299
       "BPMWA.A5R4.B1"       "BPMYB.5L2.B1"             6881.554               28.288                    1       0.984823438117                    0         0.6436212879          14.76468875
       "BPMWA.B5R4.B1"       "BPMYB.5L2.B1"             6890.439               28.288                    1       0.990372488117                    0         0.6488996779          14.76996714
        "BPMYB.5R4.B1"       "BPMYB.5L2.B1"             6992.829               28.288                    1     0.04083378811697                    0         0.6973038079          14.81837127
        "BPMYA.6R4.B1"       "BPMYB.5L2.B1"             7024.393               28.288                    1     0.06544685811697                    0         0.7206498579          14.84171732
          "BPM.7R4.B1"       "BPMYB.5L2.B1"             7120.909               28.288                    1       0.251740718117                    0         0.9132793379           15.0343468
          "BPM.8R4.B1"       "BPMYB.5L2.B1"             7158.698               28.288                    1       0.363709818117                    0         0.0262278779          15.14729534
          "BPM.9R4.B1"       "BPMYB.5L2.B1"             7197.763               28.288                    1       0.464354918117                    0         0.1270247579          15.24809222
         "BPM.10R4.B1"       "BPMYB.5L2.B1"             7238.226               28.288                    1       0.530116768117                    0         0.1906341379           15.3117016
         "BPM.11R4.B1"       "BPMYB.5L2.B1"             7290.065               28.288                    1       0.657335229117                    0         0.3141767279          15.43524419
         "BPM.12R4.B1"       "BPMYB.5L2.B1"             7344.789               28.288                    1       0.806194758117                    0         0.4668131379           15.5878806
         "BPM.13R4.B1"       "BPMYB.5L2.B1"             7398.237               28.288                    1       0.929512538117                    0         0.5940630679          15.71513053
         "BPM.14R4.B1"       "BPMYB.5L2.B1"             7451.686               28.288                    1     0.02730320811697                    0         0.6878825379             15.80895
         "BPM.15R4.B1"       "BPMYB.5L2.B1"             7505.134               28.288                    1       0.191815348117                    0         0.8499210179          15.97098848
         "BPM.16R4.B1"       "BPMYB.5L2.B1"             7558.583               28.288                    1       0.318062118117                    0         0.9830274879          16.10409495
         "BPM.17R4.B1"       "BPMYB.5L2.B1"             7612.031               28.288                    1       0.425968418117                    0         0.0940363579          16.21510382
         "BPM.18R4.B1"       "BPMYB.5L2.B1"              7665.48               28.288                    1       0.523224128117                    0         0.1878480579          16.30891552
         "BPM.19R4.B1"       "BPMYB.5L2.B1"             7718.928               28.288                    1       0.688037528117                    0         0.3498730979          16.47094056
         "BPM.20R4.B1"       "BPMYB.5L2.B1"             7772.377               28.288                    1       0.814146858117                    0         0.4829927379           16.6040602
         "BPM.21R4.B1"       "BPMYB.5L2.B1"             7825.825               28.288                    1       0.924123608117                    0         0.5940092679          16.71507673
         "BPM.22R4.B1"       "BPMYB.5L2.B1"             7879.274               28.288                    1     0.01877524811696                    0         0.6878135779          16.80888104
         "BPM.23R4.B1"       "BPMYB.5L2.B1"             7932.722               28.288                    1       0.182370358117                    0         0.8498251679          16.97089263
         "BPM.24R4.B1"       "BPMYB.5L2.B1"             7986.171               28.288                    1       0.317136908117                    0         0.9829579879          17.10402545
         "BPM.26R4.B1"       "BPMYB.5L2.B1"             8093.068               28.288                    1       0.518667358117                    0         0.1877790979          17.30884656
         "BPM.27R4.B1"       "BPMYB.5L2.B1"             8146.516               28.288                    1       0.685663868117                    0         0.3497772379           17.4708447
         "BPM.28R4.B1"       "BPMYB.5L2.B1"             8199.965               28.288                    1       0.814149748117                    0         0.4829232279          17.60399069
         "BPM.29R4.B1"       "BPMYB.5L2.B1"             8253.413               28.288                    1       0.926488178117                    0         0.5939550879          17.71502255
         "BPM.30R4.B1"       "BPMYB.5L2.B1"             8306.862               28.288                    1     0.02613737811696                    0         0.6877446279          17.80881209
         "BPM.32R4.B1"       "BPMYB.5L2.B1"             8413.759               28.288                    1       0.317323288117                    0         0.9828884679          18.10395593
         "BPM.33R4.B1"       "BPMYB.5L2.B1"             8467.208               28.288                    1       0.428713968117                    0         0.0939279979          18.21499546
         "BPM.34R4.B1"       "BPMYB.5L2.B1"             8520.656               28.288                    1       0.523405888117                    0         0.1877101579          18.30877762
         "BPM.33L5.B1"       "BPMYB.5L2.B1"             8574.105               28.288                    1       0.688108108117                    0         0.3496813779          18.47074884
         "BPM.32L5.B1"       "BPMYB.5L2.B1"             8627.553               28.288                    1       0.819367038117                    0         0.4828537079          18.60392117
         "BPM.31L5.B1"       "BPMYB.5L2.B1"             8681.002               28.288                    1       0.930010648117                    0         0.5939009079          18.71496837
         "BPM.30L5.B1"       "BPMYB.5L2.B1"              8734.45               28.288                    1     0.02671849811696                    0         0.6876756979          18.80874316
         "BPM.29L5.B1"       "BPMYB.5L2.B1"             8787.899               28.288                    1       0.188117688117                    0         0.8496334479          18.97070091
         "BPM.28L5.B1"       "BPMYB.5L2.B1"             8841.347               28.288                    1       0.320119878117                    0         0.9828189379           19.1038864
         "BPM.27L5.B1"       "BPMYB.5L2.B1"             8894.796               28.288                    1       0.430232938117                    0         0.0938738179          19.21494128
         "BPM.26L5.B1"       "BPMYB.5L2.B1"             8948.244               28.288                    1       0.529857518117                    0         0.1876412379           19.3087087
         "BPM.25L5.B1"       "BPMYB.5L2.B1"             9001.693               28.288                    1       0.653642740117                    0         0.3495855079          19.47065297
         "BPM.24L5.B1"       "BPMYB.5L2.B1"             9055.141               28.288                    1       0.819231708117                    0         0.4827841579          19.60385162
         "BPM.22L5.B1"       "BPMYB.5L2.B1"             9162.038               28.288                    1     0.02913921811696                    0         0.6876067779          19.80867424
         "BPM.21L5.B1"       "BPMYB.5L2.B1"             9215.487               28.288                    1       0.191624308117                    0         0.8495375779          19.97060504
         "BPM.20L5.B1"       "BPMYB.5L2.B1"             9268.935               28.288                    1       0.319827348117                    0         0.9827493779          20.10381684
         "BPM.19L5.B1"       "BPMYB.5L2.B1"             9322.384               28.288                    1       0.426545098117                    0         0.0938196379           20.2148871
         "BPM.18L5.B1"       "BPMYB.5L2.B1"             9375.832               28.288                    1       0.521492938117                    0         0.1875723279          20.30863979
         "BPM.17L5.B1"       "BPMYB.5L2.B1"             9429.281               28.288                    1       0.685824388117                    0         0.3494896379           20.4705571
         "BPM.16L5.B1"       "BPMYB.5L2.B1"             9482.729               28.288                    1       0.814744488117                    0         0.4827145979          20.60378206
         "BPM.15L5.B1"       "BPMYB.5L2.B1"             9536.178               28.288                    1       0.923395688117                    0         0.5937925479          20.71486001
         "BPM.14L5.B1"       "BPMYB.5L2.B1"             9589.626               28.288                    1     0.02021445811696                    0         0.6875378879          20.80860535
         "BPM.13L5.B1"       "BPMYB.5L2.B1"             9643.075               28.288                    1       0.181060348117                    0         0.8494417079          20.97050917
         "BPM.12L5.B1"       "BPMYB.5L2.B1"             9696.523               28.288                    1       0.307296948117                    0         0.9756651379           21.0967326
         "BPM.11L5.B1"       "BPMYB.5L2.B1"             9749.972               28.288                    1       0.412214468117                    0         0.0819150079          21.20298247
         "BPM.10L5.B1"       "BPMYB.5L2.B1"             9802.753               28.288                    1       0.478571978117                    0         0.1468177979          21.26788526
          "BPM.9L5.B1"       "BPMYB.5L2.B1"             9841.818               28.288                    1       0.534984788117                    0         0.2026796379           21.3237471
          "BPM.8L5.B1"       "BPMYB.5L2.B1"             9882.281               28.288                    1       0.690226458117                    0         0.3572723579          21.47833982
         "BPMR.7L5.B1"       "BPMYB.5L2.B1"             9921.347               28.288                    1       0.941050288117                    0         0.6096775679          21.73074503
         "BPMR.5L5.B1"       "BPMYB.5L2.B1"             9990.141               28.288                    1       0.392483308117                    0         0.0610015679          22.18206903
        "BPMWB.4L5.B1"       "BPMYB.5L2.B1"             10038.68               28.288                    1       0.412891158117                    0         0.0812344179          22.20230188
        "BPMSY.4L5.B1"       "BPMYB.5L2.B1"             10131.46               28.288                    1       0.419201208117                    0         0.0866339279          22.20770139
         "BPMS.2L5.B1"       "BPMYB.5L2.B1"             10158.25               28.288                    1       0.419981738117                    0         0.0878767379           22.2089442
        "BPMSW.1L5.B1"       "BPMYB.5L2.B1"             10168.21               28.288                    1       0.420486618117                    0         0.0886830179          22.20975048
         "BPMS.2R5.B1"       "BPMYB.5L2.B1"              10221.3               28.288                    1       0.917186468117                    0         0.5848824679          22.70594993
        "BPMSY.4R5.B1"       "BPMYB.5L2.B1"             10248.09               28.288                    1       0.917452838117                    0         0.5857390979          22.70680656
        "BPMWB.4R5.B1"       "BPMYB.5L2.B1"             10340.87               28.288                    1       0.923928178117                    0         0.5918678279          22.71293529
        "BPMYA.4R5.B1"       "BPMYB.5L2.B1"                10362               28.288                    1       0.926803368117                    0         0.5939723879          22.71503985
          "BPM.5R5.B1"       "BPMYB.5L2.B1"             10383.12               28.288                    1       0.929507978117                    0         0.5972689479          22.71833641
         "BPMR.6R5.B1"       "BPMYB.5L2.B1"             10415.02               28.288                    1       0.940484678117                    0         0.6089817279          22.73004919
          "BPM.8R5.B1"       "BPMYB.5L2.B1"             10490.47               28.288                    1       0.265928138117                    0         0.9326037579          23.05367122
          "BPM.9R5.B1"       "BPMYB.5L2.B1"             10529.54               28.288                    1       0.342770208117                    0         0.0124974279          23.13356489
         "BPM.10R5.B1"       "BPMYB.5L2.B1"             10570.01               28.288                    1       0.417161858117                    0         0.0844840079          23.20555147
         "BPM.11R5.B1"       "BPMYB.5L2.B1"             10622.79               28.288                    1       0.511622618117                    0         0.1785306279          23.29959809
         "BPM.12R5.B1"       "BPMYB.5L2.B1"             10677.51               28.288                    1       0.678674378117                    0         0.3503743179          23.47144178
         "BPM.14R5.B1"       "BPMYB.5L2.B1"             10784.42               28.288                    1       0.926319778117                    0         0.5946939979          23.71576146
         "BPM.17R5.B1"       "BPMYB.5L2.B1"             10944.77               28.288                    1       0.317230188117                    0         0.9838596279          24.10492709
         "BPM.18R5.B1"       "BPMYB.5L2.B1"             10998.22               28.288                    1       0.430118778117                    0         0.0946939979          24.21576146
         "BPM.19R5.B1"       "BPMYB.5L2.B1"             11051.68               28.288                    1       0.525567788117                    0         0.1886937079          24.30976117
         "BPM.20R5.B1"       "BPMYB.5L2.B1"             11105.13               28.288                    1       0.690072768117                    0         0.3510599979          24.47212746
         "BPM.23R5.B1"       "BPMYB.5L2.B1"             11265.48               28.288                    1     0.03025688811696                    0         0.6886937079          24.80976117
         "BPM.24R5.B1"       "BPMYB.5L2.B1"             11318.93               28.288                    1       0.192731688117                    0         0.8510599979          24.97212746
         "BPM.25R5.B1"       "BPMYB.5L2.B1"             11372.38               28.288                    1       0.320700688117                    0         0.9838596279          25.10492709
         "BPM.26R5.B1"       "BPMYB.5L2.B1"             11425.84               28.288                    1       0.433612678117                    0         0.0946939979          25.21576146
         "BPM.27R5.B1"       "BPMYB.5L2.B1"             11479.29               28.288                    1       0.529076488117                    0         0.1886937079          25.30976117
         "BPM.28R5.B1"       "BPMYB.5L2.B1"             11532.74               28.288                    1       0.687631588117                    0         0.3510599979          25.47212746
         "BPM.29R5.B1"       "BPMYB.5L2.B1"             11586.19               28.288                    1       0.818916988117                    0         0.4838596279          25.60492709
         "BPM.30R5.B1"       "BPMYB.5L2.B1"             11639.64               28.288                    1       0.933878078117                    0         0.5946939979          25.71576146
         "BPM.31R5.B1"       "BPMYB.5L2.B1"             11693.09               28.288                    1     0.02690898811696                    0         0.6886937079          25.80976117
         "BPM.32R5.B1"       "BPMYB.5L2.B1"             11746.54               28.288                    1       0.185767388117                    0         0.8510599979          25.97212746
         "BPM.33R5.B1"       "BPMYB.5L2.B1"                11800               28.288                    1       0.316848288117                    0         0.9838596279          26.10492709
         "BPM.34R5.B1"       "BPMYB.5L2.B1"             11853.45               28.288                    1       0.432731278117                    0         0.0946939979          26.21576146
         "BPM.33L6.B1"       "BPMYB.5L2.B1"              11906.9               28.288                    1       0.528682788117                    0         0.1886937079          26.30976117
         "BPM.32L6.B1"       "BPMYB.5L2.B1"             11960.35               28.288                    1       0.683557958117                    0         0.3510599979          26.47212746
         "BPM.30L6.B1"       "BPMYB.5L2.B1"             12067.25               28.288                    1       0.929974778117                    0         0.5946939979          26.71576146
         "BPM.29L6.B1"       "BPMYB.5L2.B1"              12120.7               28.288                    1     0.02658168811696                    0         0.6886937079          26.80976117
         "BPM.28L6.B1"       "BPMYB.5L2.B1"             12174.16               28.288                    1       0.181585588117                    0         0.8510599979          26.97212746
         "BPM.27L6.B1"       "BPMYB.5L2.B1"             12227.61               28.288                    1       0.313762988117                    0         0.9838596279          27.10492709
         "BPM.26L6.B1"       "BPMYB.5L2.B1"             12281.06               28.288                    1       0.427939578117                    0         0.0946939979          27.21576146
         "BPM.25L6.B1"       "BPMYB.5L2.B1"             12334.51               28.288                    1       0.522418388117                    0         0.1886937079          27.30976117
         "BPM.24L6.B1"       "BPMYB.5L2.B1"             12387.96               28.288                    1       0.680342408117                    0         0.3510599979          27.47212746
         "BPM.22L6.B1"       "BPMYB.5L2.B1"             12494.87               28.288                    1       0.927006778117                    0         0.5946939979          27.71576146
         "BPM.21L6.B1"       "BPMYB.5L2.B1"             12548.32               28.288                    1     0.02715708811696                    0         0.6886937079          27.80976117
         "BPM.20L6.B1"       "BPMYB.5L2.B1"             12601.77               28.288                    1       0.180387788117                    0         0.8510599979          27.97212746
         "BPM.19L6.B1"       "BPMYB.5L2.B1"             12655.22               28.288                    1       0.313229788117                    0         0.9838596279          28.10492709
         "BPM.18L6.B1"       "BPMYB.5L2.B1"             12708.67               28.288                    1       0.433178278117                    0         0.0946939979          28.21576146
         "BPM.17L6.B1"       "BPMYB.5L2.B1"             12762.12               28.288                    1       0.529343188117                    0         0.1886937079          28.30976117
         "BPM.16L6.B1"       "BPMYB.5L2.B1"             12815.57               28.288                    1       0.687521108117                    0         0.3510599979          28.47212746
         "BPM.15L6.B1"       "BPMYB.5L2.B1"             12869.03               28.288                    1       0.817742288117                    0         0.4838596279          28.60492709
         "BPM.14L6.B1"       "BPMYB.5L2.B1"             12922.48               28.288                    1       0.935549578117                    0         0.5946939979          28.71576146
         "BPM.13L6.B1"       "BPMYB.5L2.B1"             12975.93               28.288                    1     0.03024598811696                    0         0.6886937079          28.80976117
         "BPM.12L6.B1"       "BPMYB.5L2.B1"             13029.38               28.288                    1       0.192179858117                    0         0.8510270179          28.97209448
         "BPM.11L6.B1"       "BPMYB.5L2.B1"             13082.83               28.288                    1       0.330826158117                    0         0.9965425779          29.11761004
         "BPM.10L6.B1"       "BPMYB.5L2.B1"             13134.67               28.288                    1       0.451779488117                    0         0.1131843079          29.23425177
          "BPM.9L6.B1"       "BPMYB.5L2.B1"             13173.74               28.288                    1       0.557854198117                    0         0.2140346279          29.33510209
          "BPM.8L6.B1"       "BPMYB.5L2.B1"              13214.2               28.288                    1       0.820305778117                    0         0.4855594279          29.60662689
        "BPMYA.5L6.B1"       "BPMYB.5L2.B1"             13311.29               28.288                    1       0.918770278117                    0         0.5830782579          29.70414572
        "BPMYB.4L6.B1"       "BPMYB.5L2.B1"             13347.69               28.288                    1       0.938444658117                    0         0.6020158479          29.72308331
       "BPMSX.B4L6.B1"       "BPMYB.5L2.B1"             13383.23               28.288                    1       0.948263368117                    0         0.6117149879          29.73278245
       "BPMSX.A4L6.B1"       "BPMYB.5L2.B1"             13383.82               28.288                    1       0.948493288117                    0         0.6118943379           29.7329618
        "BPMSA.4R6.B1"       "BPMYB.5L2.B1"             13568.51               28.288                    1     0.07226914811696                    0         0.7370359779          29.85810344
       "BPMSI.A4R6.B1"       "BPMYB.5L2.B1"             13661.77               28.288                    1       0.182683258117                    0         0.8528182679          29.97388573
       "BPMSI.B4R6.B1"       "BPMYB.5L2.B1"             13662.41               28.288                    1       0.188318198117                    0         0.8534923779          29.97455984
        "BPMYA.4R6.B1"       "BPMYB.5L2.B1"             13691.29               28.288                    1       0.215253388117                    0         0.8811926779          30.00226014
        "BPMYB.5R6.B1"       "BPMYB.5L2.B1"             13727.69               28.288                    1       0.232662658117                    0         0.8992209579          30.02028842
          "BPM.9R6.B1"       "BPMYB.5L2.B1"             13862.49               28.288                    1       0.530620068117                    0         0.1985502879          30.31961775
         "BPM.10R6.B1"       "BPMYB.5L2.B1"             13902.95               28.288                    1       0.681955148117                    0         0.3007700779          30.42183754
         "BPM.11R6.B1"       "BPMYB.5L2.B1"             13954.79               28.288                    1       0.773728448117                    0         0.4432209679          30.56428843
         "BPM.12R6.B1"       "BPMYB.5L2.B1"             14009.52               28.288                    1       0.883494228117                    0         0.5530425079          30.67410997
         "BPM.13R6.B1"       "BPMYB.5L2.B1"             14062.97               28.288                    1     0.01088788811696                    0         0.6835968479          30.80466431
         "BPM.14R6.B1"       "BPMYB.5L2.B1"             14116.42               28.288                    1       0.129599468117                    0         0.8013872479          30.92245471
         "BPM.15R6.B1"       "BPMYB.5L2.B1"             14169.87               28.288                    1       0.271139368117                    0         0.9400940479          31.06116151
         "BPM.16R6.B1"       "BPMYB.5L2.B1"             14223.33               28.288                    1       0.386584668117                    0         0.0584284079          31.17949587
         "BPM.17R6.B1"       "BPMYB.5L2.B1"             14276.78               28.288                    1       0.538281058117                    0         0.2037881779          31.32485564
         "BPM.18R6.B1"       "BPMYB.5L2.B1"             14330.23               28.288                    1       0.655394565117                    0         0.3208629979          31.44193046
         "BPM.20R6.B1"       "BPMYB.5L2.B1"             14437.13               28.288                    1       0.915540968117                    0         0.5787887879          31.69985625
         "BPM.21R6.B1"       "BPMYB.5L2.B1"             14490.58               28.288                    1     0.06336601811697                    0         0.7238563979          31.84492386
         "BPM.22R6.B1"       "BPMYB.5L2.B1"             14544.04               28.288                    1       0.183336118117                    0         0.8402715079          31.96133897
         "BPM.23R6.B1"       "BPMYB.5L2.B1"             14597.49               28.288                    1       0.320703908117                    0         0.9802157679          32.10128323
         "BPM.24R6.B1"       "BPMYB.5L2.B1"             14650.94               28.288                    1       0.433708278117                    0         0.0966353179          32.21770278
         "BPM.25R6.B1"       "BPMYB.5L2.B1"             14704.39               28.288                    1       0.572177288117                    0         0.2365782779          32.35764574
         "BPM.26R6.B1"       "BPMYB.5L2.B1"             14757.84               28.288                    1       0.690232118117                    0         0.3529933179          32.47406078
         "BPM.27R6.B1"       "BPMYB.5L2.B1"             14811.29               28.288                    1       0.831071258117                    0         0.4929379879          32.61400545
         "BPM.28R6.B1"       "BPMYB.5L2.B1"             14864.74               28.288                    1       0.947285518117                    0         0.6093574179          32.73042488
         "BPM.29R6.B1"       "BPMYB.5L2.B1"              14918.2               28.288                    1     0.08595209811697                    0         0.7492999779          32.87036744
         "BPM.30R6.B1"       "BPMYB.5L2.B1"             14971.65               28.288                    1       0.199156738117                    0         0.8657151679          32.98678263
         "BPM.31R6.B1"       "BPMYB.5L2.B1"              15025.1               28.288                    1       0.340016918117                    0    0.005660227900002          33.12672769
         "BPM.32R6.B1"       "BPMYB.5L2.B1"             15078.55               28.288                    1       0.459483878117                    0         0.1220794879          33.24314695
         "BPM.33R6.B1"       "BPMYB.5L2.B1"                15132               28.288                    1       0.598821218117                    0         0.2620216679          33.38308913
         "BPM.34R6.B1"       "BPMYB.5L2.B1"             15185.45               28.288                    1       0.713958608117                    0         0.3784370479          33.49950451
         "BPM.32L7.B1"       "BPMYB.5L2.B1"             15292.36               28.288                    1       0.964974068117                    0         0.6348015079          33.75586897
         "BPM.31L7.B1"       "BPMYB.5L2.B1"             15345.81               28.288                    1       0.107834448117                    0         0.7747433579          33.89581082
         "BPM.30L7.B1"       "BPMYB.5L2.B1"             15399.26               28.288                    1       0.221877718117                    0         0.8911589879          34.01222645
         "BPM.29L7.B1"       "BPMYB.5L2.B1"             15452.71               28.288                    1       0.362244168117                    0         0.0311047179          34.15217218
         "BPM.28L7.B1"       "BPMYB.5L2.B1"             15506.16               28.288                    1       0.479318428117                    0         0.1475234779          34.26859094
         "BPM.27L7.B1"       "BPMYB.5L2.B1"             15559.61               28.288                    1       0.617932288117                    0         0.2874650379           34.4085325
         "BPM.26L7.B1"       "BPMYB.5L2.B1"             15613.06               28.288                    1       0.734184278117                    0         0.4038809579          34.52494842
         "BPM.25L7.B1"       "BPMYB.5L2.B1"             15666.52               28.288                    1       0.874759018117                    0         0.5438269579          34.66489442
         "BPM.24L7.B1"       "BPMYB.5L2.B1"             15719.97               28.288                    1       0.990109688117                    0         0.6602454179          34.78131288
         "BPM.23L7.B1"       "BPMYB.5L2.B1"             15773.42               28.288                    1       0.129539098117                    0         0.8001867379           34.9212542
         "BPM.22L7.B1"       "BPMYB.5L2.B1"             15826.87               28.288                    1       0.247088998117                    0         0.9166029879          35.03767045
         "BPM.21L7.B1"       "BPMYB.5L2.B1"             15880.32               28.288                    1       0.389286358117                    0         0.0565491779          35.17761664
         "BPM.20L7.B1"       "BPMYB.5L2.B1"             15933.77               28.288                    1       0.509082828117                    0         0.1767586579          35.29782612
         "BPM.19L7.B1"       "BPMYB.5L2.B1"             15987.23               28.288                    1       0.657276396117                    0         0.3205437979          35.44161126
         "BPM.18L7.B1"       "BPMYB.5L2.B1"             16040.68               28.288                    1       0.771949878117                    0         0.4359858179          35.55705328
         "BPM.17L7.B1"       "BPMYB.5L2.B1"             16094.13               28.288                    1       0.908639828117                    0         0.5766071979          35.69767466
         "BPM.16L7.B1"       "BPMYB.5L2.B1"             16147.58               28.288                    1     0.03141045811697                    0         0.6971703979          35.81823786
         "BPM.15L7.B1"       "BPMYB.5L2.B1"             16201.03               28.288                    1       0.177311258117                    0         0.8402078679          35.96127533
         "BPM.14L7.B1"       "BPMYB.5L2.B1"             16254.48               28.288                    1       0.291287798117                    0         0.9553969979          36.07646446
         "BPM.13L7.B1"       "BPMYB.5L2.B1"             16307.93               28.288                    1       0.433717368117                    0         0.0967854779          36.21785294
         "BPM.12L7.B1"       "BPMYB.5L2.B1"             16361.39               28.288                    1       0.541973308117                    0         0.2058269679          36.32689443
         "BPM.10L7.B1"       "BPMYB.5L2.B1"             16467.62               28.288                    1       0.761334328117                    0         0.4245292479          36.54559671
          "BPM.9L7.B1"       "BPMYB.5L2.B1"             16506.69               28.288                    1       0.839701408117                    0         0.5041954979          36.62526296
          "BPM.8L7.B1"       "BPMYB.5L2.B1"             16547.15               28.288                    1       0.901993348117                    0         0.5659290579          36.68699652
          "BPM.7L7.B1"       "BPMYB.5L2.B1"             16586.22               28.288                    1       0.975019248117                    0         0.6417336479          36.76280111
          "BPM.6L7.B1"       "BPMYB.5L2.B1"             16621.04               28.288                    1     0.04241748811696                    0         0.7074953979          36.82856286
        "BPMWC.6L7.B1"       "BPMYB.5L2.B1"             16633.14               28.288                    1     0.08396722811697                    0         0.7491089079          36.87017637
        "BPMWE.5L7.B1"       "BPMYB.5L2.B1"             16710.19               28.288                    1       0.189801608117                    0         0.8548808279          36.97594829
         "BPMW.5L7.B1"       "BPMYB.5L2.B1"              16733.4               28.288                    1       0.200197118117                    0         0.8663094379           36.9873769
        "BPMWE.4L7.B1"       "BPMYB.5L2.B1"             16768.48               28.288                    1       0.237136018117                    0         0.9008009879          37.02186845
         "BPMW.4L7.B1"       "BPMYB.5L2.B1"             16796.59               28.288                    1       0.303382328117                    0         0.9716369979          37.09270446
         "BPMW.4R7.B1"       "BPMYB.5L2.B1"             16912.63               28.288                    1       0.455556008117                    0         0.1223108379           37.2433783
        "BPMWE.4R7.B1"       "BPMYB.5L2.B1"             16940.74               28.288                    1       0.466999808117                    0         0.1343126979          37.25538016
         "BPMW.5R7.B1"       "BPMYB.5L2.B1"             16975.82               28.288                    1       0.499723448117                    0         0.1670148379           37.2880823
        "BPMWE.5R7.B1"       "BPMYB.5L2.B1"             16999.03               28.288                    1       0.559511618117                    0         0.2282589379           37.3493264
         "BPMR.6R7.B1"       "BPMYB.5L2.B1"             17078.24               28.288                    1       0.731725138117                    0         0.4006805579          37.52174802
        "BPM_A.7R7.B1"       "BPMYB.5L2.B1"             17116.28               28.288                    1       0.788154818117                    0         0.4572556979          37.57832316
          "BPM.8R7.B1"       "BPMYB.5L2.B1"             17155.35               28.288                    1       0.868507118117                    0         0.5385109379           37.6595784
          "BPM.9R7.B1"       "BPMYB.5L2.B1"             17194.41               28.288                    1       0.949237738117                    0         0.6175616479          37.73862911
         "BPM.10R7.B1"       "BPMYB.5L2.B1"             17234.88               28.288                    1     0.03426868811696                    0         0.7029259979          37.82399346
         "BPM.11R7.B1"       "BPMYB.5L2.B1"             17287.66               28.288                    1       0.143411618117                    0         0.8119467279          37.93301419
         "BPM.12R7.B1"       "BPMYB.5L2.B1"             17342.39               28.288                    1       0.278912948117                    0         0.9487792079          38.06984667
         "BPM.13R7.B1"       "BPMYB.5L2.B1"             17395.84               28.288                    1       0.393766878117                    0         0.0655268579          38.18659432
         "BPM.14R7.B1"       "BPMYB.5L2.B1"             17449.29               28.288                    1       0.534882618117                    0         0.2045431979          38.32561066
         "BPM.15R7.B1"       "BPMYB.5L2.B1"             17502.74               28.288                    1       0.655334059117                    0         0.3236398179          38.44470728
         "BPM.16R7.B1"       "BPMYB.5L2.B1"             17556.19               28.288                    1       0.798379058117                    0         0.4685611779          38.58962864
         "BPM.17R7.B1"       "BPMYB.5L2.B1"             17609.65               28.288                    1       0.916363368117                    0         0.5849432879          38.70601075
         "BPM.18R7.B1"       "BPMYB.5L2.B1"              17663.1               28.288                    1     0.05573148811696                    0         0.7243408579          38.84540832
         "BPM.19R7.B1"       "BPMYB.5L2.B1"             17716.55               28.288                    1       0.174356868117                    0         0.8440473579          38.96511482
         "BPM.20R7.B1"       "BPMYB.5L2.B1"                17770               28.288                    1       0.321939488117                    0         0.9884776679          39.10954513
         "BPM.21R7.B1"       "BPMYB.5L2.B1"             17823.45               28.288                    1       0.437466508117                    0         0.1043273979          39.22539486
         "BPM.22R7.B1"       "BPMYB.5L2.B1"              17876.9               28.288                    1       0.575948418117                    0         0.2442685379            39.365336
         "BPM.24R7.B1"       "BPMYB.5L2.B1"             17983.81               28.288                    1       0.833338728117                    0         0.5006287179          39.62169618
         "BPM.25R7.B1"       "BPMYB.5L2.B1"             18037.26               28.288                    1       0.950823278117                    0         0.6170487879          39.73811625
         "BPM.26R7.B1"       "BPMYB.5L2.B1"             18090.71               28.288                    1     0.09011169811697                    0         0.7569900979          39.87805756
         "BPM.28R7.B1"       "BPMYB.5L2.B1"             18197.61               28.288                    1       0.344019698117                    0         0.0133510979          40.13441856
         "BPM.29R7.B1"       "BPMYB.5L2.B1"             18251.06               28.288                    1       0.460148648117                    0         0.1297708079          40.25083827
         "BPM.30R7.B1"       "BPMYB.5L2.B1"             18304.51               28.288                    1       0.602817578117                    0         0.2697116579          40.39077912
         "BPM.31R7.B1"       "BPMYB.5L2.B1"             18357.97               28.288                    1       0.714950668117                    0         0.3861266779          40.50719414
         "BPM.32R7.B1"       "BPMYB.5L2.B1"             18411.42               28.288                    1       0.855114208117                    0         0.5260734679          40.64714093
         "BPM.33R7.B1"       "BPMYB.5L2.B1"             18464.87               28.288                    1       0.969022118117                    0         0.6424927679          40.76356023
         "BPM.34R7.B1"       "BPMYB.5L2.B1"             18518.32               28.288                    1       0.113758668117                    0         0.7824332279          40.90350069
         "BPM.33L8.B1"       "BPMYB.5L2.B1"             18571.77               28.288                    1       0.229465978117                    0         0.8988486779          41.01991614
         "BPM.32L8.B1"       "BPMYB.5L2.B1"             18625.22               28.288                    1       0.366333698117                    0         0.0387958279          41.15986329
         "BPM.31L8.B1"       "BPMYB.5L2.B1"             18678.68               28.288                    1       0.485179818117                    0         0.1552146679          41.27628213
         "BPM.30L8.B1"       "BPMYB.5L2.B1"             18732.13               28.288                    1       0.625265408117                    0         0.2951548079          41.41622227
         "BPM.29L8.B1"       "BPMYB.5L2.B1"             18785.58               28.288                    1       0.741679718117                    0         0.4115707479          41.53263821
         "BPM.28L8.B1"       "BPMYB.5L2.B1"             18839.03               28.288                    1       0.878988648117                    0         0.5515181579          41.67258562
         "BPM.27L8.B1"       "BPMYB.5L2.B1"             18892.48               28.288                    1       0.994110458117                    0         0.6679364979          41.78900396
         "BPM.26L8.B1"       "BPMYB.5L2.B1"             18945.93               28.288                    1       0.138453468117                    0         0.8078764179          41.92894388
         "BPM.25L8.B1"       "BPMYB.5L2.B1"             18999.38               28.288                    1       0.251737208117                    0         0.9242928779          42.04536034
         "BPM.24L8.B1"       "BPMYB.5L2.B1"             19052.84               28.288                    1       0.392505198117                    0         0.0642404579          42.18530792
         "BPM.23L8.B1"       "BPMYB.5L2.B1"             19106.29               28.288                    1       0.510695948117                    0         0.1806582679          42.30172573
         "BPM.22L8.B1"       "BPMYB.5L2.B1"             19159.74               28.288                    1       0.653376381117                    0         0.3205980679          42.44166553
         "BPM.21L8.B1"       "BPMYB.5L2.B1"             19213.19               28.288                    1       0.769712898117                    0         0.4370150679          42.55808253
         "BPM.20L8.B1"       "BPMYB.5L2.B1"             19266.64               28.288                    1       0.905066978117                    0         0.5762695479          42.69733701
         "BPM.19L8.B1"       "BPMYB.5L2.B1"             19320.09               28.288                    1     0.02961995811696                    0         0.6959520279          42.81701949
         "BPM.18L8.B1"       "BPMYB.5L2.B1"             19373.54               28.288                    1       0.175437118117                    0         0.8405329079          42.96160037
         "BPM.17L8.B1"       "BPMYB.5L2.B1"                19427               28.288                    1       0.289346888117                    0         0.9563864679          43.07745393
         "BPM.16L8.B1"       "BPMYB.5L2.B1"             19480.45               28.288                    1       0.426739748117                    0         0.0961798679          43.21724733
         "BPM.15L8.B1"       "BPMYB.5L2.B1"              19533.9               28.288                    1       0.554518578117                    0         0.2163946379           43.3374621
         "BPM.14L8.B1"       "BPMYB.5L2.B1"             19587.35               28.288                    1       0.695532088117                    0         0.3603337879          43.48140125
         "BPM.13L8.B1"       "BPMYB.5L2.B1"              19640.8               28.288                    1       0.809781288117                    0         0.4757515679          43.59681903
         "BPM.12L8.B1"       "BPMYB.5L2.B1"             19694.25               28.288                    1       0.948094848117                    0         0.6170704579          43.73813792
         "BPM.11L8.B1"       "BPMYB.5L2.B1"              19747.7               28.288                    1     0.06395657811696                    0         0.7287684079          43.84983587
         "BPM.10L8.B1"       "BPMYB.5L2.B1"             19799.55               28.288                    1       0.191623398117                    0         0.8571039079          43.97817137
          "BPM.9L8.B1"       "BPMYB.5L2.B1"             19838.61               28.288                    1       0.257501538117                    0         0.9265324179          44.04759988
          "BPM.8L8.B1"       "BPMYB.5L2.B1"             19879.08               28.288                    1       0.365845818117                    0         0.0349268979          44.15599436
          "BPM.7L8.B1"       "BPMYB.5L2.B1"             19918.15               28.288                    1       0.459456938117                    0         0.1310621479          44.25212961
         "BPMR.6L8.B1"       "BPMYB.5L2.B1"             19950.61               28.288                    1       0.561347248117                    0         0.2276154879          44.34868295
        "BPMYB.4L8.B1"       "BPMYB.5L2.B1"              20031.8               28.288                    1       0.908315818117                    0         0.5803071779          44.70137464
        "BPMWB.4L8.B1"       "BPMYB.5L2.B1"             20056.19               28.288                    1       0.924045108117                    0         0.5946457179          44.71571318
        "BPMSX.4L8.B1"       "BPMYB.5L2.B1"             20106.42               28.288                    1       0.950851098117                    0         0.6206573479          44.74172481
         "BPMS.2L8.B1"       "BPMYB.5L2.B1"             20144.34               28.288                    1       0.966067058117                    0         0.6342107979          44.75527826
        "BPMSW.1L8.B1"       "BPMYB.5L2.B1"             20154.27               28.288                    1       0.969100638117                    0         0.6403614279          44.76142889
        "BPMSW.1R8.B1"       "BPMYB.5L2.B1"             20197.46               28.288                    1       0.486404628117                    0         0.0964224279          45.21748989
         "BPMS.2R8.B1"       "BPMYB.5L2.B1"             20207.39               28.288                    1       0.434732678117                    0         0.1043626679          45.22543013
        "BPMSX.4R8.B1"       "BPMYB.5L2.B1"             20245.31               28.288                    1       0.452766038117                    0         0.1198346879          45.24090215
        "BPMWB.4R8.B1"       "BPMYB.5L2.B1"             20295.46               28.288                    1       0.472945228117                    0         0.1421179179          45.26318538
        "BPMYB.4R8.B1"       "BPMYB.5L2.B1"             20319.93               28.288                    1       0.554502078117                    0         0.1649395579          45.28600702
        "BPMYB.5R8.B1"       "BPMYB.5L2.B1"             20340.51               28.288                    1       0.517079888117                    0         0.1838323779          45.30489984
          "BPM.6R8.B1"       "BPMYB.5L2.B1"             20424.62               28.288                    1       0.725247758117                    0         0.3924289879          45.51349645
        "BPM_A.7R8.B1"       "BPMYB.5L2.B1"             20446.86               28.288                    1       0.768289578117                    0         0.4366910779          45.55775854
          "BPM.8R8.B1"       "BPMYB.5L2.B1"             20488.29               28.288                    1       0.908478358117                    0         0.5776180179          45.69868548
          "BPM.9R8.B1"       "BPMYB.5L2.B1"             20527.36               28.288                    1       0.121613328117                    0         0.7897989879          45.91086645
         "BPM.10R8.B1"       "BPMYB.5L2.B1"             20567.82               28.288                    1       0.218233158117                    0         0.8826863379           46.0037538
         "BPM.11R8.B1"       "BPMYB.5L2.B1"             20619.66               28.288                    1       0.403571128117                    0         0.0673666779          46.18843414
         "BPM.12R8.B1"       "BPMYB.5L2.B1"             20674.38               28.288                    1       0.506436678117                    0         0.1730633979          46.29413086
         "BPM.13R8.B1"       "BPMYB.5L2.B1"             20727.83               28.288                    1       0.597646448117                    0         0.2655093979          46.38657686
         "BPM.14R8.B1"       "BPMYB.5L2.B1"             20781.28               28.288                    1       0.698921838117                    0         0.3593267779          46.48039424
         "BPM.16R8.B1"       "BPMYB.5L2.B1"             20888.18               28.288                    1       0.986499228117                    0         0.6544764479          46.77554391
         "BPM.17R8.B1"       "BPMYB.5L2.B1"             20941.63               28.288                    1     0.09201062811696                    0         0.7654817479          46.88654921
         "BPM.18R8.B1"       "BPMYB.5L2.B1"             20995.07               28.288                    1       0.186188478117                    0         0.8592922879          46.98035975
         "BPM.19R8.B1"       "BPMYB.5L2.B1"             21048.52               28.288                    1       0.350918398117                    0         0.0213217879          47.14238925
         "BPM.20R8.B1"       "BPMYB.5L2.B1"             21101.97               28.288                    1       0.480284288117                    0         0.1544416979          47.27550916
         "BPM.21R8.B1"       "BPMYB.5L2.B1"             21155.42               28.288                    1       0.587948648117                    0         0.2654546579          47.38652212
         "BPM.23R8.B1"       "BPMYB.5L2.B1"             21262.32               28.288                    1       0.844652838117                    0         0.5212738679          47.64234133
         "BPM.24R8.B1"       "BPMYB.5L2.B1"             21315.76               28.288                    1       0.980196148117                    0         0.6544069479          47.77547441
         "BPM.25R8.B1"       "BPMYB.5L2.B1"             21369.21               28.288                    1     0.09024230811696                    0         0.7654275679          47.88649503
         "BPM.26R8.B1"       "BPMYB.5L2.B1"             21422.66               28.288                    1       0.183959928117                    0         0.8592233279          47.98029079
         "BPM.27R8.B1"       "BPMYB.5L2.B1"             21476.11               28.288                    1       0.346244558117                    0         0.0212259379           48.1422934
         "BPM.28R8.B1"       "BPMYB.5L2.B1"             21529.56               28.288                    1       0.479300498117                    0         0.1543721879          48.27543965
         "BPM.29R8.B1"       "BPMYB.5L2.B1"             21583.01               28.288                    1       0.589795428117                    0         0.2654004779          48.38646794
         "BPM.30R8.B1"       "BPMYB.5L2.B1"             21636.46               28.288                    1       0.683622518117                    0         0.3591888579          48.48025632
         "BPM.31R8.B1"       "BPMYB.5L2.B1"              21689.9               28.288                    1       0.850362268117                    0         0.5211779979          48.64224546
         "BPM.32R8.B1"       "BPMYB.5L2.B1"             21743.35               28.288                    1       0.985633358117                    0         0.6543374279          48.77540489
         "BPM.33R8.B1"       "BPMYB.5L2.B1"              21796.8               28.288                    1     0.09243708811696                    0         0.7653733879          48.88644085
         "BPM.34R8.B1"       "BPMYB.5L2.B1"             21850.25               28.288                    1       0.185179868117                    0         0.8591543879          48.98022185
         "BPM.33L1.B1"       "BPMYB.5L2.B1"              21903.7               28.288                    1       0.351917388117                    0         0.0211300679          49.14219753
         "BPM.32L1.B1"       "BPMYB.5L2.B1"             21957.15               28.288                    1       0.482452318117                    0         0.1543026679          49.27537013
         "BPM.31L1.B1"       "BPMYB.5L2.B1"              22010.6               28.288                    1       0.593957468117                    0         0.2653462979          49.38641376
         "BPM.30L1.B1"       "BPMYB.5L2.B1"             22064.04               28.288                    1       0.686848578117                    0         0.3591199279          49.48018739
         "BPM.29L1.B1"       "BPMYB.5L2.B1"             22117.49               28.288                    1       0.851440918117                    0         0.5210821379           49.6421496
         "BPM.28L1.B1"       "BPMYB.5L2.B1"             22170.94               28.288                    1       0.982344678117                    0         0.6542678979          49.77533536
         "BPM.27L1.B1"       "BPMYB.5L2.B1"             22224.39               28.288                    1     0.09337496811697                    0         0.7653192079          49.88638667
         "BPM.26L1.B1"       "BPMYB.5L2.B1"             22277.84               28.288                    1       0.186840728117                    0         0.8590854679          49.98015293
         "BPM.25L1.B1"       "BPMYB.5L2.B1"             22331.29               28.288                    1       0.349791628117                    0         0.0210341979          50.14210166
         "BPM.24L1.B1"       "BPMYB.5L2.B1"             22384.74               28.288                    1       0.484164228117                    0         0.1542331179          50.27530058
         "BPM.23L1.B1"       "BPMYB.5L2.B1"             22438.18               28.288                    1       0.592880178117                    0         0.2652921279          50.38635959
         "BPM.22L1.B1"       "BPMYB.5L2.B1"             22491.63               28.288                    1       0.688433718117                    0         0.3590510079          50.48011847
         "BPM.21L1.B1"       "BPMYB.5L2.B1"             22545.08               28.288                    1       0.851022448117                    0         0.5209862679          50.64205373
         "BPM.20L1.B1"       "BPMYB.5L2.B1"             22598.53               28.288                    1       0.981790988117                    0         0.6541983379           50.7752658
         "BPM.19L1.B1"       "BPMYB.5L2.B1"             22651.98               28.288                    1     0.09090866811697                    0         0.7652650379           50.8863325
         "BPM.18L1.B1"       "BPMYB.5L2.B1"             22705.43               28.288                    1       0.186217478117                    0         0.8590165579          50.98008402
         "BPM.17L1.B1"       "BPMYB.5L2.B1"             22758.87               28.288                    1       0.349169048117                    0         0.0209383279          51.14200579
         "BPM.16L1.B1"       "BPMYB.5L2.B1"             22812.32               28.288                    1       0.478551548117                    0         0.1541635579          51.27523102
         "BPM.15L1.B1"       "BPMYB.5L2.B1"             22865.77               28.288                    1       0.588275368117                    0         0.2652379479          51.38630541
         "BPM.14L1.B1"       "BPMYB.5L2.B1"             22919.22               28.288                    1       0.683042688117                    0         0.3589821179          51.48004958
         "BPM.13L1.B1"       "BPMYB.5L2.B1"             22972.67               28.288                    1       0.840979468117                    0         0.5208903979          51.64195786
         "BPM.12L1.B1"       "BPMYB.5L2.B1"             23026.12               28.288                    1       0.968507938117                    0         0.6471142679          51.76818173
         "BPM.11L1.B1"       "BPMYB.5L2.B1"             23079.57               28.288                    1     0.07662963811696                    0         0.7533607679          51.87442823
         "BPM.10L1.B1"       "BPMYB.5L2.B1"             23132.35               28.288                    1       0.143692028117                    0         0.8182620979          51.93932956
          "BPM.9L1.B1"       "BPMYB.5L2.B1"             23171.41               28.288                    1       0.198383028117                    0         0.8741240179          51.99519148
          "BPM.8L1.B1"       "BPMYB.5L2.B1"             23211.87               28.288                    1       0.363138868117                    0         0.0287212479          52.14978871
         "BPMR.7L1.B1"       "BPMYB.5L2.B1"             23250.94               28.288                    1       0.610992298117                    0         0.2811225379             52.40219
          "BPM.6L1.B1"       "BPMYB.5L2.B1"             23294.12               28.288                    1       0.865107928117                    0         0.5671188079          52.68818627
        "BPMYA.4L1.B1"       "BPMYB.5L2.B1"             23347.14               28.288                    1     0.07579599811696                    0         0.7479944679          52.86906193
        "BPMWB.4L1.B1"       "BPMYB.5L2.B1"             23368.28               28.288                    1     0.08091289811696                    0         0.7526801979          52.87374766
        "BPMSY.4L1.B1"       "BPMYB.5L2.B1"             23461.06               28.288                    1     0.08622750811697                    0         0.7580795379            52.879147
         "BPMS.2L1.B1"       "BPMYB.5L2.B1"             23487.84               28.288                    1     0.08786594811696                    0         0.7593223079          52.88038977
        "BPMSW.1L1.B1"       "BPMYB.5L2.B1"             23497.79               28.288                    1     0.08903370811697                    0         0.7601270279          52.88119449
        "BPMSW.1R1.B1"       "BPMYB.5L2.B1"             23540.93               28.288                    1       0.584056138117                    0         0.2557006079          53.37676807
         "BPMS.2R1.B1"       "BPMYB.5L2.B1"              23550.9               28.288                    1       0.584988958117                    0         0.2563281279          53.37739559
        "BPMSY.4R1.B1"       "BPMYB.5L2.B1"             23577.68               28.288                    1       0.585663978117                    0         0.2571847379           53.3782522
        "BPMWB.4R1.B1"       "BPMYB.5L2.B1"             23670.46               28.288                    1       0.592076078117                    0         0.2633132779          53.38438074
        "BPMYA.4R1.B1"       "BPMYB.5L2.B1"              23691.6               28.288                    1       0.592965188117                    0         0.2654177779          53.38648524
          "BPM.5R1.B1"       "BPMYB.5L2.B1"                23719               28.288                    1       0.598813258117                    0         0.2702166879          53.39128415
         "BPMR.6R1.B1"       "BPMYB.5L2.B1"              23750.9               28.288                    1       0.612920338117                    0         0.2848125179          53.40587998
        "BPMSX.7R1.B1"       "BPMYB.5L2.B1"             23757.12               28.288                    1       0.618555768117                    0         0.2907258379           53.4117933
        "BPM_A.7R1.B1"       "BPMYB.5L2.B1"             23778.63               28.288                    1       0.680290838117                    0         0.3523845179          53.47345198
          "BPM.8R1.B1"       "BPMYB.5L2.B1"             23820.07               28.288                    1       0.943344178117                    0         0.6040534879          53.72512095
          "BPM.9R1.B1"       "BPMYB.5L2.B1"             23859.13               28.288                    1     0.01762421811697                    0         0.6839455479          53.80501301
         "BPM.10R1.B1"       "BPMYB.5L2.B1"              23899.6               28.288                    1     0.08712667811697                    0         0.7559296879          53.87699715
         "BPM.11R1.B1"       "BPMYB.5L2.B1"             23952.38               28.288                    1       0.176788818117                    0         0.8499748079          53.97104227
         "BPM.12R1.B1"       "BPMYB.5L2.B1"             24007.11               28.288                    1       0.346665478117                    0         0.0218230279          54.14289049
         "BPM.13R1.B1"       "BPMYB.5L2.B1"             24060.56               28.288                    1       0.485572858117                    0         0.1553079779          54.27637544
         "BPM.14R1.B1"       "BPMYB.5L2.B1"             24114.01               28.288                    1       0.596744228117                    0         0.2661393679          54.38720683
         "BPM.15R1.B1"       "BPMYB.5L2.B1"             24167.46               28.288                    1       0.689972188117                    0         0.3601379479          54.48120541
         "BPM.16R1.B1"       "BPMYB.5L2.B1"             24220.91               28.288                    1       0.851711168117                    0         0.5225087279          54.64357619
         "BPM.17R1.B1"       "BPMYB.5L2.B1"             24274.37               28.288                    1       0.988104518117                    0         0.6553085579          54.77637602
         "BPM.18R1.B1"       "BPMYB.5L2.B1"             24327.82               28.288                    1     0.09723498811696                    0         0.7661393679          54.88720683
         "BPM.19R1.B1"       "BPMYB.5L2.B1"             24381.27               28.288                    1       0.190001178117                    0         0.8601379479          54.98120541
         "BPM.20R1.B1"       "BPMYB.5L2.B1"             24434.72               28.288                    1       0.355060068117                    0         0.0225087279          55.14357619
         "BPM.21R1.B1"       "BPMYB.5L2.B1"             24488.17               28.288                    1       0.488637518117                    0         0.1553085579          55.27637602
         "BPM.22R1.B1"       "BPMYB.5L2.B1"             24541.62               28.288                    1       0.598158988117                    0         0.2661393679          55.38720683
         "BPM.23R1.B1"       "BPMYB.5L2.B1"             24595.08               28.288                    1       0.693006518117                    0         0.3601379479          55.48120541
         "BPM.24R1.B1"       "BPMYB.5L2.B1"             24648.53               28.288                    1       0.853292168117                    0         0.5225087279          55.64357619
         "BPM.25R1.B1"       "BPMYB.5L2.B1"             24701.98               28.288                    1       0.989845218117                    0         0.6553085579          55.77637602
         "BPM.26R1.B1"       "BPMYB.5L2.B1"             24755.43               28.288                    1     0.09798788811696                    0         0.7661393679          55.88720683
         "BPM.27R1.B1"       "BPMYB.5L2.B1"             24808.88               28.288                    1       0.191548878117                    0         0.8601379479          55.98120541
         "BPM.28R1.B1"       "BPMYB.5L2.B1"             24862.33               28.288                    1       0.354474768117                    0         0.0225087279          56.14357619
         "BPM.29R1.B1"       "BPMYB.5L2.B1"             24915.78               28.288                    1       0.489358218117                    0         0.1553085579          56.27637602
         "BPM.30R1.B1"       "BPMYB.5L2.B1"             24969.24               28.288                    1       0.597553438117                    0         0.2661393679          56.38720683
         "BPM.31R1.B1"       "BPMYB.5L2.B1"             25022.69               28.288                    1       0.690621908117                    0         0.3601379479          56.48120541
         "BPM.32R1.B1"       "BPMYB.5L2.B1"             25076.14               28.288                    1       0.852790068117                    0         0.5225087279          56.64357619
         "BPM.33R1.B1"       "BPMYB.5L2.B1"             25129.59               28.288                    1       0.986052318117                    0         0.6553085579          56.77637602
         "BPM.34R1.B1"       "BPMYB.5L2.B1"             25183.04               28.288                    1     0.09913028811696                    0         0.7661393679          56.88720683
         "BPM.33L2.B1"       "BPMYB.5L2.B1"             25236.49               28.288                    1       0.190473678117                    0         0.8601379479          56.98120541
         "BPM.32L2.B1"       "BPMYB.5L2.B1"             25289.94               28.288                    1       0.352398568117                    0         0.0225087279          57.14357619
         "BPM.31L2.B1"       "BPMYB.5L2.B1"              25343.4               28.288                    1       0.487988918117                    0         0.1553085579          57.27637602
         "BPM.30L2.B1"       "BPMYB.5L2.B1"             25396.85               28.288                    1       0.600084158117                    0         0.2661393679          57.38720683
         "BPM.29L2.B1"       "BPMYB.5L2.B1"              25450.3               28.288                    1       0.694345318117                    0         0.3601379479          57.48120541
         "BPM.28L2.B1"       "BPMYB.5L2.B1"             25503.75               28.288                    1       0.853710368117                    0         0.5225087279          57.64357619
         "BPM.27L2.B1"       "BPMYB.5L2.B1"              25557.2               28.288                    1       0.988992218117                    0         0.6553085579          57.77637602
         "BPM.26L2.B1"       "BPMYB.5L2.B1"             25610.65               28.288                    1     0.09862958811696                    0         0.7661393679          57.88720683
         "BPM.25L2.B1"       "BPMYB.5L2.B1"              25664.1               28.288                    1       0.193270778117                    0         0.8601379479          57.98120541
         "BPM.24L2.B1"       "BPMYB.5L2.B1"             25717.56               28.288                    1       0.354314668117                    0         0.0225087279          58.14357619
         "BPM.23L2.B1"       "BPMYB.5L2.B1"             25771.01               28.288                    1       0.489221718117                    0         0.1553085579          58.27637602
         "BPM.22L2.B1"       "BPMYB.5L2.B1"             25824.46               28.288                    1       0.599481038117                    0         0.2661393679          58.38720683
         "BPM.21L2.B1"       "BPMYB.5L2.B1"             25877.91               28.288                    1       0.694508858117                    0         0.3601379479          58.48120541
         "BPM.20L2.B1"       "BPMYB.5L2.B1"             25931.36               28.288                    1       0.852364268117                    0         0.5225087279          58.64357619
         "BPM.19L2.B1"       "BPMYB.5L2.B1"             25984.81               28.288                    1       0.987157018117                    0         0.6553085579          58.77637602
         "BPM.18L2.B1"       "BPMYB.5L2.B1"             26038.27               28.288                    1     0.09986438811696                    0         0.7661393679          58.88720683
         "BPM.16L2.B1"       "BPMYB.5L2.B1"             26145.17               28.288                    1       0.353552868117                    0         0.0225087279          59.14357619
         "BPM.15L2.B1"       "BPMYB.5L2.B1"             26198.62               28.288                    1       0.487534918117                    0         0.1553085579          59.27637602
         "BPM.14L2.B1"       "BPMYB.5L2.B1"             26252.07               28.288                    1       0.601138468117                    0         0.2661393679          59.38720683
         "BPM.13L2.B1"       "BPMYB.5L2.B1"             26305.52               28.288                    1       0.694139468117                    0         0.3601379479          59.48120541
         "BPM.12L2.B1"       "BPMYB.5L2.B1"             26358.97               28.288                    1       0.853549008117                    0         0.5204654979          59.64153296
         "BPM.11L2.B1"       "BPMYB.5L2.B1"             26412.43               28.288                    1       0.993515968117                    0         0.6613902379           59.7824577
         "BPM.10L2.B1"       "BPMYB.5L2.B1"             26464.27               28.288                    1       0.109331098117                    0         0.7773053779          59.89837284
          "BPM.9L2.B1"       "BPMYB.5L2.B1"             26503.33               28.288                    1       0.172282838117                    0         0.8373925579          59.95846002
          "BPM.8L2.B1"       "BPMYB.5L2.B1"              26543.8               28.288                    1       0.314117408117                    0         0.9778368879          60.09890435
          "BPM.7L2.B1"       "BPMYB.5L2.B1"             26582.87               28.288                    1       0.409929478117                    0         0.0747531679          60.19582063
         "BPMR.6L2.B1"       "BPMYB.5L2.B1"             26614.97               28.288                    1       0.464940508117                    0         0.1290856079          60.25015307