@ GetLLMVersion %s "V3.0.0 Dev"
@ Command %s "/afs/cern.ch/work/o/omc/anaconda/bin/python '/afs/cern.ch/eng/sl/lintrack/Beta-Beat.src/GetLLM/GetLLM.py' '--accel=LHCB1' '--model=/afs/cern.ch/user/t/thpugnat/public/Outputs/2018-09-04/models/LHCB1/b1_squeeze_collQ/twiss.dat' '--files=/afs/cern.ch/user/t/thpugnat/public/Outputs/2018-09-04/LHCB1/Measurements/Beam1@Turn@2018_06_16@17_42_26_736/Beam1@Turn@2018_06_16@17_42_26_736.sdds.clean' '--output=/afs/cern.ch/user/t/thpugnat/public/Outputs/2018-09-04/LHCB1/Results/15-50-13_NORMALANALYSIS_SUSSIX_27' '--tbtana=SUSSIX' '--bpmu=mm' '--lhcphase=1' '--errordefs=/afs/cern.ch/user/t/thpugnat/public/Outputs/2018-09-04/models/LHCB1/b1_squeeze_collQ/error_deff.txt' '--calibration=/afs/cern.ch/eng/sl/lintrack/LHC_commissioning2017/Calibration_factors_2017/Calibration_factors_2017_beam1'"
@ CWD %s "/afs/cern.ch/user/t/thpugnat"
@ Date %s "04. September 2018, 15:50:22"
@ Q1 %le 0.31043224148727544
@ MUX %le 63.31043224148729
@ Q2 %le 0.31982104151696095
@ MUY %le 63.31982104151693
@ FILES %s "/afs/cern.ch/user/t/thpugnat/public/Outputs/2018-09-04/LHCB1/Measurements/Beam1@Turn@2018_06_16@17_42_26_736/Beam1@Turn@2018_06_16@17_42_26_736.sdds.clean_liny"
*                 NAME                NAME2                    S                   S1                COUNT               PHASEY               STDPHY               PHYMDL               MUYMDL
$                   %s                   %s                  %le                  %le                  %le                  %le                  %le                  %le                  %le
        "BPMYB.5L2.B1"       "BPMYB.4L2.B1"               28.288               48.858                    1     0.05910449379093                    0         0.0538582759         0.1210674621
        "BPMYB.4L2.B1"       "BPMWI.4L2.B1"               48.858              73.3255                    1      0.0373026905881                    0         0.0349507478          0.174925738
        "BPMWI.4L2.B1"       "BPMSX.4L2.B1"              73.3255             123.4825                    1     0.07235858642747                    0         0.0813585892         0.2098764858
        "BPMSX.4L2.B1"        "BPMS.2L2.B1"             123.4825              161.394                    1     0.03274878174884                    0         0.0435297738          0.291235075
         "BPMS.2L2.B1"       "BPMSW.1L2.B1"              161.394              171.328                    1     0.01613086953116                    0          0.017946284         0.3347648488
        "BPMSW.1L2.B1"       "BPMSW.1R2.B1"              171.328              214.518                    1      0.6982866293439                    0         0.3619560687         0.3527111328
        "BPMSW.1R2.B1"        "BPMS.2R2.B1"              214.518              224.452                    1     0.02661588036935                    0         0.0234251562         0.7146672015
         "BPMS.2R2.B1"       "BPMSX.4R2.B1"              224.452             262.3635                    1     0.04916012388682                    0          0.050404274         0.7380923577
        "BPMSX.4R2.B1"       "BPMWB.4R2.B1"             262.3635             312.5965                    1     0.07009928703584                    0         0.0692105691         0.7884966317
        "BPMWB.4R2.B1"       "BPMYB.4R2.B1"             312.5965              336.988                    1     0.05163694794341                    0         0.0511045738         0.8577072008
        "BPMYB.4R2.B1"        "BPMR.5R2.B1"              336.988              366.522                    1      0.0345558701892                    0         0.0343433723         0.9088117746
         "BPMR.5R2.B1"         "BPM.6R2.B1"              366.522              439.818                    1      0.2154130207589                    0         0.2215871811         0.9431551469
          "BPM.6R2.B1"       "BPM_A.7R2.B1"              439.818              452.693                    1      0.0356039360397                    0            0.0330554          1.164742328
        "BPM_A.7R2.B1"         "BPM.8R2.B1"              452.693               494.13                    1      0.1220072296255                    0          0.120188906          1.197797728
          "BPM.8R2.B1"         "BPM.9R2.B1"               494.13              533.195                    1      0.1283009935071                    0          0.127692698          1.317986634
          "BPM.9R2.B1"        "BPM.10R2.B1"              533.195              573.658                    1     0.08410879015905                    0          0.087295925          1.445679332
         "BPM.10R2.B1"        "BPM.11R2.B1"              573.658             625.4967                    1      0.1298800673522                    0          0.124291374          1.532975257
         "BPM.11R2.B1"        "BPM.12R2.B1"             625.4967             680.2203                    1      0.1227085008454                    0          0.119525134          1.657266631
         "BPM.12R2.B1"        "BPM.13R2.B1"             680.2203             733.6688                    1      0.1405395401757                    0          0.144414181          1.776791765
         "BPM.13R2.B1"        "BPM.14R2.B1"             733.6688             787.1173                    1      0.1109717928481                    0          0.111821941          1.921205946
         "BPM.14R2.B1"        "BPM.15R2.B1"             787.1173             840.5658                    1      0.1329649195766                    0          0.131638163          2.033027887
         "BPM.15R2.B1"        "BPM.16R2.B1"             840.5658             894.0143                    1      0.1083508754107                    0          0.107231506           2.16466605
         "BPM.16R2.B1"        "BPM.17R2.B1"             894.0143             947.4628                    1      0.1260165312061                    0          0.128246221          2.271897556
         "BPM.17R2.B1"        "BPM.18R2.B1"             947.4628             1000.911                    1      0.1090445390767                    0          0.111420034          2.400143777
         "BPM.18R2.B1"        "BPM.19R2.B1"             1000.911              1054.36                    1      0.1323302997349                    0          0.132285178          2.511563811
         "BPM.19R2.B1"        "BPM.20R2.B1"              1054.36             1107.808                    1      0.1091146275999                    0           0.10767829          2.643848989
         "BPM.20R2.B1"        "BPM.21R2.B1"             1107.808             1161.257                    1       0.125993825053                    0          0.127696737          2.751527279
         "BPM.21R2.B1"        "BPM.22R2.B1"             1161.257             1214.705                    1      0.1060570822553                    0          0.110881113          2.879224016
         "BPM.22R2.B1"        "BPM.23R2.B1"             1214.705             1268.154                    1      0.1354289109101                    0          0.132082393          2.990105129
         "BPM.23R2.B1"        "BPM.24R2.B1"             1268.154             1321.602                    1       0.111924411893                    0          0.110880657          3.122187522
         "BPM.24R2.B1"        "BPM.25R2.B1"             1321.602             1375.051                    1      0.1333331242482                    0           0.13208499          3.233068179
         "BPM.25R2.B1"        "BPM.26R2.B1"             1375.051             1428.499                    1      0.1090360485228                    0          0.110881468          3.365153169
         "BPM.26R2.B1"        "BPM.27R2.B1"             1428.499             1481.948                    1      0.1331491472645                    0          0.132082476          3.476034637
         "BPM.27R2.B1"        "BPM.28R2.B1"             1481.948             1535.397                    1      0.1105135695037                    0          0.110880463          3.608117113
         "BPM.28R2.B1"        "BPM.29R2.B1"             1535.397             1588.845                    1      0.1327664324666                    0          0.132084888          3.718997576
         "BPM.29R2.B1"        "BPM.30R2.B1"             1588.845             1642.294                    1      0.1097677320868                    0          0.110881654          3.851082464
         "BPM.30R2.B1"        "BPM.31R2.B1"             1642.294             1695.742                    1      0.1319690234043                    0          0.132082597          3.961964118
         "BPM.31R2.B1"        "BPM.32R2.B1"             1695.742             1749.191                    1      0.1129538091628                    0          0.110880287          4.094046715
         "BPM.32R2.B1"        "BPM.33R2.B1"             1749.191             1802.639                    1      0.1326792136548                    0          0.132084748          4.204927002
         "BPM.33R2.B1"        "BPM.34R2.B1"             1802.639             1856.088                    1      0.1077820422077                    0           0.11088182           4.33701175
         "BPM.34R2.B1"        "BPM.33L3.B1"             1856.088             1909.536                    1      0.1311647920534                    0          0.132082753           4.44789357
         "BPM.33L3.B1"        "BPM.32L3.B1"             1909.536             1962.985                    1      0.1118208669982                    0          0.110880133          4.579976323
         "BPM.32L3.B1"        "BPM.31L3.B1"             1962.985             2016.433                    1      0.1380570065231                    0          0.132084578          4.690856456
         "BPM.31L3.B1"        "BPM.30L3.B1"             2016.433             2069.882                    1      0.1055819397608                    0          0.110881959          4.822941034
         "BPM.30L3.B1"        "BPM.29L3.B1"             2069.882              2123.33                    1      0.1289525248462                    0          0.132082938          4.933822993
         "BPM.29L3.B1"        "BPM.27L3.B1"              2123.33             2230.227                    1      0.2517124895489                    0          0.242964387          5.065905931
         "BPM.27L3.B1"        "BPM.26L3.B1"             2230.227             2283.676                    1      0.1076521738068                    0           0.11088207          5.308870318
         "BPM.26L3.B1"        "BPM.25L3.B1"             2283.676             2337.124                    1       0.124826039201                    0          0.132083148          5.419752388
         "BPM.25L3.B1"        "BPM.24L3.B1"             2337.124             2390.573                    1      0.1177449657197                    0          0.110879913          5.551835536
         "BPM.24L3.B1"        "BPM.23L3.B1"             2390.573             2444.021                    1       0.136905375827                    0           0.13208416          5.662715449
         "BPM.23L3.B1"        "BPM.22L3.B1"             2444.021              2497.47                    1      0.1078745903354                    0          0.110882148          5.794799609
         "BPM.22L3.B1"        "BPM.21L3.B1"              2497.47             2550.918                    1      0.1295050143286                    0          0.132083375          5.905681757
         "BPM.21L3.B1"        "BPM.20L3.B1"             2550.918             2604.367                    1      0.1103454575559                    0          0.107619299          6.037765132
         "BPM.20L3.B1"        "BPM.19L3.B1"             2604.367             2657.815                    1      0.1323439842182                    0          0.127881809          6.145384431
         "BPM.19L3.B1"        "BPM.18L3.B1"             2657.815             2711.264                    1      0.1100835572239                    0          0.110968519           6.27326624
         "BPM.18L3.B1"        "BPM.17L3.B1"             2711.264             2764.712                    1       0.126578351485                    0          0.132603858          6.384234759
         "BPM.17L3.B1"        "BPM.16L3.B1"             2764.712             2818.161                    1      0.1075593891652                    0          0.108145329          6.516838617
         "BPM.16L3.B1"        "BPM.14L3.B1"             2818.161             2925.058                    1      0.2437217829138                    0          0.237838819          6.624983946
         "BPM.14L3.B1"        "BPM.13L3.B1"             2925.058             2978.506                    1      0.1269197258804                    0          0.132951024          6.862822765
         "BPM.13L3.B1"        "BPM.12L3.B1"             2978.506             3031.955                    1      0.1139378757956                    0          0.114407129          6.995773789
         "BPM.12L3.B1"        "BPM.11L3.B1"             3031.955             3085.403                    1      0.1356290273572                    0          0.132053769          7.110180918
         "BPM.11L3.B1"        "BPM.10L3.B1"             3085.403             3138.184                    1     0.09953602110078                    0          0.107826297          7.242234687
         "BPM.10L3.B1"         "BPM.8L3.B1"             3138.184             3217.712                    1      0.2877967417163                    0          0.284132856          7.350060984
          "BPM.8L3.B1"         "BPM.7L3.B1"             3217.712             3256.776                    1      0.1777579054168                    0          0.173176411           7.63419384
          "BPM.7L3.B1"         "BPM.6L3.B1"             3256.776             3329.415                    1      0.1199789431096                    0          0.119359032          7.807370251
          "BPM.6L3.B1"      "BPMWG.A5L3.B1"             3329.415              3371.12                    1     0.04390558002306                    0          0.046774993          7.926729283
       "BPMWG.A5L3.B1"        "BPMW.5L3.B1"              3371.12              3400.09                    1     0.01371466145809                    0          0.015599852          7.973504276
         "BPMW.5L3.B1"       "BPMWE.4L3.B1"              3400.09             3475.218                    1     0.07168493212521                    0          0.073425723          7.989104128
        "BPMWE.4L3.B1"        "BPMW.4L3.B1"             3475.218             3502.763                    1     0.04457882511472                    0          0.045626514          8.062529851
         "BPMW.4L3.B1"        "BPMW.4R3.B1"             3502.763             3547.728                    1     0.03846207827549                    0          0.035142184          8.108156365
         "BPMW.4R3.B1"       "BPMWE.4R3.B1"             3547.728             3575.273                    1    0.009504025210867                    0          0.011288562          8.143298549
        "BPMWE.4R3.B1"        "BPMW.5R3.B1"             3575.273             3650.401                    1     0.07403516881014                    0          0.073383285          8.154587111
         "BPMW.5R3.B1"      "BPMWJ.A5R3.B1"             3650.401             3679.119                    1     0.06554586012512                    0          0.063360254          8.227970396
       "BPMWJ.A5R3.B1"       "BPMWC.6R3.B1"             3679.119             3718.937                    1     0.04570175377212                    0          0.044958057           8.29133065
        "BPMWC.6R3.B1"        "BPMR.6R3.B1"             3718.937             3731.015                    1    0.006794774255249                    0          0.007675078          8.336288707
         "BPMR.6R3.B1"       "BPM_A.7R3.B1"             3731.015             3786.839                    1     0.06843512294115                    0          0.071515398          8.343963785
        "BPM_A.7R3.B1"         "BPM.8R3.B1"             3786.839             3825.903                    1     0.06027475357274                    0           0.06201831          8.415479183
          "BPM.8R3.B1"        "BPM.10R3.B1"             3825.903             3905.431                    1      0.1154787513495                    0          0.115979925          8.477497493
         "BPM.10R3.B1"        "BPM.11R3.B1"             3905.431             3958.212                    1      0.1038821183549                    0          0.101695655          8.593477418
         "BPM.11R3.B1"        "BPM.12R3.B1"             3958.212             4012.935                    1      0.1210533439794                    0          0.122069608          8.695173073
         "BPM.12R3.B1"        "BPM.13R3.B1"             4012.935             4066.384                    1      0.1159297677879                    0          0.114974611          8.817242681
         "BPM.13R3.B1"        "BPM.14R3.B1"             4066.384             4119.833                    1      0.1294309975998                    0          0.130692802          8.932217292
         "BPM.14R3.B1"        "BPM.15R3.B1"             4119.833             4173.281                    1      0.1048665422797                    0          0.106966494          9.062910094
         "BPM.15R3.B1"        "BPM.17R3.B1"             4173.281             4280.178                    1      0.2470354657053                    0          0.240943141          9.169876588
         "BPM.17R3.B1"        "BPM.19R3.B1"             4280.178             4387.075                    1      0.2420783532518                    0          0.238649315          9.410819729
         "BPM.19R3.B1"        "BPM.20R3.B1"             4387.075             4440.524                    1      0.1293853674539                    0          0.128448018          9.649469044
         "BPM.20R3.B1"        "BPM.21R3.B1"             4440.524             4493.972                    1      0.1099718582519                    0          0.111460441          9.777917062
         "BPM.21R3.B1"        "BPM.22R3.B1"             4493.972             4547.421                    1      0.1306032396189                    0          0.132083347          9.889377503
         "BPM.22R3.B1"        "BPM.23R3.B1"             4547.421             4600.869                    1      0.1121709957239                    0           0.11088193          10.02146085
         "BPM.23R3.B1"        "BPM.24R3.B1"             4600.869             4654.318                    1      0.1341373803265                    0           0.13208482          10.13234278
         "BPM.24R3.B1"        "BPM.25R3.B1"             4654.318             4707.766                    1      0.1126317998505                    0           0.11088017           10.2644276
         "BPM.25R3.B1"        "BPM.26R3.B1"             4707.766             4761.215                    1       0.126457190025                    0           0.13208252          10.37530777
         "BPM.26R3.B1"        "BPM.27R3.B1"             4761.215             4814.663                    1      0.1118417729695                    0           0.11088176          10.50739029
         "BPM.27R3.B1"        "BPM.28R3.B1"             4814.663             4868.112                    1      0.1343339205561                    0           0.13208498          10.61827205
         "BPM.28R3.B1"        "BPM.29R3.B1"             4868.112              4921.56                    1      0.1086826708976                    0           0.11088036          10.75035703
         "BPM.29R3.B1"        "BPM.30R3.B1"              4921.56             4975.009                    1       0.132567136722                    0           0.13208238          10.86123739
         "BPM.30R3.B1"        "BPM.31R3.B1"             4975.009             5028.457                    1      0.1134885956985                    0           0.11088156          10.99331977
         "BPM.31R3.B1"        "BPM.32R3.B1"             5028.457             5081.906                    1      0.1323060821338                    0            0.1320851          11.10420133
         "BPM.32R3.B1"        "BPM.33R3.B1"             5081.906             5135.354                    1      0.1101320659223                    0           0.11088057          11.23628643
         "BPM.33R3.B1"        "BPM.34R3.B1"             5135.354             5188.803                    1      0.1318415735476                    0           0.13208228            11.347167
         "BPM.34R3.B1"        "BPM.33L4.B1"             5188.803             5242.251                    1      0.1094691472606                    0           0.11088134          11.47924928
         "BPM.33L4.B1"        "BPM.32L4.B1"             5242.251               5295.7                    1      0.1327764411023                    0           0.13208518          11.59013062
         "BPM.32L4.B1"        "BPM.31L4.B1"               5295.7             5349.148                    1      0.1100466718302                    0           0.11088079           11.7222158
         "BPM.31L4.B1"        "BPM.30L4.B1"             5349.148             5402.597                    1       0.132549054541                    0           0.13208222          11.83309659
         "BPM.30L4.B1"        "BPM.29L4.B1"             5402.597             5456.045                    1      0.1070651473729                    0           0.11088112          11.96517881
         "BPM.29L4.B1"        "BPM.27L4.B1"             5456.045             5562.942                    1        0.24786461791                    0           0.24296624          12.07605993
         "BPM.27L4.B1"        "BPM.26L4.B1"             5562.942             5616.391                    1      0.1312030304774                    0           0.13208221          12.31902617
         "BPM.26L4.B1"        "BPM.25L4.B1"             5616.391             5669.839                    1      0.1075983844021                    0           0.11088088          12.45110838
         "BPM.25L4.B1"        "BPM.24L4.B1"             5669.839             5723.288                    1      0.1348303677139                    0            0.1320852          12.56198926
         "BPM.24L4.B1"        "BPM.23L4.B1"             5723.288             5776.736                    1      0.1092542911585                    0           0.11088125          12.69407446
         "BPM.23L4.B1"        "BPM.22L4.B1"             5776.736             5830.185                    1      0.1337870843298                    0           0.13208225          12.80495571
         "BPM.22L4.B1"        "BPM.21L4.B1"             5830.185             5883.634                    1       0.109765743871                    0           0.11088066          12.93703796
         "BPM.21L4.B1"        "BPM.20L4.B1"             5883.634             5937.082                    1      0.1338484943152                    0           0.13278623          13.04791862
         "BPM.20L4.B1"        "BPM.19L4.B1"             5937.082             5990.531                    1        0.11113272017                    0           0.10824652          13.18070485
         "BPM.19L4.B1"        "BPM.18L4.B1"             5990.531             6043.979                    1       0.127847730785                    0           0.12730951          13.28895137
         "BPM.18L4.B1"        "BPM.17L4.B1"             6043.979             6097.428                    1      0.1104232862512                    0           0.11024328          13.41626088
         "BPM.17L4.B1"        "BPM.15L4.B1"             6097.428             6204.325                    1      0.2408064133113                    0           0.24199721          13.52650416
         "BPM.15L4.B1"        "BPM.14L4.B1"             6204.325             6257.773                    1      0.1308469887564                    0           0.12711399          13.76850137
         "BPM.14L4.B1"        "BPM.13L4.B1"             6257.773             6311.222                    1      0.1092017540529                    0           0.10955436          13.89561536
         "BPM.13L4.B1"        "BPM.12L4.B1"             6311.222              6364.67                    1      0.1321210716333                    0           0.13296305          14.00516972
         "BPM.12L4.B1"        "BPM.11L4.B1"              6364.67             6418.119                    1      0.1091836404601                    0           0.10574513          14.13813277
         "BPM.11L4.B1"        "BPM.10L4.B1"             6418.119             6469.957                    1      0.1154829972105                    0           0.11763861           14.2438779
         "BPM.10L4.B1"         "BPM.9L4.B1"             6469.957             6509.022                    1      0.0611144884489                    0            0.0605139          14.36151651
          "BPM.9L4.B1"         "BPM.8L4.B1"             6509.022             6549.485                    1     0.08074469426418                    0           0.08486242          14.42203041
          "BPM.8L4.B1"         "BPM.7L4.B1"             6549.485             6588.549                    1     0.05260192887377                    0           0.05272575          14.50689283
          "BPM.7L4.B1"       "BPMYB.6L4.B1"             6588.549             6685.153                    1     0.07570823401099                    0           0.07727977          14.55961858
        "BPMYB.6L4.B1"       "BPMYA.5L4.B1"             6685.153             6722.153                    1     0.01588088649021                    0           0.01506437          14.63689835
        "BPMYA.5L4.B1"      "BPMWI.A5L4.B1"             6722.153             6798.756                    1     0.05370076476782                    0           0.05618617          14.65196272
       "BPMWI.A5L4.B1"      "BPMWA.B5L4.B1"             6798.756              6824.62                    1     0.02339447207047                    0           0.01882881          14.70814889
       "BPMWA.B5L4.B1"      "BPMWA.A5L4.B1"              6824.62             6833.505                    1    0.004740480518854                    0           0.00627529           14.7269777
       "BPMWA.A5L4.B1"      "BPMWA.A5R4.B1"             6833.505             6881.554                    1     0.03474155269852                    0           0.03143576          14.73325299
       "BPMWA.A5R4.B1"      "BPMWA.B5R4.B1"             6881.554             6890.439                    1    0.005523853029834                    0    0.005278390000001          14.76468875
       "BPMWA.B5R4.B1"       "BPMYB.5R4.B1"             6890.439             6992.829                    1     0.05030775234102                    0           0.04840413          14.76996714
        "BPMYB.5R4.B1"       "BPMYA.6R4.B1"             6992.829             7024.393                    1     0.02458811082157                    0           0.02334605          14.81837127
        "BPMYA.6R4.B1"         "BPM.7R4.B1"             7024.393             7120.909                    1      0.1868479961986                    0           0.19262948          14.84171732
          "BPM.7R4.B1"         "BPM.8R4.B1"             7120.909             7158.698                    1      0.1118805406405                    0           0.11294854           15.0343468
          "BPM.8R4.B1"         "BPM.9R4.B1"             7158.698             7197.763                    1      0.1006190974623                    0           0.10079688          15.14729534
          "BPM.9R4.B1"        "BPM.10R4.B1"             7197.763             7238.226                    1     0.06561289265888                    0           0.06360938          15.24809222
         "BPM.10R4.B1"        "BPM.11R4.B1"             7238.226             7290.065                    1      0.1274480486609                    0           0.12354259           15.3117016
         "BPM.11R4.B1"        "BPM.12R4.B1"             7290.065             7344.789                    1      0.1489470465369                    0           0.15263641          15.43524419
         "BPM.12R4.B1"        "BPM.13R4.B1"             7344.789             7398.237                    1      0.1232077111003                    0           0.12724993           15.5878806
         "BPM.13R4.B1"        "BPM.14R4.B1"             7398.237             7451.686                    1     0.09758725563668                    0           0.09381947          15.71513053
         "BPM.14R4.B1"        "BPM.15R4.B1"             7451.686             7505.134                    1      0.1648656995692                    0           0.16203848             15.80895
         "BPM.15R4.B1"        "BPM.16R4.B1"             7505.134             7558.583                    1      0.1259305640728                    0           0.13310647          15.97098848
         "BPM.16R4.B1"        "BPM.17R4.B1"             7558.583             7612.031                    1      0.1081625387609                    0           0.11100887          16.10409495
         "BPM.17R4.B1"        "BPM.18R4.B1"             7612.031              7665.48                    1     0.09723681174623                    0            0.0938117          16.21510382
         "BPM.18R4.B1"        "BPM.19R4.B1"              7665.48             7718.928                    1      0.1647422482352                    0           0.16202504          16.30891552
         "BPM.19R4.B1"        "BPM.20R4.B1"             7718.928             7772.377                    1      0.1257035724732                    0           0.13311964          16.47094056
         "BPM.20R4.B1"        "BPM.21R4.B1"             7772.377             7825.825                    1      0.1105151547195                    0           0.11101653           16.6040602
         "BPM.21R4.B1"        "BPM.22R4.B1"             7825.825             7879.274                    1     0.09489055601829                    0           0.09380431          16.71507673
         "BPM.22R4.B1"        "BPM.23R4.B1"             7879.274             7932.722                    1      0.1630188298196                    0           0.16201159          16.80888104
         "BPM.23R4.B1"        "BPM.24R4.B1"             7932.722             7986.171                    1      0.1347528350884                    0           0.13313282          16.97089263
         "BPM.24R4.B1"        "BPM.26R4.B1"             7986.171             8093.068                    1      0.2021254491049                    0           0.20482111          17.10402545
         "BPM.26R4.B1"        "BPM.27R4.B1"             8093.068             8146.516                    1      0.1665339139731                    0           0.16199814          17.30884656
         "BPM.27R4.B1"        "BPM.28R4.B1"             8146.516             8199.965                    1      0.1281704876726                    0           0.13314599           17.4708447
         "BPM.28R4.B1"        "BPM.29R4.B1"             8199.965             8253.413                    1      0.1128148872294                    0           0.11103186          17.60399069
         "BPM.29R4.B1"        "BPM.30R4.B1"             8253.413             8306.862                    1     0.09944032171804                    0           0.09378954          17.71502255
         "BPM.30R4.B1"        "BPM.32R4.B1"             8306.862             8413.759                    1      0.2911168756262                    0           0.29514384          17.80881209
         "BPM.32R4.B1"        "BPM.33R4.B1"             8413.759             8467.208                    1       0.111610959637                    0           0.11103953          18.10395593
         "BPM.33R4.B1"        "BPM.34R4.B1"             8467.208             8520.656                    1     0.09472393153423                    0           0.09378216          18.21499546
         "BPM.34R4.B1"        "BPM.33L5.B1"             8520.656             8574.105                    1      0.1646627901565                    0           0.16197122          18.30877762
         "BPM.33L5.B1"        "BPM.32L5.B1"             8574.105             8627.553                    1      0.1311718846325                    0           0.13317233          18.47074884
         "BPM.32L5.B1"        "BPM.31L5.B1"             8627.553             8681.002                    1      0.1107023870767                    0            0.1110472          18.60392117
         "BPM.31L5.B1"        "BPM.30L5.B1"             8681.002              8734.45                    1       0.096548178609                    0           0.09377479          18.71496837
         "BPM.30L5.B1"        "BPM.29L5.B1"              8734.45             8787.899                    1      0.1615893086301                    0           0.16195775          18.80874316
         "BPM.29L5.B1"        "BPM.28L5.B1"             8787.899             8841.347                    1      0.1319600576225                    0           0.13318549          18.97070091
         "BPM.28L5.B1"        "BPM.27L5.B1"             8841.347             8894.796                    1      0.1101178572471                    0           0.11105488           19.1038864
         "BPM.27L5.B1"        "BPM.26L5.B1"             8894.796             8948.244                    1     0.09925687645711                    0           0.09376742          19.21494128
         "BPM.26L5.B1"        "BPM.25L5.B1"             8948.244             9001.693                    1      0.1233534272912                    0           0.16194427           19.3087087
         "BPM.25L5.B1"        "BPM.24L5.B1"             9001.693             9055.141                    1      0.1663326184214                    0           0.13319865          19.47065297
         "BPM.24L5.B1"        "BPM.22L5.B1"             9055.141             9162.038                    1      0.2096418925647                    0           0.20482262          19.60385162
         "BPM.22L5.B1"        "BPM.21L5.B1"             9162.038             9215.487                    1      0.1629883190546                    0            0.1619308          19.80867424
         "BPM.21L5.B1"        "BPM.20L5.B1"             9215.487             9268.935                    1      0.1280031895246                    0            0.1332118          19.97060504
         "BPM.20L5.B1"        "BPM.19L5.B1"             9268.935             9322.384                    1      0.1068308159136                    0           0.11107026          20.10381684
         "BPM.19L5.B1"        "BPM.18L5.B1"             9322.384             9375.832                    1     0.09504822490765                    0           0.09375269           20.2148871
         "BPM.18L5.B1"        "BPM.17L5.B1"             9375.832             9429.281                    1      0.1640919857018                    0           0.16191731          20.30863979
         "BPM.17L5.B1"        "BPM.16L5.B1"             9429.281             9482.729                    1       0.128637649548                    0           0.13322496           20.4705571
         "BPM.16L5.B1"        "BPM.15L5.B1"             9482.729             9536.178                    1      0.1091457845197                    0           0.11107795          20.60378206
         "BPM.15L5.B1"        "BPM.14L5.B1"             9536.178             9589.626                    1     0.09693076783975                    0           0.09374534          20.71486001
         "BPM.14L5.B1"        "BPM.13L5.B1"             9589.626             9643.075                    1      0.1603566525253                    0           0.16190382          20.80860535
         "BPM.13L5.B1"        "BPM.12L5.B1"             9643.075             9696.523                    1      0.1260769375866                    0           0.12622343          20.97050917
         "BPM.12L5.B1"        "BPM.11L5.B1"             9696.523             9749.972                    1      0.1053712913841                    0           0.10624987           21.0967326
         "BPM.11L5.B1"        "BPM.10L5.B1"             9749.972             9802.753                    1     0.06657124186421                    0           0.06490279          21.20298247
         "BPM.10L5.B1"         "BPM.9L5.B1"             9802.753             9841.818                    1     0.05641194739956                    0           0.05586184          21.26788526
          "BPM.9L5.B1"         "BPM.8L5.B1"             9841.818             9882.281                    1      0.1547551506451                    0           0.15459272           21.3237471
          "BPM.8L5.B1"        "BPMR.7L5.B1"             9882.281             9921.347                    1       0.251210056164                    0           0.25240521          21.47833982
         "BPMR.7L5.B1"        "BPMR.5L5.B1"             9921.347             9990.141                    1      0.4512024178183                    0             0.451324          21.73074503
         "BPMR.5L5.B1"       "BPMWB.4L5.B1"             9990.141             10038.68                    1     0.02050483101289                    0           0.02023285          22.18206903
        "BPMWB.4L5.B1"       "BPMSY.4L5.B1"             10038.68             10131.46                    1    0.006318348103111                    0           0.00539951          22.20230188
        "BPMSY.4L5.B1"        "BPMS.2L5.B1"             10131.46             10158.25                    1   0.0007941949184083                    0    0.001242810000001          22.20770139
         "BPMS.2L5.B1"       "BPMSW.1L5.B1"             10158.25             10168.21                    1    0.000514195785413                    0    0.000806279999999           22.2089442
        "BPMSW.1L5.B1"        "BPMS.2R5.B1"             10168.21              10221.3                    1      0.4966746851731                    0           0.49619945          22.20975048
         "BPMS.2R5.B1"       "BPMSY.4R5.B1"              10221.3             10248.09                    1    0.000280063196647                    0   0.0008566300000012          22.70594993
        "BPMSY.4R5.B1"       "BPMWB.4R5.B1"             10248.09             10340.87                    1    0.006494919944056                    0           0.00612873          22.70680656
        "BPMWB.4R5.B1"       "BPMYA.4R5.B1"             10340.87                10362                    1    0.002864836248915                    0    0.002104559999999          22.71293529
        "BPMYA.4R5.B1"         "BPM.5R5.B1"                10362             10383.12                    1    0.002731996700724                    0    0.003296559999999          22.71503985
          "BPM.5R5.B1"        "BPMR.6R5.B1"             10383.12             10415.02                    1      0.0110463653179                    0           0.01171278          22.71833641
         "BPMR.6R5.B1"         "BPM.8R5.B1"             10415.02             10490.47                    1      0.3249624962948                    0           0.32362203          22.73004919
          "BPM.8R5.B1"         "BPM.9R5.B1"             10490.47             10529.54                    1     0.07681946194915                    0           0.07989367          23.05367122
          "BPM.9R5.B1"        "BPM.10R5.B1"             10529.54             10570.01                    1     0.07476741619998                    0           0.07198658          23.13356489
         "BPM.10R5.B1"        "BPM.11R5.B1"             10570.01             10622.79                    1     0.09464945464404                    0           0.09404662          23.20555147
         "BPM.11R5.B1"        "BPM.12R5.B1"             10622.79             10677.51                    1      0.1664800584015                    0           0.17184369          23.29959809
         "BPM.12R5.B1"        "BPM.14R5.B1"             10677.51             10784.42                    1      0.2480917860233                    0           0.24431968          23.47144178
         "BPM.14R5.B1"        "BPM.17R5.B1"             10784.42             10944.77                    1      0.3905436648956                    0           0.38916563          23.71576146
         "BPM.17R5.B1"        "BPM.18R5.B1"             10944.77             10998.22                    1      0.1131563631293                    0           0.11083437          24.10492709
         "BPM.18R5.B1"        "BPM.19R5.B1"             10998.22             11051.68                    1     0.09541695654867                    0           0.09399971          24.21576146
         "BPM.19R5.B1"        "BPM.20R5.B1"             11051.68             11105.13                    1      0.1645705300455                    0           0.16236629          24.30976117
         "BPM.20R5.B1"        "BPM.23R5.B1"             11105.13             11265.48                    1       0.339800939717                    0           0.33763371          24.47212746
         "BPM.23R5.B1"        "BPM.24R5.B1"             11265.48             11318.93                    1      0.1629677978868                    0           0.16236629          24.80976117
         "BPM.24R5.B1"        "BPM.25R5.B1"             11318.93             11372.38                    1       0.127766985648                    0           0.13279963          24.97212746
         "BPM.25R5.B1"        "BPM.26R5.B1"             11372.38             11425.84                    1      0.1128697218689                    0           0.11083437          25.10492709
         "BPM.26R5.B1"        "BPM.27R5.B1"             11425.84             11479.29                    1     0.09529488173463                    0           0.09399971          25.21576146
         "BPM.27R5.B1"        "BPM.28R5.B1"             11479.29             11532.74                    1      0.1587625139582                    0           0.16236629          25.30976117
         "BPM.28R5.B1"        "BPM.29R5.B1"             11532.74             11586.19                    1      0.1311825389245                    0           0.13279963          25.47212746
         "BPM.29R5.B1"        "BPM.30R5.B1"             11586.19             11639.64                    1      0.1150174128684                    0           0.11083437          25.60492709
         "BPM.30R5.B1"        "BPM.31R5.B1"             11639.64             11693.09                    1     0.09301685762762                    0           0.09399971          25.71576146
         "BPM.31R5.B1"        "BPM.32R5.B1"             11693.09             11746.54                    1      0.1588488732303                    0           0.16236629          25.80976117
         "BPM.32R5.B1"        "BPM.33R5.B1"             11746.54                11800                    1      0.1309223282133                    0           0.13279963          25.97212746
         "BPM.33R5.B1"        "BPM.34R5.B1"                11800             11853.45                    1      0.1160995505186                    0           0.11083437          26.10492709
         "BPM.34R5.B1"        "BPM.33L6.B1"             11853.45              11906.9                    1      0.0957828648015                    0           0.09399971          26.21576146
         "BPM.33L6.B1"        "BPM.32L6.B1"              11906.9             11960.35                    1       0.154906339113                    0           0.16236629          26.30976117
         "BPM.32L6.B1"        "BPM.30L6.B1"             11960.35             12067.25                    1      0.2466328658429                    0             0.243634          26.47212746
         "BPM.30L6.B1"        "BPM.29L6.B1"             12067.25              12120.7                    1     0.09650207972842                    0           0.09399971          26.71576146
         "BPM.29L6.B1"        "BPM.28L6.B1"              12120.7             12174.16                    1      0.1548250803455                    0           0.16236629          26.80976117
         "BPM.28L6.B1"        "BPM.27L6.B1"             12174.16             12227.61                    1      0.1319741636298                    0           0.13279963          26.97212746
         "BPM.27L6.B1"        "BPM.26L6.B1"             12227.61             12281.06                    1      0.1147176850215                    0           0.11083437          27.10492709
         "BPM.26L6.B1"        "BPM.25L6.B1"             12281.06             12334.51                    1     0.09460267691685                    0           0.09399971          27.21576146
         "BPM.25L6.B1"        "BPM.24L6.B1"             12334.51             12387.96                    1      0.1574213268383                    0           0.16236629          27.30976117
         "BPM.24L6.B1"        "BPM.22L6.B1"             12387.96             12494.87                    1      0.2470669493827                    0             0.243634          27.47212746
         "BPM.22L6.B1"        "BPM.21L6.B1"             12494.87             12548.32                    1     0.09992849218298                    0           0.09399971          27.71576146
         "BPM.21L6.B1"        "BPM.20L6.B1"             12548.32             12601.77                    1      0.1530514114083                    0           0.16236629          27.80976117
         "BPM.20L6.B1"        "BPM.19L6.B1"             12601.77             12655.22                    1      0.1326446413145                    0           0.13279963          27.97212746
         "BPM.19L6.B1"        "BPM.18L6.B1"             12655.22             12708.67                    1      0.1203771307269                    0           0.11083437          28.10492709
         "BPM.18L6.B1"        "BPM.17L6.B1"             12708.67             12762.12                    1     0.09596487874417                    0           0.09399971          28.21576146
         "BPM.17L6.B1"        "BPM.16L6.B1"             12762.12             12815.57                    1      0.1583991400384                    0           0.16236629          28.30976117
         "BPM.16L6.B1"        "BPM.15L6.B1"             12815.57             12869.03                    1      0.1300513781991                    0           0.13279963          28.47212746
         "BPM.15L6.B1"        "BPM.14L6.B1"             12869.03             12922.48                    1      0.1178828446389                    0           0.11083437          28.60492709
         "BPM.14L6.B1"        "BPM.13L6.B1"             12922.48             12975.93                    1     0.09450842479264                    0           0.09399971          28.71576146
         "BPM.13L6.B1"        "BPM.12L6.B1"             12975.93             13029.38                    1      0.1624041745603                    0           0.16233331          28.80976117
         "BPM.12L6.B1"        "BPM.11L6.B1"             13029.38             13082.83                    1      0.1383327189711                    0           0.14551556          28.97209448
         "BPM.11L6.B1"        "BPM.10L6.B1"             13082.83             13134.67                    1      0.1210335984542                    0           0.11664173          29.11761004
         "BPM.10L6.B1"         "BPM.9L6.B1"             13134.67             13173.74                    1      0.1057255205445                    0           0.10085032          29.23425177
          "BPM.9L6.B1"         "BPM.8L6.B1"             13173.74              13214.2                    1      0.2627306606446                    0            0.2715248          29.33510209
          "BPM.8L6.B1"       "BPMYA.5L6.B1"              13214.2             13311.29                    1     0.09862600339543                    0           0.09751883          29.60662689
        "BPMYA.5L6.B1"       "BPMYB.4L6.B1"             13311.29             13347.69                    1     0.01967055272294                    0           0.01893759          29.70414572
        "BPMYB.4L6.B1"      "BPMSX.B4L6.B1"             13347.69             13383.23                    1    0.009818348770078                    0    0.009699139999999          29.72308331
       "BPMSX.B4L6.B1"      "BPMSX.A4L6.B1"             13383.23             13383.82                    1   0.0002278920405331                    0   0.0001793500000034          29.73278245
       "BPMSX.A4L6.B1"       "BPMSA.4R6.B1"             13383.82             13568.51                    1      0.1238554737795                    0           0.12514164           29.7329618
        "BPMSA.4R6.B1"      "BPMSI.A4R6.B1"             13568.51             13661.77                    1      0.1100498531626                    0           0.11578229          29.85810344
       "BPMSI.A4R6.B1"      "BPMSI.B4R6.B1"             13661.77             13662.41                    1    0.005813982462128                    0   0.0006741100000021          29.97388573
       "BPMSI.B4R6.B1"       "BPMYA.4R6.B1"             13662.41             13691.29                    1     0.02685055454915                    0            0.0277003          29.97455984
        "BPMYA.4R6.B1"       "BPMYB.5R6.B1"             13691.29             13727.69                    1     0.01734314954469                    0           0.01802828          30.00226014
        "BPMYB.5R6.B1"         "BPM.9R6.B1"             13727.69             13862.49                    1      0.2985308859386                    0           0.29932933          30.02028842
          "BPM.9R6.B1"        "BPM.10R6.B1"             13862.49             13902.95                    1      0.1516835754322                    0           0.10221979          30.31961775
         "BPM.10R6.B1"        "BPM.11R6.B1"             13902.95             13954.79                    1     0.09061252978075                    0           0.14245089          30.42183754
         "BPM.11R6.B1"        "BPM.12R6.B1"             13954.79             14009.52                    1      0.1101758899395                    0           0.10982154          30.56428843
         "BPM.12R6.B1"        "BPM.13R6.B1"             14009.52             14062.97                    1      0.1281243864281                    0           0.13055434          30.67410997
         "BPM.13R6.B1"        "BPM.14R6.B1"             14062.97             14116.42                    1       0.118114189057                    0            0.1177904          30.80466431
         "BPM.14R6.B1"        "BPM.15R6.B1"             14116.42             14169.87                    1      0.1410346484226                    0            0.1387068          30.92245471
         "BPM.15R6.B1"        "BPM.16R6.B1"             14169.87             14223.33                    1      0.1158278323937                    0           0.11833436          31.06116151
         "BPM.16R6.B1"        "BPM.17R6.B1"             14223.33             14276.78                    1      0.1519225059268                    0           0.14535977          31.17949587
         "BPM.17R6.B1"        "BPM.18R6.B1"             14276.78             14330.23                    1      0.1169132368001                    0           0.11707482          31.32485564
         "BPM.18R6.B1"        "BPM.20R6.B1"             14330.23             14437.13                    1      0.2601803391054                    0           0.25792579          31.44193046
         "BPM.20R6.B1"        "BPM.21R6.B1"             14437.13             14490.58                    1      0.1476790571151                    0           0.14506761          31.69985625
         "BPM.21R6.B1"        "BPM.22R6.B1"             14490.58             14544.04                    1      0.1203104608906                    0           0.11641511          31.84492386
         "BPM.22R6.B1"        "BPM.23R6.B1"             14544.04             14597.49                    1      0.1373752605738                    0           0.13994426          31.96133897
         "BPM.23R6.B1"        "BPM.24R6.B1"             14597.49             14650.94                    1      0.1127974975719                    0           0.11641955          32.10128323
         "BPM.24R6.B1"        "BPM.25R6.B1"             14650.94             14704.39                    1      0.1385491545615                    0           0.13994296          32.21770278
         "BPM.25R6.B1"        "BPM.26R6.B1"             14704.39             14757.84                    1       0.117984673741                    0           0.11641504          32.35764574
         "BPM.26R6.B1"        "BPM.27R6.B1"             14757.84             14811.29                    1      0.1408873814516                    0           0.13994467          32.47406078
         "BPM.27R6.B1"        "BPM.28R6.B1"             14811.29             14864.74                    1      0.1161216907912                    0           0.11641943          32.61400545
         "BPM.28R6.B1"        "BPM.29R6.B1"             14864.74              14918.2                    1      0.1387220522328                    0           0.13994256          32.73042488
         "BPM.29R6.B1"        "BPM.30R6.B1"              14918.2             14971.65                    1      0.1130127048226                    0           0.11641519          32.87036744
         "BPM.30R6.B1"        "BPM.31R6.B1"             14971.65              15025.1                    1      0.1409052606224                    0           0.13994506          32.98678263
         "BPM.31R6.B1"        "BPM.32R6.B1"              15025.1             15078.55                    1      0.1195766879904                    0           0.11641926          33.12672769
         "BPM.32R6.B1"        "BPM.33R6.B1"             15078.55                15132                    1      0.1393656117655                    0           0.13994218          33.24314695
         "BPM.33R6.B1"        "BPM.34R6.B1"                15132             15185.45                    1      0.1150405663199                    0           0.11641538          33.38308913
         "BPM.34R6.B1"        "BPM.32L7.B1"             15185.45             15292.36                    1      0.2514710476331                    0           0.25636446          33.49950451
         "BPM.32L7.B1"        "BPM.31L7.B1"             15292.36             15345.81                    1      0.1426025734832                    0           0.13994185          33.75586897
         "BPM.31L7.B1"        "BPM.30L7.B1"             15345.81             15399.26                    1      0.1135398917075                    0           0.11641563          33.89581082
         "BPM.30L7.B1"        "BPM.29L7.B1"             15399.26             15452.71                    1      0.1405881516039                    0           0.13994573          34.01222645
         "BPM.29L7.B1"        "BPM.28L7.B1"             15452.71             15506.16                    1      0.1175603963459                    0           0.11641876          34.15217218
         "BPM.28L7.B1"        "BPM.27L7.B1"             15506.16             15559.61                    1      0.1384202832243                    0           0.13994156          34.26859094
         "BPM.27L7.B1"        "BPM.26L7.B1"             15559.61             15613.06                    1      0.1156766167115                    0           0.11641592           34.4085325
         "BPM.26L7.B1"        "BPM.25L7.B1"             15613.06             15666.52                    1      0.1409171961755                    0             0.139946          34.52494842
         "BPM.25L7.B1"        "BPM.24L7.B1"             15666.52             15719.97                    1      0.1159230545099                    0           0.11641846          34.66489442
         "BPM.24L7.B1"        "BPM.23L7.B1"             15719.97             15773.42                    1      0.1390296960664                    0           0.13994132          34.78131288
         "BPM.23L7.B1"        "BPM.22L7.B1"             15773.42             15826.87                    1      0.1170224852375                    0           0.11641625           34.9212542
         "BPM.22L7.B1"        "BPM.21L7.B1"             15826.87             15880.32                    1      0.1426360430791                    0           0.13994619          35.03767045
         "BPM.21L7.B1"        "BPM.20L7.B1"             15880.32             15933.77                    1      0.1201432765928                    0           0.12020948          35.17761664
         "BPM.20L7.B1"        "BPM.19L7.B1"             15933.77             15987.23                    1      0.1478702725634                    0           0.14378514          35.29782612
         "BPM.19L7.B1"        "BPM.18L7.B1"             15987.23             16040.68                    1      0.1145963231306                    0           0.11544202          35.44161126
         "BPM.18L7.B1"        "BPM.17L7.B1"             16040.68             16094.13                    1      0.1368270769237                    0           0.14062138          35.55705328
         "BPM.17L7.B1"        "BPM.16L7.B1"             16094.13             16147.58                    1      0.1229033267728                    0            0.1205632          35.69767466
         "BPM.16L7.B1"        "BPM.15L7.B1"             16147.58             16201.03                    1      0.1457136933705                    0           0.14303747          35.81823786
         "BPM.15L7.B1"        "BPM.14L7.B1"             16201.03             16254.48                    1      0.1138911462375                    0           0.11518913          35.96127533
         "BPM.14L7.B1"        "BPM.13L7.B1"             16254.48             16307.93                    1       0.142515045321                    0           0.14138848          36.07646446
         "BPM.13L7.B1"        "BPM.12L7.B1"             16307.93             16361.39                    1      0.1083134009758                    0           0.10904149          36.21785294
         "BPM.12L7.B1"        "BPM.10L7.B1"             16361.39             16467.62                    1       0.219282473504                    0           0.21870228          36.32689443
         "BPM.10L7.B1"         "BPM.9L7.B1"             16467.62             16506.69                    1       0.078310889138                    0           0.07966625          36.54559671
          "BPM.9L7.B1"         "BPM.8L7.B1"             16506.69             16547.15                    1     0.06236912508369                    0           0.06173356          36.62526296
          "BPM.8L7.B1"         "BPM.7L7.B1"             16547.15             16586.22                    1     0.07324134928539                    0           0.07580459          36.68699652
          "BPM.7L7.B1"         "BPM.6L7.B1"             16586.22             16621.04                    1     0.06731974884427                    0           0.06576175          36.76280111
          "BPM.6L7.B1"       "BPMWC.6L7.B1"             16621.04             16633.14                    1     0.04151222391351                    0           0.04161351          36.82856286
        "BPMWC.6L7.B1"       "BPMWE.5L7.B1"             16633.14             16710.19                    1      0.1056462762087                    0           0.10577192          36.87017637
        "BPMWE.5L7.B1"        "BPMW.5L7.B1"             16710.19              16733.4                    1     0.01032877827931                    0           0.01142861          36.97594829
         "BPMW.5L7.B1"       "BPMWE.4L7.B1"              16733.4             16768.48                    1     0.03704353370444                    0           0.03449155           36.9873769
        "BPMWE.4L7.B1"        "BPMW.4L7.B1"             16768.48             16796.59                    1     0.06594275962296                    0           0.07083601          37.02186845
         "BPMW.4L7.B1"        "BPMW.4R7.B1"             16796.59             16912.63                    1      0.1527050063514                    0           0.15067384          37.09270446
         "BPMW.4R7.B1"       "BPMWE.4R7.B1"             16912.63             16940.74                    1     0.01150013722181                    0           0.01200186           37.2433783
        "BPMWE.4R7.B1"        "BPMW.5R7.B1"             16940.74             16975.82                    1     0.03277570226214                    0           0.03270214          37.25538016
         "BPMW.5R7.B1"       "BPMWE.5R7.B1"             16975.82             16999.03                    1     0.05983938485578                    0            0.0612441           37.2880823
        "BPMWE.5R7.B1"        "BPMR.6R7.B1"             16999.03             17078.24                    1      0.1714774216097                    0           0.17242162           37.3493264
         "BPMR.6R7.B1"       "BPM_A.7R7.B1"             17078.24             17116.28                    1     0.05639105311334                    0           0.05657514          37.52174802
        "BPM_A.7R7.B1"         "BPM.8R7.B1"             17116.28             17155.35                    1     0.08062559536775                    0           0.08125524          37.57832316
          "BPM.8R7.B1"         "BPM.9R7.B1"             17155.35             17194.41                    1     0.08112736433545                    0           0.07905071           37.6595784
          "BPM.9R7.B1"        "BPM.10R7.B1"             17194.41             17234.88                    1     0.08517659988729                    0           0.08536435          37.73862911
         "BPM.10R7.B1"        "BPM.11R7.B1"             17234.88             17287.66                    1      0.1087451724291                    0           0.10902073          37.82399346
         "BPM.11R7.B1"        "BPM.12R7.B1"             17287.66             17342.39                    1      0.1350183647802                    0           0.13683248          37.93301419
         "BPM.12R7.B1"        "BPM.13R7.B1"             17342.39             17395.84                    1      0.1153546497629                    0           0.11674765          38.06984667
         "BPM.13R7.B1"        "BPM.14R7.B1"             17395.84             17449.29                    1      0.1415608674315                    0           0.13901634          38.18659432
         "BPM.14R7.B1"        "BPM.15R7.B1"             17449.29             17502.74                    1      0.1199335384009                    0           0.11909662          38.32561066
         "BPM.15R7.B1"        "BPM.16R7.B1"             17502.74             17556.19                    1      0.1426278893508                    0           0.14492136          38.44470728
         "BPM.16R7.B1"        "BPM.17R7.B1"             17556.19             17609.65                    1      0.1185771592844                    0           0.11638211          38.58962864
         "BPM.17R7.B1"        "BPM.18R7.B1"             17609.65              17663.1                    1      0.1396055196991                    0           0.13939757          38.70601075
         "BPM.18R7.B1"        "BPM.19R7.B1"              17663.1             17716.55                    1      0.1180804783148                    0            0.1197065          38.84540832
         "BPM.19R7.B1"        "BPM.20R7.B1"             17716.55                17770                    1      0.1475784124401                    0           0.14443031          38.96511482
         "BPM.20R7.B1"        "BPM.21R7.B1"                17770             17823.45                    1      0.1158709038416                    0           0.11584973          39.10954513
         "BPM.21R7.B1"        "BPM.22R7.B1"             17823.45              17876.9                    1      0.1386154471593                    0           0.13994114          39.22539486
         "BPM.22R7.B1"        "BPM.24R7.B1"              17876.9             17983.81                    1      0.2569001334387                    0           0.25636018            39.365336
         "BPM.24R7.B1"        "BPM.25R7.B1"             17983.81             18037.26                    1       0.117849685728                    0           0.11642007          39.62169618
         "BPM.25R7.B1"        "BPM.26R7.B1"             18037.26             18090.71                    1      0.1393076955282                    0           0.13994131          39.73811625
         "BPM.26R7.B1"        "BPM.28R7.B1"             18090.71             18197.61                    1      0.2534716392435                    0             0.256361          39.87805756
         "BPM.28R7.B1"        "BPM.29R7.B1"             18197.61             18251.06                    1      0.1167421669485                    0           0.11641971          40.13441856
         "BPM.29R7.B1"        "BPM.30R7.B1"             18251.06             18304.51                    1      0.1424557962569                    0           0.13994085          40.25083827
         "BPM.30R7.B1"        "BPM.31R7.B1"             18304.51             18357.97                    1      0.1115225425146                    0           0.11641502          40.39077912
         "BPM.31R7.B1"        "BPM.32R7.B1"             18357.97             18411.42                    1        0.14037766539                    0           0.13994679          40.50719414
         "BPM.32R7.B1"        "BPM.33R7.B1"             18411.42             18464.87                    1      0.1147746785347                    0            0.1164193          40.64714093
         "BPM.33R7.B1"        "BPM.34R7.B1"             18464.87             18518.32                    1      0.1442682234389                    0           0.13994046          40.76356023
         "BPM.34R7.B1"        "BPM.33L8.B1"             18518.32             18571.77                    1      0.1151586408827                    0           0.11641545          40.90350069
         "BPM.33L8.B1"        "BPM.32L8.B1"             18571.77             18625.22                    1      0.1370615643047                    0           0.13994715          41.01991614
         "BPM.32L8.B1"        "BPM.31L8.B1"             18625.22             18678.68                    1      0.1195164449772                    0           0.11641884          41.15986329
         "BPM.31L8.B1"        "BPM.30L8.B1"             18678.68             18732.13                    1      0.1397256662131                    0           0.13994014          41.27628213
         "BPM.30L8.B1"        "BPM.29L8.B1"             18732.13             18785.58                    1       0.115847208043                    0           0.11641594          41.41622227
         "BPM.29L8.B1"        "BPM.28L8.B1"             18785.58             18839.03                    1      0.1376694686399                    0           0.13994741          41.53263821
         "BPM.28L8.B1"        "BPM.27L8.B1"             18839.03             18892.48                    1      0.1159594785852                    0           0.11641834          41.67258562
         "BPM.27L8.B1"        "BPM.26L8.B1"             18892.48             18945.93                    1      0.1436327926305                    0           0.13993992          41.78900396
         "BPM.26L8.B1"        "BPM.25L8.B1"             18945.93             18999.38                    1      0.1125871367389                    0           0.11641646          41.92894388
         "BPM.25L8.B1"        "BPM.24L8.B1"             18999.38             19052.84                    1      0.1414495157136                    0           0.13994758          42.04536034
         "BPM.24L8.B1"        "BPM.23L8.B1"             19052.84             19106.29                    1      0.1186771215388                    0           0.11641781          42.18530792
         "BPM.23L8.B1"        "BPM.22L8.B1"             19106.29             19159.74                    1      0.1421555343737                    0            0.1399398          42.30172573
         "BPM.22L8.B1"        "BPM.21L8.B1"             19159.74             19213.19                    1      0.1160661928423                    0             0.116417          42.44166553
         "BPM.21L8.B1"        "BPM.20L8.B1"             19213.19             19266.64                    1      0.1357533041976                    0           0.13925448          42.55808253
         "BPM.20L8.B1"        "BPM.19L8.B1"             19266.64             19320.09                    1      0.1247011643046                    0           0.11968248          42.69733701
         "BPM.19L8.B1"        "BPM.18L8.B1"             19320.09             19373.54                    1      0.1455260038159                    0           0.14458088          42.81701949
         "BPM.18L8.B1"        "BPM.17L8.B1"             19373.54                19427                    1      0.1136823923962                    0           0.11585356          42.96160037
         "BPM.17L8.B1"        "BPM.16L8.B1"                19427             19480.45                    1      0.1378599655588                    0            0.1397934          43.07745393
         "BPM.16L8.B1"        "BPM.15L8.B1"             19480.45              19533.9                    1      0.1275363665817                    0           0.12021477          43.21724733
         "BPM.15L8.B1"        "BPM.14L8.B1"              19533.9             19587.35                    1      0.1409962255046                    0           0.14393915           43.3374621
         "BPM.14L8.B1"        "BPM.13L8.B1"             19587.35              19640.8                    1      0.1141373042134                    0           0.11541778          43.48140125
         "BPM.13L8.B1"        "BPM.12L8.B1"              19640.8             19694.25                    1      0.1387676149695                    0           0.14131889          43.59681903
         "BPM.12L8.B1"        "BPM.11L8.B1"             19694.25              19747.7                    1      0.1157098471747                    0           0.11169795          43.73813792
         "BPM.11L8.B1"        "BPM.10L8.B1"              19747.7             19799.55                    1      0.1274527044478                    0            0.1283355          43.84983587
         "BPM.10L8.B1"         "BPM.9L8.B1"             19799.55             19838.61                    1      0.0655429849624                    0           0.06942851          43.97817137
          "BPM.9L8.B1"         "BPM.8L8.B1"             19838.61             19879.08                    1      0.1086282973721                    0           0.10839448          44.04759988
          "BPM.8L8.B1"         "BPM.7L8.B1"             19879.08             19918.15                    1     0.09421126743602                    0           0.09613525          44.15599436
          "BPM.7L8.B1"        "BPMR.6L8.B1"             19918.15             19950.61                    1      0.1016415208636                    0           0.09655334          44.25212961
         "BPMR.6L8.B1"       "BPMYB.4L8.B1"             19950.61              20031.8                    1      0.3468917902931                    0           0.35269169          44.34868295
        "BPMYB.4L8.B1"       "BPMWB.4L8.B1"              20031.8             20056.19                    1      0.0158082679196                    0           0.01433854          44.70137464
        "BPMWB.4L8.B1"       "BPMSX.4L8.B1"             20056.19             20106.42                    1      0.0269200569724                    0           0.02601163          44.71571318
        "BPMSX.4L8.B1"        "BPMS.2L8.B1"             20106.42             20144.34                    1     0.01518524781482                    0           0.01355345          44.74172481
         "BPMS.2L8.B1"       "BPMSW.1L8.B1"             20144.34             20154.27                    1    0.003221426754536                    0           0.00615063          44.75527826
        "BPMSW.1L8.B1"       "BPMSW.1R8.B1"             20154.27             20197.46                    1      0.5143332372759                    0             0.456061          44.76142889
        "BPMSW.1R8.B1"        "BPMS.2R8.B1"             20197.46             20207.39                    1      0.9510564882477                    0    0.007940239999996          45.21748989
         "BPMS.2R8.B1"       "BPMSX.4R8.B1"             20207.39             20245.31                    1     0.01799578532965                    0           0.01547202          45.22543013
        "BPMSX.4R8.B1"       "BPMWB.4R8.B1"             20245.31             20295.46                    1     0.02034988709036                    0     0.02228323000001          45.24090215
        "BPMWB.4R8.B1"       "BPMYB.4R8.B1"             20295.46             20319.93                    1     0.07769431276971                    0           0.02282164          45.26318538
        "BPMYB.4R8.B1"       "BPMYB.5R8.B1"             20319.93             20340.51                    1      0.9663416928414                    0           0.01889282          45.28600702
        "BPMYB.5R8.B1"         "BPM.6R8.B1"             20340.51             20424.62                    1      0.2076417571533                    0           0.20859661          45.30489984
          "BPM.6R8.B1"       "BPM_A.7R8.B1"             20424.62             20446.86                    1     0.04290947700565                    0           0.04426209          45.51349645
        "BPM_A.7R8.B1"         "BPM.8R8.B1"             20446.86             20488.29                    1      0.1406606563365                    0           0.14092694          45.55775854
          "BPM.8R8.B1"         "BPM.9R8.B1"             20488.29             20527.36                    1      0.2131464395228                    0           0.21218097          45.69868548
          "BPM.9R8.B1"        "BPM.10R8.B1"             20527.36             20567.82                    1     0.09644705381449                    0           0.09288735          45.91086645
         "BPM.10R8.B1"        "BPM.11R8.B1"             20567.82             20619.66                    1      0.1854294889367                    0           0.18468034           46.0037538
         "BPM.11R8.B1"        "BPM.12R8.B1"             20619.66             20674.38                    1      0.1031103559764                    0           0.10569672          46.18843414
         "BPM.12R8.B1"        "BPM.13R8.B1"             20674.38             20727.83                    1     0.09113681733297                    0             0.092446          46.29413086
         "BPM.13R8.B1"        "BPM.14R8.B1"             20727.83             20781.28                    1      0.1012174586849                    0           0.09381738          46.38657686
         "BPM.14R8.B1"        "BPM.16R8.B1"             20781.28             20888.18                    1      0.2877760604901                    0           0.29514967          46.48039424
         "BPM.16R8.B1"        "BPM.17R8.B1"             20888.18             20941.63                    1      0.1055896562673                    0            0.1110053          46.77554391
         "BPM.17R8.B1"        "BPM.18R8.B1"             20941.63             20995.07                    1     0.09336903721426                    0           0.09381054          46.88654921
         "BPM.18R8.B1"        "BPM.19R8.B1"             20995.07             21048.52                    1      0.1648674971413                    0            0.1620295          46.98035975
         "BPM.19R8.B1"        "BPM.20R8.B1"             21048.52             21101.97                    1      0.1303348215942                    0           0.13311991          47.14238925
         "BPM.20R8.B1"        "BPM.21R8.B1"             21101.97             21155.42                    1      0.1075375359041                    0           0.11101296          47.27550916
         "BPM.21R8.B1"        "BPM.23R8.B1"             21155.42             21262.32                    1      0.2555983773198                    0           0.25581921          47.38652212
         "BPM.23R8.B1"        "BPM.24R8.B1"             21262.32             21315.76                    1      0.1367789862103                    0           0.13313308          47.64234133
         "BPM.24R8.B1"        "BPM.25R8.B1"             21315.76             21369.21                    1       0.109817069706                    0           0.11102062          47.77547441
         "BPM.25R8.B1"        "BPM.26R8.B1"             21369.21             21422.66                    1     0.09275989446822                    0           0.09379576          47.88649503
         "BPM.26R8.B1"        "BPM.27R8.B1"             21422.66             21476.11                    1      0.1623076463733                    0           0.16200261          47.98029079
         "BPM.27R8.B1"        "BPM.28R8.B1"             21476.11             21529.56                    1      0.1342707897657                    0           0.13314625           48.1422934
         "BPM.28R8.B1"        "BPM.29R8.B1"             21529.56             21583.01                    1      0.1102327778377                    0           0.11102829          48.27543965
         "BPM.29R8.B1"        "BPM.30R8.B1"             21583.01             21636.46                    1     0.09284109671624                    0           0.09378838          48.38646794
         "BPM.30R8.B1"        "BPM.31R8.B1"             21636.46              21689.9                    1      0.1669474626391                    0           0.16198914          48.48025632
         "BPM.31R8.B1"        "BPM.32R8.B1"              21689.9             21743.35                    1      0.1359261526559                    0           0.13315943          48.64224546
         "BPM.32R8.B1"        "BPM.33R8.B1"             21743.35              21796.8                    1      0.1068163068018                    0           0.11103596          48.77540489
         "BPM.33R8.B1"        "BPM.34R8.B1"              21796.8             21850.25                    1     0.09192424912936                    0             0.093781          48.88644085
         "BPM.34R8.B1"        "BPM.33L1.B1"             21850.25              21903.7                    1      0.1669518886159                    0           0.16197568          48.98022185
         "BPM.33L1.B1"        "BPM.32L1.B1"              21903.7             21957.15                    1      0.1313186367269                    0            0.1331726          49.14219753
         "BPM.32L1.B1"        "BPM.31L1.B1"             21957.15              22010.6                    1      0.1112636635689                    0           0.11104363          49.27537013
         "BPM.31L1.B1"        "BPM.30L1.B1"              22010.6             22064.04                    1     0.09219746211251                    0     0.09377362999999          49.38641376
         "BPM.30L1.B1"        "BPM.29L1.B1"             22064.04             22117.49                    1      0.1647266559082                    0           0.16196221          49.48018739
         "BPM.29L1.B1"        "BPM.28L1.B1"             22117.49             22170.94                    1      0.1317088722899                    0           0.13318576           49.6421496
         "BPM.28L1.B1"        "BPM.27L1.B1"             22170.94             22224.39                    1        0.11080680819                    0           0.11105131          49.77533536
         "BPM.27L1.B1"        "BPM.26L1.B1"             22224.39             22277.84                    1     0.09275104454079                    0           0.09376626          49.88638667
         "BPM.26L1.B1"        "BPM.25L1.B1"             22277.84             22331.29                    1      0.1630193897556                    0           0.16194873          49.98015293
         "BPM.25L1.B1"        "BPM.24L1.B1"             22331.29             22384.74                    1      0.1351294610291                    0           0.13319892          50.14210166
         "BPM.24L1.B1"        "BPM.23L1.B1"             22384.74             22438.18                    1      0.1086242822191                    0           0.11105901          50.27530058
         "BPM.23L1.B1"        "BPM.22L1.B1"             22438.18             22491.63                    1     0.09488209259062                    0           0.09375888          50.38635959
         "BPM.22L1.B1"        "BPM.21L1.B1"             22491.63             22545.08                    1      0.1626462672326                    0           0.16193526          50.48011847
         "BPM.21L1.B1"        "BPM.20L1.B1"             22545.08             22598.53                    1      0.1316159615286                    0           0.13321207          50.64205373
         "BPM.20L1.B1"        "BPM.19L1.B1"             22598.53             22651.98                    1      0.1089641519838                    0            0.1110667           50.7752658
         "BPM.19L1.B1"        "BPM.18L1.B1"             22651.98             22705.43                    1     0.09447500527143                    0           0.09375152           50.8863325
         "BPM.18L1.B1"        "BPM.17L1.B1"             22705.43             22758.87                    1      0.1630179525203                    0           0.16192177          50.98008402
         "BPM.17L1.B1"        "BPM.16L1.B1"             22758.87             22812.32                    1      0.1304943813598                    0           0.13322523          51.14200579
         "BPM.16L1.B1"        "BPM.15L1.B1"             22812.32             22865.77                    1      0.1094905058729                    0           0.11107439          51.27523102
         "BPM.15L1.B1"        "BPM.14L1.B1"             22865.77             22919.22                    1     0.09371056863683                    0           0.09374417          51.38630541
         "BPM.14L1.B1"        "BPM.13L1.B1"             22919.22             22972.67                    1      0.1577532150559                    0           0.16190828          51.48004958
         "BPM.13L1.B1"        "BPM.12L1.B1"             22972.67             23026.12                    1        0.12912963889                    0           0.12622387          51.64195786
         "BPM.12L1.B1"        "BPM.11L1.B1"             23026.12             23079.57                    1      0.1078613593519                    0            0.1062465          51.76818173
         "BPM.11L1.B1"        "BPM.10L1.B1"             23079.57             23132.35                    1     0.06634675961447                    0           0.06490133          51.87442823
         "BPM.10L1.B1"         "BPM.9L1.B1"             23132.35             23171.41                    1     0.05412021973438                    0     0.05586192000001          51.93932956
          "BPM.9L1.B1"         "BPM.8L1.B1"             23171.41             23211.87                    1      0.1653201102018                    0           0.15459723          51.99519148
          "BPM.8L1.B1"        "BPMR.7L1.B1"             23211.87             23250.94                    1      0.2481047576993                    0           0.25240129          52.14978871
         "BPMR.7L1.B1"         "BPM.6L1.B1"             23250.94             23294.12                    1      0.2534799148438                    0           0.28599627             52.40219
          "BPM.6L1.B1"       "BPMYA.4L1.B1"             23294.12             23347.14                    1      0.2116019556916                    0           0.18087566          52.68818627
        "BPMYA.4L1.B1"       "BPMWB.4L1.B1"             23347.14             23368.28                    1    0.005068883007658                    0    0.004685729999999          52.86906193
        "BPMWB.4L1.B1"       "BPMSY.4L1.B1"             23368.28             23461.06                    1    0.005286699628215                    0    0.005399340000004          52.87374766
        "BPMSY.4L1.B1"        "BPMS.2L1.B1"             23461.06             23487.84                    1     0.00161342913131                    0    0.001242769999998            52.879147
         "BPMS.2L1.B1"       "BPMSW.1L1.B1"             23487.84             23497.79                    1      0.0011473161356                    0   0.0008047199999979          52.88038977
        "BPMSW.1L1.B1"       "BPMSW.1R1.B1"             23497.79             23540.93                    1      0.4950725923529                    0           0.49557358          52.88119449
        "BPMSW.1R1.B1"        "BPMS.2R1.B1"             23540.93              23550.9                    1   0.0009151895157137                    0   0.0006275200000019          53.37676807
         "BPMS.2R1.B1"       "BPMSY.4R1.B1"              23550.9             23577.68                    1   0.0006783513359975                    0   0.0008566099999996          53.37739559
        "BPMSY.4R1.B1"       "BPMWB.4R1.B1"             23577.68             23670.46                    1    0.006363633484879                    0    0.006128539999999           53.3782522
        "BPMWB.4R1.B1"       "BPMYA.4R1.B1"             23670.46              23691.6                    1   0.0009248814361016                    0    0.002104500000002          53.38438074
        "BPMYA.4R1.B1"         "BPM.5R1.B1"              23691.6                23719                    1     0.00577574608311                    0    0.004798909999998          53.38648524
          "BPM.5R1.B1"        "BPMR.6R1.B1"                23719              23750.9                    1     0.01402064088029                    0           0.01459583          53.39128415
         "BPMR.6R1.B1"       "BPMSX.7R1.B1"              23750.9             23757.12                    1     0.00559664183345                    0    0.005913319999998          53.40587998
        "BPMSX.7R1.B1"       "BPM_A.7R1.B1"             23757.12             23778.63                    1     0.06125037005986                    0           0.06165868           53.4117933
        "BPM_A.7R1.B1"         "BPM.8R1.B1"             23778.63             23820.07                    1      0.2632992022471                    0           0.25166897          53.47345198
          "BPM.8R1.B1"         "BPM.9R1.B1"             23820.07             23859.13                    1      0.0745935231396                    0     0.07989206000001          53.72512095
          "BPM.9R1.B1"        "BPM.10R1.B1"             23859.13              23899.6                    1     0.06952243155926                    0           0.07198414          53.80501301
         "BPM.10R1.B1"        "BPM.11R1.B1"              23899.6             23952.38                    1     0.08906738274548                    0           0.09404512          53.87699715
         "BPM.11R1.B1"        "BPM.12R1.B1"             23952.38             24007.11                    1      0.1697500764598                    0           0.17184822          53.97104227
         "BPM.12R1.B1"        "BPM.13R1.B1"             24007.11             24060.56                    1      0.1398046308658                    0           0.13348495          54.14289049
         "BPM.13R1.B1"        "BPM.14R1.B1"             24060.56             24114.01                    1      0.1109748868853                    0           0.11083139          54.27637544
         "BPM.14R1.B1"        "BPM.15R1.B1"             24114.01             24167.46                    1     0.09269106199056                    0           0.09399858          54.38720683
         "BPM.15R1.B1"        "BPM.16R1.B1"             24167.46             24220.91                    1      0.1617604830066                    0           0.16237078          54.48120541
         "BPM.16R1.B1"        "BPM.17R1.B1"             24220.91             24274.37                    1      0.1369480756486                    0           0.13279983          54.64357619
         "BPM.17R1.B1"        "BPM.18R1.B1"             24274.37             24327.82                    1      0.1090727306367                    0           0.11083081          54.77637602
         "BPM.18R1.B1"        "BPM.19R1.B1"             24327.82             24381.27                    1     0.09224885798112                    0           0.09399858          54.88720683
         "BPM.19R1.B1"        "BPM.20R1.B1"             24381.27             24434.72                    1      0.1652065703278                    0           0.16237078          54.98120541
         "BPM.20R1.B1"        "BPM.21R1.B1"             24434.72             24488.17                    1      0.1339714781709                    0           0.13279983          55.14357619
         "BPM.21R1.B1"        "BPM.22R1.B1"             24488.17             24541.62                    1      0.1094628947901                    0           0.11083081          55.27637602
         "BPM.22R1.B1"        "BPM.23R1.B1"             24541.62             24595.08                    1      0.0944879053162                    0           0.09399858          55.38720683
         "BPM.23R1.B1"        "BPM.24R1.B1"             24595.08             24648.53                    1      0.1602437119768                    0           0.16237078          55.48120541
         "BPM.24R1.B1"        "BPM.25R1.B1"             24648.53             24701.98                    1      0.1369372598762                    0           0.13279983          55.64357619
         "BPM.25R1.B1"        "BPM.26R1.B1"             24701.98             24755.43                    1      0.1081663099107                    0           0.11083081          55.77637602
         "BPM.26R1.B1"        "BPM.27R1.B1"             24755.43             24808.88                    1      0.0931343032232                    0           0.09399858          55.88720683
         "BPM.27R1.B1"        "BPM.28R1.B1"             24808.88             24862.33                    1      0.1629892265315                    0           0.16237078          55.98120541
         "BPM.28R1.B1"        "BPM.29R1.B1"             24862.33             24915.78                    1      0.1352538328634                    0           0.13279983          56.14357619
         "BPM.29R1.B1"        "BPM.30R1.B1"             24915.78             24969.24                    1      0.1082042445011                    0           0.11083081          56.27637602
         "BPM.30R1.B1"        "BPM.31R1.B1"             24969.24             25022.69                    1      0.0925879292327                    0           0.09399858          56.38720683
         "BPM.31R1.B1"        "BPM.32R1.B1"             25022.69             25076.14                    1      0.1622055640043                    0           0.16237078          56.48120541
         "BPM.32R1.B1"        "BPM.33R1.B1"             25076.14             25129.59                    1      0.1339025670731                    0           0.13279983          56.64357619
         "BPM.33R1.B1"        "BPM.34R1.B1"             25129.59             25183.04                    1      0.1128231500485                    0           0.11083081          56.77637602
         "BPM.34R1.B1"        "BPM.33L2.B1"             25183.04             25236.49                    1     0.09091450670745                    0           0.09399858          56.88720683
         "BPM.33L2.B1"        "BPM.32L2.B1"             25236.49             25289.94                    1      0.1619531436362                    0           0.16237078          56.98120541
         "BPM.32L2.B1"        "BPM.31L2.B1"             25289.94              25343.4                    1      0.1361254370436                    0           0.13279983          57.14357619
         "BPM.31L2.B1"        "BPM.30L2.B1"              25343.4             25396.85                    1      0.1119267782961                    0           0.11083081          57.27637602
         "BPM.30L2.B1"        "BPM.29L2.B1"             25396.85              25450.3                    1     0.09402808441613                    0           0.09399858          57.38720683
         "BPM.29L2.B1"        "BPM.28L2.B1"              25450.3             25503.75                    1      0.1592817263552                    0           0.16237078          57.48120541
         "BPM.28L2.B1"        "BPM.27L2.B1"             25503.75              25557.2                    1      0.1357038716881                    0           0.13279983          57.64357619
         "BPM.27L2.B1"        "BPM.26L2.B1"              25557.2             25610.65                    1      0.1095838624263                    0           0.11083081          57.77637602
         "BPM.26L2.B1"        "BPM.25L2.B1"             25610.65              25664.1                    1     0.09430994249887                    0           0.09399858          57.88720683
         "BPM.25L2.B1"        "BPM.24L2.B1"              25664.1             25717.56                    1      0.1610293002319                    0           0.16237078          57.98120541
         "BPM.24L2.B1"        "BPM.23L2.B1"             25717.56             25771.01                    1      0.1352919757386                    0           0.13279983          58.14357619
         "BPM.23L2.B1"        "BPM.22L2.B1"             25771.01             25824.46                    1      0.1101895410878                    0           0.11083081          58.27637602
         "BPM.22L2.B1"        "BPM.21L2.B1"             25824.46             25877.91                    1      0.0947804062488                    0           0.09399858          58.38720683
         "BPM.21L2.B1"        "BPM.20L2.B1"             25877.91             25931.36                    1      0.1577134424099                    0           0.16237078          58.48120541
         "BPM.20L2.B1"        "BPM.19L2.B1"             25931.36             25984.81                    1       0.135381025365                    0           0.13279983          58.64357619
         "BPM.19L2.B1"        "BPM.18L2.B1"             25984.81             26038.27                    1      0.1124948280003                    0           0.11083081          58.77637602
         "BPM.18L2.B1"        "BPM.16L2.B1"             26038.27             26145.17                    1      0.2533583461414                    0           0.25636936          58.88720683
         "BPM.16L2.B1"        "BPM.15L2.B1"             26145.17             26198.62                    1      0.1345011975031                    0           0.13279983          59.14357619
         "BPM.15L2.B1"        "BPM.14L2.B1"             26198.62             26252.07                    1      0.1133699398115                    0           0.11083081          59.27637602
         "BPM.14L2.B1"        "BPM.13L2.B1"             26252.07             26305.52                    1     0.09279585360221                    0           0.09399858          59.38720683
         "BPM.13L2.B1"        "BPM.12L2.B1"             26305.52             26358.97                    1      0.1593983947188                    0           0.16032755          59.48120541
         "BPM.12L2.B1"        "BPM.11L2.B1"             26358.97             26412.43                    1      0.1404321123166                    0           0.14092474          59.64153296
         "BPM.11L2.B1"        "BPM.10L2.B1"             26412.43             26464.27                    1      0.1156283623425                    0           0.11591514           59.7824577
         "BPM.10L2.B1"         "BPM.9L2.B1"             26464.27             26503.33                    1     0.06276162115947                    0           0.06008718          59.89837284
          "BPM.9L2.B1"         "BPM.8L2.B1"             26503.33              26543.8                    1      0.1418422851132                    0           0.14044433          59.95846002
          "BPM.8L2.B1"         "BPM.7L2.B1"              26543.8             26582.87                    1     0.09588151146709                    0           0.09691628          60.09890435
          "BPM.7L2.B1"        "BPMR.6L2.B1"             26582.87             26614.97                    1     0.05505296640445                    0           0.05433244          60.19582063
         "BPMR.6L2.B1"       "BPMYB.5L2.B1"             26614.97               28.288                    1      0.8640175711825                    0         0.1908143921          60.25015307