@ GetLLMVersion %s "V3.0.0 Dev"
@ Command %s "/afs/cern.ch/work/o/omc/anaconda/bin/python '/afs/cern.ch/eng/sl/lintrack/Beta-Beat.src/GetLLM/GetLLM.py' '--accel=LHCB1' '--model=/afs/cern.ch/user/t/thpugnat/public/Outputs/2018-09-04/models/LHCB1/b1_squeeze_collQ/twiss.dat' '--files=/afs/cern.ch/user/t/thpugnat/public/Outputs/2018-09-04/LHCB1/Measurements/Beam1@Turn@2018_06_16@17_54_35_023/Beam1@Turn@2018_06_16@17_54_35_023.sdds.clean' '--output=/afs/cern.ch/user/t/thpugnat/public/Outputs/2018-09-04/LHCB1/Results/16-09-14_NORMALANALYSIS_SUSSIX_39' '--tbtana=SUSSIX' '--bpmu=mm' '--lhcphase=1' '--errordefs=/afs/cern.ch/user/t/thpugnat/public/Outputs/2018-09-04/models/LHCB1/b1_squeeze_collQ/error_deff.txt' '--calibration=/afs/cern.ch/eng/sl/lintrack/LHC_commissioning2017/Calibration_factors_2017/Calibration_factors_2017_beam1'"
@ CWD %s "/afs/cern.ch/user/t/thpugnat"
@ Date %s "04. September 2018, 16:09:18"
@ PLANE %s "X"
@ FILES %s "/afs/cern.ch/user/t/thpugnat/public/Outputs/2018-09-04/LHCB1/Measurements/Beam1@Turn@2018_06_16@17_54_35_023/Beam1@Turn@2018_06_16@17_54_35_023.sdds.clean"
*                   IP             BETASTAR            EBETASTAR             PHASEADV            EPHASEADV             MDLPHADV                LSTAR
$                   %s                  %le                  %le                  %le                  %le                  %le                  %le
                   IP1      0.2896615407594                    0             0.495726                    0           0.49580405              21.5715
                   IP2      -11.58892413016                    0      0.6567786886497                    0         0.3554022283               21.595
                   IP8        2.87504115441                    0            0.4578697                    0           0.45729406               21.595