@ GetLLMVersion %s "V3.0.0 Dev"
@ Command %s "/afs/cern.ch/work/o/omc/anaconda/bin/python '/afs/cern.ch/eng/sl/lintrack/Beta-Beat.src/GetLLM/GetLLM.py' '--accel=LHCB1' '--model=/afs/cern.ch/user/t/thpugnat/public/Outputs/2018-09-04/models/LHCB1/b1_squeeze_collQ/twiss.dat' '--files=/afs/cern.ch/user/t/thpugnat/public/Outputs/2018-09-04/LHCB1/Measurements/Beam1@Turn@2018_06_16@18_16_19_652/Beam1@Turn@2018_06_16@18_16_19_652.sdds.clean' '--output=/afs/cern.ch/user/t/thpugnat/public/Outputs/2018-09-04/LHCB1/Results/15-36-34_NORMALANALYSIS_SUSSIX_19' '--tbtana=SUSSIX' '--bpmu=mm' '--lhcphase=1' '--errordefs=/afs/cern.ch/user/t/thpugnat/public/Outputs/2018-09-04/models/LHCB1/b1_squeeze_collQ/error_deff.txt' '--calibration=/afs/cern.ch/eng/sl/lintrack/LHC_commissioning2017/Calibration_factors_2017/Calibration_factors_2017_beam1'"
@ CWD %s "/afs/cern.ch/user/t/thpugnat"
@ Date %s "04. September 2018, 15:36:50"
@ FILES %s ""
*                 NAME                    S                X1010             X1010RMS           X1010PHASE        X1010PHASERMS               X1010M          X1010MPHASE
$                   %s                  %le                  %le                  %le                  %le                  %le                  %le                  %le
        "BPMYB.5L2.B1"               28.288     0.01942125378443   1.483239697419e-08           -0.2560137   1.483239697419e-08                    0                    0
        "BPMYB.4L2.B1"               48.858     0.01816504606431   1.483239697419e-08            -0.226249   1.483239697419e-08                    0                    0
        "BPMWI.4L2.B1"              73.3255      0.0221688485178   1.483239697419e-08           -0.1758806   1.483239697419e-08                    0                    0
        "BPMSX.4L2.B1"             123.4825     0.02251660468612   1.483239697419e-08          -0.22001304   1.483239697419e-08                    0                    0
         "BPMS.2L2.B1"              161.394    0.005640413909657   1.483239697419e-08           -0.3821626   1.483239697419e-08                    0                    0
        "BPMSW.1L2.B1"              171.328    0.007454976965204   1.483239697419e-08           -0.0870503   1.483239697419e-08                    0                    0
        "BPMSW.1R2.B1"              214.518     0.01320310206563   1.483239697419e-08            -0.040877   1.483239697419e-08                    0                    0
         "BPMS.2R2.B1"              224.452     0.01287463144084   1.483239697419e-08           -0.1874826   1.483239697419e-08                    0                    0
        "BPMSX.4R2.B1"             262.3635     0.03166738143879   1.483239697419e-08           -0.2479384   1.483239697419e-08                    0                    0
        "BPMWB.4R2.B1"             312.5965     0.01130872107993   1.483239697419e-08            0.5600547   1.483239697419e-08                    0                    0
        "BPMYB.4R2.B1"              336.988     0.01208534141083   1.483239697419e-08            0.5609264   1.483239697419e-08                    0                    0
         "BPMR.5R2.B1"              366.522     0.01545709341802   1.483239697419e-08            0.5912592   1.483239697419e-08                    0                    0
          "BPM.6R2.B1"              439.818     0.02454056615642   1.483239697419e-08           -0.2512612   1.483239697419e-08                    0                    0
        "BPM_A.7R2.B1"              452.693     0.01674716326453   1.483239697419e-08            -0.283025   1.483239697419e-08                    0                    0
          "BPM.8R2.B1"               494.13    0.008205975202151   1.483239697419e-08          -0.23476918   1.483239697419e-08                    0                    0
          "BPM.9R2.B1"              533.195     0.01607215945935   1.483239697419e-08           -0.4459988   1.483239697419e-08                    0                    0
         "BPM.10R2.B1"              573.658     0.02205973289411   1.483239697419e-08        -0.3253469186   1.483239697419e-08                    0                    0
         "BPM.11R2.B1"             625.4967     0.01728642806606   1.483239697419e-08           -0.2438007   1.483239697419e-08                    0                    0
         "BPM.12R2.B1"             680.2203    0.006058137272022   1.483239697419e-08             0.627356   1.483239697419e-08                    0                    0
         "BPM.13R2.B1"             733.6688     0.01360336462718   1.483239697419e-08            0.5809801   1.483239697419e-08                    0                    0
         "BPM.14R2.B1"             787.1173     0.01929428737281   1.483239697419e-08            0.6616663   1.483239697419e-08                    0                    0
         "BPM.15R2.B1"             840.5658     0.01722234596321   1.483239697419e-08           -0.2142854   1.483239697419e-08                    0                    0
         "BPM.16R2.B1"             894.0143    0.006236401426742   1.483239697419e-08           -0.3347403   1.483239697419e-08                    0                    0
         "BPM.17R2.B1"             947.4628     0.01090037896438   1.483239697419e-08           -0.4234004   1.483239697419e-08                    0                    0
         "BPM.18R2.B1"             1000.911     0.01628799169345   1.483239697419e-08        -0.3364973494   1.483239697419e-08                    0                    0
         "BPM.19R2.B1"              1054.36     0.01888466209428   1.483239697419e-08           -0.2412893   1.483239697419e-08                    0                    0
         "BPM.20R2.B1"             1107.808    0.007347824561225   1.483239697419e-08           -0.0706461   1.483239697419e-08                    0                    0
         "BPM.21R2.B1"             1161.257     0.01555044884089   1.483239697419e-08            0.5385471   1.483239697419e-08                    0                    0
         "BPM.22R2.B1"             1214.705     0.01476348556117   1.483239697419e-08           -0.3604368   1.483239697419e-08                    0                    0
         "BPM.23R2.B1"             1268.154     0.01446676882258   1.483239697419e-08           -0.2140714   1.483239697419e-08                    0                    0
         "BPM.24R2.B1"             1321.602    0.007114061420305   1.483239697419e-08           -0.3754622   1.483239697419e-08                    0                    0
         "BPM.25R2.B1"             1375.051      0.0120864419611   1.483239697419e-08           -0.4806724   1.483239697419e-08                    0                    0
         "BPM.26R2.B1"             1428.499     0.01595278941116   1.483239697419e-08         -0.327516153   1.483239697419e-08                    0                    0
         "BPM.27R2.B1"             1481.948     0.01350169942283   1.483239697419e-08            -0.301202   1.483239697419e-08                    0                    0
         "BPM.28R2.B1"             1535.397     0.01013392761102   1.483239697419e-08            0.4900123   1.483239697419e-08                    0                    0
         "BPM.29R2.B1"             1588.845     0.01249857382694   1.483239697419e-08             0.578989   1.483239697419e-08                    0                    0
         "BPM.30R2.B1"             1642.294     0.01764295462541   1.483239697419e-08           -0.3291676   1.483239697419e-08                    0                    0
         "BPM.31R2.B1"             1695.742     0.01527028589426   1.483239697419e-08           -0.2138792   1.483239697419e-08                    0                    0
         "BPM.32R2.B1"             1749.191     0.01080066712547   1.483239697419e-08           -0.4933962   1.483239697419e-08                    0                    0
         "BPM.33R2.B1"             1802.639     0.01239808854985   1.483239697419e-08           -0.4375602   1.483239697419e-08                    0                    0
         "BPM.34R2.B1"             1856.088     0.01580002460427   1.483239697419e-08          -0.33939724   1.483239697419e-08                    0                    0
         "BPM.33L3.B1"             1909.536     0.01374637626886   1.483239697419e-08           -0.3215296   1.483239697419e-08                    0                    0
         "BPM.32L3.B1"             1962.985      0.0114492746819   1.483239697419e-08            0.4888014   1.483239697419e-08                    0                    0
         "BPM.31L3.B1"             2016.433     0.01036351637241   1.483239697419e-08            0.5524679   1.483239697419e-08                    0                    0
         "BPM.30L3.B1"             2069.882     0.01051727373215   1.483239697419e-08           -0.3452066   1.483239697419e-08                    0                    0
         "BPM.29L3.B1"              2123.33     0.01477577602577   1.483239697419e-08           -0.2509613   1.483239697419e-08                    0                    0
         "BPM.27L3.B1"             2230.227     0.01198986193515   1.483239697419e-08           -0.4553606   1.483239697419e-08                    0                    0
         "BPM.26L3.B1"             2283.676     0.01348280071082   1.483239697419e-08          -0.33184189   1.483239697419e-08                    0                    0
         "BPM.25L3.B1"             2337.124     0.01257863862618   1.483239697419e-08           -0.2446784   1.483239697419e-08                    0                    0
         "BPM.24L3.B1"             2390.573     0.01005878910784   1.483239697419e-08            0.4806628   1.483239697419e-08                    0                    0
         "BPM.23L3.B1"             2444.021     0.01308920023955   1.483239697419e-08            0.5937003   1.483239697419e-08                    0                    0
         "BPM.22L3.B1"              2497.47     0.01204651202776   1.483239697419e-08           -0.3245464   1.483239697419e-08                    0                    0
         "BPM.21L3.B1"             2550.918      0.0130841735852   1.483239697419e-08           -0.2320307   1.483239697419e-08                    0                    0
         "BPM.20L3.B1"             2604.367    0.009419408875816   1.483239697419e-08            -0.470163   1.483239697419e-08                    0                    0
         "BPM.19L3.B1"             2657.815     0.01204359002734   1.483239697419e-08           -0.4939425   1.483239697419e-08                    0                    0
         "BPM.18L3.B1"             2711.264     0.00734412646239   1.483239697419e-08          -0.34883296   1.483239697419e-08                    0                    0
         "BPM.17L3.B1"             2764.712     0.01351781273986   1.483239697419e-08           -0.3131006   1.483239697419e-08                    0                    0
         "BPM.16L3.B1"             2818.161     0.01126052832814   1.483239697419e-08            0.4793611   1.483239697419e-08                    0                    0
         "BPM.14L3.B1"             2925.058    0.008792636761643   1.483239697419e-08           -0.3537408   1.483239697419e-08                    0                    0
         "BPM.13L3.B1"             2978.506    0.009592881119921   1.483239697419e-08          -0.38721126   1.483239697419e-08                    0                    0
         "BPM.12L3.B1"             3031.955    0.009817252954644   1.483239697419e-08           -0.4785669   1.483239697419e-08                    0                    0
         "BPM.11L3.B1"             3085.403      0.0137846794658   1.483239697419e-08          -0.51405442   1.483239697419e-08                    0                    0
         "BPM.10L3.B1"             3138.184    0.008378322913819   1.483239697419e-08          -0.33743033   1.483239697419e-08                    0                    0
          "BPM.8L3.B1"             3217.712     0.01010064246841   1.483239697419e-08            0.6157489   1.483239697419e-08                    0                    0
          "BPM.7L3.B1"             3256.776    0.008133600213117   1.483239697419e-08            0.6090814   1.483239697419e-08                    0                    0
          "BPM.6L3.B1"             3329.415    0.006347615286847   1.483239697419e-08            0.5726931   1.483239697419e-08                    0                    0
       "BPMWG.A5L3.B1"              3371.12     0.01105389236689   1.483239697419e-08            0.6182392   1.483239697419e-08                    0                    0
         "BPMW.5L3.B1"              3400.09     0.01242039893322   1.483239697419e-08            -0.250593   1.483239697419e-08                    0                    0
        "BPMWE.4L3.B1"             3475.218     0.01809314030477   1.483239697419e-08          -0.30616235   1.483239697419e-08                    0                    0
         "BPMW.4L3.B1"             3502.763     0.02868312240528   1.483239697419e-08          -0.35744616   1.483239697419e-08                    0                    0
         "BPMW.4R3.B1"             3547.728      0.0136442032382   1.483239697419e-08          -0.36980608   1.483239697419e-08                    0                    0
        "BPMWE.4R3.B1"             3575.273      0.0179461759971   1.483239697419e-08           -0.4996509   1.483239697419e-08                    0                    0
         "BPMW.5R3.B1"             3650.401     0.01712525929771   1.483239697419e-08          -0.41560008   1.483239697419e-08                    0                    0
       "BPMWJ.A5R3.B1"             3679.119     0.01009403683791   1.483239697419e-08          -0.33725737   1.483239697419e-08                    0                    0
        "BPMWC.6R3.B1"             3718.937     0.01107351147728   1.483239697419e-08          -0.37783136   1.483239697419e-08                    0                    0
         "BPMR.6R3.B1"             3731.015    0.009618462523462   1.483239697419e-08          -0.40868021   1.483239697419e-08                    0                    0
          "BPM.8R3.B1"             3825.903     0.01020841981145   1.483239697419e-08            0.5679401   1.483239697419e-08                    0                    0
         "BPM.10R3.B1"             3905.431     0.01680928410363   1.483239697419e-08          -0.39272416   1.483239697419e-08                    0                    0
         "BPM.11R3.B1"             3958.212     0.01121041579543   1.483239697419e-08         -0.357930405   1.483239697419e-08                    0                    0
         "BPM.12R3.B1"             4012.935    0.009353172566162   1.483239697419e-08            -0.423523   1.483239697419e-08                    0                    0
         "BPM.13R3.B1"             4066.384    0.008941725198361   1.483239697419e-08           -0.4563923   1.483239697419e-08                    0                    0
         "BPM.14R3.B1"             4119.833     0.01736207416327   1.483239697419e-08          -0.36546287   1.483239697419e-08                    0                    0
         "BPM.15R3.B1"             4173.281     0.01506001427159   1.483239697419e-08           -0.2839126   1.483239697419e-08                    0                    0
         "BPM.17R3.B1"             4280.178     0.01149067053201   1.483239697419e-08            0.5490757   1.483239697419e-08                    0                    0
         "BPM.19R3.B1"             4387.075     0.01527180740165   1.483239697419e-08          -0.29718458   1.483239697419e-08                    0                    0
         "BPM.20R3.B1"             4440.524    0.009692708296317   1.483239697419e-08           -0.4808169   1.483239697419e-08                    0                    0
         "BPM.21R3.B1"             4493.972    0.007044119535726   1.483239697419e-08           -0.4569107   1.483239697419e-08                    0                    0
         "BPM.22R3.B1"             4547.421      0.0151528178902   1.483239697419e-08          -0.37956816   1.483239697419e-08                    0                    0
         "BPM.23R3.B1"             4600.869     0.01513713599589   1.483239697419e-08           -0.2809139   1.483239697419e-08                    0                    0
         "BPM.24R3.B1"             4654.318     0.00830879134493   1.483239697419e-08            0.4311758   1.483239697419e-08                    0                    0
         "BPM.25R3.B1"             4707.766      0.0103052313765   1.483239697419e-08            0.5653248   1.483239697419e-08                    0                    0
         "BPM.26R3.B1"             4761.215     0.01832669776409   1.483239697419e-08            0.6604899   1.483239697419e-08                    0                    0
         "BPM.27R3.B1"             4814.663     0.01329135163713   1.483239697419e-08          -0.28732565   1.483239697419e-08                    0                    0
         "BPM.28R3.B1"             4868.112     0.00859520371431   1.483239697419e-08           -0.5212107   1.483239697419e-08                    0                    0
         "BPM.29R3.B1"              4921.56     0.01196193053616   1.483239697419e-08           -0.4302574   1.483239697419e-08                    0                    0
         "BPM.30R3.B1"             4975.009     0.01869903749361   1.483239697419e-08          -0.36112552   1.483239697419e-08                    0                    0
         "BPM.31R3.B1"             5028.457     0.01606005129335   1.483239697419e-08           -0.2733745   1.483239697419e-08                    0                    0
         "BPM.32R3.B1"             5081.906    0.008962795320716   1.483239697419e-08            0.5951539   1.483239697419e-08                    0                    0
         "BPM.33R3.B1"             5135.354     0.01346369444538   1.483239697419e-08            0.5612001   1.483239697419e-08                    0                    0
         "BPM.34R3.B1"             5188.803     0.01872803198466   1.483239697419e-08            0.6338508   1.483239697419e-08                    0                    0
         "BPM.33L4.B1"             5242.251     0.01323982527598   1.483239697419e-08          -0.29797028   1.483239697419e-08                    0                    0
         "BPM.32L4.B1"               5295.7    0.008657462211874   1.483239697419e-08           -0.5612276   1.483239697419e-08                    0                    0
         "BPM.31L4.B1"             5349.148     0.01648611524186   1.483239697419e-08           -0.4437664   1.483239697419e-08                    0                    0
         "BPM.30L4.B1"             5402.597     0.01784575639525   1.483239697419e-08         -0.373912831   1.483239697419e-08                    0                    0
         "BPM.29L4.B1"             5456.045    0.009974687990139   1.483239697419e-08           -0.2971715   1.483239697419e-08                    0                    0
         "BPM.27L4.B1"             5562.942     0.01183552384432   1.483239697419e-08            0.5682579   1.483239697419e-08                    0                    0
         "BPM.26L4.B1"             5616.391     0.01950163132981   1.483239697419e-08           -0.3588277   1.483239697419e-08                    0                    0
         "BPM.25L4.B1"             5669.839      0.0120401503204   1.483239697419e-08           -0.2470972   1.483239697419e-08                    0                    0
         "BPM.24L4.B1"             5723.288    0.008557697774025   1.483239697419e-08           -0.5774682   1.483239697419e-08                    0                    0
         "BPM.22L4.B1"             5830.185     0.02073900352563   1.483239697419e-08          -0.30214238   1.483239697419e-08                    0                    0
         "BPM.21L4.B1"             5883.634      0.0132860630334   1.483239697419e-08           -0.1861573   1.483239697419e-08                    0                    0
         "BPM.19L4.B1"             5990.531     0.01125755306723   1.483239697419e-08            0.5844045   1.483239697419e-08                    0                    0
         "BPM.18L4.B1"             6043.979     0.01863639247573   1.483239697419e-08           -0.3193037   1.483239697419e-08                    0                    0
         "BPM.17L4.B1"             6097.428     0.01176758273299   1.483239697419e-08           -0.2177003   1.483239697419e-08                    0                    0
         "BPM.15L4.B1"             6204.325     0.01503305323026   1.483239697419e-08          -0.42767613   1.483239697419e-08                    0                    0
         "BPM.14L4.B1"             6257.773     0.01987395880563   1.483239697419e-08          -0.31875396   1.483239697419e-08                    0                    0
         "BPM.13L4.B1"             6311.222     0.01327223419622   1.483239697419e-08           -0.1850629   1.483239697419e-08                    0                    0
         "BPM.12L4.B1"              6364.67    0.006387487600223   1.483239697419e-08            0.2547056   1.483239697419e-08                    0                    0
         "BPM.11L4.B1"             6418.119      0.0151605614191   1.483239697419e-08             0.579014   1.483239697419e-08                    0                    0
         "BPM.10L4.B1"             6469.957     0.01803762129265   1.483239697419e-08           -0.3343821   1.483239697419e-08                    0                    0
          "BPM.9L4.B1"             6509.022     0.01413140747236   1.483239697419e-08           -0.1742907   1.483239697419e-08                    0                    0
          "BPM.8L4.B1"             6549.485     0.01491560809922   1.483239697419e-08           -0.5405429   1.483239697419e-08                    0                    0
          "BPM.7L4.B1"             6588.549     0.02094229579995   1.483239697419e-08          -0.39540376   1.483239697419e-08                    0                    0
        "BPMYB.6L4.B1"             6685.153     0.01549515429565   1.483239697419e-08          -0.22712461   1.483239697419e-08                    0                    0
        "BPMYA.5L4.B1"             6722.153     0.01139952277622   1.483239697419e-08           -0.2023708   1.483239697419e-08                    0                    0
       "BPMWI.A5L4.B1"             6798.756     0.00929143421728   1.483239697419e-08           -0.1708626   1.483239697419e-08                    0                    0
       "BPMWA.B5L4.B1"              6824.62    0.008281055245593   1.483239697419e-08            -0.118837   1.483239697419e-08                    0                    0
       "BPMWA.A5L4.B1"             6833.505    0.008143741238711   1.483239697419e-08           -0.1415875   1.483239697419e-08                    0                    0
       "BPMWA.A5R4.B1"             6881.554    0.004947084866798   1.483239697419e-08           -0.1144792   1.483239697419e-08                    0                    0
       "BPMWA.B5R4.B1"             6890.439    0.009327296815805   1.483239697419e-08           -0.0624674   1.483239697419e-08                    0                    0
        "BPMYB.5R4.B1"             6992.829     0.01292170308741   1.483239697419e-08            0.4533649   1.483239697419e-08                    0                    0
        "BPMYA.6R4.B1"             7024.393     0.01372928735793   1.483239697419e-08            0.4582062   1.483239697419e-08                    0                    0
          "BPM.7R4.B1"             7120.909     0.02329110126762   1.483239697419e-08            0.5924797   1.483239697419e-08                    0                    0
          "BPM.8R4.B1"             7158.698     0.01709663522384   1.483239697419e-08           -0.2493382   1.483239697419e-08                    0                    0
          "BPM.9R4.B1"             7197.763    0.007345430530379   1.483239697419e-08           -0.5495851   1.483239697419e-08                    0                    0
         "BPM.11R4.B1"             7290.065     0.02424369950405   1.483239697419e-08          -0.33805061   1.483239697419e-08                    0                    0
         "BPM.12R4.B1"             7344.789     0.01558374619101   1.483239697419e-08           -0.1786803   1.483239697419e-08                    0                    0
         "BPM.13R4.B1"             7398.237    0.007212506937321   1.483239697419e-08            0.4683445   1.483239697419e-08                    0                    0
         "BPM.14R4.B1"             7451.686     0.01604455394875   1.483239697419e-08            0.5622069   1.483239697419e-08                    0                    0
         "BPM.15R4.B1"             7505.134     0.02106013851813   1.483239697419e-08             0.649604   1.483239697419e-08                    0                    0
         "BPM.16R4.B1"             7558.583     0.01246082843214   1.483239697419e-08            -0.202119   1.483239697419e-08                    0                    0
         "BPM.17R4.B1"             7612.031    0.006865999711346   1.483239697419e-08           -0.5204739   1.483239697419e-08                    0                    0
         "BPM.18R4.B1"              7665.48     0.01532372177468   1.483239697419e-08           -0.4386892   1.483239697419e-08                    0                    0
         "BPM.19R4.B1"             7718.928     0.01977852704292   1.483239697419e-08           -0.3907173   1.483239697419e-08                    0                    0
         "BPM.20R4.B1"             7772.377     0.01206893512125   1.483239697419e-08            -0.226915   1.483239697419e-08                    0                    0
         "BPM.21R4.B1"             7825.825    0.006042625289227   1.483239697419e-08              0.42041   1.483239697419e-08                    0                    0
         "BPM.22R4.B1"             7879.274     0.01464711425392   1.483239697419e-08            0.5645659   1.483239697419e-08                    0                    0
         "BPM.23R4.B1"             7932.722     0.01944061124647   1.483239697419e-08            0.6429332   1.483239697419e-08                    0                    0
         "BPM.24R4.B1"             7986.171     0.00724489796599   1.483239697419e-08           -0.2140347   1.483239697419e-08                    0                    0
         "BPM.26R4.B1"             8093.068     0.01254113600305   1.483239697419e-08           -0.4518806   1.483239697419e-08                    0                    0
         "BPM.27R4.B1"             8146.516     0.01605362462993   1.483239697419e-08          -0.38135128   1.483239697419e-08                    0                    0
         "BPM.28R4.B1"             8199.965    0.006585310197126   1.483239697419e-08           -0.2209816   1.483239697419e-08                    0                    0
         "BPM.29R4.B1"             8253.413    0.006725037348357   1.483239697419e-08            0.4907805   1.483239697419e-08                    0                    0
         "BPM.32R4.B1"             8413.759    0.008117086558452   1.483239697419e-08            -0.240652   1.483239697419e-08                    0                    0
         "BPM.33R4.B1"             8467.208    0.004007727778689   1.483239697419e-08           -0.5738018   1.483239697419e-08                    0                    0
         "BPM.34R4.B1"             8520.656     0.01252470255881   1.483239697419e-08           -0.4640201   1.483239697419e-08                    0                    0
         "BPM.33L5.B1"             8574.105     0.01586306542473   1.483239697419e-08          -0.36998072   1.483239697419e-08                    0                    0
         "BPM.32L5.B1"             8627.553    0.007517532225721   1.483239697419e-08           -0.3122695   1.483239697419e-08                    0                    0
         "BPM.31L5.B1"             8681.002     0.00201350786132   1.483239697419e-08            0.4488294   1.483239697419e-08                    0                    0
         "BPM.30L5.B1"              8734.45     0.01289672521817   1.483239697419e-08             0.530903   1.483239697419e-08                    0                    0
         "BPM.29L5.B1"             8787.899     0.01643364328292   1.483239697419e-08            0.6222585   1.483239697419e-08                    0                    0
         "BPM.28L5.B1"             8841.347    0.006744710078187   1.483239697419e-08          -0.35113475   1.483239697419e-08                    0                    0
         "BPM.26L5.B1"             8948.244     0.01364108749037   1.483239697419e-08             -0.44945   1.483239697419e-08                    0                    0
         "BPM.25L5.B1"             9001.693     0.01690077256706   1.483239697419e-08          -0.38548756   1.483239697419e-08                    0                    0
         "BPM.24L5.B1"             9055.141    0.008969597175208   1.483239697419e-08           -0.2393421   1.483239697419e-08                    0                    0
         "BPM.22L5.B1"             9162.038     0.01549538831906   1.483239697419e-08            0.5575477   1.483239697419e-08                    0                    0
         "BPM.21L5.B1"             9215.487     0.02330979294789   1.483239697419e-08            0.6452607   1.483239697419e-08                    0                    0
         "BPM.20L5.B1"             9268.935     0.01494400906686   1.483239697419e-08           -0.2050636   1.483239697419e-08                    0                    0
         "BPM.19L5.B1"             9322.384    0.003680442461806   1.483239697419e-08           -0.5395019   1.483239697419e-08                    0                    0
         "BPM.18L5.B1"             9375.832     0.01946255727338   1.483239697419e-08           -0.4419885   1.483239697419e-08                    0                    0
         "BPM.17L5.B1"             9429.281     0.02097620226706   1.483239697419e-08          -0.35194452   1.483239697419e-08                    0                    0
         "BPM.16L5.B1"             9482.729     0.01309321019956   1.483239697419e-08            -0.213667   1.483239697419e-08                    0                    0
         "BPM.15L5.B1"             9536.178    0.005388036697667   1.483239697419e-08            0.4787963   1.483239697419e-08                    0                    0
         "BPM.14L5.B1"             9589.626      0.0167578242696   1.483239697419e-08            0.5620835   1.483239697419e-08                    0                    0
         "BPM.13L5.B1"             9643.075     0.02259448224147   1.483239697419e-08            0.6614239   1.483239697419e-08                    0                    0
         "BPM.12L5.B1"             9696.523      0.0115636114935   1.483239697419e-08           -0.1951684   1.483239697419e-08                    0                    0
         "BPM.11L5.B1"             9749.972    0.004712805954928   1.483239697419e-08           -0.6239205   1.483239697419e-08                    0                    0
         "BPM.10L5.B1"             9802.753     0.01137717195895   1.483239697419e-08            -0.432581   1.483239697419e-08                    0                    0
          "BPM.9L5.B1"             9841.818      0.0158156552391   1.483239697419e-08          -0.39588407   1.483239697419e-08                    0                    0
          "BPM.8L5.B1"             9882.281    0.005487734567768   1.483239697419e-08           -0.1316788   1.483239697419e-08                    0                    0
         "BPMR.7L5.B1"             9921.347    0.007621449011108   1.483239697419e-08            0.4302266   1.483239697419e-08                    0                    0
         "BPMR.5L5.B1"             9990.141       0.011875052352   1.483239697419e-08            0.5776657   1.483239697419e-08                    0                    0
        "BPMWB.4L5.B1"             10038.68    0.009455084146273   1.483239697419e-08            0.5765983   1.483239697419e-08                    0                    0
        "BPMSY.4L5.B1"             10131.46    0.008581472565912   1.483239697419e-08            0.6134882   1.483239697419e-08                    0                    0
         "BPMS.2L5.B1"             10158.25    0.008641080751593   1.483239697419e-08            0.5850452   1.483239697419e-08                    0                    0
        "BPMSW.1L5.B1"             10168.21    0.009446561342379   1.483239697419e-08            0.5920328   1.483239697419e-08                    0                    0
         "BPMS.2R5.B1"              10221.3    0.009379146010083   1.483239697419e-08          -0.42360825   1.483239697419e-08                    0                    0
        "BPMWB.4R5.B1"             10340.87     0.00895954132989   1.483239697419e-08          -0.41153788   1.483239697419e-08                    0                    0
        "BPMYA.4R5.B1"                10362    0.009452719375502   1.483239697419e-08          -0.39376285   1.483239697419e-08                    0                    0
          "BPM.5R5.B1"             10383.12    0.008571674261907   1.483239697419e-08          -0.43494719   1.483239697419e-08                    0                    0
         "BPMR.6R5.B1"             10415.02      0.0069878668931   1.483239697419e-08          -0.26994339   1.483239697419e-08                    0                    0
          "BPM.8R5.B1"             10490.47     0.01893369477615   1.483239697419e-08            0.6097025   1.483239697419e-08                    0                    0
          "BPM.9R5.B1"             10529.54     0.01240961663332   1.483239697419e-08           -0.5516487   1.483239697419e-08                    0                    0
         "BPM.10R5.B1"             10570.01    0.009984969020949   1.483239697419e-08           -0.4999148   1.483239697419e-08                    0                    0
         "BPM.11R5.B1"             10622.79     0.01309739074587   1.483239697419e-08           -0.4259097   1.483239697419e-08                    0                    0
         "BPM.12R5.B1"             10677.51     0.01978528353206   1.483239697419e-08          -0.37931858   1.483239697419e-08                    0                    0
         "BPM.14R5.B1"             10784.42    0.008792855595811   1.483239697419e-08            0.4630762   1.483239697419e-08                    0                    0
         "BPM.17R5.B1"             10944.77     0.01016783708628   1.483239697419e-08           -0.4809003   1.483239697419e-08                    0                    0
         "BPM.18R5.B1"             10998.22    0.008217435912024   1.483239697419e-08           -0.5148374   1.483239697419e-08                    0                    0
         "BPM.19R5.B1"             11051.68      0.0142489797967   1.483239697419e-08           -0.4528637   1.483239697419e-08                    0                    0
         "BPM.20R5.B1"             11105.13     0.01905164325259   1.483239697419e-08          -0.43428387   1.483239697419e-08                    0                    0
         "BPM.23R5.B1"             11265.48      0.0157928253754   1.483239697419e-08             0.553955   1.483239697419e-08                    0                    0
         "BPM.24R5.B1"             11318.93     0.01791344818161   1.483239697419e-08            0.5969172   1.483239697419e-08                    0                    0
         "BPM.25R5.B1"             11372.38     0.01278805780401   1.483239697419e-08           -0.5449446   1.483239697419e-08                    0                    0
         "BPM.26R5.B1"             11425.84    0.009027655692094   1.483239697419e-08           -0.5022075   1.483239697419e-08                    0                    0
         "BPM.27R5.B1"             11479.29     0.01435295075511   1.483239697419e-08           -0.4535532   1.483239697419e-08                    0                    0
         "BPM.28R5.B1"             11532.74     0.01611655501883   1.483239697419e-08          -0.38090723   1.483239697419e-08                    0                    0
         "BPM.29R5.B1"             11586.19     0.01180216609744   1.483239697419e-08            0.4653782   1.483239697419e-08                    0                    0
         "BPM.30R5.B1"             11639.64    0.007489966338716   1.483239697419e-08            0.4832271   1.483239697419e-08                    0                    0
         "BPM.31R5.B1"             11693.09     0.01004903686655   1.483239697419e-08            0.5390724   1.483239697419e-08                    0                    0
         "BPM.32R5.B1"             11746.54     0.01793703454204   1.483239697419e-08           0.55989664   1.483239697419e-08                    0                    0
         "BPM.33R5.B1"                11800     0.01210229393436   1.483239697419e-08           -0.5413549   1.483239697419e-08                    0                    0
         "BPM.34R5.B1"             11853.45    0.008289020950824   1.483239697419e-08            -0.508998   1.483239697419e-08                    0                    0
         "BPM.33L6.B1"              11906.9     0.01156713465496   1.483239697419e-08           -0.4592803   1.483239697419e-08                    0                    0
         "BPM.32L6.B1"             11960.35     0.01421776911906   1.483239697419e-08          -0.41547247   1.483239697419e-08                    0                    0
         "BPM.30L6.B1"             12067.25    0.008712890541601   1.483239697419e-08            0.5007587   1.483239697419e-08                    0                    0
         "BPM.29L6.B1"              12120.7     0.01203568441218   1.483239697419e-08            0.5533443   1.483239697419e-08                    0                    0
         "BPM.28L6.B1"             12174.16      0.0138269404405   1.483239697419e-08           0.54274126   1.483239697419e-08                    0                    0
         "BPM.27L6.B1"             12227.61     0.01204237771307   1.483239697419e-08           -0.5313753   1.483239697419e-08                    0                    0
         "BPM.26L6.B1"             12281.06    0.008775800325529   1.483239697419e-08           -0.5010532   1.483239697419e-08                    0                    0
         "BPM.25L6.B1"             12334.51     0.01339203113309   1.483239697419e-08           -0.4494697   1.483239697419e-08                    0                    0
         "BPM.24L6.B1"             12387.96     0.01518391830077   1.483239697419e-08          -0.41651063   1.483239697419e-08                    0                    0
         "BPM.22L6.B1"             12494.87    0.009681231692442   1.483239697419e-08            0.4731663   1.483239697419e-08                    0                    0
         "BPM.21L6.B1"             12548.32     0.01676813275563   1.483239697419e-08            0.5559425   1.483239697419e-08                    0                    0
         "BPM.20L6.B1"             12601.77     0.01898654865403   1.483239697419e-08           0.57904302   1.483239697419e-08                    0                    0
         "BPM.19L6.B1"             12655.22      0.0149224083122   1.483239697419e-08           -0.5587154   1.483239697419e-08                    0                    0
         "BPM.18L6.B1"             12708.67    0.009968781630876   1.483239697419e-08           -0.5038782   1.483239697419e-08                    0                    0
         "BPM.17L6.B1"             12762.12     0.01513994509302   1.483239697419e-08           -0.4559923   1.483239697419e-08                    0                    0
         "BPM.16L6.B1"             12815.57     0.01959283434366   1.483239697419e-08          -0.40356682   1.483239697419e-08                    0                    0
         "BPM.15L6.B1"             12869.03     0.01279152629766   1.483239697419e-08            0.4598095   1.483239697419e-08                    0                    0
         "BPM.14L6.B1"             12922.48    0.009701726486371   1.483239697419e-08            0.5036809   1.483239697419e-08                    0                    0
         "BPM.13L6.B1"             12975.93     0.01650356388713   1.483239697419e-08            0.5581115   1.483239697419e-08                    0                    0
         "BPM.12L6.B1"             13029.38     0.01880480543536   1.483239697419e-08           0.57228311   1.483239697419e-08                    0                    0
         "BPM.11L6.B1"             13082.83     0.01349240939379   1.483239697419e-08           -0.5452385   1.483239697419e-08                    0                    0
         "BPM.10L6.B1"             13134.67    0.008015931038153   1.483239697419e-08           -0.5067871   1.483239697419e-08                    0                    0
          "BPM.9L6.B1"             13173.74     0.01654334372149   1.483239697419e-08           -0.4736427   1.483239697419e-08                    0                    0
          "BPM.8L6.B1"              13214.2     0.01561067724218   1.483239697419e-08          -0.40633357   1.483239697419e-08                    0                    0
        "BPMYB.4L6.B1"             13347.69    0.008391191620533   1.483239697419e-08            0.4945409   1.483239697419e-08                    0                    0
       "BPMSX.B4L6.B1"             13383.23    0.006547751603212   1.483239697419e-08            0.4950139   1.483239697419e-08                    0                    0
       "BPMSX.A4L6.B1"             13383.82    0.006750643127584   1.483239697419e-08            0.4964884   1.483239697419e-08                    0                    0
        "BPMSA.4R6.B1"             13568.51     0.01936340272359   1.483239697419e-08            0.3601361   1.483239697419e-08                    0                    0
       "BPMSI.A4R6.B1"             13661.77     0.02939187500155   1.483239697419e-08           -0.6183276   1.483239697419e-08                    0                    0
       "BPMSI.B4R6.B1"             13662.41     0.02459374691709   1.483239697419e-08           -0.6261752   1.483239697419e-08                    0                    0
        "BPMYA.4R6.B1"             13691.29     0.01742310731324   1.483239697419e-08           -0.5769832   1.483239697419e-08                    0                    0
        "BPMYB.5R6.B1"             13727.69     0.01955224444253   1.483239697419e-08           -0.6033221   1.483239697419e-08                    0                    0
          "BPM.9R6.B1"             13862.49     0.01167420789646   1.483239697419e-08           0.43819974   1.483239697419e-08                    0                    0
         "BPM.10R6.B1"             13902.95     0.01454502117264   1.483239697419e-08              0.45071   1.483239697419e-08                    0                    0
         "BPM.11R6.B1"             13954.79     0.01829546485336   1.483239697419e-08             0.479717   1.483239697419e-08                    0                    0
         "BPM.12R6.B1"             14009.52     0.01119530678583   1.483239697419e-08           0.51070734   1.483239697419e-08                    0                    0
         "BPM.13R6.B1"             14062.97     0.00865119470673   1.483239697419e-08          -0.52219661   1.483239697419e-08                    0                    0
         "BPM.14R6.B1"             14116.42     0.01783516250022   1.483239697419e-08           -0.5615726   1.483239697419e-08                    0                    0
         "BPM.15R6.B1"             14169.87     0.02239819114647   1.483239697419e-08           -0.4966259   1.483239697419e-08                    0                    0
         "BPM.16R6.B1"             14223.33     0.01095610908488   1.483239697419e-08          -0.46554573   1.483239697419e-08                    0                    0
         "BPM.17R6.B1"             14276.78     0.01260337649913   1.483239697419e-08           0.37637274   1.483239697419e-08                    0                    0
         "BPM.18R6.B1"             14330.23     0.02193622006856   1.483239697419e-08            0.4491709   1.483239697419e-08                    0                    0
         "BPM.20R6.B1"             14437.13    0.006260789345606   1.483239697419e-08            0.5107799   1.483239697419e-08                    0                    0
         "BPM.21R6.B1"             14490.58     0.01644135866936   1.483239697419e-08            -0.570674   1.483239697419e-08                    0                    0
         "BPM.22R6.B1"             14544.04     0.02505875749298   1.483239697419e-08           -0.5468484   1.483239697419e-08                    0                    0
         "BPM.23R6.B1"             14597.49     0.02204534157344   1.483239697419e-08           -0.4977609   1.483239697419e-08                    0                    0
         "BPM.24R6.B1"             14650.94    0.006181612797379   1.483239697419e-08          -0.48076591   1.483239697419e-08                    0                    0
         "BPM.25R6.B1"             14704.39     0.01427060373949   1.483239697419e-08           0.53467989   1.483239697419e-08                    0                    0
         "BPM.26R6.B1"             14757.84      0.0221388922587   1.483239697419e-08            0.4480485   1.483239697419e-08                    0                    0
         "BPM.27R6.B1"             14811.29     0.02302332121729   1.483239697419e-08            0.5013031   1.483239697419e-08                    0                    0
         "BPM.28R6.B1"             14864.74     0.01577359400551   1.483239697419e-08            0.5706675   1.483239697419e-08                    0                    0
         "BPM.29R6.B1"              14918.2     0.01314996192333   1.483239697419e-08          -0.46096792   1.483239697419e-08                    0                    0
         "BPM.30R6.B1"             14971.65     0.02010602080545   1.483239697419e-08           -0.5237465   1.483239697419e-08                    0                    0
         "BPM.31R6.B1"              15025.1     0.02094216956177   1.483239697419e-08           -0.4867943   1.483239697419e-08                    0                    0
         "BPM.32R6.B1"             15078.55    0.008547333202915   1.483239697419e-08          -0.43061662   1.483239697419e-08                    0                    0
         "BPM.33R6.B1"                15132      0.0153287633803   1.483239697419e-08           0.52878102   1.483239697419e-08                    0                    0
         "BPM.34R6.B1"             15185.45     0.02113462326918   1.483239697419e-08            0.4708973   1.483239697419e-08                    0                    0
         "BPM.32L7.B1"             15292.36    0.009592695481902   1.483239697419e-08            0.5429122   1.483239697419e-08                    0                    0
         "BPM.31L7.B1"             15345.81      0.0151596769716   1.483239697419e-08          -0.46811942   1.483239697419e-08                    0                    0
         "BPM.30L7.B1"             15399.26     0.02356042379937   1.483239697419e-08           -0.5209618   1.483239697419e-08                    0                    0
         "BPM.29L7.B1"             15452.71      0.0218574725874   1.483239697419e-08           -0.4700438   1.483239697419e-08                    0                    0
         "BPM.28L7.B1"             15506.16      0.0120538699072   1.483239697419e-08          -0.43499119   1.483239697419e-08                    0                    0
         "BPM.27L7.B1"             15559.61     0.01447355124367   1.483239697419e-08            0.4999126   1.483239697419e-08                    0                    0
         "BPM.26L7.B1"             15613.06     0.01993376662543   1.483239697419e-08            0.4598458   1.483239697419e-08                    0                    0
         "BPM.25L7.B1"             15666.52     0.01812740777132   1.483239697419e-08            0.4884596   1.483239697419e-08                    0                    0
         "BPM.24L7.B1"             15719.97        0.01137079707   1.483239697419e-08           0.53932726   1.483239697419e-08                    0                    0
         "BPM.23L7.B1"             15773.42     0.01656928569842   1.483239697419e-08          -0.50590749   1.483239697419e-08                    0                    0
         "BPM.22L7.B1"             15826.87     0.01909763380317   1.483239697419e-08           -0.5626043   1.483239697419e-08                    0                    0
         "BPM.21L7.B1"             15880.32     0.01509977719695   1.483239697419e-08           -0.4969929   1.483239697419e-08                    0                    0
         "BPM.20L7.B1"             15933.77     0.01654290888144   1.483239697419e-08          -0.48402365   1.483239697419e-08                    0                    0
         "BPM.19L7.B1"             15987.23     0.01504966635578   1.483239697419e-08           0.44856683   1.483239697419e-08                    0                    0
         "BPM.18L7.B1"             16040.68     0.01830926782234   1.483239697419e-08            0.4474292   1.483239697419e-08                    0                    0
         "BPM.17L7.B1"             16094.13     0.01500317377234   1.483239697419e-08            0.5048783   1.483239697419e-08                    0                    0
         "BPM.16L7.B1"             16147.58     0.01599914800407   1.483239697419e-08           0.53244069   1.483239697419e-08                    0                    0
         "BPM.15L7.B1"             16201.03     0.01806383265721   1.483239697419e-08           -0.5899389   1.483239697419e-08                    0                    0
         "BPM.13L7.B1"             16307.93      0.0141183508748   1.483239697419e-08           -0.5203962   1.483239697419e-08                    0                    0
         "BPM.12L7.B1"             16361.39     0.01570130256738   1.483239697419e-08          -0.47835477   1.483239697419e-08                    0                    0
         "BPM.10L7.B1"             16467.62      0.0181390282944   1.483239697419e-08             0.459218   1.483239697419e-08                    0                    0
          "BPM.9L7.B1"             16506.69     0.01785354026119   1.483239697419e-08            0.5072466   1.483239697419e-08                    0                    0
          "BPM.8L7.B1"             16547.15     0.01085023643859   1.483239697419e-08           -0.5674964   1.483239697419e-08                    0                    0
          "BPM.7L7.B1"             16586.22     0.01334207039007   1.483239697419e-08            -0.586302   1.483239697419e-08                    0                    0
          "BPM.6L7.B1"             16621.04     0.01662634441726   1.483239697419e-08           -0.5573512   1.483239697419e-08                    0                    0
        "BPMWC.6L7.B1"             16633.14     0.02350910273359   1.483239697419e-08           -0.5687495   1.483239697419e-08                    0                    0
        "BPMWE.5L7.B1"             16710.19     0.01741165433011   1.483239697419e-08            0.2697982   1.483239697419e-08                    0                    0
         "BPMW.5L7.B1"              16733.4     0.03066988279902   1.483239697419e-08           0.18534904   1.483239697419e-08                    0                    0
        "BPMWE.4L7.B1"             16768.48     0.01870234667067   1.483239697419e-08         0.3938584297   1.483239697419e-08                    0                    0
         "BPMW.4L7.B1"             16796.59     0.01763243026046   1.483239697419e-08           0.40141809   1.483239697419e-08                    0                    0
         "BPMW.4R7.B1"             16912.63     0.01274746397971   1.483239697419e-08            0.4421513   1.483239697419e-08                    0                    0
        "BPMWE.4R7.B1"             16940.74     0.01208445028811   1.483239697419e-08            0.4530064   1.483239697419e-08                    0                    0
         "BPMW.5R7.B1"             16975.82     0.01499720577395   1.483239697419e-08            0.4703076   1.483239697419e-08                    0                    0
        "BPMWE.5R7.B1"             16999.03     0.01942313913067   1.483239697419e-08            0.4844798   1.483239697419e-08                    0                    0
         "BPMR.6R7.B1"             17078.24     0.02093431548523   1.483239697419e-08            0.4831662   1.483239697419e-08                    0                    0
        "BPM_A.7R7.B1"             17116.28     0.01774794260035   1.483239697419e-08           0.43987921   1.483239697419e-08                    0                    0
          "BPM.9R7.B1"             17194.41     0.01333996691592   1.483239697419e-08            -0.511198   1.483239697419e-08                    0                    0
         "BPM.10R7.B1"             17234.88     0.01667242671997   1.483239697419e-08          -0.48974316   1.483239697419e-08                    0                    0
         "BPM.11R7.B1"             17287.66     0.01655334904425   1.483239697419e-08           0.48455042   1.483239697419e-08                    0                    0
         "BPM.12R7.B1"             17342.39      0.0192672560129   1.483239697419e-08             0.448895   1.483239697419e-08                    0                    0
         "BPM.13R7.B1"             17395.84     0.01533557190326   1.483239697419e-08            0.4820588   1.483239697419e-08                    0                    0
         "BPM.14R7.B1"             17449.29     0.01684351054024   1.483239697419e-08            0.5506586   1.483239697419e-08                    0                    0
         "BPM.15R7.B1"             17502.74     0.01679915918232   1.483239697419e-08           -0.5619554   1.483239697419e-08                    0                    0
         "BPM.16R7.B1"             17556.19     0.01351609814368   1.483239697419e-08           -0.5768723   1.483239697419e-08                    0                    0
         "BPM.17R7.B1"             17609.65     0.01209523856483   1.483239697419e-08           -0.5231817   1.483239697419e-08                    0                    0
         "BPM.18R7.B1"              17663.1     0.01710119384499   1.483239697419e-08          -0.49415585   1.483239697419e-08                    0                    0
         "BPM.19R7.B1"             17716.55     0.01495148975575   1.483239697419e-08           0.50444859   1.483239697419e-08                    0                    0
         "BPM.20R7.B1"                17770     0.01302660492936   1.483239697419e-08            0.4347334   1.483239697419e-08                    0                    0
         "BPM.21R7.B1"             17823.45     0.01507923816836   1.483239697419e-08            0.4865324   1.483239697419e-08                    0                    0
         "BPM.22R7.B1"              17876.9     0.01585565749638   1.483239697419e-08            0.5051991   1.483239697419e-08                    0                    0
         "BPM.24R7.B1"             17983.81     0.01417338367603   1.483239697419e-08           -0.5700235   1.483239697419e-08                    0                    0
         "BPM.25R7.B1"             18037.26    0.008718174478094   1.483239697419e-08           -0.5196901   1.483239697419e-08                    0                    0
         "BPM.26R7.B1"             18090.71     0.01630727833292   1.483239697419e-08           -0.5177171   1.483239697419e-08                    0                    0
         "BPM.28R7.B1"             18197.61     0.01351574369934   1.483239697419e-08            0.5155552   1.483239697419e-08                    0                    0
         "BPM.29R7.B1"             18251.06    0.008025451375703   1.483239697419e-08            0.4973274   1.483239697419e-08                    0                    0
         "BPM.30R7.B1"             18304.51     0.01356382774902   1.483239697419e-08           0.52345074   1.483239697419e-08                    0                    0
         "BPM.31R7.B1"             18357.97     0.01485973717094   1.483239697419e-08           -0.5281646   1.483239697419e-08                    0                    0
         "BPM.32R7.B1"             18411.42     0.01226619212841   1.483239697419e-08           -0.5512857   1.483239697419e-08                    0                    0
         "BPM.33R7.B1"             18464.87      0.0113848036068   1.483239697419e-08           -0.4951217   1.483239697419e-08                    0                    0
         "BPM.33L8.B1"             18571.77      0.0134959364182   1.483239697419e-08           0.47918277   1.483239697419e-08                    0                    0
         "BPM.32L8.B1"             18625.22     0.01269893337057   1.483239697419e-08            0.5103502   1.483239697419e-08                    0                    0
         "BPM.31L8.B1"             18678.68    0.002299695342779   1.483239697419e-08              0.49781   1.483239697419e-08                    0                    0
         "BPM.30L8.B1"             18732.13     0.01459739810996   1.483239697419e-08           0.53545945   1.483239697419e-08                    0                    0
         "BPM.29L8.B1"             18785.58     0.01336972970675   1.483239697419e-08           -0.5498497   1.483239697419e-08                    0                    0
         "BPM.28L8.B1"             18839.03     0.01170619419714   1.483239697419e-08           -0.5577898   1.483239697419e-08                    0                    0
         "BPM.27L8.B1"             18892.48      0.0102486663874   1.483239697419e-08           -0.4944073   1.483239697419e-08                    0                    0
         "BPM.26L8.B1"             18945.93     0.01705642322329   1.483239697419e-08          -0.52132742   1.483239697419e-08                    0                    0
         "BPM.25L8.B1"             18999.38     0.01675451459139   1.483239697419e-08           0.46176003   1.483239697419e-08                    0                    0
         "BPM.24L8.B1"             19052.84     0.01301978462144   1.483239697419e-08              0.45321   1.483239697419e-08                    0                    0
         "BPM.23L8.B1"             19106.29     0.01754044651791   1.483239697419e-08            0.5122433   1.483239697419e-08                    0                    0
         "BPM.22L8.B1"             19159.74     0.01858725313819   1.483239697419e-08           0.48346986   1.483239697419e-08                    0                    0
         "BPM.21L8.B1"             19213.19     0.02359343075478   1.483239697419e-08           -0.5608131   1.483239697419e-08                    0                    0
         "BPM.20L8.B1"             19266.64     0.01697156554005   1.483239697419e-08           -0.5318619   1.483239697419e-08                    0                    0
         "BPM.19L8.B1"             19320.09     0.01432182229476   1.483239697419e-08           -0.5037603   1.483239697419e-08                    0                    0
         "BPM.18L8.B1"             19373.54     0.01926198041407   1.483239697419e-08           0.45172416   1.483239697419e-08                    0                    0
         "BPM.17L8.B1"                19427     0.02251853778934   1.483239697419e-08            0.4271065   1.483239697419e-08                    0                    0
         "BPM.16L8.B1"             19480.45     0.01565629756564   1.483239697419e-08            0.4476459   1.483239697419e-08                    0                    0
         "BPM.15L8.B1"              19533.9     0.01520883381592   1.483239697419e-08            0.4869544   1.483239697419e-08                    0                    0
         "BPM.14L8.B1"             19587.35     0.02100788364571   1.483239697419e-08           0.45357547   1.483239697419e-08                    0                    0
         "BPM.13L8.B1"              19640.8     0.02219109987834   1.483239697419e-08           -0.5824314   1.483239697419e-08                    0                    0
         "BPM.12L8.B1"             19694.25      0.0131253025733   1.483239697419e-08           -0.5499528   1.483239697419e-08                    0                    0
         "BPM.11L8.B1"              19747.7     0.01633142557845   1.483239697419e-08           -0.4841294   1.483239697419e-08                    0                    0
         "BPM.10L8.B1"             19799.55     0.01808358964798   1.483239697419e-08          -0.49634833   1.483239697419e-08                    0                    0
          "BPM.9L8.B1"             19838.61      0.0181697812205   1.483239697419e-08           0.45307767   1.483239697419e-08                    0                    0
          "BPM.8L8.B1"             19879.08     0.01519785792327   1.483239697419e-08            0.4557212   1.483239697419e-08                    0                    0
          "BPM.7L8.B1"             19918.15     0.01149729336345   1.483239697419e-08           0.49410821   1.483239697419e-08                    0                    0
         "BPMR.6L8.B1"             19950.61     0.02206444753758   1.483239697419e-08           -0.1967512   1.483239697419e-08                    0                    0
        "BPMYB.4L8.B1"              20031.8     0.01552963286339   1.483239697419e-08           -0.5249553   1.483239697419e-08                    0                    0
        "BPMWB.4L8.B1"             20056.19     0.01075707410735   1.483239697419e-08           -0.5536318   1.483239697419e-08                    0                    0
        "BPMSX.4L8.B1"             20106.42     0.01273190836393   1.483239697419e-08            -0.517652   1.483239697419e-08                    0                    0
         "BPMS.2L8.B1"             20144.34      0.0106795750668   1.483239697419e-08           -0.5415828   1.483239697419e-08                    0                    0
        "BPMSW.1L8.B1"             20154.27      0.0144925247304   1.483239697419e-08            0.3355454   1.483239697419e-08                    0                    0
        "BPMSW.1R8.B1"             20197.46     0.01145762787334   1.483239697419e-08            0.4591608   1.483239697419e-08                    0                    0
         "BPMS.2R8.B1"             20207.39     0.01254927646178   1.483239697419e-08            0.4948053   1.483239697419e-08                    0                    0
        "BPMSX.4R8.B1"             20245.31     0.01463512394798   1.483239697419e-08            0.4814522   1.483239697419e-08                    0                    0
        "BPMWB.4R8.B1"             20295.46     0.01344150479809   1.483239697419e-08            0.5213982   1.483239697419e-08                    0                    0
        "BPMYB.4R8.B1"             20319.93    0.009360379122393   1.483239697419e-08            0.5015861   1.483239697419e-08                    0                    0
        "BPMYB.5R8.B1"             20340.51     0.01488551939861   1.483239697419e-08            0.4750763   1.483239697419e-08                    0                    0
          "BPM.6R8.B1"             20424.62     0.02223966781944   1.483239697419e-08           -0.5124618   1.483239697419e-08                    0                    0
        "BPM_A.7R8.B1"             20446.86     0.01908353068152   1.483239697419e-08           -0.5149465   1.483239697419e-08                    0                    0
          "BPM.8R8.B1"             20488.29     0.01320031284416   1.483239697419e-08           -0.4660328   1.483239697419e-08                    0                    0
          "BPM.9R8.B1"             20527.36      0.0114980891321   1.483239697419e-08           0.52888106   1.483239697419e-08                    0                    0
         "BPM.10R8.B1"             20567.82      0.0209889829249   1.483239697419e-08             0.471519   1.483239697419e-08                    0                    0
         "BPM.11R8.B1"             20619.66     0.01281533690663   1.483239697419e-08            0.5239491   1.483239697419e-08                    0                    0
         "BPM.12R8.B1"             20674.38     0.01112920346123   1.483239697419e-08           0.51881671   1.483239697419e-08                    0                    0
         "BPM.13R8.B1"             20727.83     0.01649097033368   1.483239697419e-08           -0.5699345   1.483239697419e-08                    0                    0
         "BPM.14R8.B1"             20781.28     0.02093112435185   1.483239697419e-08            -0.533915   1.483239697419e-08                    0                    0
         "BPM.16R8.B1"             20888.18     0.01163110269654   1.483239697419e-08          -0.47048287   1.483239697419e-08                    0                    0
         "BPM.17R8.B1"             20941.63     0.01216035866623   1.483239697419e-08            0.4558511   1.483239697419e-08                    0                    0
         "BPM.18R8.B1"             20995.07      0.0208935836385   1.483239697419e-08            0.4693866   1.483239697419e-08                    0                    0
         "BPM.19R8.B1"             21048.52     0.01846572821304   1.483239697419e-08            0.4917113   1.483239697419e-08                    0                    0
         "BPM.20R8.B1"             21101.97     0.01398489609052   1.483239697419e-08           0.57199742   1.483239697419e-08                    0                    0
         "BPM.21R8.B1"             21155.42     0.01509609083588   1.483239697419e-08           -0.5469999   1.483239697419e-08                    0                    0
         "BPM.23R8.B1"             21262.32     0.01712797461565   1.483239697419e-08           -0.4949032   1.483239697419e-08                    0                    0
         "BPM.24R8.B1"             21315.76     0.00980902429829   1.483239697419e-08          0.464468957   1.483239697419e-08                    0                    0
         "BPM.25R8.B1"             21369.21     0.01653120541133   1.483239697419e-08            0.4600536   1.483239697419e-08                    0                    0
         "BPM.26R8.B1"             21422.66     0.02064329506375   1.483239697419e-08            0.4437679   1.483239697419e-08                    0                    0
         "BPM.27R8.B1"             21476.11     0.01727360546749   1.483239697419e-08            0.4998215   1.483239697419e-08                    0                    0
         "BPM.28R8.B1"             21529.56     0.01117776215092   1.483239697419e-08           0.48468227   1.483239697419e-08                    0                    0
         "BPM.29R8.B1"             21583.01     0.02261072536547   1.483239697419e-08           -0.5632504   1.483239697419e-08                    0                    0
         "BPM.30R8.B1"             21636.46     0.02260256475386   1.483239697419e-08           -0.5488155   1.483239697419e-08                    0                    0
         "BPM.31R8.B1"              21689.9     0.01623878665361   1.483239697419e-08           -0.5522241   1.483239697419e-08                    0                    0
         "BPM.32R8.B1"             21743.35     0.01049980853192   1.483239697419e-08          0.464545315   1.483239697419e-08                    0                    0
         "BPM.33R8.B1"              21796.8     0.02328961475718   1.483239697419e-08             0.403031   1.483239697419e-08                    0                    0
         "BPM.34R8.B1"             21850.25     0.02397772720231   1.483239697419e-08            0.4523341   1.483239697419e-08                    0                    0
         "BPM.33L1.B1"              21903.7     0.01847522843615   1.483239697419e-08            0.4949795   1.483239697419e-08                    0                    0
         "BPM.32L1.B1"             21957.15     0.01320129389274   1.483239697419e-08            0.4488321   1.483239697419e-08                    0                    0
         "BPM.31L1.B1"              22010.6     0.02170371906001   1.483239697419e-08           -0.6097195   1.483239697419e-08                    0                    0
         "BPM.30L1.B1"             22064.04     0.02508416338584   1.483239697419e-08           -0.5509235   1.483239697419e-08                    0                    0
         "BPM.29L1.B1"             22117.49     0.01911202567135   1.483239697419e-08           -0.5688871   1.483239697419e-08                    0                    0
         "BPM.28L1.B1"             22170.94     0.01600970180364   1.483239697419e-08            0.4631492   1.483239697419e-08                    0                    0
         "BPM.27L1.B1"             22224.39     0.02109638807228   1.483239697419e-08            0.4300194   1.483239697419e-08                    0                    0
         "BPM.26L1.B1"             22277.84     0.02353921980381   1.483239697419e-08            0.4583361   1.483239697419e-08                    0                    0
         "BPM.25L1.B1"             22331.29     0.01792793977528   1.483239697419e-08             0.510856   1.483239697419e-08                    0                    0
         "BPM.24L1.B1"             22384.74     0.01221575655871   1.483239697419e-08           0.47326606   1.483239697419e-08                    0                    0
         "BPM.23L1.B1"             22438.18     0.01851772967992   1.483239697419e-08           -0.5081556   1.483239697419e-08                    0                    0
         "BPM.22L1.B1"             22491.63     0.02376932075235   1.483239697419e-08           -0.5331477   1.483239697419e-08                    0                    0
         "BPM.21L1.B1"             22545.08     0.01713186236686   1.483239697419e-08           -0.5097111   1.483239697419e-08                    0                    0
         "BPM.20L1.B1"             22598.53    0.007370034410389   1.483239697419e-08          -0.49405086   1.483239697419e-08                    0                    0
         "BPM.19L1.B1"             22651.98     0.01590887658759   1.483239697419e-08            0.4311432   1.483239697419e-08                    0                    0
         "BPM.18L1.B1"             22705.43     0.02155623939467   1.483239697419e-08             0.451501   1.483239697419e-08                    0                    0
         "BPM.17L1.B1"             22758.87     0.01685665443844   1.483239697419e-08            0.4967987   1.483239697419e-08                    0                    0
         "BPM.16L1.B1"             22812.32    0.009050384097447   1.483239697419e-08           0.50650428   1.483239697419e-08                    0                    0
         "BPM.15L1.B1"             22865.77     0.01783632483519   1.483239697419e-08            -0.591105   1.483239697419e-08                    0                    0
         "BPM.14L1.B1"             22919.22     0.02161183941531   1.483239697419e-08           -0.5411508   1.483239697419e-08                    0                    0
         "BPM.13L1.B1"             22972.67     0.01940800191417   1.483239697419e-08           -0.5307604   1.483239697419e-08                    0                    0
         "BPM.12L1.B1"             23026.12     0.01157009807716   1.483239697419e-08           0.46715385   1.483239697419e-08                    0                    0
         "BPM.11L1.B1"             23079.57     0.01713768686753   1.483239697419e-08            0.4160762   1.483239697419e-08                    0                    0
         "BPM.10L1.B1"             23132.35     0.01985130821424   1.483239697419e-08            0.4583345   1.483239697419e-08                    0                    0
          "BPM.9L1.B1"             23171.41     0.02012347803018   1.483239697419e-08            0.4764415   1.483239697419e-08                    0                    0
          "BPM.8L1.B1"             23211.87     0.01349493390859   1.483239697419e-08           -0.5777855   1.483239697419e-08                    0                    0
         "BPMR.7L1.B1"             23250.94     0.02563893190875   1.483239697419e-08           -0.5921678   1.483239697419e-08                    0                    0
          "BPM.6L1.B1"             23294.12      0.0178303663016   1.483239697419e-08           -0.5506245   1.483239697419e-08                    0                    0
        "BPMYA.4L1.B1"             23347.14      0.0185863411372   1.483239697419e-08           -0.5519298   1.483239697419e-08                    0                    0
        "BPMWB.4L1.B1"             23368.28     0.01828321618049   1.483239697419e-08           -0.5623068   1.483239697419e-08                    0                    0
        "BPMSY.4L1.B1"             23461.06     0.02177302073752   1.483239697419e-08           -0.5132546   1.483239697419e-08                    0                    0
         "BPMS.2L1.B1"             23487.84     0.02044055013572   1.483239697419e-08           -0.5435182   1.483239697419e-08                    0                    0
        "BPMSW.1L1.B1"             23497.79     0.01977228702627   1.483239697419e-08           -0.5412918   1.483239697419e-08                    0                    0
        "BPMSW.1R1.B1"             23540.93     0.01908926221285   1.483239697419e-08             0.462304   1.483239697419e-08                    0                    0
         "BPMS.2R1.B1"              23550.9     0.01901387493984   1.483239697419e-08             0.425524   1.483239697419e-08                    0                    0
        "BPMSY.4R1.B1"             23577.68     0.01985276520462   1.483239697419e-08             0.426318   1.483239697419e-08                    0                    0
        "BPMWB.4R1.B1"             23670.46     0.01943911205819   1.483239697419e-08            0.4476639   1.483239697419e-08                    0                    0
        "BPMYA.4R1.B1"              23691.6     0.01861158299131   1.483239697419e-08            0.4495801   1.483239697419e-08                    0                    0
          "BPM.5R1.B1"                23719     0.01870489098463   1.483239697419e-08             0.459352   1.483239697419e-08                    0                    0
         "BPMR.6R1.B1"              23750.9     0.01868607086768   1.483239697419e-08            -0.608632   1.483239697419e-08                    0                    0
        "BPMSX.7R1.B1"             23757.12     0.01437969172914   1.483239697419e-08           -0.5284117   1.483239697419e-08                    0                    0
        "BPM_A.7R1.B1"             23778.63     0.02139976137363   1.483239697419e-08           -0.6200501   1.483239697419e-08                    0                    0
          "BPM.8R1.B1"             23820.07    0.008824820804419   1.483239697419e-08           -0.5303281   1.483239697419e-08                    0                    0
          "BPM.9R1.B1"             23859.13     0.01387318776403   1.483239697419e-08           0.45087193   1.483239697419e-08                    0                    0
         "BPM.10R1.B1"              23899.6     0.01769087839076   1.483239697419e-08            0.4191961   1.483239697419e-08                    0                    0
         "BPM.11R1.B1"             23952.38     0.01968709118978   1.483239697419e-08              0.44016   1.483239697419e-08                    0                    0
         "BPM.12R1.B1"             24007.11     0.01299348205755   1.483239697419e-08            0.4946395   1.483239697419e-08                    0                    0
         "BPM.13R1.B1"             24060.56     0.01338378338586   1.483239697419e-08            0.5348257   1.483239697419e-08                    0                    0
         "BPM.14R1.B1"             24114.01     0.01863763743499   1.483239697419e-08           -0.5675096   1.483239697419e-08                    0                    0
         "BPM.15R1.B1"             24167.46     0.01837969527631   1.483239697419e-08           -0.5502188   1.483239697419e-08                    0                    0
         "BPM.16R1.B1"             24220.91     0.01280252193516   1.483239697419e-08           -0.5025312   1.483239697419e-08                    0                    0
         "BPM.17R1.B1"             24274.37     0.01084134730981   1.483239697419e-08          -0.47272669   1.483239697419e-08                    0                    0
         "BPM.18R1.B1"             24327.82     0.01510596618069   1.483239697419e-08            0.4387302   1.483239697419e-08                    0                    0
         "BPM.19R1.B1"             24381.27     0.01721908320926   1.483239697419e-08            0.4428183   1.483239697419e-08                    0                    0
         "BPM.20R1.B1"             24434.72     0.01264902830766   1.483239697419e-08            0.4713065   1.483239697419e-08                    0                    0
         "BPM.21R1.B1"             24488.17     0.01288399227435   1.483239697419e-08           0.50642221   1.483239697419e-08                    0                    0
         "BPM.22R1.B1"             24541.62      0.0137245776742   1.483239697419e-08           -0.5034763   1.483239697419e-08                    0                    0
         "BPM.23R1.B1"             24595.08     0.01607003438432   1.483239697419e-08           -0.5639919   1.483239697419e-08                    0                    0
         "BPM.24R1.B1"             24648.53     0.00830117171595   1.483239697419e-08           -0.5464807   1.483239697419e-08                    0                    0
         "BPM.25R1.B1"             24701.98     0.01257341628775   1.483239697419e-08          -0.48604855   1.483239697419e-08                    0                    0
         "BPM.26R1.B1"             24755.43     0.01347415155255   1.483239697419e-08            0.4344531   1.483239697419e-08                    0                    0
         "BPM.27R1.B1"             24808.88     0.01536907259172   1.483239697419e-08            0.4283976   1.483239697419e-08                    0                    0
         "BPM.28R1.B1"             24862.33    0.004018895917514   1.483239697419e-08            0.4695556   1.483239697419e-08                    0                    0
         "BPM.29R1.B1"             24915.78     0.01196291742708   1.483239697419e-08           0.53113612   1.483239697419e-08                    0                    0
         "BPM.30R1.B1"             24969.24     0.01637407892368   1.483239697419e-08           -0.6162015   1.483239697419e-08                    0                    0
         "BPM.31R1.B1"             25022.69     0.01497764695704   1.483239697419e-08           -0.5775834   1.483239697419e-08                    0                    0
         "BPM.32R1.B1"             25076.14    0.005135323332461   1.483239697419e-08           -0.5845515   1.483239697419e-08                    0                    0
         "BPM.33R1.B1"             25129.59     0.01111008462521   1.483239697419e-08            0.4823195   1.483239697419e-08                    0                    0
         "BPM.34R1.B1"             25183.04     0.01569324295711   1.483239697419e-08            0.3868604   1.483239697419e-08                    0                    0
         "BPM.33L2.B1"             25236.49     0.01288848794473   1.483239697419e-08            0.4064588   1.483239697419e-08                    0                    0
         "BPM.32L2.B1"             25289.94    0.008131410394695   1.483239697419e-08            0.4683838   1.483239697419e-08                    0                    0
         "BPM.31L2.B1"              25343.4      0.0115220752231   1.483239697419e-08           0.50092204   1.483239697419e-08                    0                    0
         "BPM.30L2.B1"             25396.85     0.01034910517914   1.483239697419e-08           -0.5379009   1.483239697419e-08                    0                    0
         "BPM.29L2.B1"              25450.3     0.01192303228288   1.483239697419e-08           -0.6056717   1.483239697419e-08                    0                    0
         "BPM.28L2.B1"             25503.75    0.008406173780948   1.483239697419e-08            -0.624872   1.483239697419e-08                    0                    0
         "BPM.27L2.B1"              25557.2     0.01235345108374   1.483239697419e-08           0.45317872   1.483239697419e-08                    0                    0
         "BPM.26L2.B1"             25610.65     0.01377137136415   1.483239697419e-08            0.3944381   1.483239697419e-08                    0                    0
         "BPM.25L2.B1"              25664.1     0.01532252279812   1.483239697419e-08            0.4212087   1.483239697419e-08                    0                    0
         "BPM.24L2.B1"             25717.56    0.009692999226018   1.483239697419e-08             0.476941   1.483239697419e-08                    0                    0
         "BPM.23L2.B1"             25771.01      0.0138147736579   1.483239697419e-08          0.498966209   1.483239697419e-08                    0                    0
         "BPM.22L2.B1"             25824.46     0.01609565842899   1.483239697419e-08           -0.6252868   1.483239697419e-08                    0                    0
         "BPM.21L2.B1"             25877.91     0.02045797310178   1.483239697419e-08           -0.5541473   1.483239697419e-08                    0                    0
         "BPM.20L2.B1"             25931.36     0.01240578689842   1.483239697419e-08           -0.5185545   1.483239697419e-08                    0                    0
         "BPM.19L2.B1"             25984.81      0.0118152690093   1.483239697419e-08          0.466561238   1.483239697419e-08                    0                    0
         "BPM.18L2.B1"             26038.27     0.01675316370472   1.483239697419e-08            0.4384327   1.483239697419e-08                    0                    0
         "BPM.16L2.B1"             26145.17     0.01332095038235   1.483239697419e-08            0.4851141   1.483239697419e-08                    0                    0
         "BPM.15L2.B1"             26198.62     0.01378557371542   1.483239697419e-08          0.493138706   1.483239697419e-08                    0                    0
         "BPM.14L2.B1"             26252.07     0.01773189950961   1.483239697419e-08           -0.5949818   1.483239697419e-08                    0                    0
         "BPM.13L2.B1"             26305.52     0.01923697298845   1.483239697419e-08           -0.5554696   1.483239697419e-08                    0                    0
         "BPM.12L2.B1"             26358.97     0.01352866336559   1.483239697419e-08           -0.5405513   1.483239697419e-08                    0                    0
         "BPM.11L2.B1"             26412.43     0.01307909170981   1.483239697419e-08           0.44225254   1.483239697419e-08                    0                    0
         "BPM.10L2.B1"             26464.27     0.01721234140021   1.483239697419e-08            0.4179631   1.483239697419e-08                    0                    0
          "BPM.9L2.B1"             26503.33     0.01684362227621   1.483239697419e-08             0.436552   1.483239697419e-08                    0                    0
          "BPM.8L2.B1"              26543.8     0.01252973293444   1.483239697419e-08            0.4623567   1.483239697419e-08                    0                    0