@ GetLLMVersion %s "V3.0.0 Dev"
@ Command %s "/afs/cern.ch/work/o/omc/anaconda/bin/python '/afs/cern.ch/eng/sl/lintrack/Beta-Beat.src/GetLLM/GetLLM.py' '--accel=LHCB1' '--model=/afs/cern.ch/user/t/thpugnat/public/Outputs/2018-09-04/models/LHCB1/b1_squeeze_collQ/twiss.dat' '--files=/afs/cern.ch/user/t/thpugnat/public/Outputs/2018-09-04/LHCB1/Measurements/Beam1@Turn@2018_06_16@18_16_19_652/Beam1@Turn@2018_06_16@18_16_19_652.sdds.clean' '--output=/afs/cern.ch/user/t/thpugnat/public/Outputs/2018-09-04/LHCB1/Results/15-36-34_NORMALANALYSIS_SUSSIX_19' '--tbtana=SUSSIX' '--bpmu=mm' '--lhcphase=1' '--errordefs=/afs/cern.ch/user/t/thpugnat/public/Outputs/2018-09-04/models/LHCB1/b1_squeeze_collQ/error_deff.txt' '--calibration=/afs/cern.ch/eng/sl/lintrack/LHC_commissioning2017/Calibration_factors_2017/Calibration_factors_2017_beam1'"
@ CWD %s "/afs/cern.ch/user/t/thpugnat"
@ Date %s "04. September 2018, 15:36:50"
@ TABLE %s "ORBIT"
@ TYPE %s "ORBIT"
@ SEQUENCE %s "LHCB1"
@ Q1 %le 0.30243227475538154
@ Q2 %le 0.3298210354581673
@ FILES %s "/afs/cern.ch/user/t/thpugnat/public/Outputs/2018-09-04/LHCB1/Measurements/Beam1@Turn@2018_06_16@18_16_19_652/Beam1@Turn@2018_06_16@18_16_19_652.sdds.clean_linx"
*                 NAME                    S                COUNT                    X                 STDX                 XMDL               MUXMDL
$                   %s                  %le                  %le                  %le                  %le                  %le                  %le
        "BPMYB.5L2.B1"               28.288                    1           -0.3146512   1.483239697419e-08                    0        0.03008760323
        "BPMYB.4L2.B1"               48.858                    1            0.7381609   1.483239697419e-08                    0        0.05703314752
        "BPMWI.4L2.B1"              73.3255                    1           -0.5440072   1.483239697419e-08                    0         0.1082906377
        "BPMSX.4L2.B1"             123.4825                    1             1.094299   1.483239697419e-08                    0         0.1773529471
         "BPMS.2L2.B1"              161.394                    1            0.7765109   1.483239697419e-08                    0         0.2277577856
        "BPMSW.1L2.B1"              171.328                    1             2.638256   1.483239697419e-08                    0         0.2511837138
        "BPMSW.1R2.B1"              214.518                    1             1.582396   1.483239697419e-08                    0         0.6131399547
         "BPMS.2R2.B1"              224.452                    1           -0.3390196   1.483239697419e-08                    0         0.6310855851
        "BPMSX.4R2.B1"             262.3635                    1          -0.09973171   1.483239697419e-08                    0         0.6746144702
        "BPMWB.4R2.B1"             312.5965                    1            0.6878179   1.483239697419e-08                    0         0.7560887008
        "BPMYB.4R2.B1"              336.988                    1           -0.7931767   1.483239697419e-08                    0         0.7909346559
         "BPMR.5R2.B1"              366.522                    1           -0.3013983   1.483239697419e-08                    0         0.8902212213
          "BPM.6R2.B1"              439.818                    1           0.00151741   1.483239697419e-08                    0           1.04825584
        "BPM_A.7R2.B1"              452.693                    1            0.6034545   1.483239697419e-08                    0          1.065286235
          "BPM.8R2.B1"               494.13                    1           -0.2940284   1.483239697419e-08                    0          1.148178441
          "BPM.9R2.B1"              533.195                    1            0.2787096   1.483239697419e-08                    0          1.298192799
         "BPM.10R2.B1"              573.658                    1          -0.06014258   1.483239697419e-08                    0          1.468484388
         "BPM.11R2.B1"             625.4967                    1            0.1174979   1.483239697419e-08                    0          1.577738419
         "BPM.12R2.B1"             680.2203                    1         0.0004915657   1.483239697419e-08                    0           1.71460023
         "BPM.13R2.B1"             733.6688                    1           -0.3717235   1.483239697419e-08                    0          1.828106115
         "BPM.14R2.B1"             787.1173                    1            0.3421326   1.483239697419e-08                    0          1.965797982
         "BPM.15R2.B1"             840.5658                    1          -0.06150917   1.483239697419e-08                    0          2.078018154
         "BPM.16R2.B1"             894.0143                    1           0.06045599   1.483239697419e-08                    0          2.212610901
         "BPM.17R2.B1"             947.4628                    1            0.3321983   1.483239697419e-08                    0          2.328416144
         "BPM.18R2.B1"             1000.911                    1            0.1566184   1.483239697419e-08                    0          2.466102649
         "BPM.19R2.B1"              1054.36                    1            -0.581409   1.483239697419e-08                    0          2.578317778
         "BPM.20R2.B1"             1107.808                    1           0.06981981   1.483239697419e-08                    0           2.71291833
         "BPM.21R2.B1"             1161.257                    1           -0.1488443   1.483239697419e-08                    0           2.82872887
         "BPM.22R2.B1"             1214.705                    1            0.4048967   1.483239697419e-08                    0          2.966407292
         "BPM.23R2.B1"             1268.154                    1           -0.4872864   1.483239697419e-08                    0          3.081507963
         "BPM.24R2.B1"             1321.602                    1            0.4124835   1.483239697419e-08                    0          3.219188942
         "BPM.25R2.B1"             1375.051                    1           -0.5196098   1.483239697419e-08                    0          3.334301333
         "BPM.26R2.B1"             1428.499                    1            0.1740792   1.483239697419e-08                    0          3.471978469
         "BPM.27R2.B1"             1481.948                    1            0.1771403   1.483239697419e-08                    0          3.587079258
         "BPM.28R2.B1"             1535.397                    1          -0.01868406   1.483239697419e-08                    0          3.724760703
         "BPM.29R2.B1"             1588.845                    1           -0.3854328   1.483239697419e-08                    0          3.839872963
         "BPM.30R2.B1"             1642.294                    1            0.4358227   1.483239697419e-08                    0          3.977549638
         "BPM.31R2.B1"             1695.742                    1           -0.4009001   1.483239697419e-08                    0          4.092650571
         "BPM.32R2.B1"             1749.191                    1            0.2004224   1.483239697419e-08                    0          4.230332473
         "BPM.33R2.B1"             1802.639                    1           0.04115222   1.483239697419e-08                    0          4.345444574
         "BPM.34R2.B1"             1856.088                    1            0.0966416   1.483239697419e-08                    0          4.483120799
         "BPM.33L3.B1"             1909.536                    1           -0.2012419   1.483239697419e-08                    0          4.598221905
         "BPM.32L3.B1"             1962.985                    1            0.1496224   1.483239697419e-08                    0           4.73590425
         "BPM.31L3.B1"             2016.433                    1           -0.4487936   1.483239697419e-08                    0          4.851016164
         "BPM.30L3.B1"             2069.882                    1            0.2300546   1.483239697419e-08                    0          4.988691954
         "BPM.29L3.B1"              2123.33                    1            0.0131564   1.483239697419e-08                    0           5.10379326
         "BPM.28L3.B1"             2176.779                    1            0.2093941   1.483239697419e-08                    0          5.241476032
         "BPM.27L3.B1"             2230.227                    1          -0.02694893   1.483239697419e-08                    0          5.356587733
         "BPM.26L3.B1"             2283.676                    1           -0.1199011   1.483239697419e-08                    0          5.494263105
         "BPM.25L3.B1"             2337.124                    1            0.3197995   1.483239697419e-08                    0          5.609364636
         "BPM.24L3.B1"             2390.573                    1            0.1661473   1.483239697419e-08                    0          5.747047817
         "BPM.23L3.B1"             2444.021                    1             -0.20376   1.483239697419e-08                    0          5.862159281
         "BPM.22L3.B1"              2497.47                    1           0.09749319   1.483239697419e-08                    0          5.999834253
         "BPM.21L3.B1"             2550.918                    1           0.07527101   1.483239697419e-08                    0          6.114936034
         "BPM.20L3.B1"             2604.367                    1            0.2144113   1.483239697419e-08                    0          6.253463578
         "BPM.19L3.B1"             2657.815                    1           -0.1645027   1.483239697419e-08                    0          6.366348893
         "BPM.18L3.B1"             2711.264                    1            0.1017794   1.483239697419e-08                    0          6.500138913
         "BPM.17L3.B1"             2764.712                    1            -0.406916   1.483239697419e-08                    0          6.615248613
         "BPM.16L3.B1"             2818.161                    1           0.06951281   1.483239697419e-08                    0          6.753771111
         "BPM.15L3.B1"             2871.609                    1            0.4869102   1.483239697419e-08                    0          6.866648636
         "BPM.14L3.B1"             2925.058                    1           -0.2181009   1.483239697419e-08                    0          7.000443465
         "BPM.13L3.B1"             2978.506                    1            0.4315282   1.483239697419e-08                    0          7.115561203
         "BPM.12L3.B1"             3031.955                    1             0.278932   1.483239697419e-08                    0           7.25265399
         "BPM.11L3.B1"             3085.403                    1           -0.4754698   1.483239697419e-08                    0          7.379114427
         "BPM.10L3.B1"             3138.184                    1            0.2593313   1.483239697419e-08                    0          7.528189798
          "BPM.8L3.B1"             3217.712                    1           0.07718393   1.483239697419e-08                    0          7.665816619
          "BPM.7L3.B1"             3256.776                    1           -0.2483879   1.483239697419e-08                    0          7.724765676
          "BPM.6L3.B1"             3329.415                    1          -0.04230591   1.483239697419e-08                    0          7.836916105
       "BPMWG.A5L3.B1"              3371.12                    1            0.1436376   1.483239697419e-08                    0          7.894000493
         "BPMW.5L3.B1"              3400.09                    1           0.08992437   1.483239697419e-08                    0          7.977356182
        "BPMWE.4L3.B1"             3475.218                    1          -0.04327035   1.483239697419e-08                    0          8.080725057
         "BPMW.4L3.B1"             3502.763                    1            0.1467239   1.483239697419e-08                    0          8.095927968
         "BPMW.4R3.B1"             3547.728                    1            0.7687963   1.483239697419e-08                    0          8.166079117
        "BPMWE.4R3.B1"             3575.273                    1           -0.9410672   1.483239697419e-08                    0          8.313727367
         "BPMW.5R3.B1"             3650.401                    1             0.493776   1.483239697419e-08                    0          8.443255435
       "BPMWJ.A5R3.B1"             3679.119                    1           -0.6425598   1.483239697419e-08                    0          8.455881914
        "BPMWC.6R3.B1"             3718.937                    1            0.1526017   1.483239697419e-08                    0           8.50177358
         "BPMR.6R3.B1"             3731.015                    1            0.1393105   1.483239697419e-08                    0          8.541882981
          "BPM.8R3.B1"             3825.903                    1          -0.03496925   1.483239697419e-08                    0          8.841362482
          "BPM.9R3.B1"             3864.968                    1            -0.132934   1.483239697419e-08                    0          8.945493369
         "BPM.10R3.B1"             3905.431                    1            0.7500359   1.483239697419e-08                    0          9.020223924
         "BPM.11R3.B1"             3958.212                    1            -0.170341   1.483239697419e-08                    0           9.11327646
         "BPM.12R3.B1"             4012.935                    1             0.366884   1.483239697419e-08                    0          9.214061253
         "BPM.13R3.B1"             4066.384                    1            0.0850058   1.483239697419e-08                    0          9.330878034
         "BPM.14R3.B1"             4119.833                    1          -0.06173019   1.483239697419e-08                    0          9.445968437
         "BPM.15R3.B1"             4173.281                    1            0.0163058   1.483239697419e-08                    0          9.584495698
         "BPM.17R3.B1"             4280.178                    1           -0.1188309   1.483239697419e-08                    0          9.831181885
         "BPM.18R3.B1"             4333.627                    1            0.5758471   1.483239697419e-08                    0          9.946280992
         "BPM.19R3.B1"             4387.075                    1            0.1132875   1.483239697419e-08                    0          10.08480325
         "BPM.20R3.B1"             4440.524                    1           -0.3176241   1.483239697419e-08                    0          10.19769121
         "BPM.21R3.B1"             4493.972                    1            0.3080549   1.483239697419e-08                    0          10.33148642
         "BPM.22R3.B1"             4547.421                    1           0.03095539   1.483239697419e-08                    0          10.44659356
         "BPM.23R3.B1"             4600.869                    1           -0.1452635   1.483239697419e-08                    0          10.58426689
         "BPM.24R3.B1"             4654.318                    1            0.2792879   1.483239697419e-08                    0          10.69937291
         "BPM.25R3.B1"             4707.766                    1          -0.03834044   1.483239697419e-08                    0          10.83705795
         "BPM.26R3.B1"             4761.215                    1            0.1316959   1.483239697419e-08                    0          10.95216487
         "BPM.27R3.B1"             4814.663                    1            0.1882346   1.483239697419e-08                    0          11.08983816
         "BPM.28R3.B1"             4868.112                    1           -0.1170883   1.483239697419e-08                    0          11.20494454
         "BPM.29R3.B1"              4921.56                    1            0.2437872   1.483239697419e-08                    0           11.3426296
         "BPM.30R3.B1"             4975.009                    1           -0.1230673   1.483239697419e-08                    0          11.45773616
         "BPM.31R3.B1"             5028.457                    1          -0.08510991   1.483239697419e-08                    0          11.59540945
         "BPM.32R3.B1"             5081.906                    1            0.1284756   1.483239697419e-08                    0          11.71051619
         "BPM.33R3.B1"             5135.354                    1            0.2041545   1.483239697419e-08                    0          11.84820124
         "BPM.34R3.B1"             5188.803                    1           -0.3868997   1.483239697419e-08                    0          11.96330744
         "BPM.33L4.B1"             5242.251                    1            0.4125747   1.483239697419e-08                    0          12.10098075
         "BPM.32L4.B1"               5295.7                    1          -0.08006771   1.483239697419e-08                    0          12.21608785
         "BPM.31L4.B1"             5349.148                    1           0.05137657   1.483239697419e-08                    0          12.35377287
         "BPM.30L4.B1"             5402.597                    1            0.1440859   1.483239697419e-08                    0          12.46887871
         "BPM.29L4.B1"             5456.045                    1         -0.002963388   1.483239697419e-08                    0          12.60655207
         "BPM.28L4.B1"             5509.494                    1           -0.0687956   1.483239697419e-08                    0          12.72165952
         "BPM.27L4.B1"             5562.942                    1           0.07109639   1.483239697419e-08                    0          12.85934448
         "BPM.26L4.B1"             5616.391                    1           0.08467514   1.483239697419e-08                    0          12.97444997
         "BPM.25L4.B1"             5669.839                    1            0.3122182   1.483239697419e-08                    0          13.11212341
         "BPM.24L4.B1"             5723.288                    1           -0.1651393   1.483239697419e-08                    0          13.22723121
         "BPM.22L4.B1"             5830.185                    1          -0.05426773   1.483239697419e-08                    0          13.48002121
         "BPM.21L4.B1"             5883.634                    1            0.2094178   1.483239697419e-08                    0          13.61769476
         "BPM.19L4.B1"             5990.531                    1            0.2432283   1.483239697419e-08                    0          13.86452467
         "BPM.18L4.B1"             6043.979                    1           -0.1992811   1.483239697419e-08                    0           13.9803331
         "BPM.17L4.B1"             6097.428                    1            0.1843475   1.483239697419e-08                    0          14.11799939
         "BPM.16L4.B1"             6150.876                    1            0.3957231   1.483239697419e-08                    0          14.23021177
         "BPM.15L4.B1"             6204.325                    1          -0.09964815   1.483239697419e-08                    0          14.36483214
         "BPM.14L4.B1"             6257.773                    1           0.05300616   1.483239697419e-08                    0           14.4806458
         "BPM.13L4.B1"             6311.222                    1          -0.04203296   1.483239697419e-08                    0          14.61830399
         "BPM.12L4.B1"              6364.67                    1           0.05101747   1.483239697419e-08                    0          14.73146549
         "BPM.11L4.B1"             6418.119                    1          -0.08385966   1.483239697419e-08                    0          14.86841285
         "BPM.10L4.B1"             6469.957                    1            0.2363514   1.483239697419e-08                    0          14.98561057
          "BPM.9L4.B1"             6509.022                    1           0.07812444   1.483239697419e-08                    0          15.11301982
          "BPM.8L4.B1"             6549.485                    1          -0.06033104   1.483239697419e-08                    0          15.24116306
          "BPM.7L4.B1"             6588.549                    1          -0.06848964   1.483239697419e-08                    0          15.41413017
        "BPMYB.6L4.B1"             6685.153                    1           0.08968298   1.483239697419e-08                    0          15.55748641
        "BPMYA.5L4.B1"             6722.153                    1          -0.01641765   1.483239697419e-08                    0          15.58320741
       "BPMWI.A5L4.B1"             6798.756                    1           -0.5611896   1.483239697419e-08                    0          15.61515556
       "BPMWA.B5L4.B1"              6824.62                    1           -0.3737543   1.483239697419e-08                    0          15.62907922
       "BPMWA.A5L4.B1"             6833.505                    1          -0.07269259   1.483239697419e-08                    0          15.63428175
       "BPMWA.A5R4.B1"             6881.554                    1            0.3966546   1.483239697419e-08                    0          15.66619892
       "BPMWA.B5R4.B1"             6890.439                    1            0.2709779   1.483239697419e-08                    0          15.67276396
        "BPMYB.5R4.B1"             6992.829                    1           -0.1856633   1.483239697419e-08                    0           15.7552851
        "BPMYA.6R4.B1"             7024.393                    1           -0.1604372   1.483239697419e-08                    0          15.77023562
          "BPM.7R4.B1"             7120.909                    1           -0.1489845   1.483239697419e-08                    0          15.90050809
          "BPM.8R4.B1"             7158.698                    1            0.3887605   1.483239697419e-08                    0          16.04555253
          "BPM.9R4.B1"             7197.763                    1           -0.2177886   1.483239697419e-08                    0          16.22660498
         "BPM.11R4.B1"             7290.065                    1            0.3821656   1.483239697419e-08                    0          16.45593723
         "BPM.12R4.B1"             7344.789                    1          -0.07792204   1.483239697419e-08                    0          16.61113625
         "BPM.13R4.B1"             7398.237                    1            0.1252274   1.483239697419e-08                    0          16.75051458
         "BPM.14R4.B1"             7451.686                    1            0.1743275   1.483239697419e-08                    0          16.86927316
         "BPM.15R4.B1"             7505.134                    1           -0.2681467   1.483239697419e-08                    0          16.95841427
         "BPM.16R4.B1"             7558.583                    1            0.1020415   1.483239697419e-08                    0          17.10820059
         "BPM.17R4.B1"             7612.031                    1            0.7743083   1.483239697419e-08                    0          17.25047317
         "BPM.18R4.B1"              7665.48                    1           0.09360422   1.483239697419e-08                    0          17.36924594
         "BPM.19R4.B1"             7718.928                    1            -0.517554   1.483239697419e-08                    0          17.45838292
         "BPM.20R4.B1"             7772.377                    1            0.1587119   1.483239697419e-08                    0          17.60815306
         "BPM.21R4.B1"             7825.825                    1          -0.03260409   1.483239697419e-08                    0          17.75043454
         "BPM.22R4.B1"             7879.274                    1          -0.03409065   1.483239697419e-08                    0          17.86921873
         "BPM.23R4.B1"             7932.722                    1            0.2913292   1.483239697419e-08                    0          17.95835158
         "BPM.24R4.B1"             7986.171                    1             0.261196   1.483239697419e-08                    0          18.10810553
         "BPM.26R4.B1"             8093.068                    1           0.06395695   1.483239697419e-08                    0          18.36919152
         "BPM.27R4.B1"             8146.516                    1            0.4835672   1.483239697419e-08                    0          18.45832024
         "BPM.28R4.B1"             8199.965                    1           0.08560844   1.483239697419e-08                    0          18.60805799
         "BPM.29R4.B1"             8253.413                    1           -0.5655309   1.483239697419e-08                    0          18.75035724
         "BPM.32R4.B1"             8413.759                    1             0.288935   1.483239697419e-08                    0          19.10801046
         "BPM.33R4.B1"             8467.208                    1           -0.2200149   1.483239697419e-08                    0          19.25031859
         "BPM.34R4.B1"             8520.656                    1            0.3452709   1.483239697419e-08                    0          19.36913709
         "BPM.33L5.B1"             8574.105                    1           -0.2202975   1.483239697419e-08                    0          19.45825757
         "BPM.32L5.B1"             8627.553                    1         -0.001125144   1.483239697419e-08                    0          19.60796294
         "BPM.31L5.B1"             8681.002                    1           0.09264275   1.483239697419e-08                    0          19.75027993
         "BPM.30L5.B1"              8734.45                    1           0.06682629   1.483239697419e-08                    0          19.86910987
         "BPM.29L5.B1"             8787.899                    1           -0.1350863   1.483239697419e-08                    0          19.95822624
         "BPM.28L5.B1"             8841.347                    1             0.253875   1.483239697419e-08                    0          20.10791541
         "BPM.26L5.B1"             8948.244                    1            0.2701533   1.483239697419e-08                    0          20.36908265
         "BPM.25L5.B1"             9001.693                    1           -0.1791804   1.483239697419e-08                    0          20.45819492
         "BPM.24L5.B1"             9055.141                    1         -0.006113014   1.483239697419e-08                    0          20.60786789
         "BPM.23L5.B1"              9108.59                    1            0.4690208   1.483239697419e-08                    0          20.75020259
         "BPM.22L5.B1"             9162.038                    1          -0.09175863   1.483239697419e-08                    0          20.86905544
         "BPM.21L5.B1"             9215.487                    1           -0.1088536   1.483239697419e-08                    0          20.95816359
         "BPM.20L5.B1"             9268.935                    1            0.1765117   1.483239697419e-08                    0          21.10782037
         "BPM.19L5.B1"             9322.384                    1         -0.008447977   1.483239697419e-08                    0          21.25016392
         "BPM.18L5.B1"             9375.832                    1          -0.05780648   1.483239697419e-08                    0          21.36902822
         "BPM.17L5.B1"             9429.281                    1            0.4771186   1.483239697419e-08                    0          21.45813227
         "BPM.16L5.B1"             9482.729                    1            0.1052679   1.483239697419e-08                    0          21.60777285
         "BPM.15L5.B1"             9536.178                    1           -0.3417184   1.483239697419e-08                    0          21.75012524
         "BPM.14L5.B1"             9589.626                    1            0.2844427   1.483239697419e-08                    0            21.869001
         "BPM.13L5.B1"             9643.075                    1           -0.3331133   1.483239697419e-08                    0          21.95810096
         "BPM.12L5.B1"             9696.523                    1            0.3346142   1.483239697419e-08                    0          22.11014943
         "BPM.11L5.B1"             9749.972                    1          0.008386575   1.483239697419e-08                    0          22.24546531
         "BPM.10L5.B1"             9802.753                    1           0.03635221   1.483239697419e-08                    0          22.36218824
          "BPM.9L5.B1"             9841.818                    1           -0.2303368   1.483239697419e-08                    0          22.44516916
          "BPM.8L5.B1"             9882.281                    1          0.002548184   1.483239697419e-08                    0          22.65133643
         "BPMR.7L5.B1"             9921.347                    1            0.2946616   1.483239697419e-08                    0          22.76878799
          "BPM.6L5.B1"             9958.241                    1             -0.22846   1.483239697419e-08                    0          22.85792439
         "BPMR.5L5.B1"             9990.141                    1           0.09037108   1.483239697419e-08                    0          22.87136228
        "BPMYA.4L5.B1"             10017.55                    1           -0.2338338   1.483239697419e-08                    0          22.87615711
        "BPMWB.4L5.B1"             10038.68                    1           -0.6985939   1.483239697419e-08                    0          22.87826192
        "BPMSY.4L5.B1"             10131.46                    1           -0.2492816   1.483239697419e-08                    0          22.88439072
         "BPMS.2L5.B1"             10158.25                    1            0.6199623   1.483239697419e-08                    0          22.88524737
        "BPMSW.1L5.B1"             10168.21                    1            0.4769102   1.483239697419e-08                    0          22.88587493
         "BPMS.2R5.B1"              10221.3                    1            -0.820919   1.483239697419e-08                    0          23.38225305
        "BPMWB.4R5.B1"             10340.87                    1            0.2010392   1.483239697419e-08                    0          23.38889541
        "BPMYA.4R5.B1"                10362                    1            0.1180451   1.483239697419e-08                    0          23.39358117
          "BPM.5R5.B1"             10383.12                    1           -0.5441902   1.483239697419e-08                    0          23.40376887
         "BPMR.6R5.B1"             10415.02                    1          0.001166283   1.483239697419e-08                    0          23.54837538
        "BPM_A.7R5.B1"             10449.03                    1            0.1856497   1.483239697419e-08                    0          23.85017839
          "BPM.8R5.B1"             10490.47                    1           -0.2148912   1.483239697419e-08                    0          23.93852656
          "BPM.9R5.B1"             10529.54                    1          -0.06861877   1.483239697419e-08                    0          24.16513852
         "BPM.10R5.B1"             10570.01                    1            0.4286301   1.483239697419e-08                    0          24.27209527
         "BPM.11R5.B1"             10622.79                    1           0.09225812   1.483239697419e-08                    0          24.37386241
         "BPM.12R5.B1"             10677.51                    1            0.1733829   1.483239697419e-08                    0          24.46198826
         "BPM.13R5.B1"             10730.97                    1           0.08502776   1.483239697419e-08                    0          24.60908089
         "BPM.14R5.B1"             10784.42                    1           -0.1517609   1.483239697419e-08                    0          24.75119566
         "BPM.16R5.B1"             10891.32                    1            -0.175092   1.483239697419e-08                    0          24.95898605
         "BPM.17R5.B1"             10944.77                    1            0.2027704   1.483239697419e-08                    0          25.10908074
         "BPM.18R5.B1"             10998.22                    1            0.1205403   1.483239697419e-08                    0          25.25119566
         "BPM.19R5.B1"             11051.68                    1           0.09250795   1.483239697419e-08                    0           25.3697631
         "BPM.20R5.B1"             11105.13                    1            0.1399237   1.483239697419e-08                    0          25.45898605
         "BPM.22R5.B1"             11212.03                    1           -0.2785274   1.483239697419e-08                    0          25.75119566
         "BPM.23R5.B1"             11265.48                    1           0.07675397   1.483239697419e-08                    0           25.8697631
         "BPM.24R5.B1"             11318.93                    1           0.05328374   1.483239697419e-08                    0          25.95898605
         "BPM.25R5.B1"             11372.38                    1            0.1897052   1.483239697419e-08                    0          26.10908074
         "BPM.26R5.B1"             11425.84                    1          -0.05576341   1.483239697419e-08                    0          26.25119566
         "BPM.27R5.B1"             11479.29                    1            0.2406313   1.483239697419e-08                    0           26.3697631
         "BPM.28R5.B1"             11532.74                    1           -0.2041745   1.483239697419e-08                    0          26.45898605
         "BPM.29R5.B1"             11586.19                    1           0.05601037   1.483239697419e-08                    0          26.60908074
         "BPM.30R5.B1"             11639.64                    1            0.2453856   1.483239697419e-08                    0          26.75119566
         "BPM.31R5.B1"             11693.09                    1         -0.008359158   1.483239697419e-08                    0           26.8697631
         "BPM.32R5.B1"             11746.54                    1          -0.07981323   1.483239697419e-08                    0          26.95898605
         "BPM.33R5.B1"                11800                    1           0.09666618   1.483239697419e-08                    0          27.10908074
         "BPM.34R5.B1"             11853.45                    1            0.2764546   1.483239697419e-08                    0          27.25119566
         "BPM.33L6.B1"              11906.9                    1          -0.07086256   1.483239697419e-08                    0           27.3697631
         "BPM.32L6.B1"             11960.35                    1            0.3376585   1.483239697419e-08                    0          27.45898605
         "BPM.30L6.B1"             12067.25                    1          -0.02959647   1.483239697419e-08                    0          27.75119566
         "BPM.29L6.B1"              12120.7                    1           0.04209779   1.483239697419e-08                    0           27.8697631
         "BPM.28L6.B1"             12174.16                    1            0.1318716   1.483239697419e-08                    0          27.95898605
         "BPM.27L6.B1"             12227.61                    1           0.02927132   1.483239697419e-08                    0          28.10908074
         "BPM.26L6.B1"             12281.06                    1            0.1709877   1.483239697419e-08                    0          28.25119566
         "BPM.25L6.B1"             12334.51                    1           0.01157298   1.483239697419e-08                    0           28.3697631
         "BPM.24L6.B1"             12387.96                    1            0.1684502   1.483239697419e-08                    0          28.45898605
         "BPM.22L6.B1"             12494.87                    1           -0.3260625   1.483239697419e-08                    0          28.75119566
         "BPM.21L6.B1"             12548.32                    1             0.198255   1.483239697419e-08                    0           28.8697631
         "BPM.20L6.B1"             12601.77                    1          -0.01565919   1.483239697419e-08                    0          28.95898605
         "BPM.19L6.B1"             12655.22                    1             0.126652   1.483239697419e-08                    0          29.10908074
         "BPM.18L6.B1"             12708.67                    1            0.1473045   1.483239697419e-08                    0          29.25119566
         "BPM.17L6.B1"             12762.12                    1            0.1202871   1.483239697419e-08                    0           29.3697631
         "BPM.16L6.B1"             12815.57                    1          -0.09421731   1.483239697419e-08                    0          29.45898605
         "BPM.15L6.B1"             12869.03                    1           0.08179713   1.483239697419e-08                    0          29.60908074
         "BPM.14L6.B1"             12922.48                    1            -0.117268   1.483239697419e-08                    0          29.75119566
         "BPM.13L6.B1"             12975.93                    1           0.09118526   1.483239697419e-08                    0           29.8697631
         "BPM.12L6.B1"             13029.38                    1            0.1431317   1.483239697419e-08                    0          29.95907631
         "BPM.11L6.B1"             13082.83                    1            0.1751384   1.483239697419e-08                    0          30.10555845
         "BPM.10L6.B1"             13134.67                    1           -0.1751091   1.483239697419e-08                    0          30.24933488
          "BPM.9L6.B1"             13173.74                    1          -0.05053887   1.483239697419e-08                    0          30.35462855
          "BPM.8L6.B1"              13214.2                    1            0.3789938   1.483239697419e-08                    0          30.44930571
        "BPMYB.4L6.B1"             13347.69                    1           -0.2029401   1.483239697419e-08                    0           30.7463281
       "BPMSX.B4L6.B1"             13383.23                    1            0.3777598   1.483239697419e-08                    0          30.78047084
       "BPMSX.A4L6.B1"             13383.82                    1           0.02555308   1.483239697419e-08                    0          30.78108746
        "BPMSA.4R6.B1"             13568.51                    1            -0.683433   1.483239697419e-08                    0          30.95719137
       "BPMSI.A4R6.B1"             13661.77                    1            0.1322638   1.483239697419e-08                    0          30.99558269
       "BPMSI.B4R6.B1"             13662.41                    1           0.09597492   1.483239697419e-08                    0          30.99576993
        "BPMYA.4R6.B1"             13691.29                    1           -0.1108522   1.483239697419e-08                    0          31.00355012
        "BPMYB.5R6.B1"             13727.69                    1           -0.1530781   1.483239697419e-08                    0          31.02223801
          "BPM.9R6.B1"             13862.49                    1           -0.5715925   1.483239697419e-08                    0          31.50300649
         "BPM.10R6.B1"             13902.95                    1           0.04806835   1.483239697419e-08                    0          31.65474354
         "BPM.11R6.B1"             13954.79                    1           -0.3398131   1.483239697419e-08                    0          31.76030647
         "BPM.12R6.B1"             14009.52                    1            0.1776182   1.483239697419e-08                    0          31.89835843
         "BPM.13R6.B1"             14062.97                    1            0.3407529   1.483239697419e-08                    0          32.01469404
         "BPM.14R6.B1"             14116.42                    1          -0.04099876   1.483239697419e-08                    0          32.15161978
         "BPM.15R6.B1"             14169.87                    1           -0.1336311   1.483239697419e-08                    0          32.26879442
         "BPM.16R6.B1"             14223.33                    1            0.1056359   1.483239697419e-08                    0          32.40964547
         "BPM.17R6.B1"             14276.78                    1            0.3521421   1.483239697419e-08                    0          32.52361628
         "BPM.18R6.B1"             14330.23                    1            0.0133703   1.483239697419e-08                    0            32.660747
         "BPM.19R6.B1"             14383.68                    1          -0.02051662   1.483239697419e-08                    0          32.77811055
         "BPM.20R6.B1"             14437.13                    1            0.1569166   1.483239697419e-08                    0          32.91873335
         "BPM.21R6.B1"             14490.58                    1             -0.29221   1.483239697419e-08                    0          33.03253493
         "BPM.22R6.B1"             14544.04                    1            0.3888714   1.483239697419e-08                    0          33.16989692
         "BPM.23R6.B1"             14597.49                    1           -0.6325083   1.483239697419e-08                    0          33.28440631
         "BPM.24R6.B1"             14650.94                    1            0.3990162   1.483239697419e-08                    0          33.42177225
         "BPM.25R6.B1"             14704.39                    1           -0.5422162   1.483239697419e-08                    0          33.53626772
         "BPM.26R6.B1"             14757.84                    1            0.3488877   1.483239697419e-08                    0          33.67363092
         "BPM.27R6.B1"             14811.29                    1           -0.2407455   1.483239697419e-08                    0          33.78814037
         "BPM.28R6.B1"             14864.74                    1             0.139858   1.483239697419e-08                    0          33.92550593
         "BPM.29R6.B1"              14918.2                    1           -0.2273794   1.483239697419e-08                    0          34.04000135
         "BPM.30R6.B1"             14971.65                    1            0.2509768   1.483239697419e-08                    0          34.17736494
         "BPM.31R6.B1"              15025.1                    1          -0.03812174   1.483239697419e-08                    0          34.29187442
         "BPM.32R6.B1"             15078.55                    1            0.1064152   1.483239697419e-08                    0          34.42923961
         "BPM.33R6.B1"                15132                    1           -0.1248667   1.483239697419e-08                    0          34.54373499
         "BPM.34R6.B1"             15185.45                    1            0.1039956   1.483239697419e-08                    0          34.68109896
         "BPM.33L7.B1"              15238.9                    1         -0.008176891   1.483239697419e-08                    0          34.79560847
         "BPM.32L7.B1"             15292.36                    1           0.04879031   1.483239697419e-08                    0          34.93297327
         "BPM.31L7.B1"             15345.81                    1           -0.1623676   1.483239697419e-08                    0          35.04746864
         "BPM.30L7.B1"             15399.26                    1             0.186966   1.483239697419e-08                    0          35.18483299
         "BPM.29L7.B1"             15452.71                    1           0.04166938   1.483239697419e-08                    0          35.29934251
         "BPM.28L7.B1"             15506.16                    1            0.1012873   1.483239697419e-08                    0          35.43670693
         "BPM.27L7.B1"             15559.61                    1          0.004441713   1.483239697419e-08                    0          35.55120229
         "BPM.26L7.B1"             15613.06                    1          0.003512491   1.483239697419e-08                    0          35.68856702
         "BPM.25L7.B1"             15666.52                    1           0.05342425   1.483239697419e-08                    0          35.80307654
         "BPM.24L7.B1"             15719.97                    1            0.1552788   1.483239697419e-08                    0          35.94044057
         "BPM.23L7.B1"             15773.42                    1           -0.3306173   1.483239697419e-08                    0          36.05493596
         "BPM.22L7.B1"             15826.87                    1           0.02289149   1.483239697419e-08                    0          36.19230107
         "BPM.21L7.B1"             15880.32                    1            0.5065892   1.483239697419e-08                    0          36.30681056
         "BPM.20L7.B1"             15933.77                    1           -0.1518657   1.483239697419e-08                    0          36.44333174
         "BPM.19L7.B1"             15987.23                    1            0.2479143   1.483239697419e-08                    0          36.56016257
         "BPM.18L7.B1"             16040.68                    1            0.1545224   1.483239697419e-08                    0          36.70145394
         "BPM.17L7.B1"             16094.13                    1           -0.6105663   1.483239697419e-08                    0          36.81573074
         "BPM.16L7.B1"             16147.58                    1            0.3782553   1.483239697419e-08                    0          36.95241666
         "BPM.15L7.B1"             16201.03                    1           -0.4757232   1.483239697419e-08                    0          37.06948033
         "BPM.13L7.B1"             16307.93                    1            0.0820484   1.483239697419e-08                    0          37.32464521
         "BPM.12L7.B1"             16361.39                    1          -0.04934121   1.483239697419e-08                    0          37.46433798
         "BPM.11L7.B1"             16414.84                    1            0.3789619   1.483239697419e-08                    0          37.58407347
         "BPM.10L7.B1"             16467.62                    1           0.04726218   1.483239697419e-08                    0          37.72786237
          "BPM.9L7.B1"             16506.69                    1            -0.526555   1.483239697419e-08                    0          37.82152543
          "BPM.8L7.B1"             16547.15                    1            0.2832504   1.483239697419e-08                    0          38.01425717
          "BPM.7L7.B1"             16586.22                    1           -0.1473191   1.483239697419e-08                    0          38.09681258
          "BPM.6L7.B1"             16621.04                    1            0.4033632   1.483239697419e-08                    0          38.14350429
        "BPMWC.6L7.B1"             16633.14                    1           -0.1991088   1.483239697419e-08                    0          38.15106391
        "BPMWE.5L7.B1"             16710.19                    1           -0.2118655   1.483239697419e-08                    0          38.34019733
         "BPMW.5L7.B1"              16733.4                    1           -0.7058568   1.483239697419e-08                    0          38.43728745
        "BPMWE.4L7.B1"             16768.48                    1           -0.2952466   1.483239697419e-08                    0           38.4790751
         "BPMW.4L7.B1"             16796.59                    1            0.5804636   1.483239697419e-08                    0          38.49235012
         "BPMW.4R7.B1"             16912.63                    1           -0.1335259   1.483239697419e-08                    0          38.68039376
        "BPMWE.4R7.B1"             16940.74                    1            0.5746941   1.483239697419e-08                    0          38.75656868
         "BPMW.5R7.B1"             16975.82                    1           -0.1253556   1.483239697419e-08                    0           38.7895351
        "BPMWE.5R7.B1"             16999.03                    1           -0.2125222   1.483239697419e-08                    0          38.79995118
         "BPMR.6R7.B1"             17078.24                    1          -0.05423103   1.483239697419e-08                    0          38.89262826
        "BPM_A.7R7.B1"             17116.28                    1           0.07284659   1.483239697419e-08                    0          38.97272152
          "BPM.9R7.B1"             17194.41                    1            0.1164498   1.483239697419e-08                    0          39.29051441
         "BPM.10R7.B1"             17234.88                    1           -0.3374759   1.483239697419e-08                    0          39.39015481
         "BPM.11R7.B1"             17287.66                    1            0.2168108   1.483239697419e-08                    0          39.51704581
         "BPM.12R7.B1"             17342.39                    1           -0.2865588   1.483239697419e-08                    0          39.63740537
         "BPM.13R7.B1"             17395.84                    1            0.3200891   1.483239697419e-08                    0          39.78099532
         "BPM.14R7.B1"             17449.29                    1           -0.5108056   1.483239697419e-08                    0          39.89600467
         "BPM.15R7.B1"             17502.74                    1            0.2861185   1.483239697419e-08                    0          40.03229004
         "BPM.16R7.B1"             17556.19                    1          -0.01731802   1.483239697419e-08                    0          40.14862024
         "BPM.17R7.B1"             17609.65                    1           0.03382716   1.483239697419e-08                    0          40.29019362
         "BPM.18R7.B1"              17663.1                    1            0.1034466   1.483239697419e-08                    0          40.40494306
         "BPM.19R7.B1"             17716.55                    1            0.1051568   1.483239697419e-08                    0          40.54133011
         "BPM.20R7.B1"                17770                    1           -0.1740787   1.483239697419e-08                    0          40.65792077
         "BPM.21R7.B1"             17823.45                    1            0.2357775   1.483239697419e-08                    0          40.79936931
         "BPM.22R7.B1"              17876.9                    1            -0.234008   1.483239697419e-08                    0          40.91387091
         "BPM.23R7.B1"             17930.35                    1            0.2556377   1.483239697419e-08                    0          41.05123502
         "BPM.24R7.B1"             17983.81                    1           -0.1436293   1.483239697419e-08                    0          41.16573844
         "BPM.25R7.B1"             18037.26                    1            0.3045993   1.483239697419e-08                    0          41.30310327
         "BPM.26R7.B1"             18090.71                    1           -0.5794649   1.483239697419e-08                    0          41.41760472
         "BPM.27R7.B1"             18144.16                    1            0.2023342   1.483239697419e-08                    0          41.55496888
         "BPM.28R7.B1"             18197.61                    1          -0.04845994   1.483239697419e-08                    0          41.66947232
         "BPM.29R7.B1"             18251.06                    1            0.4153399   1.483239697419e-08                    0          41.80683709
         "BPM.30R7.B1"             18304.51                    1            0.4136504   1.483239697419e-08                    0          41.92133853
         "BPM.31R7.B1"             18357.97                    1           0.06368307   1.483239697419e-08                    0          42.05870274
         "BPM.32R7.B1"             18411.42                    1          -0.09189428   1.483239697419e-08                    0          42.17320619
         "BPM.33R7.B1"             18464.87                    1            0.6529495   1.483239697419e-08                    0          42.31057092
         "BPM.33L8.B1"             18571.77                    1            0.2825041   1.483239697419e-08                    0          42.56243661
         "BPM.32L8.B1"             18625.22                    1           -0.4129699   1.483239697419e-08                    0          42.67694007
         "BPM.31L8.B1"             18678.68                    1            0.2041748   1.483239697419e-08                    0          42.81430474
         "BPM.30L8.B1"             18732.13                    1            0.1092048   1.483239697419e-08                    0          42.92880616
         "BPM.29L8.B1"             18785.58                    1          -0.01031814   1.483239697419e-08                    0          43.06617048
         "BPM.28L8.B1"             18839.03                    1            0.2091966   1.483239697419e-08                    0          43.18067395
         "BPM.27L8.B1"             18892.48                    1            0.3200257   1.483239697419e-08                    0          43.31803856
         "BPM.26L8.B1"             18945.93                    1           -0.7662804   1.483239697419e-08                    0          43.43253997
         "BPM.25L8.B1"             18999.38                    1            0.2242852   1.483239697419e-08                    0          43.56990435
         "BPM.24L8.B1"             19052.84                    1            0.2392718   1.483239697419e-08                    0          43.68440782
         "BPM.23L8.B1"             19106.29                    1          -0.09307216   1.483239697419e-08                    0          43.82177238
         "BPM.22L8.B1"             19159.74                    1            0.1994994   1.483239697419e-08                    0          43.93627379
         "BPM.21L8.B1"             19213.19                    1             2.628901   1.483239697419e-08                    0          44.07363822
         "BPM.20L8.B1"             19266.64                    1           -0.1895588   1.483239697419e-08                    0          44.19116168
         "BPM.19L8.B1"             19320.09                    1            0.2716615   1.483239697419e-08                    0           44.3315332
         "BPM.18L8.B1"             19373.54                    1           -0.3655848   1.483239697419e-08                    0          44.44519517
         "BPM.17L8.B1"                19427                    1            0.2208469   1.483239697419e-08                    0          44.58281012
         "BPM.16L8.B1"             19480.45                    1          -0.05138042   1.483239697419e-08                    0          44.70047417
         "BPM.15L8.B1"              19533.9                    1           0.05397219   1.483239697419e-08                    0          44.84057779
         "BPM.14L8.B1"             19587.35                    1            0.1590299   1.483239697419e-08                    0          44.95411964
         "BPM.13L8.B1"              19640.8                    1           0.05500834   1.483239697419e-08                    0          45.09200363
         "BPM.12L8.B1"             19694.25                    1          -0.01672895   1.483239697419e-08                    0          45.20616482
         "BPM.11L8.B1"              19747.7                    1           0.09356454   1.483239697419e-08                    0          45.34358272
         "BPM.10L8.B1"             19799.55                    1            0.2302635   1.483239697419e-08                    0          45.45337919
          "BPM.9L8.B1"             19838.61                    1           -0.2536525   1.483239697419e-08                    0          45.57054847
          "BPM.8L8.B1"             19879.08                    1            0.2200727   1.483239697419e-08                    0          45.71643888
          "BPM.7L8.B1"             19918.15                    1          -0.06478754   1.483239697419e-08                    0          45.89273715
         "BPMR.6L8.B1"             19950.61                    1           -0.4898754   1.483239697419e-08                    0          46.01945481
          "BPM.5L8.B1"             20011.03                    1            0.1832214   1.483239697419e-08                    0          46.24807829
        "BPMYB.4L8.B1"              20031.8                    1         -0.006586251   1.483239697419e-08                    0          46.26685456
        "BPMWB.4L8.B1"             20056.19                    1            -2.529832   1.483239697419e-08                    0          46.28960573
        "BPMSX.4L8.B1"             20106.42                    1            -2.034394   1.483239697419e-08                    0          46.31194061
         "BPMS.2L8.B1"             20144.34                    1           -0.4142545   1.483239697419e-08                    0          46.32741179
        "BPMSW.1L8.B1"             20154.27                    1           -0.1836825   1.483239697419e-08                    0          46.33535157
        "BPMSW.1R8.B1"             20197.46                    1            0.7302761   1.483239697419e-08                    0          46.79141481
         "BPMS.2R8.B1"             20207.39                    1             1.749881   1.483239697419e-08                    0          46.79756518
        "BPMSX.4R8.B1"             20245.31                    1           -0.2697306   1.483239697419e-08                    0          46.81111797
        "BPMWB.4R8.B1"             20295.46                    1             0.156618   1.483239697419e-08                    0          46.83708543
        "BPMYB.4R8.B1"             20319.93                    1            -0.188739   1.483239697419e-08                    0          46.85145546
        "BPMYB.5R8.B1"             20340.51                    1           0.02871616   1.483239697419e-08                    0          46.88003985
          "BPM.6R8.B1"             20424.62                    1           -0.1932366   1.483239697419e-08                    0          47.24940315
        "BPM_A.7R8.B1"             20446.86                    1            0.2503062   1.483239697419e-08                    0           47.2841446
          "BPM.8R8.B1"             20488.29                    1           -0.3152339   1.483239697419e-08                    0          47.38028103
          "BPM.9R8.B1"             20527.36                    1          -0.04925899   1.483239697419e-08                    0          47.55876661
         "BPM.10R8.B1"             20567.82                    1            0.2716443   1.483239697419e-08                    0           47.7340522
         "BPM.11R8.B1"             20619.66                    1           -0.3178194   1.483239697419e-08                    0          47.81224593
         "BPM.12R8.B1"             20674.38                    1            0.1444695   1.483239697419e-08                    0          47.95749689
         "BPM.13R8.B1"             20727.83                    1           -0.2107432   1.483239697419e-08                    0          48.10421078
         "BPM.14R8.B1"             20781.28                    1           0.08934523   1.483239697419e-08                    0          48.22297265
         "BPM.16R8.B1"             20888.18                    1             0.135913   1.483239697419e-08                    0          48.46190011
         "BPM.17R8.B1"             20941.63                    1           -0.3514648   1.483239697419e-08                    0          48.60417627
         "BPM.18R8.B1"             20995.07                    1            0.2171461   1.483239697419e-08                    0          48.72294544
         "BPM.19R8.B1"             21048.52                    1           0.04902262   1.483239697419e-08                    0          48.81207951
         "BPM.20R8.B1"             21101.97                    1           0.02477982   1.483239697419e-08                    0          48.96185257
         "BPM.21R8.B1"             21155.42                    1           -0.2452781   1.483239697419e-08                    0          49.10413763
         "BPM.23R8.B1"             21262.32                    1             0.258417   1.483239697419e-08                    0          49.31204817
         "BPM.24R8.B1"             21315.76                    1            0.2927056   1.483239697419e-08                    0          49.46180504
         "BPM.25R8.B1"             21369.21                    1           -0.5180789   1.483239697419e-08                    0          49.60409898
         "BPM.26R8.B1"             21422.66                    1            0.1811218   1.483239697419e-08                    0          49.72289101
         "BPM.27R8.B1"             21476.11                    1            0.2539869   1.483239697419e-08                    0          49.81201683
         "BPM.28R8.B1"             21529.56                    1            -0.128615   1.483239697419e-08                    0           49.9617575
         "BPM.29R8.B1"             21583.01                    1            0.2109532   1.483239697419e-08                    0          50.10406033
         "BPM.30R8.B1"             21636.46                    1           0.08760201   1.483239697419e-08                    0           50.2228638
         "BPM.31R8.B1"              21689.9                    1          -0.03853115   1.483239697419e-08                    0          50.31198549
         "BPM.32R8.B1"             21743.35                    1            0.1014213   1.483239697419e-08                    0          50.46170997
         "BPM.33R8.B1"              21796.8                    1            0.2072927   1.483239697419e-08                    0          50.60402168
         "BPM.34R8.B1"             21850.25                    1           0.07209007   1.483239697419e-08                    0          50.72283659
         "BPM.33L1.B1"              21903.7                    1           -0.1588858   1.483239697419e-08                    0          50.81195416
         "BPM.32L1.B1"             21957.15                    1            0.0571985   1.483239697419e-08                    0          50.96166244
         "BPM.31L1.B1"              22010.6                    1            0.1007606   1.483239697419e-08                    0          51.10398302
         "BPM.30L1.B1"             22064.04                    1            0.2181399   1.483239697419e-08                    0          51.22280937
         "BPM.29L1.B1"             22117.49                    1           -0.2873363   1.483239697419e-08                    0          51.31192283
         "BPM.28L1.B1"             22170.94                    1           0.03025442   1.483239697419e-08                    0          51.46161491
         "BPM.27L1.B1"             22224.39                    1            0.3408048   1.483239697419e-08                    0          51.60394435
         "BPM.26L1.B1"             22277.84                    1           0.05073728   1.483239697419e-08                    0          51.72278216
         "BPM.25L1.B1"             22331.29                    1           -0.1139885   1.483239697419e-08                    0          51.81189151
         "BPM.24L1.B1"             22384.74                    1          -0.02271129   1.483239697419e-08                    0          51.96156739
         "BPM.23L1.B1"             22438.18                    1            0.3318262   1.483239697419e-08                    0          52.10390569
         "BPM.22L1.B1"             22491.63                    1           0.02460524   1.483239697419e-08                    0          52.22275494
         "BPM.21L1.B1"             22545.08                    1            0.2196803   1.483239697419e-08                    0          52.31186018
         "BPM.20L1.B1"             22598.53                    1           -0.1111165   1.483239697419e-08                    0          52.46151987
         "BPM.19L1.B1"             22651.98                    1             0.257378   1.483239697419e-08                    0          52.60386701
         "BPM.18L1.B1"             22705.43                    1            0.1918493   1.483239697419e-08                    0          52.72272772
         "BPM.17L1.B1"             22758.87                    1           0.09117378   1.483239697419e-08                    0          52.81182887
         "BPM.16L1.B1"             22812.32                    1          0.008981121   1.483239697419e-08                    0          52.96147234
         "BPM.15L1.B1"             22865.77                    1            0.1437976   1.483239697419e-08                    0          53.10382833
         "BPM.14L1.B1"             22919.22                    1           0.09116234   1.483239697419e-08                    0           53.2227005
         "BPM.13L1.B1"             22972.67                    1            0.0220271   1.483239697419e-08                    0          53.31179755
         "BPM.12L1.B1"             23026.12                    1          -0.02050151   1.483239697419e-08                    0          53.46384903
         "BPM.11L1.B1"             23079.57                    1            0.2510315   1.483239697419e-08                    0          53.59916843
         "BPM.10L1.B1"             23132.35                    1           -0.0333525   1.483239697419e-08                    0          53.71588804
          "BPM.9L1.B1"             23171.41                    1          0.004146374   1.483239697419e-08                    0            53.798866
          "BPM.8L1.B1"             23211.87                    1            -0.132336   1.483239697419e-08                    0          54.00503772
         "BPMR.7L1.B1"             23250.94                    1              0.21037   1.483239697419e-08                    0          54.12249088
          "BPM.6L1.B1"             23294.12                    1            0.1537446   1.483239697419e-08                    0          54.21545627
         "BPMR.5L1.B1"             23326.02                    1          -0.08221851   1.483239697419e-08                    0          54.22656015
        "BPMYA.4L1.B1"             23347.14                    1           -0.2430895   1.483239697419e-08                    0          54.22985654
        "BPMWB.4L1.B1"             23368.28                    1           -0.1984147   1.483239697419e-08                    0          54.23196103
        "BPMSY.4L1.B1"             23461.06                    1            -1.276638   1.483239697419e-08                    0          54.23808958
         "BPMS.2L1.B1"             23487.84                    1            0.4414353   1.483239697419e-08                    0          54.23894619
        "BPMSW.1L1.B1"             23497.79                    1            0.8703952   1.483239697419e-08                    0          54.23957218
        "BPMSW.1R1.B1"             23540.93                    1            -0.928364   1.483239697419e-08                    0          54.73514573
         "BPMS.2R1.B1"              23550.9                    1            0.3329702   1.483239697419e-08                    0            54.735952
        "BPMSY.4R1.B1"             23577.68                    1          -0.08913299   1.483239697419e-08                    0          54.73719477
        "BPMWB.4R1.B1"             23670.46                    1          -0.06425831   1.483239697419e-08                    0          54.74259409
        "BPMYA.4R1.B1"              23691.6                    1           -0.3504614   1.483239697419e-08                    0          54.74727966
          "BPM.5R1.B1"                23719                    1           -0.1546314   1.483239697419e-08                    0          54.76280935
         "BPMR.6R1.B1"              23750.9                    1            0.1593728   1.483239697419e-08                    0          55.06824448
        "BPMSX.7R1.B1"             23757.12                    1           -0.3488909   1.483239697419e-08                    0          55.14879703
        "BPM_A.7R1.B1"             23778.63                    1             3.421106   1.483239697419e-08                    0           55.2038787
          "BPM.8R1.B1"             23820.07                    1            0.3326514   1.483239697419e-08                    0          55.29222355
          "BPM.9R1.B1"             23859.13                    1          0.002714007   1.483239697419e-08                    0          55.51884031
         "BPM.10R1.B1"              23899.6                    1          -0.08646127   1.483239697419e-08                    0           55.6257981
         "BPM.11R1.B1"             23952.38                    1            0.2860205   1.483239697419e-08                    0          55.72756171
         "BPM.12R1.B1"             24007.11                    1            0.1002634   1.483239697419e-08                    0          55.81568479
         "BPM.13R1.B1"             24060.56                    1           0.02706653   1.483239697419e-08                    0          55.96278045
         "BPM.14R1.B1"             24114.01                    1           -0.1377225   1.483239697419e-08                    0          56.10489874
         "BPM.15R1.B1"             24167.46                    1            0.2354196   1.483239697419e-08                    0          56.22346258
         "BPM.16R1.B1"             24220.91                    1           -0.3001882   1.483239697419e-08                    0          56.31268263
         "BPM.17R1.B1"             24274.37                    1            0.2167067   1.483239697419e-08                    0          56.46278029
         "BPM.18R1.B1"             24327.82                    1          -0.04366202   1.483239697419e-08                    0          56.60489874
         "BPM.19R1.B1"             24381.27                    1            0.2244762   1.483239697419e-08                    0          56.72346258
         "BPM.20R1.B1"             24434.72                    1          -0.07305478   1.483239697419e-08                    0          56.81268263
         "BPM.21R1.B1"             24488.17                    1            0.5044467   1.483239697419e-08                    0          56.96278029
         "BPM.22R1.B1"             24541.62                    1          -0.09485787   1.483239697419e-08                    0          57.10489874
         "BPM.23R1.B1"             24595.08                    1            0.2401712   1.483239697419e-08                    0          57.22346258
         "BPM.24R1.B1"             24648.53                    1           -0.1852142   1.483239697419e-08                    0          57.31268263
         "BPM.25R1.B1"             24701.98                    1            0.2243424   1.483239697419e-08                    0          57.46278029
         "BPM.26R1.B1"             24755.43                    1           -0.3214842   1.483239697419e-08                    0          57.60489874
         "BPM.27R1.B1"             24808.88                    1            0.1799855   1.483239697419e-08                    0          57.72346258
         "BPM.28R1.B1"             24862.33                    1           -0.1644508   1.483239697419e-08                    0          57.81268263
         "BPM.29R1.B1"             24915.78                    1            0.1248701   1.483239697419e-08                    0          57.96278029
         "BPM.30R1.B1"             24969.24                    1          -0.09945644   1.483239697419e-08                    0          58.10489874
         "BPM.31R1.B1"             25022.69                    1            0.2241926   1.483239697419e-08                    0          58.22346258
         "BPM.32R1.B1"             25076.14                    1        -0.0002748285   1.483239697419e-08                    0          58.31268263
         "BPM.33R1.B1"             25129.59                    1           0.07220167   1.483239697419e-08                    0          58.46278029
         "BPM.34R1.B1"             25183.04                    1            0.1297939   1.483239697419e-08                    0          58.60489874
         "BPM.33L2.B1"             25236.49                    1         -0.001396817   1.483239697419e-08                    0          58.72346258
         "BPM.32L2.B1"             25289.94                    1           0.05137223   1.483239697419e-08                    0          58.81268263
         "BPM.31L2.B1"              25343.4                    1          -0.05052218   1.483239697419e-08                    0          58.96278029
         "BPM.30L2.B1"             25396.85                    1          -0.07690088   1.483239697419e-08                    0          59.10489874
         "BPM.29L2.B1"              25450.3                    1            0.1813676   1.483239697419e-08                    0          59.22346258
         "BPM.28L2.B1"             25503.75                    1            0.2156701   1.483239697419e-08                    0          59.31268263
         "BPM.27L2.B1"              25557.2                    1           0.02231174   1.483239697419e-08                    0          59.46278029
         "BPM.26L2.B1"             25610.65                    1            0.3162262   1.483239697419e-08                    0          59.60489874
         "BPM.25L2.B1"              25664.1                    1          -0.07045888   1.483239697419e-08                    0          59.72346257
         "BPM.24L2.B1"             25717.56                    1           -0.1178068   1.483239697419e-08                    0          59.81268263
         "BPM.23L2.B1"             25771.01                    1           -0.3294568   1.483239697419e-08                    0          59.96278029
         "BPM.22L2.B1"             25824.46                    1           -0.2074403   1.483239697419e-08                    0          60.10489874
         "BPM.21L2.B1"             25877.91                    1           -0.0830571   1.483239697419e-08                    0          60.22346257
         "BPM.20L2.B1"             25931.36                    1            0.1508959   1.483239697419e-08                    0          60.31268263
         "BPM.19L2.B1"             25984.81                    1           -0.1334541   1.483239697419e-08                    0          60.46278029
         "BPM.18L2.B1"             26038.27                    1           -0.2417562   1.483239697419e-08                    0          60.60489874
         "BPM.17L2.B1"             26091.72                    1           0.05703436   1.483239697419e-08                    0          60.72346257
         "BPM.16L2.B1"             26145.17                    1            0.4156057   1.483239697419e-08                    0          60.81268263
         "BPM.15L2.B1"             26198.62                    1           -0.2137722   1.483239697419e-08                    0          60.96278029
         "BPM.14L2.B1"             26252.07                    1           0.09749809   1.483239697419e-08                    0          61.10489874
         "BPM.13L2.B1"             26305.52                    1             0.148883   1.483239697419e-08                    0          61.22346257
         "BPM.12L2.B1"             26358.97                    1         -0.003715709   1.483239697419e-08                    0          61.31865056
         "BPM.11L2.B1"             26412.43                    1           -0.1926168   1.483239697419e-08                    0          61.48016792
         "BPM.10L2.B1"             26464.27                    1             0.372251   1.483239697419e-08                    0          61.61361536
          "BPM.9L2.B1"             26503.33                    1          -0.02339441   1.483239697419e-08                    0          61.71678875
          "BPM.8L2.B1"              26543.8                    1           -0.1085714   1.483239697419e-08                    0          61.83592381
          "BPM.7L2.B1"             26582.87                    1           -0.1741522   1.483239697419e-08                    0          62.06429394
         "BPMR.6L2.B1"             26614.97                    1            -0.602806   1.483239697419e-08                    0          62.15955699