@ GetLLMVersion %s "V3.0.0 Dev"
@ Command %s "/afs/cern.ch/work/o/omc/anaconda/bin/python '/afs/cern.ch/eng/sl/lintrack/Beta-Beat.src/GetLLM/GetLLM.py' '--accel=LHCB1' '--model=/afs/cern.ch/user/t/thpugnat/public/Outputs/2018-09-04/models/LHCB1/b1_squeeze_collQ/twiss.dat' '--files=/afs/cern.ch/user/t/thpugnat/public/Outputs/2018-09-04/LHCB1/Measurements/Beam1@Turn@2018_06_16@18_16_19_652/Beam1@Turn@2018_06_16@18_16_19_652.sdds.clean' '--output=/afs/cern.ch/user/t/thpugnat/public/Outputs/2018-09-04/LHCB1/Results/15-36-34_NORMALANALYSIS_SUSSIX_19' '--tbtana=SUSSIX' '--bpmu=mm' '--lhcphase=1' '--errordefs=/afs/cern.ch/user/t/thpugnat/public/Outputs/2018-09-04/models/LHCB1/b1_squeeze_collQ/error_deff.txt' '--calibration=/afs/cern.ch/eng/sl/lintrack/LHC_commissioning2017/Calibration_factors_2017/Calibration_factors_2017_beam1'"
@ CWD %s "/afs/cern.ch/user/t/thpugnat"
@ Date %s "04. September 2018, 15:36:50"
@ PLANE %s "Y"
@ FILES %s "/afs/cern.ch/user/t/thpugnat/public/Outputs/2018-09-04/LHCB1/Measurements/Beam1@Turn@2018_06_16@18_16_19_652/Beam1@Turn@2018_06_16@18_16_19_652.sdds.clean"
*                   IP             BETASTAR            EBETASTAR             PHASEADV            EPHASEADV             MDLPHADV                LSTAR
$                   %s                  %le                  %le                  %le                  %le                  %le                  %le
                   IP1       0.324849537406                    0           0.49520687                    0            0.4953933              21.5715
                   IP2      -15.49331677774                    0      0.6980973354582                    0         0.3688506227               21.595
                   IP8        -1.5658175364                    0            0.5230398                    0           0.45396851               21.595