@ GetLLMVersion %s "V3.0.0 Dev"
@ Command %s "/afs/cern.ch/work/o/omc/anaconda/bin/python '/afs/cern.ch/eng/sl/lintrack/Beta-Beat.src/GetLLM/GetLLM.py' '--accel=LHCB1' '--model=/afs/cern.ch/user/t/thpugnat/public/Outputs/2018-09-04/models/LHCB1/b1_squeeze_collQ/twiss.dat' '--files=/afs/cern.ch/user/t/thpugnat/public/Outputs/2018-09-04/LHCB1/Measurements/Beam1@Turn@2018_06_16@18_16_19_652/Beam1@Turn@2018_06_16@18_16_19_652.sdds.clean' '--output=/afs/cern.ch/user/t/thpugnat/public/Outputs/2018-09-04/LHCB1/Results/15-36-34_NORMALANALYSIS_SUSSIX_19' '--tbtana=SUSSIX' '--bpmu=mm' '--lhcphase=1' '--errordefs=/afs/cern.ch/user/t/thpugnat/public/Outputs/2018-09-04/models/LHCB1/b1_squeeze_collQ/error_deff.txt' '--calibration=/afs/cern.ch/eng/sl/lintrack/LHC_commissioning2017/Calibration_factors_2017/Calibration_factors_2017_beam1'"
@ CWD %s "/afs/cern.ch/user/t/thpugnat"
@ Date %s "04. September 2018, 15:36:50"
@ Q1 %le 0.3104322747553771
@ MUX %le 63.31043227475533
@ Q2 %le 0.3198210354581622
@ MUY %le 63.319821035458155
@ FILES %s "/afs/cern.ch/user/t/thpugnat/public/Outputs/2018-09-04/LHCB1/Measurements/Beam1@Turn@2018_06_16@18_16_19_652/Beam1@Turn@2018_06_16@18_16_19_652.sdds.clean_linx"
*                 NAME                NAME2                    S                   S1                COUNT               PHASEX               STDPHX               PHXMDL               MUXMDL
$                   %s                   %s                  %le                  %le                  %le                  %le                  %le                  %le                  %le
        "BPMYB.5L2.B1"       "BPMYB.4L2.B1"               28.288               48.858                    1        0.02838188419                    0        0.02694554429        0.03008760323
        "BPMYB.4L2.B1"       "BPMWI.4L2.B1"               48.858              73.3255                    1        0.05507826646                    0        0.05125749018        0.05703314752
        "BPMWI.4L2.B1"       "BPMSX.4L2.B1"              73.3255             123.4825                    1         0.0722673604                    0         0.0690623094         0.1082906377
        "BPMSX.4L2.B1"        "BPMS.2L2.B1"             123.4825              161.394                    1         0.0481596651                    0         0.0504048385         0.1773529471
         "BPMS.2L2.B1"       "BPMSW.1L2.B1"              161.394              171.328                    1         0.0235825008                    0         0.0234259282         0.2277577856
        "BPMSW.1L2.B1"       "BPMSW.1R2.B1"              171.328              214.518                    1      0.6638360873554                    0         0.3619562409         0.2511837138
        "BPMSW.1R2.B1"        "BPMS.2R2.B1"              214.518              224.452                    1         0.0174619596                    0         0.0179456304         0.6131399547
         "BPMS.2R2.B1"       "BPMSX.4R2.B1"              224.452             262.3635                    1         0.0457733918                    0         0.0435288851         0.6310855851
        "BPMSX.4R2.B1"       "BPMWB.4R2.B1"             262.3635             312.5965                    1         0.0814142719                    0         0.0814742306         0.6746144702
        "BPMWB.4R2.B1"       "BPMYB.4R2.B1"             312.5965              336.988                    1         0.0347609565                    0         0.0348459551         0.7560887008
        "BPMYB.4R2.B1"        "BPMR.5R2.B1"              336.988              366.522                    1          0.096255171                    0         0.0992865654         0.7909346559
         "BPMR.5R2.B1"         "BPM.6R2.B1"              366.522              439.818                    1         0.1544886122                    0         0.1580346187         0.8902212213
          "BPM.6R2.B1"       "BPM_A.7R2.B1"              439.818              452.693                    1          0.017509541                    0          0.017030395           1.04825584
        "BPM_A.7R2.B1"         "BPM.8R2.B1"              452.693          494.1300106                    1          0.085448646                    0          0.082892206          1.065286235
          "BPM.8R2.B1"         "BPM.9R2.B1"               494.13          533.1950212                    1          0.148680381                    0          0.150014358          1.148178441
          "BPM.9R2.B1"        "BPM.10R2.B1"              533.195          573.6580318                    1         0.1691465364                    0          0.170291589          1.298192799
         "BPM.10R2.B1"        "BPM.11R2.B1"              573.658          625.4967424                    1         0.1076812266                    0          0.109254031          1.468484388
         "BPM.11R2.B1"        "BPM.12R2.B1"             625.4967          680.2202583                    1          0.137659969                    0          0.136861811          1.577738419
         "BPM.12R2.B1"        "BPM.13R2.B1"             680.2203          733.6687742                    1          0.112979007                    0          0.113505885           1.71460023
         "BPM.13R2.B1"        "BPM.14R2.B1"             733.6688          787.1172901                    1          0.138474624                    0          0.137691867          1.828106115
         "BPM.14R2.B1"        "BPM.15R2.B1"             787.1173           840.565806                    1          0.113415981                    0          0.112220172          1.965797982
         "BPM.15R2.B1"        "BPM.16R2.B1"             840.5658          894.0143219                    1          0.135586123                    0          0.134592747          2.078018154
         "BPM.16R2.B1"        "BPM.17R2.B1"             894.0143          947.4628378                    1          0.116523283                    0          0.115805243          2.212610901
         "BPM.17R2.B1"        "BPM.18R2.B1"             947.4628          1000.911354                    1         0.1376222906                    0          0.137686505          2.328416144
         "BPM.18R2.B1"        "BPM.19R2.B1"             1000.911           1054.35987                    1         0.1130737364                    0          0.112215129          2.466102649
         "BPM.19R2.B1"        "BPM.20R2.B1"              1054.36          1107.808386                    1          0.135757986                    0          0.134600552          2.578317778
         "BPM.20R2.B1"        "BPM.21R2.B1"             1107.808          1161.256901                    1          0.114997314                    0           0.11581054           2.71291833
         "BPM.21R2.B1"        "BPM.22R2.B1"             1161.257          1214.705417                    1          0.136720809                    0          0.137678422           2.82872887
         "BPM.22R2.B1"        "BPM.23R2.B1"             1214.705          1268.153933                    1          0.113626777                    0          0.115100671          2.966407292
         "BPM.23R2.B1"        "BPM.24R2.B1"             1268.154          1321.602449                    1          0.138856084                    0          0.137680979          3.081507963
         "BPM.24R2.B1"        "BPM.25R2.B1"             1321.602          1375.050965                    1          0.115656652                    0          0.115112391          3.219188942
         "BPM.25R2.B1"        "BPM.26R2.B1"             1375.051          1428.499481                    1          0.138532758                    0          0.137677136          3.334301333
         "BPM.26R2.B1"        "BPM.27R2.B1"             1428.499          1481.947997                    1          0.113952241                    0          0.115100789          3.471978469
         "BPM.27R2.B1"        "BPM.28R2.B1"             1481.948          1535.396513                    1          0.135429218                    0          0.137681445          3.587079258
         "BPM.28R2.B1"        "BPM.29R2.B1"             1535.397          1588.845029                    1          0.115162319                    0           0.11511226          3.724760703
         "BPM.29R2.B1"        "BPM.30R2.B1"             1588.845          1642.293545                    1          0.138491283                    0          0.137676675          3.839872963
         "BPM.30R2.B1"        "BPM.31R2.B1"             1642.294           1695.74206                    1          0.113489655                    0          0.115100933          3.977549638
         "BPM.31R2.B1"        "BPM.32R2.B1"             1695.742          1749.190576                    1          0.137981572                    0          0.137681902          4.092650571
         "BPM.32R2.B1"        "BPM.33R2.B1"             1749.191          1802.639092                    1          0.115005069                    0          0.115112101          4.230332473
         "BPM.33R2.B1"        "BPM.34R2.B1"             1802.639          1856.087608                    1          0.139521849                    0          0.137676225          4.345444574
         "BPM.34R2.B1"        "BPM.33L3.B1"             1856.088          1909.536124                    1          0.113647309                    0          0.115101106          4.483120799
         "BPM.33L3.B1"        "BPM.32L3.B1"             1909.536           1962.98464                    1          0.137189192                    0          0.137682345          4.598221905
         "BPM.32L3.B1"        "BPM.31L3.B1"             1962.985          2016.433156                    1          0.115050511                    0          0.115111914           4.73590425
         "BPM.31L3.B1"        "BPM.30L3.B1"             2016.433          2069.881672                    1          0.139150432                    0           0.13767579          4.851016164
         "BPM.30L3.B1"        "BPM.29L3.B1"             2069.882          2123.330188                    1          0.113349474                    0          0.115101306          4.988691954
         "BPM.29L3.B1"        "BPM.28L3.B1"              2123.33          2176.778704                    1          0.135109229                    0          0.137682772           5.10379326
         "BPM.28L3.B1"        "BPM.27L3.B1"             2176.779           2230.22722                    1          0.115534887                    0          0.115111701          5.241476032
         "BPM.27L3.B1"        "BPM.26L3.B1"             2230.227          2283.675735                    1          0.139458937                    0          0.137675372          5.356587733
         "BPM.26L3.B1"        "BPM.25L3.B1"             2283.676          2337.124251                    1          0.113665157                    0          0.115101531          5.494263105
         "BPM.25L3.B1"        "BPM.24L3.B1"             2337.124          2390.572767                    1          0.134615433                    0          0.137683181          5.609364636
         "BPM.24L3.B1"        "BPM.23L3.B1"             2390.573          2444.021283                    1          0.116158876                    0          0.115111464          5.747047817
         "BPM.23L3.B1"        "BPM.22L3.B1"             2444.021          2497.469799                    1          0.139139202                    0          0.137674972          5.862159281
         "BPM.22L3.B1"        "BPM.21L3.B1"              2497.47          2550.918315                    1          0.114126389                    0          0.115101781          5.999834253
         "BPM.21L3.B1"        "BPM.20L3.B1"             2550.918          2604.366831                    1          0.135453597                    0          0.138527544          6.114936034
         "BPM.20L3.B1"        "BPM.19L3.B1"             2604.367          2657.815347                    1          0.116037734                    0          0.112885315          6.253463578
         "BPM.19L3.B1"        "BPM.18L3.B1"             2657.815          2711.263863                    1          0.134648045                    0           0.13379002          6.366348893
         "BPM.18L3.B1"        "BPM.17L3.B1"             2711.264          2764.712379                    1            0.1131599                    0            0.1151097          6.500138913
         "BPM.17L3.B1"        "BPM.16L3.B1"             2764.712          2818.160894                    1          0.138955137                    0          0.138522498          6.615248613
         "BPM.16L3.B1"        "BPM.15L3.B1"             2818.161           2871.60941                    1          0.113896345                    0          0.112877525          6.753771111
         "BPM.15L3.B1"        "BPM.14L3.B1"             2871.609          2925.057926                    1          0.137366749                    0          0.133794829          6.866648636
         "BPM.14L3.B1"        "BPM.13L3.B1"             2925.058          2978.506442                    1            0.1141105                    0          0.115117738          7.000443465
         "BPM.13L3.B1"        "BPM.12L3.B1"             2978.506          3031.954958                    1          0.134277612                    0          0.137092787          7.115561203
         "BPM.12L3.B1"        "BPM.11L3.B1"             3031.955          3085.403474                    1          0.129267328                    0          0.126460437           7.25265399
         "BPM.11L3.B1"        "BPM.10L3.B1"             3085.403          3138.184185                    1          0.150044217                    0          0.149075371          7.379114427
         "BPM.10L3.B1"         "BPM.8L3.B1"             3138.184          3217.712206                    1          0.135029231                    0          0.137626821          7.528189798
          "BPM.8L3.B1"         "BPM.7L3.B1"             3217.712          3256.776216                    1           0.05851152                    0          0.058949057          7.665816619
          "BPM.7L3.B1"         "BPM.6L3.B1"             3256.776          3329.415216                    1          0.112850537                    0          0.112150429          7.724765676
          "BPM.6L3.B1"      "BPMWG.A5L3.B1"             3329.415          3371.119716                    1          0.056524367                    0          0.057084388          7.836916105
       "BPMWG.A5L3.B1"        "BPMW.5L3.B1"              3371.12          3400.089716                    1          0.086069169                    0          0.083355689          7.894000493
         "BPMW.5L3.B1"       "BPMWE.4L3.B1"              3400.09          3475.217716                    1          0.099468658                    0          0.103368875          7.977356182
        "BPMWE.4L3.B1"        "BPMW.4L3.B1"             3475.218          3502.762716                    1          0.015004945                    0          0.015202911          8.080725057
         "BPMW.4L3.B1"        "BPMW.4R3.B1"             3502.763          3547.727716                    1          0.068115079                    0          0.070151149          8.095927968
         "BPMW.4R3.B1"       "BPMWE.4R3.B1"             3547.728          3575.272716                    1          0.149598796                    0           0.14764825          8.166079117
        "BPMWE.4R3.B1"        "BPMW.5R3.B1"             3575.273          3650.400716                    1          0.130867949                    0          0.129528068          8.313727367
         "BPMW.5R3.B1"      "BPMWJ.A5R3.B1"             3650.401          3679.118716                    1          0.013111904                    0          0.012626479          8.443255435
       "BPMWJ.A5R3.B1"       "BPMWC.6R3.B1"             3679.119          3718.936716                    1           0.04501817                    0          0.045891666          8.455881914
        "BPMWC.6R3.B1"        "BPMR.6R3.B1"             3718.937          3731.015216                    1          0.040186708                    0          0.040109401           8.50177358
         "BPMR.6R3.B1"         "BPM.8R3.B1"             3731.015          3825.903227                    1          0.296238006                    0          0.299479501          8.541882981
          "BPM.8R3.B1"         "BPM.9R3.B1"             3825.903          3864.968238                    1          0.107640971                    0          0.104130887          8.841362482
          "BPM.9R3.B1"        "BPM.10R3.B1"             3864.968          3905.431248                    1          0.075539294                    0          0.074730555          8.945493369
         "BPM.10R3.B1"        "BPM.11R3.B1"             3905.431          3958.211959                    1          0.092008833                    0          0.093052536          9.020223924
         "BPM.11R3.B1"        "BPM.12R3.B1"             3958.212          4012.935475                    1          0.099109253                    0          0.100784793           9.11327646
         "BPM.12R3.B1"        "BPM.13R3.B1"             4012.935          4066.383991                    1          0.115259798                    0          0.116816781          9.214061253
         "BPM.13R3.B1"        "BPM.14R3.B1"             4066.384          4119.832506                    1          0.115316671                    0          0.115090403          9.330878034
         "BPM.14R3.B1"        "BPM.15R3.B1"             4119.833          4173.281022                    1          0.137891424                    0          0.138527261          9.445968437
         "BPM.15R3.B1"        "BPM.17R3.B1"             4173.281          4280.178054                    1          0.248866975                    0          0.246686187          9.584495698
         "BPM.17R3.B1"        "BPM.18R3.B1"             4280.178           4333.62657                    1          0.115953654                    0          0.115099107          9.831181885
         "BPM.18R3.B1"        "BPM.19R3.B1"             4333.627          4387.075086                    1          0.137488075                    0          0.138522258          9.946280992
         "BPM.19R3.B1"        "BPM.20R3.B1"             4387.075          4440.523602                    1           0.11311313                    0           0.11288796          10.08480325
         "BPM.20R3.B1"        "BPM.21R3.B1"             4440.524          4493.972118                    1           0.13519658                    0           0.13379521          10.19769121
         "BPM.21R3.B1"        "BPM.22R3.B1"             4493.972          4547.420634                    1           0.11739872                    0           0.11510714          10.33148642
         "BPM.22R3.B1"        "BPM.23R3.B1"             4547.421           4600.86915                    1           0.13829463                    0           0.13767333          10.44659356
         "BPM.23R3.B1"        "BPM.24R3.B1"             4600.869          4654.317666                    1           0.11373179                    0           0.11510602          10.58426689
         "BPM.24R3.B1"        "BPM.25R3.B1"             4654.318          4707.766181                    1           0.13567048                    0           0.13768504          10.69937291
         "BPM.25R3.B1"        "BPM.26R3.B1"             4707.766          4761.214697                    1           0.11741516                    0           0.11510692          10.83705795
         "BPM.26R3.B1"        "BPM.27R3.B1"             4761.215          4814.663213                    1           0.13891533                    0           0.13767329          10.95216487
         "BPM.27R3.B1"        "BPM.28R3.B1"             4814.663          4868.111729                    1           0.11323675                    0           0.11510638          11.08983816
         "BPM.28R3.B1"        "BPM.29R3.B1"             4868.112          4921.560245                    1           0.13588693                    0           0.13768506          11.20494454
         "BPM.29R3.B1"        "BPM.30R3.B1"              4921.56          4975.008761                    1           0.11589498                    0           0.11510656           11.3426296
         "BPM.30R3.B1"        "BPM.31R3.B1"             4975.009          5028.457277                    1           0.13855148                    0           0.13767329          11.45773616
         "BPM.31R3.B1"        "BPM.32R3.B1"             5028.457          5081.905793                    1           0.11319731                    0           0.11510674          11.59540945
         "BPM.32R3.B1"        "BPM.33R3.B1"             5081.906          5135.354309                    1           0.13711983                    0           0.13768505          11.71051619
         "BPM.33R3.B1"        "BPM.34R3.B1"             5135.354          5188.802825                    1            0.1170303                    0            0.1151062          11.84820124
         "BPM.34R3.B1"        "BPM.33L4.B1"             5188.803           5242.25134                    1           0.13581899                    0           0.13767331          11.96330744
         "BPM.33L4.B1"        "BPM.32L4.B1"             5242.251          5295.699856                    1           0.11382347                    0            0.1151071          12.10098075
         "BPM.32L4.B1"        "BPM.31L4.B1"               5295.7          5349.148372                    1           0.13931148                    0           0.13768502          12.21608785
         "BPM.31L4.B1"        "BPM.30L4.B1"             5349.148          5402.596888                    1          0.115668019                    0           0.11510584          12.35377287
         "BPM.30L4.B1"        "BPM.29L4.B1"             5402.597          5456.045404                    1          0.137274111                    0           0.13767336          12.46887871
         "BPM.29L4.B1"        "BPM.28L4.B1"             5456.045           5509.49392                    1            0.1147515                    0           0.11510745          12.60655207
         "BPM.28L4.B1"        "BPM.27L4.B1"             5509.494          5562.942436                    1           0.13845889                    0           0.13768496          12.72165952
         "BPM.27L4.B1"        "BPM.26L4.B1"             5562.942          5616.390952                    1           0.11503163                    0           0.11510549          12.85934448
         "BPM.26L4.B1"        "BPM.25L4.B1"             5616.391          5669.839468                    1           0.13511054                    0           0.13767344          12.97444997
         "BPM.25L4.B1"        "BPM.24L4.B1"             5669.839          5723.287984                    1           0.11491865                    0            0.1151078          13.11212341
         "BPM.24L4.B1"        "BPM.22L4.B1"             5723.288          5830.185015                    1           0.25493112                    0              0.25279          13.22723121
         "BPM.22L4.B1"        "BPM.21L4.B1"             5830.185          5883.633531                    1            0.1351968                    0           0.13767355          13.48002121
         "BPM.21L4.B1"        "BPM.19L4.B1"             5883.634          5990.530563                    1           0.25286832                    0           0.24682991          13.61769476
         "BPM.19L4.B1"        "BPM.18L4.B1"             5990.531          6043.979079                    1           0.11323185                    0           0.11580843          13.86452467
         "BPM.18L4.B1"        "BPM.17L4.B1"             6043.979          6097.427595                    1           0.13626184                    0           0.13766629           13.9803331
         "BPM.17L4.B1"        "BPM.16L4.B1"             6097.428          6150.876111                    1           0.11413677                    0           0.11221238          14.11799939
         "BPM.16L4.B1"        "BPM.15L4.B1"             6150.876          6204.324627                    1           0.13823594                    0           0.13462037          14.23021177
         "BPM.15L4.B1"        "BPM.14L4.B1"             6204.325          6257.773143                    1           0.11569397                    0           0.11581366          14.36483214
         "BPM.14L4.B1"        "BPM.13L4.B1"             6257.773          6311.221659                    1           0.13499179                    0           0.13765819           14.4806458
         "BPM.13L4.B1"        "BPM.12L4.B1"             6311.222          6364.670174                    1           0.11224221                    0            0.1131615          14.61830399
         "BPM.12L4.B1"        "BPM.11L4.B1"              6364.67           6418.11869                    1           0.13867058                    0           0.13694736          14.73146549
         "BPM.11L4.B1"        "BPM.10L4.B1"             6418.119          6469.957401                    1           0.11539877                    0           0.11719772          14.86841285
         "BPM.10L4.B1"         "BPM.9L4.B1"             6469.957          6509.022412                    1            0.1275628                    0           0.12740925          14.98561057
          "BPM.9L4.B1"         "BPM.8L4.B1"             6509.022          6549.485422                    1           0.12180001                    0           0.12814324          15.11301982
          "BPM.8L4.B1"         "BPM.7L4.B1"             6549.485          6588.549433                    1           0.16842419                    0           0.17296711          15.24116306
          "BPM.7L4.B1"       "BPMYB.6L4.B1"             6588.549          6685.153433                    1           0.15311505                    0           0.14335624          15.41413017
        "BPMYB.6L4.B1"       "BPMYA.5L4.B1"             6685.153          6722.153433                    1           0.02612816                    0             0.025721          15.55748641
        "BPMYA.5L4.B1"      "BPMWI.A5L4.B1"             6722.153          6798.755933                    1           0.02618861                    0           0.03194815          15.58320741
       "BPMWI.A5L4.B1"      "BPMWA.B5L4.B1"             6798.756          6824.619933                    1           0.02110282                    0           0.01392366          15.61515556
       "BPMWA.B5L4.B1"      "BPMWA.A5L4.B1"              6824.62          6833.504933                    1           0.00434813                    0           0.00520253          15.62907922
       "BPMWA.A5L4.B1"      "BPMWA.A5R4.B1"             6833.505          6881.553933                    1           0.03286411                    0           0.03191717          15.63428175
       "BPMWA.A5R4.B1"      "BPMWA.B5R4.B1"             6881.554          6890.438933                    1           0.00698726                    0           0.00656504          15.66619892
       "BPMWA.B5R4.B1"       "BPMYB.5R4.B1"             6890.439          6992.829433                    1           0.08303091                    0           0.08252114          15.67276396
        "BPMYB.5R4.B1"       "BPMYA.6R4.B1"             6992.829          7024.393433                    1           0.01465481                    0           0.01495052           15.7552851
        "BPMYA.6R4.B1"         "BPM.7R4.B1"             7024.393          7120.909433                    1           0.13049639                    0           0.13027247          15.77023562
          "BPM.7R4.B1"         "BPM.8R4.B1"             7120.909          7158.698443                    1           0.14406351                    0           0.14504444          15.90050809
          "BPM.8R4.B1"         "BPM.9R4.B1"             7158.698          7197.763454                    1           0.17959481                    0           0.18105245          16.04555253
          "BPM.9R4.B1"        "BPM.11R4.B1"             7197.763          7290.065175                    1           0.22715101                    0           0.22933225          16.22660498
         "BPM.11R4.B1"        "BPM.12R4.B1"             7290.065          7344.788691                    1           0.15701229                    0           0.15519902          16.45593723
         "BPM.12R4.B1"        "BPM.13R4.B1"             7344.789          7398.237207                    1           0.13812309                    0           0.13937833          16.61113625
         "BPM.13R4.B1"        "BPM.14R4.B1"             7398.237          7451.685723                    1           0.11691199                    0           0.11875858          16.75051458
         "BPM.14R4.B1"        "BPM.15R4.B1"             7451.686          7505.134239                    1           0.09107488                    0           0.08914111          16.86927316
         "BPM.15R4.B1"        "BPM.16R4.B1"             7505.134          7558.582755                    1            0.1550734                    0           0.14978632          16.95841427
         "BPM.16R4.B1"        "BPM.17R4.B1"             7558.583          7612.031271                    1           0.14152351                    0           0.14227258          17.10820059
         "BPM.17R4.B1"        "BPM.18R4.B1"             7612.031          7665.479786                    1            0.1157625                    0           0.11877277          17.25047317
         "BPM.18R4.B1"        "BPM.19R4.B1"              7665.48          7718.928302                    1           0.08789413                    0           0.08913698          17.36924594
         "BPM.19R4.B1"        "BPM.20R4.B1"             7718.928          7772.376818                    1           0.15949556                    0           0.14977014          17.45838292
         "BPM.20R4.B1"        "BPM.21R4.B1"             7772.377          7825.825334                    1           0.14003606                    0           0.14228148          17.60815306
         "BPM.21R4.B1"        "BPM.22R4.B1"             7825.825           7879.27385                    1           0.11481284                    0           0.11878419          17.75043454
         "BPM.22R4.B1"        "BPM.23R4.B1"             7879.274          7932.722366                    1           0.08914409                    0           0.08913285          17.86921873
         "BPM.23R4.B1"        "BPM.24R4.B1"             7932.722          7986.170882                    1           0.15368599                    0           0.14975395          17.95835158
         "BPM.24R4.B1"        "BPM.26R4.B1"             7986.171          8093.067914                    1           0.25627852                    0           0.26108599          18.10810553
         "BPM.26R4.B1"        "BPM.27R4.B1"             8093.068           8146.51643                    1           0.08829475                    0           0.08912872          18.36919152
         "BPM.27R4.B1"        "BPM.28R4.B1"             8146.516          8199.964946                    1           0.15130431                    0           0.14973775          18.45832024
         "BPM.28R4.B1"        "BPM.29R4.B1"             8199.965          8253.413461                    1           0.14194246                    0           0.14229925          18.60805799
         "BPM.29R4.B1"        "BPM.32R4.B1"             8253.413          8413.759009                    1           0.35294253                    0           0.35765322          18.75035724
         "BPM.32R4.B1"        "BPM.33R4.B1"             8413.759          8467.207525                    1            0.1435416                    0           0.14230813          19.10801046
         "BPM.33R4.B1"        "BPM.34R4.B1"             8467.208          8520.656041                    1           0.11876202                    0            0.1188185          19.25031859
         "BPM.34R4.B1"        "BPM.33L5.B1"             8520.656          8574.104557                    1           0.08677953                    0           0.08912048          19.36913709
         "BPM.33L5.B1"        "BPM.32L5.B1"             8574.105          8627.553073                    1           0.14584595                    0           0.14970537          19.45825757
         "BPM.32L5.B1"        "BPM.31L5.B1"             8627.553          8681.001589                    1           0.14477624                    0           0.14231699          19.60796294
         "BPM.31L5.B1"        "BPM.30L5.B1"             8681.002          8734.450105                    1           0.11973497                    0           0.11882994          19.75027993
         "BPM.30L5.B1"        "BPM.29L5.B1"              8734.45           8787.89862                    1           0.08656201                    0           0.08911637          19.86910987
         "BPM.29L5.B1"        "BPM.28L5.B1"             8787.899          8841.347136                    1           0.14639097                    0           0.14968917          19.95822624
         "BPM.28L5.B1"        "BPM.26L5.B1"             8841.347          8948.244168                    1           0.26436081                    0           0.26116724          20.10791541
         "BPM.26L5.B1"        "BPM.25L5.B1"             8948.244          9001.692684                    1           0.08657191                    0           0.08911227          20.36908265
         "BPM.25L5.B1"        "BPM.24L5.B1"             9001.693            9055.1412                    1           0.14677458                    0           0.14967297          20.45819492
         "BPM.24L5.B1"        "BPM.23L5.B1"             9055.141          9108.589716                    1           0.14617601                    0            0.1423347          20.60786789
         "BPM.23L5.B1"        "BPM.22L5.B1"              9108.59          9162.038232                    1           0.11987599                    0           0.11885285          20.75020259
         "BPM.22L5.B1"        "BPM.21L5.B1"             9162.038          9215.486748                    1           0.08840762                    0           0.08910815          20.86905544
         "BPM.21L5.B1"        "BPM.20L5.B1"             9215.487          9268.935264                    1           0.14706977                    0           0.14965678          20.95816359
         "BPM.20L5.B1"        "BPM.19L5.B1"             9268.935          9322.383779                    1           0.14617155                    0           0.14234355          21.10782037
         "BPM.19L5.B1"        "BPM.18L5.B1"             9322.384          9375.832295                    1           0.12172315                    0            0.1188643          21.25016392
         "BPM.18L5.B1"        "BPM.17L5.B1"             9375.832          9429.280811                    1           0.08744805                    0           0.08910405          21.36902822
         "BPM.17L5.B1"        "BPM.16L5.B1"             9429.281          9482.729327                    1           0.14977055                    0           0.14964058          21.45813227
         "BPM.16L5.B1"        "BPM.15L5.B1"             9482.729          9536.177843                    1           0.14498878                    0           0.14235239          21.60777285
         "BPM.15L5.B1"        "BPM.14L5.B1"             9536.178          9589.626359                    1            0.1208944                    0           0.11887576          21.75012524
         "BPM.14L5.B1"        "BPM.13L5.B1"             9589.626          9643.074875                    1           0.08877134                    0           0.08909996            21.869001
         "BPM.13L5.B1"        "BPM.12L5.B1"             9643.075          9696.523391                    1           0.15135238                    0           0.15204847          21.95810096
         "BPM.12L5.B1"        "BPM.11L5.B1"             9696.523          9749.971907                    1           0.13530572                    0           0.13531588          22.11014943
         "BPM.11L5.B1"        "BPM.10L5.B1"             9749.972          9802.752617                    1            0.1158184                    0           0.11672293          22.24546531
         "BPM.10L5.B1"         "BPM.9L5.B1"             9802.753          9841.817628                    1           0.08623533                    0           0.08298092          22.36218824
          "BPM.9L5.B1"         "BPM.8L5.B1"             9841.818          9882.280639                    1           0.21625402                    0           0.20616727          22.44516916
          "BPM.8L5.B1"        "BPMR.7L5.B1"             9882.281          9921.346649                    1           0.11240683                    0           0.11745156          22.65133643
         "BPMR.7L5.B1"         "BPM.6L5.B1"             9921.347          9958.240649                    1           0.08807281                    0            0.0891364          22.76878799
          "BPM.6L5.B1"        "BPMR.5L5.B1"             9958.241          9990.140649                    1            0.0131982                    0           0.01343789          22.85792439
         "BPMR.5L5.B1"       "BPMYA.4L5.B1"             9990.141          10017.54665                    1    0.005416629999999                    0    0.004794830000002          22.87136228
        "BPMYA.4L5.B1"       "BPMWB.4L5.B1"             10017.55          10038.68115                    1    0.002443459999998                    0    0.002104809999999          22.87615711
        "BPMWB.4L5.B1"       "BPMSY.4L5.B1"             10038.68          10131.46115                    1    0.006029469999999                    0    0.006128799999999          22.87826192
        "BPMSY.4L5.B1"        "BPMS.2L5.B1"             10131.46          10158.24665                    1   0.0009649899999991                    0   0.0008566499999993          22.88439072
         "BPMS.2L5.B1"       "BPMSW.1L5.B1"             10158.25          10168.21165                    1   0.0003007700000017                    0   0.0006275600000016          22.88524737
        "BPMSW.1L5.B1"        "BPMS.2R5.B1"             10168.21          10221.30465                    1           0.49696972                    0           0.49637812          22.88587493
         "BPMS.2R5.B1"       "BPMWB.4R5.B1"              10221.3          10340.87015                    1    0.006552840000001                    0    0.006642360000001          23.38225305
        "BPMWB.4R5.B1"       "BPMYA.4R5.B1"             10340.87          10362.00265                    1    0.004601200000004                    0    0.004685760000001          23.38889541
        "BPMYA.4R5.B1"         "BPM.5R5.B1"                10362          10383.12065                    1    0.009665049999998                    0            0.0101877          23.39358117
          "BPM.5R5.B1"        "BPMR.6R5.B1"             10383.12          10415.02065                    1           0.14366931                    0           0.14460651          23.40376887
         "BPMR.6R5.B1"       "BPM_A.7R5.B1"             10415.02          10449.03465                    1           0.30296712                    0           0.30180301          23.54837538
        "BPM_A.7R5.B1"         "BPM.8R5.B1"             10449.03          10490.47364                    1           0.08645612                    0           0.08834817          23.85017839
          "BPM.8R5.B1"         "BPM.9R5.B1"             10490.47          10529.54063                    1           0.22171826                    0           0.22661196          23.93852656
          "BPM.9R5.B1"        "BPM.10R5.B1"             10529.54          10570.00562                    1           0.10970608                    0           0.10695675          24.16513852
         "BPM.10R5.B1"        "BPM.11R5.B1"             10570.01          10622.78831                    1           0.10348554                    0           0.10176714          24.27209527
         "BPM.11R5.B1"        "BPM.12R5.B1"             10622.79          10677.51479                    1           0.08821922                    0           0.08812585          24.37386241
         "BPM.12R5.B1"        "BPM.13R5.B1"             10677.51          10730.96627                    1           0.14652309                    0           0.14709263          24.46198826
         "BPM.13R5.B1"        "BPM.14R5.B1"             10730.97          10784.41776                    1           0.14133152                    0           0.14211477          24.60908089
         "BPM.14R5.B1"        "BPM.16R5.B1"             10784.42          10891.32073                    1           0.20627509                    0           0.20779039          24.75119566
         "BPM.16R5.B1"        "BPM.17R5.B1"             10891.32          10944.77221                    1           0.14818229                    0           0.15009469          24.95898605
         "BPM.17R5.B1"        "BPM.18R5.B1"             10944.77           10998.2237                    1           0.14335742                    0           0.14211492          25.10908074
         "BPM.18R5.B1"        "BPM.19R5.B1"             10998.22          11051.67518                    1           0.11873606                    0           0.11856744          25.25119566
         "BPM.19R5.B1"        "BPM.20R5.B1"             11051.68          11105.12666                    1           0.08929836                    0           0.08922295           25.3697631
         "BPM.20R5.B1"        "BPM.22R5.B1"             11105.13          11212.02963                    1           0.28910848                    0           0.29220961          25.45898605
         "BPM.22R5.B1"        "BPM.23R5.B1"             11212.03          11265.48112                    1           0.11871796                    0           0.11856744          25.75119566
         "BPM.23R5.B1"        "BPM.24R5.B1"             11265.48           11318.9326                    1           0.08978803                    0           0.08922295           25.8697631
         "BPM.24R5.B1"        "BPM.25R5.B1"             11318.93          11372.38408                    1           0.15102329                    0           0.15009469          25.95898605
         "BPM.25R5.B1"        "BPM.26R5.B1"             11372.38          11425.83557                    1           0.14065422                    0           0.14211492          26.10908074
         "BPM.26R5.B1"        "BPM.27R5.B1"             11425.84          11479.28705                    1           0.11978386                    0           0.11856744          26.25119566
         "BPM.27R5.B1"        "BPM.28R5.B1"             11479.29          11532.73854                    1            0.0904605                    0           0.08922295           26.3697631
         "BPM.28R5.B1"        "BPM.29R5.B1"             11532.74          11586.19002                    1           0.15279752                    0           0.15009469          26.45898605
         "BPM.29R5.B1"        "BPM.30R5.B1"             11586.19           11639.6415                    1           0.14017102                    0           0.14211492          26.60908074
         "BPM.30R5.B1"        "BPM.31R5.B1"             11639.64          11693.09299                    1           0.11698356                    0           0.11856744          26.75119566
         "BPM.31R5.B1"        "BPM.32R5.B1"             11693.09          11746.54447                    1           0.09301753                    0           0.08922295           26.8697631
         "BPM.32R5.B1"        "BPM.33R5.B1"             11746.54          11799.99596                    1           0.15444599                    0           0.15009469          26.95898605
         "BPM.33R5.B1"        "BPM.34R5.B1"                11800          11853.44744                    1           0.13683212                    0           0.14211492          27.10908074
         "BPM.34R5.B1"        "BPM.33L6.B1"             11853.45          11906.89893                    1           0.11587496                    0           0.11856744          27.25119566
         "BPM.33L6.B1"        "BPM.32L6.B1"              11906.9          11960.35041                    1           0.09102226                    0           0.08922295           27.3697631
         "BPM.32L6.B1"        "BPM.30L6.B1"             11960.35          12067.25338                    1           0.29381888                    0           0.29220961          27.45898605
         "BPM.30L6.B1"        "BPM.29L6.B1"             12067.25          12120.70486                    1           0.11531536                    0           0.11856744          27.75119566
         "BPM.29L6.B1"        "BPM.28L6.B1"              12120.7          12174.15635                    1           0.09372893                    0           0.08922295           27.8697631
         "BPM.28L6.B1"        "BPM.27L6.B1"             12174.16          12227.60783                    1           0.15711369                    0           0.15009469          27.95898605
         "BPM.27L6.B1"        "BPM.26L6.B1"             12227.61          12281.05931                    1           0.13522892                    0           0.14211492          28.10908074
         "BPM.26L6.B1"        "BPM.25L6.B1"             12281.06           12334.5108                    1           0.11434506                    0           0.11856744          28.25119566
         "BPM.25L6.B1"        "BPM.24L6.B1"             12334.51          12387.96228                    1            0.0919215                    0           0.08922295           28.3697631
         "BPM.24L6.B1"        "BPM.22L6.B1"             12387.96          12494.86525                    1           0.29305894                    0           0.29220961          28.45898605
         "BPM.22L6.B1"        "BPM.21L6.B1"             12494.87          12548.31673                    1           0.11714126                    0           0.11856744          28.75119566
         "BPM.21L6.B1"        "BPM.20L6.B1"             12548.32          12601.76822                    1           0.08972543                    0           0.08922295           28.8697631
         "BPM.20L6.B1"        "BPM.19L6.B1"             12601.77           12655.2197                    1           0.14935739                    0           0.15009469          28.95898605
         "BPM.19L6.B1"        "BPM.18L6.B1"             12655.22          12708.67119                    1           0.14022092                    0           0.14211492          29.10908074
         "BPM.18L6.B1"        "BPM.17L6.B1"             12708.67          12762.12267                    1           0.11813206                    0           0.11856744          29.25119566
         "BPM.17L6.B1"        "BPM.16L6.B1"             12762.12          12815.57415                    1           0.08888861                    0           0.08922295           29.3697631
         "BPM.16L6.B1"        "BPM.15L6.B1"             12815.57          12869.02564                    1           0.14715591                    0           0.15009469          29.45898605
         "BPM.15L6.B1"        "BPM.14L6.B1"             12869.03          12922.47712                    1           0.14237822                    0           0.14211492          29.60908074
         "BPM.14L6.B1"        "BPM.13L6.B1"             12922.48          12975.92861                    1           0.11949096                    0           0.11856744          29.75119566
         "BPM.13L6.B1"        "BPM.12L6.B1"             12975.93          13029.38009                    1           0.09025907                    0           0.08931321           29.8697631
         "BPM.12L6.B1"        "BPM.11L6.B1"             13029.38          13082.83158                    1           0.14729366                    0           0.14648214          29.95907631
         "BPM.11L6.B1"        "BPM.10L6.B1"             13082.83          13134.67226                    1            0.1425653                    0           0.14377643          30.10555845
         "BPM.10L6.B1"         "BPM.9L6.B1"             13134.67          13173.73925                    1           0.10407972                    0           0.10529367          30.24933488
          "BPM.9L6.B1"         "BPM.8L6.B1"             13173.74          13214.20424                    1           0.09785744                    0           0.09467716          30.35462855
          "BPM.8L6.B1"       "BPMYB.4L6.B1"              13214.2          13347.69423                    1           0.29778055                    0           0.29702239          30.44930571
        "BPMYB.4L6.B1"      "BPMSX.B4L6.B1"             13347.69          13383.23473                    1           0.03342315                    0           0.03414274           30.7463281
       "BPMSX.B4L6.B1"      "BPMSX.A4L6.B1"             13383.23          13383.81973                    1   0.0003109599999996                    0   0.0006166199999988          30.78047084
       "BPMSX.A4L6.B1"       "BPMSA.4R6.B1"             13383.82          13568.51473                    1           0.17790805                    0           0.17610391          30.78108746
        "BPMSA.4R6.B1"      "BPMSI.A4R6.B1"             13568.51          13661.77473                    1           0.04139537                    0           0.03839132          30.95719137
       "BPMSI.A4R6.B1"      "BPMSI.B4R6.B1"             13661.77          13662.40973                    1    0.001162650000002                    0   0.0001872400000025          30.99558269
       "BPMSI.B4R6.B1"       "BPMYA.4R6.B1"             13662.41          13691.29423                    1    0.006790809999996                    0    0.007780189999998          30.99576993
        "BPMYA.4R6.B1"       "BPMYB.5R6.B1"             13691.29          13727.69423                    1           0.02086061                    0           0.01868789          31.00355012
        "BPMYB.5R6.B1"         "BPM.9R6.B1"             13727.69          13862.48821                    1           0.47942569                    0           0.48076848          31.02223801
          "BPM.9R6.B1"        "BPM.10R6.B1"             13862.49           13902.9532                    1            0.1509408                    0           0.15173705          31.50300649
         "BPM.10R6.B1"        "BPM.11R6.B1"             13902.95          13954.79389                    1           0.10825248                    0           0.10556293          31.65474354
         "BPM.11R6.B1"        "BPM.12R6.B1"             13954.79          14009.52037                    1           0.13816969                    0           0.13805196          31.76030647
         "BPM.12R6.B1"        "BPM.13R6.B1"             14009.52          14062.97186                    1           0.11811659                    0           0.11633561          31.89835843
         "BPM.13R6.B1"        "BPM.14R6.B1"             14062.97          14116.42334                    1           0.13596328                    0           0.13692574          32.01469404
         "BPM.14R6.B1"        "BPM.15R6.B1"             14116.42          14169.87483                    1           0.10965928                    0           0.11717464          32.15161978
         "BPM.15R6.B1"        "BPM.16R6.B1"             14169.87          14223.32631                    1           0.14241963                    0           0.14085105          32.26879442
         "BPM.16R6.B1"        "BPM.17R6.B1"             14223.33          14276.77779                    1           0.11470569                    0           0.11397081          32.40964547
         "BPM.17R6.B1"        "BPM.18R6.B1"             14276.78          14330.22928                    1           0.13735965                    0           0.13713072          32.52361628
         "BPM.18R6.B1"        "BPM.19R6.B1"             14330.23          14383.68076                    1           0.11398896                    0           0.11736355            32.660747
         "BPM.19R6.B1"        "BPM.20R6.B1"             14383.68          14437.13225                    1           0.13903161                    0            0.1406228          32.77811055
         "BPM.20R6.B1"        "BPM.21R6.B1"             14437.13          14490.58373                    1           0.11486328                    0           0.11380158          32.91873335
         "BPM.21R6.B1"        "BPM.22R6.B1"             14490.58          14544.03522                    1           0.13712142                    0           0.13736199          33.03253493
         "BPM.22R6.B1"        "BPM.23R6.B1"             14544.04           14597.4867                    1           0.11328891                    0           0.11450939          33.16989692
         "BPM.23R6.B1"        "BPM.24R6.B1"             14597.49          14650.93818                    1           0.13727967                    0           0.13736594          33.28440631
         "BPM.24R6.B1"        "BPM.25R6.B1"             14650.94          14704.38967                    1           0.11638115                    0           0.11449547          33.42177225
         "BPM.25R6.B1"        "BPM.26R6.B1"             14704.39          14757.84115                    1           0.13866522                    0            0.1373632          33.53626772
         "BPM.26R6.B1"        "BPM.27R6.B1"             14757.84          14811.29264                    1           0.11402465                    0           0.11450945          33.67363092
         "BPM.27R6.B1"        "BPM.28R6.B1"             14811.29          14864.74412                    1           0.13550733                    0           0.13736556          33.78814037
         "BPM.28R6.B1"        "BPM.29R6.B1"             14864.74           14918.1956                    1           0.11431608                    0           0.11449542          33.92550593
         "BPM.29R6.B1"        "BPM.30R6.B1"              14918.2          14971.64709                    1           0.13966067                    0           0.13736359          34.04000135
         "BPM.30R6.B1"        "BPM.31R6.B1"             14971.65          15025.09857                    1           0.11432497                    0           0.11450948          34.17736494
         "BPM.31R6.B1"        "BPM.32R6.B1"              15025.1          15078.55006                    1            0.1366714                    0           0.13736519          34.29187442
         "BPM.32R6.B1"        "BPM.33R6.B1"             15078.55          15132.00154                    1           0.11535985                    0           0.11449538          34.42923961
         "BPM.33R6.B1"        "BPM.34R6.B1"                15132          15185.45302                    1           0.13838815                    0           0.13736397          34.54373499
         "BPM.34R6.B1"        "BPM.33L7.B1"             15185.45          15238.90451                    1           0.11465399                    0           0.11450951          34.68109896
         "BPM.33L7.B1"        "BPM.32L7.B1"              15238.9          15292.35599                    1           0.13597931                    0            0.1373648          34.79560847
         "BPM.32L7.B1"        "BPM.31L7.B1"             15292.36          15345.80748                    1           0.11612722                    0           0.11449537          34.93297327
         "BPM.31L7.B1"        "BPM.30L7.B1"             15345.81          15399.25896                    1           0.13764208                    0           0.13736435          35.04746864
         "BPM.30L7.B1"        "BPM.29L7.B1"             15399.26          15452.71045                    1           0.11370093                    0           0.11450952          35.18483299
         "BPM.29L7.B1"        "BPM.28L7.B1"             15452.71          15506.16193                    1           0.13865477                    0           0.13736442          35.29934251
         "BPM.28L7.B1"        "BPM.27L7.B1"             15506.16          15559.61341                    1           0.11499682                    0           0.11449536          35.43670693
         "BPM.27L7.B1"        "BPM.26L7.B1"             15559.61           15613.0649                    1           0.13844213                    0           0.13736473          35.55120229
         "BPM.26L7.B1"        "BPM.25L7.B1"             15613.06          15666.51638                    1           0.11369304                    0           0.11450952          35.68856702
         "BPM.25L7.B1"        "BPM.24L7.B1"             15666.52          15719.96787                    1           0.13514927                    0           0.13736403          35.80307654
         "BPM.24L7.B1"        "BPM.23L7.B1"             15719.97          15773.41935                    1           0.11621147                    0           0.11449539          35.94044057
         "BPM.23L7.B1"        "BPM.22L7.B1"             15773.42          15826.87083                    1           0.14056461                    0           0.13736511          36.05493596
         "BPM.22L7.B1"        "BPM.21L7.B1"             15826.87          15880.32232                    1           0.11286575                    0           0.11450949          36.19230107
         "BPM.21L7.B1"        "BPM.20L7.B1"             15880.32           15933.7738                    1           0.13553792                    0           0.13652118          36.30681056
         "BPM.20L7.B1"        "BPM.19L7.B1"             15933.77          15987.22529                    1           0.11686095                    0           0.11683083          36.44333174
         "BPM.19L7.B1"        "BPM.18L7.B1"             15987.23          16040.67677                    1           0.14179867                    0           0.14129137          36.56016257
         "BPM.18L7.B1"        "BPM.17L7.B1"             16040.68          16094.12825                    1           0.11302225                    0            0.1142768          36.70145394
         "BPM.17L7.B1"        "BPM.16L7.B1"             16094.13          16147.57974                    1           0.13345103                    0           0.13668592          36.81573074
         "BPM.16L7.B1"        "BPM.15L7.B1"             16147.58          16201.03122                    1           0.11829869                    0           0.11706367          36.95241666
         "BPM.15L7.B1"        "BPM.13L7.B1"             16201.03          16307.93419                    1            0.2537692                    0           0.25516488          37.06948033
         "BPM.13L7.B1"        "BPM.12L7.B1"             16307.93          16361.38567                    1           0.13748717                    0           0.13969277          37.32464521
         "BPM.12L7.B1"        "BPM.11L7.B1"             16361.39          16414.83716                    1           0.12336778                    0           0.11973549          37.46433798
         "BPM.11L7.B1"        "BPM.10L7.B1"             16414.84          16467.61985                    1           0.14490831                    0            0.1437889          37.58407347
         "BPM.10L7.B1"         "BPM.9L7.B1"             16467.62          16506.68684                    1           0.09158171                    0           0.09366306          37.72786237
          "BPM.9L7.B1"         "BPM.8L7.B1"             16506.69          16547.15183                    1           0.19380827                    0           0.19273174          37.82152543
          "BPM.8L7.B1"         "BPM.7L7.B1"             16547.15          16586.21782                    1           0.08090299                    0           0.08255541          38.01425717
          "BPM.7L7.B1"         "BPM.6L7.B1"             16586.22          16621.03582                    1           0.04940916                    0           0.04669171          38.09681258
          "BPM.6L7.B1"       "BPMWC.6L7.B1"             16621.04          16633.13832                    1    0.007422569999998                    0    0.007559619999995          38.14350429
        "BPMWC.6L7.B1"       "BPMWE.5L7.B1"             16633.14          16710.19232                    1           0.18626881                    0           0.18913342          38.15106391
        "BPMWE.5L7.B1"        "BPMW.5L7.B1"             16710.19          16733.39732                    1           0.09920646                    0           0.09709012          38.34019733
         "BPMW.5L7.B1"       "BPMWE.4L7.B1"              16733.4          16768.48232                    1         0.0409160297                    0           0.04178765          38.43728745
        "BPMWE.4L7.B1"        "BPMW.4L7.B1"             16768.48          16796.58732                    1         0.0120897003                    0     0.01327501999999           38.4790751
         "BPMW.4L7.B1"        "BPMW.4R7.B1"             16796.59          16912.63432                    1           0.18838403                    0           0.18804364          38.49235012
         "BPMW.4R7.B1"       "BPMWE.4R7.B1"             16912.63          16940.73932                    1           0.07493275                    0           0.07617492          38.68039376
        "BPMWE.4R7.B1"        "BPMW.5R7.B1"             16940.74          16975.82432                    1           0.03252862                    0           0.03296642          38.75656868
         "BPMW.5R7.B1"       "BPMWE.5R7.B1"             16975.82          16999.02932                    1            0.0100354                    0           0.01041608           38.7895351
        "BPMWE.5R7.B1"        "BPMR.6R7.B1"             16999.03          17078.24482                    1           0.09297506                    0           0.09267708          38.79995118
         "BPMR.6R7.B1"       "BPM_A.7R7.B1"             17078.24          17116.28082                    1           0.08074924                    0           0.08009326          38.89262826
        "BPM_A.7R7.B1"         "BPM.9R7.B1"             17116.28           17194.4138                    1           0.31734325                    0           0.31779289          38.97272152
          "BPM.9R7.B1"        "BPM.10R7.B1"             17194.41          17234.87878                    1           0.09948773                    0            0.0996404          39.29051441
         "BPM.10R7.B1"        "BPM.11R7.B1"             17234.88          17287.66147                    1           0.12500027                    0             0.126891          39.39015481
         "BPM.11R7.B1"        "BPM.12R7.B1"             17287.66          17342.38796                    1           0.12263625                    0           0.12035956          39.51704581
         "BPM.12R7.B1"        "BPM.13R7.B1"             17342.39          17395.83944                    1           0.14460958                    0           0.14358995          39.63740537
         "BPM.13R7.B1"        "BPM.14R7.B1"             17395.84          17449.29093                    1           0.11522548                    0           0.11500935          39.78099532
         "BPM.14R7.B1"        "BPM.15R7.B1"             17449.29          17502.74241                    1           0.13521396                    0           0.13628537          39.89600467
         "BPM.15R7.B1"        "BPM.16R7.B1"             17502.74          17556.19389                    1           0.11569908                    0            0.1163302          40.03229004
         "BPM.16R7.B1"        "BPM.17R7.B1"             17556.19          17609.64538                    1           0.13964597                    0           0.14157338          40.14862024
         "BPM.17R7.B1"        "BPM.18R7.B1"             17609.65          17663.09686                    1           0.11465034                    0           0.11474944          40.29019362
         "BPM.18R7.B1"        "BPM.19R7.B1"              17663.1          17716.54835                    1           0.13787699                    0           0.13638705          40.40494306
         "BPM.19R7.B1"        "BPM.20R7.B1"             17716.55          17769.99983                    1            0.1151976                    0           0.11659066          40.54133011
         "BPM.20R7.B1"        "BPM.21R7.B1"                17770          17823.45131                    1           0.14095991                    0           0.14144854          40.65792077
         "BPM.21R7.B1"        "BPM.22R7.B1"             17823.45           17876.9028                    1           0.11476792                    0            0.1145016          40.79936931
         "BPM.22R7.B1"        "BPM.23R7.B1"              17876.9          17930.35428                    1           0.13734502                    0           0.13736411          40.91387091
         "BPM.23R7.B1"        "BPM.24R7.B1"             17930.35          17983.80577                    1           0.11408884                    0           0.11450342          41.05123502
         "BPM.24R7.B1"        "BPM.25R7.B1"             17983.81          18037.25725                    1           0.13887824                    0           0.13736483          41.16573844
         "BPM.25R7.B1"        "BPM.26R7.B1"             18037.26          18090.70874                    1           0.11559239                    0           0.11450145          41.30310327
         "BPM.26R7.B1"        "BPM.27R7.B1"             18090.71          18144.16022                    1           0.13748719                    0           0.13736416          41.41760472
         "BPM.27R7.B1"        "BPM.28R7.B1"             18144.16           18197.6117                    1           0.11338452                    0           0.11450344          41.55496888
         "BPM.28R7.B1"        "BPM.29R7.B1"             18197.61          18251.06319                    1           0.13720484                    0           0.13736477          41.66947232
         "BPM.29R7.B1"        "BPM.30R7.B1"             18251.06          18304.51467                    1           0.11524705                    0           0.11450144          41.80683709
         "BPM.30R7.B1"        "BPM.31R7.B1"             18304.51          18357.96616                    1           0.13948412                    0           0.13736421          41.92133853
         "BPM.31R7.B1"        "BPM.32R7.B1"             18357.97          18411.41764                    1           0.11382064                    0           0.11450345          42.05870274
         "BPM.32R7.B1"        "BPM.33R7.B1"             18411.42          18464.86912                    1           0.13592492                    0           0.13736473          42.17320619
         "BPM.33R7.B1"        "BPM.33L8.B1"             18464.87          18571.77209                    1           0.25514315                    0           0.25186569          42.31057092
         "BPM.33L8.B1"        "BPM.32L8.B1"             18571.77          18625.22358                    1           0.11350302                    0           0.11450346          42.56243661
         "BPM.32L8.B1"        "BPM.31L8.B1"             18625.22          18678.67506                    1           0.13792195                    0           0.13736467          42.67694007
         "BPM.31L8.B1"        "BPM.30L8.B1"             18678.68          18732.12654                    1           0.11506021                    0           0.11450142          42.81430474
         "BPM.30L8.B1"        "BPM.29L8.B1"             18732.13          18785.57803                    1           0.13734281                    0           0.13736432          42.92880616
         "BPM.29L8.B1"        "BPM.28L8.B1"             18785.58          18839.02951                    1            0.1147163                    0           0.11450347          43.06617048
         "BPM.28L8.B1"        "BPM.27L8.B1"             18839.03            18892.481                    1           0.13792125                    0           0.13736461          43.18067395
         "BPM.27L8.B1"        "BPM.26L8.B1"             18892.48          18945.93248                    1           0.11621489                    0           0.11450141          43.31803856
         "BPM.26L8.B1"        "BPM.25L8.B1"             18945.93          18999.38397                    1           0.13611698                    0           0.13736438          43.43253997
         "BPM.25L8.B1"        "BPM.24L8.B1"             18999.38          19052.83545                    1           0.11470369                    0           0.11450347          43.56990435
         "BPM.24L8.B1"        "BPM.23L8.B1"             19052.84          19106.28693                    1           0.14072363                    0           0.13736456          43.68440782
         "BPM.23L8.B1"        "BPM.22L8.B1"             19106.29          19159.73842                    1           0.11236607                    0           0.11450141          43.82177238
         "BPM.22L8.B1"        "BPM.21L8.B1"             19159.74           19213.1899                    1           0.13672236                    0           0.13736443          43.93627379
         "BPM.21L8.B1"        "BPM.20L8.B1"             19213.19          19266.64139                    1           0.11582472                    0           0.11752346          44.07363822
         "BPM.20L8.B1"        "BPM.19L8.B1"             19266.64          19320.09287                    1           0.14214564                    0           0.14037152          44.19116168
         "BPM.19L8.B1"        "BPM.18L8.B1"             19320.09          19373.54435                    1           0.11270067                    0           0.11366197           44.3315332
         "BPM.18L8.B1"        "BPM.17L8.B1"             19373.54          19426.99584                    1           0.13500171                    0           0.13761495          44.44519517
         "BPM.17L8.B1"        "BPM.16L8.B1"                19427          19480.44732                    1           0.12007437                    0           0.11766405          44.58281012
         "BPM.16L8.B1"        "BPM.15L8.B1"             19480.45          19533.89881                    1           0.14139144                    0           0.14010362          44.70047417
         "BPM.15L8.B1"        "BPM.14L8.B1"              19533.9          19587.35029                    1           0.11138989                    0           0.11354185          44.84057779
         "BPM.14L8.B1"        "BPM.13L8.B1"             19587.35          19640.80177                    1           0.13559397                    0           0.13788399          44.95411964
         "BPM.13L8.B1"        "BPM.12L8.B1"              19640.8          19694.25326                    1           0.11847199                    0           0.11416119          45.09200363
         "BPM.12L8.B1"        "BPM.11L8.B1"             19694.25          19747.70474                    1           0.14031277                    0            0.1374179          45.20616482
         "BPM.11L8.B1"        "BPM.10L8.B1"              19747.7          19799.54543                    1           0.10621523                    0           0.10979647          45.34358272
         "BPM.10L8.B1"         "BPM.9L8.B1"             19799.55          19838.61242                    1           0.11331889                    0           0.11716928          45.45337919
          "BPM.9L8.B1"         "BPM.8L8.B1"             19838.61          19879.07741                    1           0.14718319                    0           0.14589041          45.57054847
          "BPM.8L8.B1"         "BPM.7L8.B1"             19879.08           19918.1454                    1           0.17868992                    0           0.17629827          45.71643888
          "BPM.7L8.B1"        "BPMR.6L8.B1"             19918.15           19950.6144                    1           0.11804985                    0           0.12671766          45.89273715
         "BPMR.6L8.B1"         "BPM.5L8.B1"             19950.61           20011.0334                    1           0.23743625                    0           0.22862348          46.01945481
          "BPM.5L8.B1"       "BPMYB.4L8.B1"             20011.03           20031.8004                    1           0.01916737                    0           0.01877627          46.24807829
        "BPMYB.4L8.B1"       "BPMWB.4L8.B1"              20031.8           20056.1919                    1           0.02238114                    0           0.02275117          46.26685456
        "BPMWB.4L8.B1"       "BPMSX.4L8.B1"             20056.19           20106.4249                    1           0.02205813                    0           0.02233488          46.28960573
        "BPMSX.4L8.B1"        "BPMS.2L8.B1"             20106.42           20144.3364                    1           0.01392442                    0           0.01547118          46.31194061
         "BPMS.2L8.B1"       "BPMSW.1L8.B1"             20144.34           20154.2704                    1    0.007781159999995                    0    0.007939780000001          46.32741179
        "BPMSW.1L8.B1"       "BPMSW.1R8.B1"             20154.27           20197.4604                    1           0.45777868                    0           0.45606324          46.33535157
        "BPMSW.1R8.B1"        "BPMS.2R8.B1"             20197.46           20207.3944                    1    0.006352850000002                    0           0.00615037          46.79141481
         "BPMS.2R8.B1"       "BPMSX.4R8.B1"             20207.39           20245.3059                    1     0.01484510999999                    0           0.01355279          46.79756518
        "BPMSX.4R8.B1"       "BPMWB.4R8.B1"             20245.31           20295.4629                    1           0.02320485                    0           0.02596746          46.81111797
        "BPMWB.4R8.B1"       "BPMYB.4R8.B1"             20295.46           20319.9304                    1           0.01401416                    0     0.01437002999999          46.83708543
        "BPMYB.4R8.B1"       "BPMYB.5R8.B1"             20319.93           20340.5074                    1     0.02709985000001                    0     0.02858439000001          46.85145546
        "BPMYB.5R8.B1"         "BPM.6R8.B1"             20340.51           20424.6154                    1           0.37451588                    0            0.3693633          46.88003985
          "BPM.6R8.B1"       "BPM_A.7R8.B1"             20424.62           20446.8554                    1           0.03356081                    0           0.03474145          47.24940315
        "BPM_A.7R8.B1"         "BPM.8R8.B1"             20446.86          20488.29241                    1           0.08939376                    0           0.09613643           47.2841446
          "BPM.8R8.B1"         "BPM.9R8.B1"             20488.29          20527.35742                    1           0.17453491                    0           0.17848558          47.38028103
          "BPM.9R8.B1"        "BPM.10R8.B1"             20527.36          20567.82043                    1           0.18437385                    0           0.17528559          47.55876661
         "BPM.10R8.B1"        "BPM.11R8.B1"             20567.82          20619.65914                    1            0.0771167                    0           0.07819373           47.7340522
         "BPM.11R8.B1"        "BPM.12R8.B1"             20619.66          20674.38266                    1           0.13940107                    0           0.14525096          47.81224593
         "BPM.12R8.B1"        "BPM.13R8.B1"             20674.38          20727.83117                    1           0.14907235                    0           0.14671389          47.95749689
         "BPM.13R8.B1"        "BPM.14R8.B1"             20727.83          20781.27969                    1           0.12219745                    0           0.11876187          48.10421078
         "BPM.14R8.B1"        "BPM.16R8.B1"             20781.28          20888.17672                    1           0.24543132                    0           0.23892746          48.22297265
         "BPM.16R8.B1"        "BPM.17R8.B1"             20888.18          20941.62524                    1           0.14210274                    0           0.14227616          48.46190011
         "BPM.17R8.B1"        "BPM.18R8.B1"             20941.63          20995.07375                    1           0.11822203                    0           0.11876917          48.60417627
         "BPM.18R8.B1"        "BPM.19R8.B1"             20995.07          21048.52227                    1            0.0918054                    0           0.08913407          48.72294544
         "BPM.19R8.B1"        "BPM.20R8.B1"             21048.52          21101.97079                    1           0.15807953                    0           0.14977306          48.81207951
         "BPM.20R8.B1"        "BPM.21R8.B1"             21101.97           21155.4193                    1           0.13770565                    0           0.14228506          48.96185257
         "BPM.21R8.B1"        "BPM.23R8.B1"             21155.42          21262.31633                    1           0.20714191                    0           0.20791054          49.10413763
         "BPM.23R8.B1"        "BPM.24R8.B1"             21262.32          21315.76485                    1          0.152420837                    0           0.14975687          49.31204817
         "BPM.24R8.B1"        "BPM.25R8.B1"             21315.76          21369.21337                    1          0.139458953                    0           0.14229394          49.46180504
         "BPM.25R8.B1"        "BPM.26R8.B1"             21369.21          21422.66188                    1           0.11741399                    0           0.11879203          49.60409898
         "BPM.26R8.B1"        "BPM.27R8.B1"             21422.66           21476.1104                    1     0.09017680999999                    0           0.08912582          49.72289101
         "BPM.27R8.B1"        "BPM.28R8.B1"             21476.11          21529.55891                    1           0.15152851                    0           0.14974067          49.81201683
         "BPM.28R8.B1"        "BPM.29R8.B1"             21529.56          21583.00743                    1           0.14059311                    0           0.14230283           49.9617575
         "BPM.29R8.B1"        "BPM.30R8.B1"             21583.01          21636.45594                    1           0.11653346                    0           0.11880347          50.10406033
         "BPM.30R8.B1"        "BPM.31R8.B1"             21636.46          21689.90446                    1             0.089739                    0           0.08912169           50.2228638
         "BPM.31R8.B1"        "BPM.32R8.B1"              21689.9          21743.35298                    1          0.149343875                    0           0.14972448          50.31198549
         "BPM.32R8.B1"        "BPM.33R8.B1"             21743.35          21796.80149                    1          0.141290085                    0           0.14231171          50.46170997
         "BPM.33R8.B1"        "BPM.34R8.B1"              21796.8          21850.25001                    1           0.11891193                    0           0.11881491          50.60402168
         "BPM.34R8.B1"        "BPM.33L1.B1"             21850.25          21903.69852                    1            0.0886873                    0           0.08911757          50.72283659
         "BPM.33L1.B1"        "BPM.32L1.B1"              21903.7          21957.14704                    1            0.1492728                    0           0.14970828          50.81195416
         "BPM.32L1.B1"        "BPM.31L1.B1"             21957.15          22010.59556                    1           0.14051158                    0           0.14232058          50.96166244
         "BPM.31L1.B1"        "BPM.30L1.B1"              22010.6          22064.04407                    1            0.1201394                    0           0.11882635          51.10398302
         "BPM.30L1.B1"        "BPM.29L1.B1"             22064.04          22117.49259                    1            0.0902055                    0           0.08911346          51.22280937
         "BPM.29L1.B1"        "BPM.28L1.B1"             22117.49           22170.9411                    1           0.14977034                    0           0.14969208          51.31192283
         "BPM.28L1.B1"        "BPM.27L1.B1"             22170.94          22224.38962                    1           0.14138737                    0           0.14232944          51.46161491
         "BPM.27L1.B1"        "BPM.26L1.B1"             22224.39          22277.83814                    1           0.11723089                    0           0.11883781          51.60394435
         "BPM.26L1.B1"        "BPM.25L1.B1"             22277.84          22331.28665                    1           0.08968379                    0           0.08910935          51.72278216
         "BPM.25L1.B1"        "BPM.24L1.B1"             22331.29          22384.73517                    1           0.14797768                    0           0.14967588          51.81189151
         "BPM.24L1.B1"        "BPM.23L1.B1"             22384.74          22438.18368                    1           0.14162507                    0            0.1423383          51.96156739
         "BPM.23L1.B1"        "BPM.22L1.B1"             22438.18           22491.6322                    1           0.11832434                    0           0.11884925          52.10390569
         "BPM.22L1.B1"        "BPM.21L1.B1"             22491.63          22545.08071                    1           0.08947589                    0     0.08910523999999          52.22275494
         "BPM.21L1.B1"        "BPM.20L1.B1"             22545.08          22598.52923                    1           0.14975087                    0           0.14965969          52.31186018
         "BPM.20L1.B1"        "BPM.19L1.B1"             22598.53          22651.97775                    1           0.14199431                    0           0.14234714          52.46151987
         "BPM.19L1.B1"        "BPM.18L1.B1"             22651.98          22705.42626                    1           0.11840211                    0           0.11886071          52.60386701
         "BPM.18L1.B1"        "BPM.17L1.B1"             22705.43          22758.87478                    1            0.0903297                    0           0.08910115          52.72272772
         "BPM.17L1.B1"        "BPM.16L1.B1"             22758.87          22812.32329                    1           0.15057946                    0           0.14964347          52.81182887
         "BPM.16L1.B1"        "BPM.15L1.B1"             22812.32          22865.77181                    1           0.14186005                    0           0.14235599          52.96147234
         "BPM.15L1.B1"        "BPM.14L1.B1"             22865.77          22919.22033                    1           0.11805558                    0           0.11887217          53.10382833
         "BPM.14L1.B1"        "BPM.13L1.B1"             22919.22          22972.66884                    1     0.08862389000001                    0           0.08909705           53.2227005
         "BPM.13L1.B1"        "BPM.12L1.B1"             22972.67          23026.11736                    1           0.15273418                    0           0.15205148          53.31179755
         "BPM.12L1.B1"        "BPM.11L1.B1"             23026.12          23079.56587                    1           0.13465674                    0            0.1353194          53.46384903
         "BPM.11L1.B1"        "BPM.10L1.B1"             23079.57          23132.34658                    1           0.11565335                    0           0.11671961          53.59916843
         "BPM.10L1.B1"         "BPM.9L1.B1"             23132.35           23171.4116                    1           0.08294474                    0     0.08297795999999          53.71588804
          "BPM.9L1.B1"         "BPM.8L1.B1"             23171.41          23211.87461                    1           0.20262285                    0           0.20617172            53.798866
          "BPM.8L1.B1"        "BPMR.7L1.B1"             23211.87          23250.94062                    1           0.11945666                    0           0.11745316          54.00503772
         "BPMR.7L1.B1"         "BPM.6L1.B1"             23250.94          23294.12462                    1           0.08953143                    0           0.09296539          54.12249088
          "BPM.6L1.B1"        "BPMR.5L1.B1"             23294.12          23326.02462                    1            0.0106207                    0           0.01110388          54.21545627
         "BPMR.5L1.B1"       "BPMYA.4L1.B1"             23326.02          23347.14262                    1    0.004006110000006                    0    0.003296390000003          54.22656015
        "BPMYA.4L1.B1"       "BPMWB.4L1.B1"             23347.14          23368.27512                    1    0.002074450000001                    0    0.002104490000001          54.22985654
        "BPMWB.4L1.B1"       "BPMSY.4L1.B1"             23368.28          23461.05512                    1    0.005609209999998                    0           0.00612855          54.23196103
        "BPMSY.4L1.B1"        "BPMS.2L1.B1"             23461.06          23487.84062                    1    0.001142559999999                    0   0.0008566099999996          54.23808958
         "BPMS.2L1.B1"       "BPMSW.1L1.B1"             23487.84          23497.79062                    1   0.0008444400000065                    0   0.0006259900000032          54.23894619
        "BPMSW.1L1.B1"       "BPMSW.1R1.B1"             23497.79          23540.93362                    1            0.4956341                    0           0.49557355          54.23957218
        "BPMSW.1R1.B1"        "BPMS.2R1.B1"             23540.93          23550.89862                    1   0.0008105499999975                    0   0.0008062699999982          54.73514573
         "BPMS.2R1.B1"       "BPMSY.4R1.B1"              23550.9          23577.68412                    1    0.001189050000007                    0    0.001242770000005            54.735952
        "BPMSY.4R1.B1"       "BPMWB.4R1.B1"             23577.68          23670.46412                    1    0.005487949999991                    0    0.005399319999995          54.73719477
        "BPMWB.4R1.B1"       "BPMYA.4R1.B1"             23670.46          23691.59662                    1    0.004813860000005                    0    0.004685569999999          54.74259409
        "BPMYA.4R1.B1"         "BPM.5R1.B1"              23691.6          23719.00462                    1           0.01535544                    0           0.01552969          54.74727966
          "BPM.5R1.B1"        "BPMR.6R1.B1"                23719          23750.90462                    1           0.31158646                    0           0.30543513          54.76280935
         "BPMR.6R1.B1"       "BPMSX.7R1.B1"              23750.9          23757.12012                    1           0.07580978                    0           0.08055255          55.06824448
        "BPMSX.7R1.B1"       "BPM_A.7R1.B1"             23757.12          23778.62862                    1           0.05495515                    0           0.05508167          55.14879703
        "BPM_A.7R1.B1"         "BPM.8R1.B1"             23778.63          23820.06761                    1     0.08430926000001                    0     0.08834485000001           55.2038787
          "BPM.8R1.B1"         "BPM.9R1.B1"             23820.07           23859.1346                    1           0.21932829                    0           0.22661676          55.29222355
          "BPM.9R1.B1"        "BPM.10R1.B1"             23859.13          23899.59958                    1           0.11583015                    0           0.10695779          55.51884031
         "BPM.10R1.B1"        "BPM.11R1.B1"              23899.6          23952.38227                    1           0.10757289                    0           0.10176361           55.6257981
         "BPM.11R1.B1"        "BPM.12R1.B1"             23952.38          24007.10876                    1           0.08490556                    0           0.08812308          55.72756171
         "BPM.12R1.B1"        "BPM.13R1.B1"             24007.11          24060.56024                    1           0.13423938                    0           0.14709566          55.81568479
         "BPM.13R1.B1"        "BPM.14R1.B1"             24060.56          24114.01173                    1           0.14969158                    0           0.14211829          55.96278045
         "BPM.14R1.B1"        "BPM.15R1.B1"             24114.01          24167.46321                    1           0.12815652                    0           0.11856384          56.10489874
         "BPM.15R1.B1"        "BPM.16R1.B1"             24167.46          24220.91469                    1     0.08755188999999                    0     0.08922004999999          56.22346258
         "BPM.16R1.B1"        "BPM.17R1.B1"             24220.91          24274.36618                    1           0.14128663                    0           0.15009766          56.31268263
         "BPM.17R1.B1"        "BPM.18R1.B1"             24274.37          24327.81766                    1           0.14751286                    0           0.14211845          56.46278029
         "BPM.18R1.B1"        "BPM.19R1.B1"             24327.82          24381.26915                    1           0.12411652                    0           0.11856384          56.60489874
         "BPM.19R1.B1"        "BPM.20R1.B1"             24381.27          24434.72063                    1     0.08843588999999                    0     0.08922004999999          56.72346258
         "BPM.20R1.B1"        "BPM.21R1.B1"             24434.72          24488.17211                    1           0.14374322                    0           0.15009766          56.81268263
         "BPM.21R1.B1"        "BPM.22R1.B1"             24488.17           24541.6236                    1           0.14581677                    0           0.14211845          56.96278029
         "BPM.22R1.B1"        "BPM.23R1.B1"             24541.62          24595.07508                    1           0.12443642                    0           0.11856384          57.10489874
         "BPM.23R1.B1"        "BPM.24R1.B1"             24595.08          24648.52657                    1     0.08786049999999                    0     0.08922004999999          57.22346258
         "BPM.24R1.B1"        "BPM.25R1.B1"             24648.53          24701.97805                    1           0.14634716                    0           0.15009766          57.31268263
         "BPM.25R1.B1"        "BPM.26R1.B1"             24701.98          24755.42954                    1           0.14454532                    0           0.14211845          57.46278029
         "BPM.26R1.B1"        "BPM.27R1.B1"             24755.43          24808.88102                    1           0.12111482                    0           0.11856384          57.60489874
         "BPM.27R1.B1"        "BPM.28R1.B1"             24808.88           24862.3325                    1     0.08838369999999                    0     0.08922004999999          57.72346258
         "BPM.28R1.B1"        "BPM.29R1.B1"             24862.33          24915.78399                    1           0.14972241                    0           0.15009766          57.81268263
         "BPM.29R1.B1"        "BPM.30R1.B1"             24915.78          24969.23547                    1           0.14227267                    0           0.14211845          57.96278029
         "BPM.30R1.B1"        "BPM.31R1.B1"             24969.24          25022.68696                    1           0.11919742                    0           0.11856384          58.10489874
         "BPM.31R1.B1"        "BPM.32R1.B1"             25022.69          25076.13844                    1     0.08898749999999                    0     0.08922004999999          58.22346258
         "BPM.32R1.B1"        "BPM.33R1.B1"             25076.14          25129.58992                    1           0.15169351                    0           0.15009766          58.31268263
         "BPM.33R1.B1"        "BPM.34R1.B1"             25129.59          25183.04141                    1           0.14098427                    0           0.14211845          58.46278029
         "BPM.34R1.B1"        "BPM.33L2.B1"             25183.04          25236.49289                    1           0.11866592                    0           0.11856384          58.60489874
         "BPM.33L2.B1"        "BPM.32L2.B1"             25236.49          25289.94438                    1     0.08937119999999                    0     0.08922004999999          58.72346258
         "BPM.32L2.B1"        "BPM.31L2.B1"             25289.94          25343.39586                    1           0.14972901                    0           0.15009766          58.81268263
         "BPM.31L2.B1"        "BPM.30L2.B1"              25343.4          25396.84734                    1           0.14190867                    0           0.14211845          58.96278029
         "BPM.30L2.B1"        "BPM.29L2.B1"             25396.85          25450.29883                    1           0.11801352                    0           0.11856384          59.10489874
         "BPM.29L2.B1"        "BPM.28L2.B1"              25450.3          25503.75031                    1     0.08997289999999                    0     0.08922004999999          59.22346258
         "BPM.28L2.B1"        "BPM.27L2.B1"             25503.75           25557.2018                    1           0.14849053                    0           0.15009766          59.31268263
         "BPM.27L2.B1"        "BPM.26L2.B1"              25557.2          25610.65328                    1           0.14143635                    0           0.14211845          59.46278029
         "BPM.26L2.B1"        "BPM.25L2.B1"             25610.65          25664.10477                    1           0.11936631                    0           0.11856383          59.60489874
         "BPM.25L2.B1"        "BPM.24L2.B1"              25664.1          25717.55625                    1     0.09142820999999                    0           0.08922006          59.72346257
         "BPM.24L2.B1"        "BPM.23L2.B1"             25717.56          25771.00773                    1           0.15085351                    0           0.15009766          59.81268263
         "BPM.23L2.B1"        "BPM.22L2.B1"             25771.01          25824.45922                    1           0.13995377                    0           0.14211845          59.96278029
         "BPM.22L2.B1"        "BPM.21L2.B1"             25824.46           25877.9107                    1           0.11893581                    0           0.11856383          60.10489874
         "BPM.21L2.B1"        "BPM.20L2.B1"             25877.91          25931.36219                    1     0.09091890999999                    0           0.08922006          60.22346257
         "BPM.20L2.B1"        "BPM.19L2.B1"             25931.36          25984.81367                    1          0.154853048                    0           0.15009766          60.31268263
         "BPM.19L2.B1"        "BPM.18L2.B1"             25984.81          26038.26515                    1          0.137672332                    0           0.14211845          60.46278029
         "BPM.18L2.B1"        "BPM.17L2.B1"             26038.27          26091.71664                    1           0.11757571                    0           0.11856383          60.60489874
         "BPM.17L2.B1"        "BPM.16L2.B1"             26091.72          26145.16812                    1     0.09214770999999                    0           0.08922006          60.72346257
         "BPM.16L2.B1"        "BPM.15L2.B1"             26145.17          26198.61961                    1           0.15332661                    0           0.15009766          60.81268263
         "BPM.15L2.B1"        "BPM.14L2.B1"             26198.62          26252.07109                    1           0.13849317                    0           0.14211845          60.96278029
         "BPM.14L2.B1"        "BPM.13L2.B1"             26252.07          26305.52257                    1           0.11762321                    0           0.11856383          61.10489874
         "BPM.13L2.B1"        "BPM.12L2.B1"             26305.52          26358.97406                    1           0.09791553                    0           0.09518799          61.22346257
         "BPM.12L2.B1"        "BPM.11L2.B1"             26358.97          26412.42554                    1           0.16547346                    0           0.16151736          61.31865056
         "BPM.11L2.B1"        "BPM.10L2.B1"             26412.43          26464.26623                    1           0.12753786                    0           0.13344744          61.48016792
         "BPM.10L2.B1"         "BPM.9L2.B1"             26464.27          26503.33322                    1           0.10066695                    0           0.10317339          61.61361536
          "BPM.9L2.B1"         "BPM.8L2.B1"             26503.33          26543.79821                    1           0.12093419                    0           0.11913506          61.71678875
          "BPM.8L2.B1"         "BPM.7L2.B1"              26543.8           26582.8662                    1           0.22858716                    0           0.22837013          61.83592381
          "BPM.7L2.B1"        "BPMR.6L2.B1"             26582.87           26614.9722                    1             0.093335                    0           0.09526305          62.06429394
         "BPMR.6L2.B1"       "BPMYB.5L2.B1"             26614.97               28.288                    1        0.87645897745                    0      0.1809628879854          62.15955699